NMRdata/fe/3t4.csv

X,CH3,CH4,Start,Increment,
Sequence,Volt,Volt,-1.080000e-03,2.000000e-05
0,4.08e-02,-1.60e-01,
1,2.80e-02,8.00e-02,
2,3.84e-02,-1.60e-01,
3,2.72e-02,8.00e-02,
4,3.84e-02,-1.60e-01,
5,2.64e-02,8.00e-02,
6,2.72e-02,8.00e-02,
7,3.76e-02,-1.60e-01,
8,2.64e-02,-1.60e-01,
9,3.84e-02,8.00e-02,
10,4.00e-02,8.00e-02,
11,2.64e-02,-1.60e-01,
12,2.64e-02,-1.60e-01,
13,3.84e-02,8.00e-02,
14,2.72e-02,8.00e-02,
15,3.84e-02,-1.60e-01,
16,3.92e-02,-1.60e-01,
17,2.80e-02,8.00e-02,
18,2.72e-02,8.00e-02,
19,3.68e-02,-1.60e-01,
20,2.64e-02,8.00e-02,
21,3.84e-02,-2.40e-01,
22,2.88e-02,8.00e-02,
23,3.76e-02,-1.60e-01,
24,2.80e-02,8.00e-02,
25,3.68e-02,-1.60e-01,
26,3.76e-02,8.00e-02,
27,2.72e-02,-1.60e-01,
28,3.68e-02,8.00e-02,
29,2.80e-02,-1.60e-01,
30,2.72e-02,8.00e-02,
31,3.68e-02,-1.60e-01,
32,2.80e-02,8.00e-02,
33,3.68e-02,-1.60e-01,
34,2.80e-02,-1.60e-01,
35,3.68e-02,8.00e-02,
36,2.80e-02,8.00e-02,
37,3.84e-02,-1.60e-01,
38,3.68e-02,8.00e-02,
39,2.80e-02,-1.60e-01,
40,3.68e-02,8.00e-02,
41,2.72e-02,-1.60e-01,
42,2.80e-02,8.00e-02,
43,3.84e-02,-1.60e-01,
44,2.80e-02,8.00e-02,
45,3.68e-02,-1.60e-01,
46,2.72e-02,8.00e-02,
47,3.84e-02,-1.60e-01,
48,3.84e-02,8.00e-02,
49,2.56e-02,-1.60e-01,
50,3.84e-02,8.00e-02,
51,2.56e-02,-2.40e-01,
52,3.76e-02,8.00e-02,
53,2.72e-02,-1.60e-01,
54,3.84e-02,5.84e+00,
55,2.88e-02,4.72e+00,
56,3.84e-02,5.20e+00,
57,2.88e-02,4.72e+00,
58,3.36e-02,4.72e+00,
59,3.12e-02,5.20e+00,
60,3.28e-02,4.40e+00,
61,8.00e-04,5.36e+00,
62,2.40e-03,5.20e+00,
63,-2.40e-03,4.72e+00,
64,-2.40e-03,4.72e+00,
65,-8.00e-04,5.20e+00,
66,-2.40e-03,4.72e+00,
67,-8.00e-04,5.20e+00,
68,-8.00e-04,5.20e+00,
69,-3.44e-02,4.64e+00,
70,-4.40e-02,4.72e+00,
71,-2.80e-02,5.20e+00,
72,-3.12e-02,5.20e+00,
73,1.04e-02,4.72e+00,
74,7.20e-03,5.12e+00,
75,5.04e-02,4.72e+00,
76,4.72e-02,4.72e+00,
77,7.60e-02,5.12e+00,
78,8.08e-02,5.12e+00,
79,6.96e-02,4.72e+00,
80,7.76e-02,4.80e+00,
81,4.80e-02,5.12e+00,
82,5.28e-02,5.12e+00,
83,2.08e-02,4.72e+00,
84,2.64e-02,5.12e+00,
85,1.60e-03,4.72e+00,
86,0.00e+00,4.80e+00,
87,1.28e-02,5.12e+00,
88,5.60e-03,5.12e+00,
89,2.56e-02,4.72e+00,
90,1.76e-02,5.12e+00,
91,4.08e-02,4.72e+00,
92,3.52e-02,4.72e+00,
93,5.04e-02,5.04e+00,
94,5.20e-02,4.72e+00,
95,4.08e-02,5.12e+00,
96,4.96e-02,5.12e+00,
97,3.44e-02,4.72e+00,
98,4.32e-02,4.72e+00,
99,2.48e-02,5.12e+00,
100,3.36e-02,5.12e+00,
101,1.92e-02,4.72e+00,
102,2.96e-02,5.12e+00,
103,1.92e-02,4.72e+00,
104,2.00e-02,5.12e+00,
105,3.44e-02,4.72e+00,
106,2.48e-02,4.72e+00,
107,3.92e-02,5.12e+00,
108,3.20e-02,5.12e+00,
109,4.08e-02,4.72e+00,
110,4.00e-02,5.12e+00,
111,3.20e-02,4.72e+00,
112,3.84e-02,4.72e+00,
113,2.80e-02,5.12e+00,
114,3.60e-02,5.12e+00,
115,2.64e-02,4.72e+00,
116,3.60e-02,5.12e+00,
117,2.48e-02,4.72e+00,
118,3.68e-02,5.12e+00,
119,2.48e-02,4.72e+00,
120,3.76e-02,5.12e+00,
121,2.56e-02,4.72e+00,
122,2.88e-02,5.12e+00,
123,3.84e-02,4.72e+00,
124,4.00e-02,5.12e+00,
125,2.72e-02,4.72e+00,
126,3.92e-02,5.12e+00,
127,2.72e-02,4.72e+00,
128,3.68e-02,4.72e+00,
129,2.56e-02,5.12e+00,
130,3.68e-02,5.12e+00,
131,2.48e-02,4.72e+00,
132,2.72e-02,5.12e+00,
133,3.76e-02,4.72e+00,
134,2.80e-02,5.12e+00,
135,3.92e-02,4.72e+00,
136,2.88e-02,4.72e+00,
137,3.92e-02,5.12e+00,
138,2.80e-02,4.72e+00,
139,3.92e-02,5.12e+00,
140,3.68e-02,4.72e+00,
141,2.72e-02,5.12e+00,
142,3.60e-02,5.12e+00,
143,2.56e-02,4.72e+00,
144,2.64e-02,5.12e+00,
145,3.68e-02,4.72e+00,
146,2.56e-02,5.12e+00,
147,3.84e-02,4.72e+00,
148,2.72e-02,5.12e+00,
149,3.68e-02,4.72e+00,
150,2.72e-02,5.12e+00,
151,3.76e-02,4.72e+00,
152,2.88e-02,5.12e+00,
153,3.84e-02,4.72e+00,
154,2.88e-02,5.12e+00,
155,3.76e-02,4.72e+00,
156,3.60e-02,5.12e+00,
157,2.80e-02,4.72e+00,
158,3.76e-02,4.72e+00,
159,2.72e-02,5.12e+00,
160,3.76e-02,5.12e+00,
161,2.72e-02,4.72e+00,
162,3.68e-02,5.12e+00,
163,2.64e-02,4.72e+00,
164,2.64e-02,4.72e+00,
165,3.76e-02,5.12e+00,
166,3.76e-02,5.12e+00,
167,2.88e-02,4.72e+00,
168,2.72e-02,5.12e+00,
169,3.76e-02,4.72e+00,
170,3.76e-02,5.12e+00,
171,2.80e-02,4.72e+00,
172,4.00e-02,5.12e+00,
173,2.72e-02,4.72e+00,
174,2.64e-02,5.12e+00,
175,3.76e-02,4.72e+00,
176,2.48e-02,4.80e+00,
177,3.76e-02,5.12e+00,
178,3.76e-02,5.12e+00,
179,2.72e-02,4.72e+00,
180,2.64e-02,5.12e+00,
181,3.84e-02,4.64e+00,
182,3.60e-02,5.12e+00,
183,2.72e-02,4.72e+00,
184,2.80e-02,4.72e+00,
185,3.84e-02,5.12e+00,
186,3.68e-02,5.12e+00,
187,2.72e-02,4.72e+00,
188,2.80e-02,4.64e+00,
189,3.60e-02,5.12e+00,
190,3.68e-02,5.12e+00,
191,2.80e-02,4.72e+00,
192,3.84e-02,5.12e+00,
193,2.80e-02,4.72e+00,
194,3.76e-02,5.12e+00,
195,2.80e-02,4.72e+00,
196,3.68e-02,5.12e+00,
197,2.88e-02,4.72e+00,
198,3.68e-02,5.12e+00,
199,2.72e-02,4.72e+00,
200,2.72e-02,4.72e+00,
201,3.84e-02,5.12e+00,
202,2.72e-02,5.12e+00,
203,3.68e-02,4.64e+00,
204,2.80e-02,5.12e+00,
205,3.68e-02,4.72e+00,
206,3.84e-02,5.12e+00,
207,2.72e-02,4.64e+00,
208,2.80e-02,5.12e+00,
209,3.84e-02,4.72e+00,
210,2.72e-02,5.12e+00,
211,3.84e-02,4.64e+00,
212,2.88e-02,5.12e+00,
213,3.84e-02,4.72e+00,
214,3.76e-02,5.12e+00,
215,2.64e-02,4.72e+00,
216,2.72e-02,5.12e+00,
217,3.84e-02,4.72e+00,
218,3.68e-02,5.12e+00,
219,2.88e-02,4.64e+00,
220,3.68e-02,4.72e+00,
221,2.64e-02,5.12e+00,
222,2.64e-02,5.12e+00,
223,3.68e-02,4.64e+00,
224,3.76e-02,5.12e+00,
225,2.88e-02,4.64e+00,
226,3.84e-02,5.12e+00,
227,2.64e-02,4.64e+00,
228,2.80e-02,5.12e+00,
229,3.84e-02,4.64e+00,
230,3.60e-02,5.12e+00,
231,2.72e-02,4.64e+00,
232,3.68e-02,5.12e+00,
233,2.80e-02,4.72e+00,
234,3.76e-02,5.12e+00,
235,2.80e-02,4.64e+00,
236,3.68e-02,5.12e+00,
237,2.64e-02,4.64e+00,
238,2.72e-02,5.12e+00,
239,3.68e-02,4.64e+00,
240,2.72e-02,5.12e+00,
241,3.68e-02,4.72e+00,
242,2.80e-02,5.12e+00,
243,3.84e-02,4.64e+00,
244,3.76e-02,5.12e+00,
245,2.80e-02,4.64e+00,
246,3.84e-02,4.64e+00,
247,2.72e-02,5.12e+00,
248,2.88e-02,5.12e+00,
249,3.76e-02,4.64e+00,
250,2.80e-02,4.64e+00,
251,3.84e-02,5.12e+00,
252,3.68e-02,5.12e+00,
253,2.40e-02,4.64e+00,
254,3.76e-02,5.12e+00,
255,2.72e-02,4.64e+00,
256,3.68e-02,5.12e+00,
257,2.80e-02,4.64e+00,
258,3.44e-02,4.64e+00,
259,3.28e-02,5.12e+00,
260,3.44e-02,4.32e+00,
261,-1.60e-03,5.36e+00,
262,1.60e-03,5.28e+00,
263,-8.80e-03,4.40e+00,
264,-6.40e-03,4.64e+00,
265,-8.80e-03,5.12e+00,
266,-6.40e-03,4.64e+00,
267,-8.00e-03,5.12e+00,
268,-8.00e-03,4.64e+00,
269,-6.40e-03,5.12e+00,
270,-6.40e-03,5.12e+00,
271,-8.00e-03,4.56e+00,
272,-8.00e-03,4.64e+00,
273,2.64e-02,5.12e+00,
274,2.48e-02,4.64e+00,
275,5.28e-02,5.12e+00,
276,5.44e-02,4.96e+00,
277,4.24e-02,-1.44e+00,
278,4.96e-02,-1.60e-01,
279,2.88e-02,0.00e+00,
280,3.44e-02,-1.60e-01,
281,1.68e-02,0.00e+00,
282,2.56e-02,-2.40e-01,
283,1.12e-02,0.00e+00,
284,1.44e-02,-1.60e-01,
285,2.88e-02,0.00e+00,
286,2.16e-02,-1.60e-01,
287,3.84e-02,-8.00e-02,
288,3.28e-02,-1.60e-01,
289,4.48e-02,0.00e+00,
290,3.76e-02,-1.60e-01,
291,4.80e-02,0.00e+00,
292,4.64e-02,-2.40e-01,
293,3.36e-02,0.00e+00,
294,4.40e-02,-1.60e-01,
295,2.72e-02,-8.00e-02,
296,3.44e-02,-1.60e-01,
297,2.32e-02,0.00e+00,
298,3.12e-02,-1.60e-01,
299,2.08e-02,0.00e+00,
300,2.40e-02,-1.60e-01,
301,3.52e-02,0.00e+00,
302,2.72e-02,0.00e+00,
303,3.84e-02,-2.40e-01,
304,3.12e-02,0.00e+00,
305,4.08e-02,-2.40e-01,
306,4.32e-02,-1.60e-01,
307,3.20e-02,0.00e+00,
308,4.08e-02,-1.60e-01,
309,2.96e-02,0.00e+00,
310,3.76e-02,-1.60e-01,
311,2.80e-02,0.00e+00,
312,3.52e-02,0.00e+00,
313,2.64e-02,-2.40e-01,
314,2.64e-02,-1.60e-01,
315,3.52e-02,0.00e+00,
316,2.80e-02,-1.60e-01,
317,3.68e-02,0.00e+00,
318,2.88e-02,-1.60e-01,
319,3.84e-02,0.00e+00,
320,2.96e-02,-1.60e-01,
321,3.92e-02,0.00e+00,
322,2.96e-02,-1.60e-01,
323,3.92e-02,-1.60e-01,
324,3.76e-02,-2.40e-01,
325,2.80e-02,0.00e+00,
326,2.64e-02,-1.60e-01,
327,3.84e-02,-8.00e-02,
328,2.80e-02,-1.60e-01,
329,3.76e-02,0.00e+00,
330,2.80e-02,-1.60e-01,
331,3.92e-02,-1.60e-01,
332,4.00e-02,-1.60e-01,
333,2.80e-02,0.00e+00,
334,2.80e-02,-2.40e-01,
335,3.84e-02,-8.00e-02,
336,4.00e-02,-1.60e-01,
337,2.80e-02,0.00e+00,
338,3.84e-02,-1.60e-01,
339,2.64e-02,0.00e+00,
340,3.76e-02,-1.60e-01,
341,2.56e-02,0.00e+00,
342,3.76e-02,-1.60e-01,
343,2.64e-02,0.00e+00,
344,2.80e-02,0.00e+00,
345,3.92e-02,-2.40e-01,
346,3.84e-02,0.00e+00,
347,2.80e-02,-2.40e-01,
348,2.96e-02,-1.60e-01,
349,3.84e-02,0.00e+00,
350,3.92e-02,-1.60e-01,
351,2.96e-02,0.00e+00,
352,2.72e-02,-1.60e-01,
353,3.92e-02,0.00e+00,
354,3.76e-02,0.00e+00,
355,2.64e-02,-2.40e-01,
356,2.72e-02,-1.60e-01,
357,3.84e-02,0.00e+00,
358,2.80e-02,-1.60e-01,
359,3.68e-02,0.00e+00,
360,2.80e-02,-1.60e-01,
361,3.68e-02,0.00e+00,
362,2.72e-02,-1.60e-01,
363,4.00e-02,0.00e+00,
364,2.72e-02,-8.00e-02,
365,3.76e-02,-2.40e-01,
366,2.80e-02,-2.40e-01,
367,3.84e-02,0.00e+00,
368,2.80e-02,-8.00e-02,
369,3.84e-02,-1.60e-01,
370,2.72e-02,-1.60e-01,
371,3.76e-02,0.00e+00,
372,2.64e-02,-1.60e-01,
373,3.68e-02,-8.00e-02,
374,2.80e-02,-1.60e-01,
375,4.08e-02,0.00e+00,
376,3.76e-02,-1.60e-01,
377,2.80e-02,-2.40e-01,
378,2.88e-02,-1.60e-01,
379,3.92e-02,-8.00e-02,
380,3.76e-02,-1.60e-01,
381,2.88e-02,0.00e+00,
382,2.80e-02,-1.60e-01,
383,3.84e-02,8.00e-02,
384,2.80e-02,-1.60e-01,
385,3.76e-02,0.00e+00,
386,3.84e-02,0.00e+00,
387,2.88e-02,-2.40e-01,
388,2.80e-02,-2.40e-01,
389,3.68e-02,0.00e+00,
390,3.68e-02,-1.60e-01,
391,2.80e-02,0.00e+00,
392,3.84e-02,-1.60e-01,
393,2.80e-02,0.00e+00,
394,2.64e-02,-1.60e-01,
395,3.84e-02,0.00e+00,
396,3.76e-02,0.00e+00,
397,2.96e-02,-2.40e-01,
398,3.68e-02,-1.60e-01,
399,2.88e-02,0.00e+00,
400,2.72e-02,-1.60e-01,
401,3.68e-02,0.00e+00,
402,2.72e-02,-1.60e-01,
403,3.84e-02,8.00e-02,
404,2.72e-02,-1.60e-01,
405,4.00e-02,8.00e-02,
406,2.72e-02,8.00e-02,
407,3.76e-02,-2.40e-01,
408,3.68e-02,-2.40e-01,
409,2.56e-02,0.00e+00,
410,2.72e-02,-1.60e-01,
411,3.92e-02,0.00e+00,
412,2.72e-02,-1.60e-01,
413,3.76e-02,0.00e+00,
414,2.72e-02,-1.60e-01,
415,3.84e-02,0.00e+00,
416,4.00e-02,-1.60e-01,
417,2.88e-02,0.00e+00,
418,2.80e-02,-2.40e-01,
419,3.84e-02,8.00e-02,
420,2.80e-02,-1.60e-01,
421,3.84e-02,8.00e-02,
422,2.72e-02,-1.60e-01,
423,3.84e-02,8.00e-02,
424,2.80e-02,-1.60e-01,
425,3.76e-02,8.00e-02,
426,2.80e-02,-1.60e-01,
427,3.84e-02,8.00e-02,
428,2.80e-02,8.00e-02,
429,3.68e-02,-2.40e-01,
430,3.84e-02,-1.60e-01,
431,2.72e-02,8.00e-02,
432,2.72e-02,-1.60e-01,
433,3.68e-02,8.00e-02,
434,3.76e-02,-1.60e-01,
435,2.80e-02,8.00e-02,
436,3.92e-02,-1.60e-01,
437,2.72e-02,8.00e-02,
438,3.68e-02,8.00e-02,
439,2.88e-02,-2.40e-01,
440,2.80e-02,-1.60e-01,
441,3.84e-02,8.00e-02,
442,2.72e-02,-1.60e-01,
443,3.84e-02,8.00e-02,
444,3.92e-02,-1.60e-01,
445,2.48e-02,8.00e-02,
446,3.84e-02,-1.60e-01,
447,2.40e-02,8.00e-02,
448,2.72e-02,8.00e-02,
449,3.76e-02,-1.60e-01,
450,3.76e-02,-1.60e-01,
451,2.64e-02,8.00e-02,
452,3.76e-02,8.00e-02,
453,2.72e-02,-1.60e-01,
454,3.68e-02,-1.60e-01,
455,2.80e-02,8.00e-02,
456,3.76e-02,-1.60e-01,
457,2.72e-02,8.00e-02,
458,3.84e-02,-1.60e-01,
459,2.64e-02,8.00e-02,
460,3.68e-02,8.00e-02,
461,2.80e-02,-2.40e-01,
462,3.76e-02,-1.60e-01,
463,2.64e-02,8.00e-02,
464,3.60e-02,-1.60e-01,
465,2.64e-02,8.00e-02,
466,2.56e-02,-1.60e-01,
467,4.00e-02,8.00e-02,
468,2.56e-02,-1.60e-01,
469,3.76e-02,8.00e-02,
470,2.80e-02,8.00e-02,
471,3.76e-02,-2.40e-01,
472,2.80e-02,-1.60e-01,
473,3.76e-02,8.00e-02,
474,2.80e-02,-1.60e-01,
475,3.68e-02,8.00e-02,
476,2.80e-02,-1.60e-01,
477,3.60e-02,8.00e-02,
478,3.60e-02,8.00e-02,
479,2.80e-02,-1.60e-01,
480,2.64e-02,8.00e-02,
481,3.68e-02,-2.40e-01,
482,2.72e-02,8.00e-02,
483,3.68e-02,-2.40e-01,
484,4.00e-02,-1.60e-01,
485,2.80e-02,8.00e-02,
486,2.80e-02,-1.60e-01,
487,3.92e-02,8.00e-02,
488,3.84e-02,-1.60e-01,
489,2.72e-02,8.00e-02,
490,2.72e-02,-1.60e-01,
491,3.84e-02,8.00e-02,
492,2.80e-02,-1.60e-01,
493,3.76e-02,8.00e-02,
494,3.92e-02,8.00e-02,
495,2.80e-02,-1.60e-01,
496,4.00e-02,-1.60e-01,
497,2.64e-02,8.00e-02,
498,2.72e-02,-1.60e-01,
499,3.76e-02,8.00e-02,
500,3.84e-02,-1.60e-01,
501,2.64e-02,8.00e-02,
502,2.64e-02,8.00e-02,
503,4.00e-02,-1.60e-01,
504,3.84e-02,8.00e-02,
505,2.72e-02,-1.60e-01,
506,2.64e-02,8.00e-02,
507,3.76e-02,-1.60e-01,
508,3.68e-02,-1.60e-01,
509,2.88e-02,8.00e-02,
510,2.80e-02,-1.60e-01,
511,3.84e-02,8.00e-02,
512,2.88e-02,8.00e-02,
513,3.76e-02,-1.60e-01,
514,3.68e-02,8.00e-02,
515,2.88e-02,-1.60e-01,
516,3.84e-02,8.00e-02,
517,2.80e-02,-1.60e-01,
518,2.80e-02,8.00e-02,
519,3.76e-02,-1.60e-01,
520,3.76e-02,8.00e-02,
521,2.80e-02,-1.60e-01,
522,3.84e-02,-1.60e-01,
523,2.80e-02,8.00e-02,
524,2.64e-02,8.00e-02,
525,3.84e-02,-1.60e-01,
526,2.80e-02,-1.60e-01,
527,4.08e-02,8.00e-02,
528,3.92e-02,8.00e-02,
529,2.64e-02,-8.00e-02,
530,4.00e-02,-8.00e-02,
531,2.80e-02,8.00e-02,
532,3.84e-02,8.00e-02,
533,2.64e-02,-1.60e-01,
534,2.72e-02,8.00e-02,
535,3.84e-02,-1.60e-01,
536,2.72e-02,8.00e-02,
537,3.76e-02,-8.00e-02,
538,4.08e-02,-8.00e-02,
539,2.80e-02,8.00e-02,
540,3.76e-02,8.00e-02,
541,2.80e-02,-1.60e-01,
542,2.72e-02,8.00e-02,
543,3.92e-02,-1.60e-01,
544,2.88e-02,-8.00e-02,
545,3.68e-02,8.00e-02,
546,2.88e-02,8.00e-02,
547,3.92e-02,-1.60e-01,
548,3.76e-02,8.00e-02,
549,2.80e-02,-1.60e-01,
550,3.68e-02,-8.00e-02,
551,2.88e-02,8.00e-02,
552,2.88e-02,-8.00e-02,
553,3.76e-02,8.00e-02,
554,3.68e-02,-8.00e-02,
555,2.80e-02,8.00e-02,
556,2.72e-02,8.00e-02,
557,3.84e-02,-1.60e-01,
558,2.88e-02,8.00e-02,
559,3.76e-02,-1.60e-01,
560,3.76e-02,8.00e-02,
561,2.72e-02,-1.60e-01,
562,3.60e-02,-8.00e-02,
563,2.56e-02,8.00e-02,
564,2.80e-02,8.00e-02,
565,3.84e-02,-8.00e-02,
566,3.68e-02,-8.00e-02,
567,2.80e-02,8.00e-02,
568,2.88e-02,8.00e-02,
569,3.76e-02,-8.00e-02,
570,3.68e-02,8.00e-02,
571,2.64e-02,-1.60e-01,
572,2.72e-02,8.00e-02,
573,3.76e-02,-8.00e-02,
574,2.72e-02,-8.00e-02,
575,3.76e-02,8.00e-02,
576,2.80e-02,8.00e-02,
577,3.68e-02,-8.00e-02,
578,3.84e-02,-8.00e-02,
579,2.72e-02,8.00e-02,
580,2.80e-02,8.00e-02,
581,3.84e-02,-8.00e-02,
582,2.72e-02,8.00e-02,
583,3.92e-02,-1.60e-01,
584,2.80e-02,8.00e-02,
585,3.84e-02,-1.60e-01,
586,2.80e-02,8.00e-02,
587,3.68e-02,-1.60e-01,
588,3.92e-02,-1.60e-01,
589,2.80e-02,8.00e-02,
590,2.80e-02,-8.00e-02,
591,3.68e-02,8.00e-02,
592,3.76e-02,-8.00e-02,
593,2.80e-02,8.00e-02,
594,2.88e-02,-8.00e-02,
595,3.68e-02,8.00e-02,
596,3.76e-02,8.00e-02,
597,2.80e-02,-8.00e-02,
598,2.88e-02,-8.00e-02,
599,3.84e-02,8.00e-02,
600,3.68e-02,-8.00e-02,
601,2.64e-02,8.00e-02,
602,3.92e-02,-8.00e-02,
603,2.88e-02,8.00e-02,
604,2.88e-02,-8.00e-02,
605,3.92e-02,0.00e+00,
606,3.84e-02,-8.00e-02,
607,2.80e-02,8.00e-02,
608,3.76e-02,-1.60e-01,
609,2.80e-02,8.00e-02,
610,3.76e-02,8.00e-02,
611,2.32e-02,-1.60e-01,
612,2.80e-02,-1.60e-01,
613,3.76e-02,8.00e-02,
614,2.88e-02,8.00e-02,
615,3.84e-02,-8.00e-02,
616,3.84e-02,-1.60e-01,
617,2.72e-02,8.00e-02,
618,2.72e-02,8.00e-02,
619,3.92e-02,-8.00e-02,
620,2.88e-02,-8.00e-02,
621,3.76e-02,8.00e-02,
622,3.84e-02,-8.00e-02,
623,2.80e-02,8.00e-02,
624,2.88e-02,-8.00e-02,
625,3.84e-02,8.00e-02,
626,3.76e-02,8.00e-02,
627,2.80e-02,-1.60e-01,
628,3.92e-02,-8.00e-02,
629,2.72e-02,8.00e-02,
630,2.96e-02,-8.00e-02,
631,3.84e-02,8.00e-02,
632,2.80e-02,-8.00e-02,
633,3.68e-02,8.00e-02,
634,3.76e-02,8.00e-02,
635,2.88e-02,-1.60e-01,
636,3.76e-02,-8.00e-02,
637,2.88e-02,8.00e-02,
638,3.84e-02,8.00e-02,
639,2.88e-02,-1.60e-01,
640,2.80e-02,-8.00e-02,
641,3.84e-02,8.00e-02,
642,2.80e-02,8.00e-02,
643,3.76e-02,-1.60e-01,
644,3.84e-02,-8.00e-02,
645,2.72e-02,8.00e-02,
646,3.84e-02,8.00e-02,
647,2.80e-02,-1.60e-01,
648,3.76e-02,-1.60e-01,
649,2.80e-02,8.00e-02,
650,2.88e-02,8.00e-02,
651,3.92e-02,-8.00e-02,
652,2.80e-02,-8.00e-02,
653,3.84e-02,8.00e-02,
654,3.84e-02,8.00e-02,
655,2.80e-02,-8.00e-02,
656,2.88e-02,-1.60e-01,
657,3.84e-02,8.00e-02,
658,2.96e-02,8.00e-02,
659,3.84e-02,-8.00e-02,
660,4.00e-02,8.00e-02,
661,2.64e-02,-1.60e-01,
662,3.92e-02,8.00e-02,
663,2.64e-02,-1.60e-01,
664,3.84e-02,8.00e-02,
665,2.72e-02,-1.60e-01,
666,2.80e-02,8.00e-02,
667,3.76e-02,-8.00e-02,
668,2.80e-02,-8.00e-02,
669,3.92e-02,8.00e-02,
670,2.88e-02,8.00e-02,
671,3.68e-02,-8.00e-02,
672,3.76e-02,-8.00e-02,
673,2.80e-02,8.00e-02,
674,2.72e-02,-8.00e-02,
675,3.84e-02,8.00e-02,
676,2.80e-02,-8.00e-02,
677,3.84e-02,8.00e-02,
678,3.84e-02,-8.00e-02,
679,2.88e-02,8.00e-02,
680,3.84e-02,8.00e-02,
681,2.88e-02,-1.60e-01,
682,2.56e-02,-8.00e-02,
683,3.68e-02,8.00e-02,
684,2.80e-02,-1.60e-01,
685,3.76e-02,8.00e-02,
686,3.84e-02,-1.60e-01,
687,2.48e-02,8.00e-02,
688,3.68e-02,8.00e-02,
689,2.64e-02,-1.60e-01,
690,3.84e-02,-1.60e-01,
691,2.88e-02,8.00e-02,
692,2.96e-02,-8.00e-02,
693,3.92e-02,8.00e-02,
694,2.72e-02,8.00e-02,
695,4.00e-02,-1.60e-01,
696,3.76e-02,-8.00e-02,
697,2.80e-02,8.00e-02,
698,2.80e-02,-8.00e-02,
699,4.16e-02,8.00e-02,
700,3.76e-02,8.00e-02,
701,2.72e-02,-1.60e-01,
702,3.76e-02,-8.00e-02,
703,2.64e-02,8.00e-02,
704,2.88e-02,-8.00e-02,
705,3.76e-02,8.00e-02,
706,2.72e-02,-8.00e-02,
707,3.84e-02,8.00e-02,
708,2.64e-02,8.00e-02,
709,3.76e-02,-1.60e-01,
710,3.68e-02,-8.00e-02,
711,2.72e-02,8.00e-02,
712,3.68e-02,8.00e-02,
713,2.88e-02,-1.60e-01,
714,2.88e-02,8.00e-02,
715,3.76e-02,-8.00e-02,
716,2.88e-02,8.00e-02,
717,3.76e-02,-1.60e-01,
718,2.80e-02,-8.00e-02,
719,3.84e-02,8.00e-02,
720,4.08e-02,-8.00e-02,
721,2.56e-02,8.00e-02,
722,2.80e-02,-8.00e-02,
723,3.84e-02,8.00e-02,
724,2.80e-02,8.00e-02,
725,3.84e-02,-8.00e-02,
726,2.88e-02,-8.00e-02,
727,3.84e-02,8.00e-02,
728,2.88e-02,8.00e-02,
729,3.84e-02,-1.60e-01,
730,2.72e-02,8.00e-02,
731,3.84e-02,-1.60e-01,
732,3.76e-02,8.00e-02,
733,2.72e-02,-1.60e-01,
734,2.72e-02,-8.00e-02,
735,3.84e-02,8.00e-02,
736,3.84e-02,8.00e-02,
737,2.80e-02,-1.60e-01,
738,3.92e-02,8.00e-02,
739,2.72e-02,-1.60e-01,
740,3.92e-02,-8.00e-02,
741,2.88e-02,8.00e-02,
742,2.80e-02,8.00e-02,
743,3.76e-02,-1.60e-01,
744,2.96e-02,8.00e-02,
745,3.76e-02,-1.60e-01,
746,2.80e-02,8.00e-02,
747,3.68e-02,-1.60e-01,
748,2.88e-02,8.00e-02,
749,3.76e-02,-1.60e-01,
750,2.96e-02,-8.00e-02,
751,3.76e-02,8.00e-02,
752,3.84e-02,8.00e-02,
753,2.88e-02,-1.60e-01,
754,2.80e-02,-8.00e-02,
755,3.76e-02,8.00e-02,
756,2.72e-02,8.00e-02,
757,3.68e-02,-1.60e-01,
758,2.80e-02,-1.60e-01,
759,3.68e-02,8.00e-02,
760,3.84e-02,8.00e-02,
761,2.80e-02,-1.60e-01,
762,3.84e-02,-1.60e-01,
763,2.72e-02,8.00e-02,
764,2.88e-02,8.00e-02,
765,3.84e-02,-8.00e-02,
766,3.92e-02,8.00e-02,
767,2.64e-02,-1.60e-01,
768,2.88e-02,8.00e-02,
769,3.84e-02,-1.60e-01,
770,2.80e-02,8.00e-02,
771,3.84e-02,-1.60e-01,
772,3.84e-02,8.00e-02,
773,2.72e-02,-1.60e-01,
774,4.08e-02,8.00e-02,
775,2.80e-02,-1.60e-01,
776,2.80e-02,8.00e-02,
777,3.84e-02,-1.60e-01,
778,2.72e-02,8.00e-02,
779,3.76e-02,-1.60e-01,
780,3.76e-02,8.00e-02,
781,2.88e-02,-1.60e-01,
782,4.00e-02,-1.60e-01,
783,2.72e-02,8.00e-02,
784,3.84e-02,8.00e-02,
785,2.88e-02,-1.60e-01,
786,2.72e-02,8.00e-02,
787,3.76e-02,-1.60e-01,
788,3.76e-02,8.00e-02,
789,2.88e-02,-1.60e-01,
790,2.96e-02,8.00e-02,
791,3.92e-02,-1.60e-01,
792,3.76e-02,8.00e-02,
793,2.96e-02,-1.60e-01,
794,3.84e-02,-8.00e-02,
795,2.80e-02,8.00e-02,
796,3.84e-02,8.00e-02,
797,2.88e-02,-1.60e-01,
798,3.84e-02,8.00e-02,
799,2.88e-02,-1.60e-01,
800,2.88e-02,-8.00e-02,
801,3.76e-02,8.00e-02,
802,2.80e-02,8.00e-02,
803,3.92e-02,-1.60e-01,
804,3.92e-02,8.00e-02,
805,2.80e-02,-1.60e-01,
806,3.92e-02,-1.60e-01,
807,2.80e-02,8.00e-02,
808,2.72e-02,8.00e-02,
809,3.92e-02,-1.60e-01,
810,4.00e-02,8.00e-02,
811,2.80e-02,-1.60e-01,
812,3.76e-02,-1.60e-01,
813,2.88e-02,8.00e-02,
814,3.68e-02,8.00e-02,
815,2.72e-02,-1.60e-01,
816,2.96e-02,-8.00e-02,
817,4.00e-02,8.00e-02,
818,3.76e-02,8.00e-02,
819,2.72e-02,-8.00e-02,
820,2.80e-02,8.00e-02,
821,3.84e-02,-1.60e-01,
822,3.68e-02,8.00e-02,
823,2.80e-02,-1.60e-01,
824,3.68e-02,8.00e-02,
825,2.72e-02,-1.60e-01,
826,3.76e-02,8.00e-02,
827,2.64e-02,-1.60e-01,
828,3.84e-02,8.00e-02,
829,2.88e-02,-1.60e-01,
830,3.76e-02,8.00e-02,
831,2.72e-02,-1.60e-01,
832,2.88e-02,8.00e-02,
833,3.84e-02,-1.60e-01,
834,3.76e-02,-1.60e-01,
835,2.80e-02,8.00e-02,
836,3.68e-02,8.00e-02,
837,2.80e-02,-1.60e-01,
838,2.72e-02,8.00e-02,
839,3.84e-02,-1.60e-01,
840,2.56e-02,8.00e-02,
841,3.68e-02,-1.60e-01,
842,2.64e-02,8.00e-02,
843,3.84e-02,-1.60e-01,
844,2.72e-02,-1.60e-01,
845,3.76e-02,8.00e-02,
846,2.80e-02,8.00e-02,
847,3.84e-02,-1.60e-01,
848,3.84e-02,8.00e-02,
849,2.80e-02,-2.40e-01,
850,3.76e-02,8.00e-02,
851,2.64e-02,-1.60e-01,
852,3.84e-02,8.00e-02,
853,2.80e-02,-1.60e-01,
854,3.76e-02,8.00e-02,
855,2.72e-02,-1.60e-01,
