NMRdata/fe/7t2.csv

X,CH3,CH4,Start,Increment,
Sequence,Volt,Volt,-1.080000e-03,2.000000e-05
0,3.84e-02,8.00e-02,
1,2.72e-02,-1.60e-01,
2,2.96e-02,8.00e-02,
3,4.00e-02,-1.60e-01,
4,2.88e-02,-1.60e-01,
5,4.16e-02,8.00e-02,
6,2.96e-02,8.00e-02,
7,4.00e-02,-1.60e-01,
8,4.16e-02,-1.60e-01,
9,2.88e-02,8.00e-02,
10,2.88e-02,8.00e-02,
11,3.92e-02,-1.60e-01,
12,2.72e-02,-1.60e-01,
13,4.00e-02,8.00e-02,
14,3.84e-02,-1.60e-01,
15,2.72e-02,8.00e-02,
16,2.64e-02,-1.60e-01,
17,3.84e-02,8.00e-02,
18,2.88e-02,8.00e-02,
19,4.00e-02,-1.60e-01,
20,3.76e-02,-1.60e-01,
21,2.80e-02,8.00e-02,
22,3.76e-02,8.00e-02,
23,2.72e-02,-1.60e-01,
24,2.80e-02,8.00e-02,
25,3.92e-02,-1.60e-01,
26,3.84e-02,8.00e-02,
27,2.80e-02,-1.60e-01,
28,2.88e-02,-1.60e-01,
29,3.76e-02,8.00e-02,
30,2.64e-02,8.00e-02,
31,4.00e-02,-1.60e-01,
32,3.68e-02,-1.60e-01,
33,2.80e-02,8.00e-02,
34,2.88e-02,-1.60e-01,
35,3.84e-02,8.00e-02,
36,2.96e-02,8.00e-02,
37,3.84e-02,-1.60e-01,
38,2.96e-02,8.00e-02,
39,3.84e-02,-1.60e-01,
40,2.72e-02,-1.60e-01,
41,3.84e-02,8.00e-02,
42,2.88e-02,8.00e-02,
43,3.84e-02,-1.60e-01,
44,2.88e-02,8.00e-02,
45,4.08e-02,-1.60e-01,
46,2.64e-02,8.00e-02,
47,3.84e-02,-1.60e-01,
48,3.76e-02,8.00e-02,
49,2.80e-02,-1.60e-01,
50,3.84e-02,8.00e-02,
51,2.80e-02,-1.60e-01,
52,3.92e-02,8.00e-02,
53,2.72e-02,-1.60e-01,
54,2.72e-02,5.76e+00,
55,3.76e-02,4.72e+00,
56,3.84e-02,5.20e+00,
57,2.88e-02,4.72e+00,
58,3.36e-02,5.20e+00,
59,3.60e-02,4.72e+00,
60,3.52e-02,4.48e+00,
61,0.00e+00,5.44e+00,
62,4.00e-03,5.20e+00,
63,-8.00e-04,4.64e+00,
64,-8.00e-04,5.20e+00,
65,8.00e-04,4.72e+00,
66,-8.00e-04,5.20e+00,
67,8.00e-04,4.64e+00,
68,8.00e-04,5.20e+00,
69,-3.84e-02,4.72e+00,
70,-4.80e-02,4.64e+00,
71,-3.12e-02,5.20e+00,
72,-3.60e-02,5.20e+00,
73,1.36e-02,4.72e+00,
74,8.00e-03,5.12e+00,
75,6.00e-02,4.72e+00,
76,5.52e-02,4.72e+00,
77,8.88e-02,5.20e+00,
78,9.20e-02,5.12e+00,
79,8.08e-02,4.72e+00,
80,8.72e-02,5.12e+00,
81,5.04e-02,4.72e+00,
82,5.52e-02,5.12e+00,
83,1.36e-02,4.72e+00,
84,1.92e-02,5.12e+00,
85,-4.80e-03,4.72e+00,
86,3.20e-03,5.12e+00,
87,-7.20e-03,4.72e+00,
88,-3.20e-03,4.72e+00,
89,2.16e-02,5.12e+00,
90,1.60e-02,5.12e+00,
91,4.56e-02,4.72e+00,
92,3.92e-02,4.72e+00,
93,6.24e-02,5.12e+00,
94,6.32e-02,5.12e+00,
95,5.12e-02,4.72e+00,
96,5.84e-02,5.12e+00,
97,3.68e-02,4.72e+00,
98,4.48e-02,5.12e+00,
99,2.48e-02,4.72e+00,
100,3.04e-02,5.12e+00,
101,1.60e-02,4.72e+00,
102,1.28e-02,5.12e+00,
103,2.56e-02,4.72e+00,
104,1.68e-02,4.72e+00,
105,3.52e-02,5.12e+00,
106,2.64e-02,5.12e+00,
107,4.24e-02,4.72e+00,
108,3.44e-02,4.80e+00,
109,4.64e-02,5.12e+00,
110,4.56e-02,5.12e+00,
111,3.28e-02,4.72e+00,
112,4.48e-02,4.72e+00,
113,3.04e-02,5.12e+00,
114,3.68e-02,5.12e+00,
115,2.40e-02,4.72e+00,
116,3.44e-02,5.12e+00,
117,2.32e-02,4.72e+00,
118,2.56e-02,4.72e+00,
119,3.68e-02,5.12e+00,
120,2.88e-02,5.12e+00,
121,4.00e-02,4.72e+00,
122,3.12e-02,4.72e+00,
123,4.08e-02,5.12e+00,
124,4.00e-02,4.72e+00,
125,2.88e-02,5.20e+00,
126,3.84e-02,5.20e+00,
127,2.72e-02,4.64e+00,
128,3.44e-02,5.12e+00,
129,2.48e-02,4.72e+00,
130,3.68e-02,5.12e+00,
131,2.56e-02,4.72e+00,
132,2.64e-02,4.72e+00,
133,3.68e-02,5.12e+00,
134,2.96e-02,5.12e+00,
135,4.00e-02,4.72e+00,
136,3.28e-02,4.72e+00,
137,4.24e-02,5.12e+00,
138,4.32e-02,5.12e+00,
139,3.12e-02,4.80e+00,
140,3.84e-02,4.72e+00,
141,2.48e-02,5.12e+00,
142,3.52e-02,5.12e+00,
143,2.24e-02,4.72e+00,
144,2.40e-02,5.12e+00,
145,3.36e-02,4.72e+00,
146,2.40e-02,5.12e+00,
147,3.68e-02,4.72e+00,
148,2.80e-02,5.12e+00,
149,4.08e-02,4.72e+00,
150,4.08e-02,5.12e+00,
151,3.20e-02,4.72e+00,
152,3.20e-02,5.12e+00,
153,4.16e-02,4.72e+00,
154,4.16e-02,5.12e+00,
155,3.04e-02,4.64e+00,
156,3.76e-02,5.12e+00,
157,2.88e-02,4.64e+00,
158,3.36e-02,5.12e+00,
159,3.20e-02,4.64e+00,
160,3.36e-02,4.56e+00,
161,-1.60e-03,5.36e+00,
162,8.00e-04,5.44e+00,
163,-1.12e-02,4.64e+00,
164,-6.40e-03,4.64e+00,
165,-8.80e-03,5.12e+00,
166,-6.40e-03,5.20e+00,
167,-8.80e-03,4.64e+00,
168,-8.80e-03,4.72e+00,
169,-6.40e-03,5.12e+00,
170,-6.40e-03,4.64e+00,
171,-8.80e-03,5.20e+00,
172,-8.80e-03,5.12e+00,
173,1.04e-02,4.64e+00,
174,6.40e-03,5.12e+00,
175,3.20e-02,4.64e+00,
176,2.56e-02,4.80e+00,
177,4.24e-02,-1.12e+00,
178,3.44e-02,-1.60e-01,
179,4.64e-02,0.00e+00,
180,4.08e-02,0.00e+00,
181,5.04e-02,-1.60e-01,
182,4.80e-02,-1.60e-01,
183,3.60e-02,0.00e+00,
184,4.16e-02,0.00e+00,
185,2.88e-02,-2.40e-01,
186,3.52e-02,0.00e+00,
187,2.16e-02,-2.40e-01,
188,2.16e-02,0.00e+00,
189,3.04e-02,-1.60e-01,
190,2.16e-02,-1.60e-01,
191,3.20e-02,0.00e+00,
192,2.48e-02,-1.60e-01,
193,3.68e-02,0.00e+00,
194,2.88e-02,0.00e+00,
195,4.32e-02,-2.40e-01,
196,4.24e-02,-1.60e-01,
197,3.20e-02,8.00e-02,
198,4.24e-02,-1.60e-01,
199,3.12e-02,8.00e-02,
200,4.00e-02,-1.60e-01,
201,2.72e-02,8.00e-02,
202,3.60e-02,-1.60e-01,
203,2.48e-02,8.00e-02,
204,3.60e-02,8.00e-02,
205,2.40e-02,-1.60e-01,
206,2.40e-02,-2.40e-01,
207,3.68e-02,0.00e+00,
208,2.80e-02,-1.60e-01,
209,3.92e-02,8.00e-02,
210,3.04e-02,-1.60e-01,
211,4.16e-02,8.00e-02,
212,3.20e-02,-1.60e-01,
213,4.16e-02,8.00e-02,
214,3.92e-02,-1.60e-01,
215,2.64e-02,8.00e-02,
216,3.44e-02,-2.40e-01,
217,2.24e-02,8.00e-02,
218,2.16e-02,-1.60e-01,
219,3.20e-02,8.00e-02,
220,2.32e-02,-1.60e-01,
221,3.60e-02,8.00e-02,
222,2.96e-02,-1.60e-01,
223,4.48e-02,8.00e-02,
224,3.68e-02,-1.60e-01,
225,4.96e-02,8.00e-02,
226,5.04e-02,8.00e-02,
227,3.92e-02,-2.40e-01,
228,4.64e-02,-2.40e-01,
229,2.88e-02,8.00e-02,
230,3.68e-02,-1.60e-01,
231,1.76e-02,8.00e-02,
232,2.40e-02,-1.60e-01,
233,1.04e-02,0.00e+00,
234,1.04e-02,-1.60e-01,
235,2.16e-02,8.00e-02,
236,1.52e-02,8.00e-02,
237,3.60e-02,-2.40e-01,
238,2.96e-02,-2.40e-01,
239,5.36e-02,8.00e-02,
240,4.72e-02,-1.60e-01,
241,6.48e-02,8.00e-02,
242,6.56e-02,-1.60e-01,
243,5.28e-02,8.00e-02,
244,5.84e-02,-1.60e-01,
245,3.04e-02,8.00e-02,
246,3.68e-02,8.00e-02,
247,7.20e-03,-2.40e-01,
248,1.28e-02,8.00e-02,
249,-8.00e-03,-2.40e-01,
250,-8.80e-03,-1.60e-01,
251,4.80e-03,8.00e-02,
252,-4.00e-03,-1.60e-01,
253,2.64e-02,8.00e-02,
254,2.32e-02,-1.60e-01,
255,6.80e-02,8.00e-02,
256,6.24e-02,-1.60e-01,
257,1.00e-01,8.00e-02,
258,1.03e-01,-1.60e-01,
259,8.32e-02,8.00e-02,
260,8.56e-02,-1.60e-01,
261,2.32e-02,8.00e-02,
262,2.56e-02,-1.60e-01,
263,-3.60e-02,0.00e+00,
264,-3.12e-02,-1.60e-01,
265,-4.56e-02,0.00e+00,
266,-3.60e-02,-1.60e-01,
267,1.68e-02,8.00e-02,
268,1.36e-02,8.00e-02,
269,7.20e-02,-2.40e-01,
270,6.72e-02,-1.60e-01,
271,8.80e-02,8.00e-02,
272,8.72e-02,-1.60e-01,
273,6.40e-02,8.00e-02,
274,7.04e-02,0.00e+00,
275,3.68e-02,-1.60e-01,
276,4.16e-02,-1.60e-01,
277,1.28e-02,8.00e-02,
278,1.76e-02,0.00e+00,
279,-8.00e-04,-2.40e-01,
280,-1.60e-03,-1.60e-01,
281,9.60e-03,8.00e-02,
282,4.00e-03,-1.60e-01,
283,3.12e-02,8.00e-02,
284,2.40e-02,-1.60e-01,
285,4.88e-02,8.00e-02,
286,4.16e-02,-1.60e-01,
287,5.84e-02,8.00e-02,
288,5.92e-02,-1.60e-01,
289,4.88e-02,8.00e-02,
290,5.68e-02,8.00e-02,
291,3.60e-02,-2.40e-01,
292,4.24e-02,-1.60e-01,
293,2.32e-02,8.00e-02,
294,2.96e-02,-1.60e-01,
295,1.60e-02,8.00e-02,
296,1.44e-02,-1.60e-01,
297,2.56e-02,8.00e-02,
298,1.92e-02,-1.60e-01,
299,3.68e-02,8.00e-02,
300,2.88e-02,8.00e-02,
301,4.56e-02,-2.40e-01,
302,3.36e-02,-1.60e-01,
303,4.64e-02,8.00e-02,
304,4.64e-02,-1.60e-01,
305,3.52e-02,8.00e-02,
306,4.32e-02,-1.60e-01,
307,3.12e-02,8.00e-02,
308,3.84e-02,-1.60e-01,
309,2.72e-02,8.00e-02,
310,3.52e-02,8.00e-02,
311,2.40e-02,-2.40e-01,
312,3.60e-02,-1.60e-01,
313,2.48e-02,8.00e-02,
314,2.80e-02,-1.60e-01,
315,3.92e-02,8.00e-02,
316,3.04e-02,-1.60e-01,
317,4.24e-02,8.00e-02,
318,3.20e-02,-1.60e-01,
319,4.24e-02,8.00e-02,
320,4.00e-02,8.00e-02,
321,2.80e-02,-2.40e-01,
322,2.64e-02,8.00e-02,
323,4.00e-02,-2.40e-01,
324,2.72e-02,8.00e-02,
325,3.68e-02,-1.60e-01,
326,2.72e-02,-1.60e-01,
327,3.84e-02,8.00e-02,
328,2.96e-02,-1.60e-01,
329,4.00e-02,8.00e-02,
330,3.04e-02,-1.60e-01,
331,4.08e-02,8.00e-02,
332,3.12e-02,8.00e-02,
333,4.32e-02,-1.60e-01,
334,3.92e-02,-1.60e-01,
335,2.80e-02,8.00e-02,
336,3.92e-02,8.00e-02,
337,2.56e-02,-1.60e-01,
338,3.52e-02,-1.60e-01,
339,2.56e-02,8.00e-02,
340,2.64e-02,8.00e-02,
341,4.16e-02,-1.60e-01,
342,3.04e-02,8.00e-02,
343,4.00e-02,-2.40e-01,
344,3.20e-02,8.00e-02,
345,4.32e-02,-1.60e-01,
346,4.56e-02,-1.60e-01,
347,3.12e-02,8.00e-02,
348,2.80e-02,-1.60e-01,
349,4.16e-02,8.00e-02,
350,3.76e-02,-1.60e-01,
351,2.80e-02,8.00e-02,
352,2.80e-02,8.00e-02,
353,3.60e-02,-2.40e-01,
354,2.72e-02,-1.60e-01,
355,3.68e-02,8.00e-02,
356,2.88e-02,-1.60e-01,
357,3.84e-02,8.00e-02,
358,2.88e-02,8.00e-02,
359,3.92e-02,-1.60e-01,
360,3.04e-02,-1.60e-01,
361,4.08e-02,8.00e-02,
362,4.16e-02,-1.60e-01,
363,3.04e-02,8.00e-02,
364,3.84e-02,-1.60e-01,
365,2.88e-02,8.00e-02,
366,3.84e-02,-1.60e-01,
367,2.72e-02,8.00e-02,
368,3.84e-02,-1.60e-01,
369,2.72e-02,8.00e-02,
370,2.56e-02,-1.60e-01,
371,3.84e-02,8.00e-02,
372,2.88e-02,8.00e-02,
373,4.16e-02,-2.40e-01,
374,2.88e-02,-1.60e-01,
375,3.92e-02,8.00e-02,
376,4.08e-02,-1.60e-01,
377,2.96e-02,8.00e-02,
378,3.84e-02,8.00e-02,
379,2.96e-02,-1.60e-01,
380,3.92e-02,-1.60e-01,
381,2.72e-02,8.00e-02,
382,3.76e-02,-1.60e-01,
383,2.80e-02,8.00e-02,
384,3.92e-02,-1.60e-01,
385,2.80e-02,8.00e-02,
386,2.88e-02,-1.60e-01,
387,3.84e-02,8.00e-02,
388,2.72e-02,-1.60e-01,
389,3.92e-02,8.00e-02,
390,3.92e-02,-1.60e-01,
391,2.72e-02,8.00e-02,
392,3.84e-02,8.00e-02,
393,2.96e-02,-1.60e-01,
394,2.80e-02,8.00e-02,
395,3.84e-02,-2.40e-01,
396,2.80e-02,8.00e-02,
397,3.68e-02,-1.60e-01,
398,3.76e-02,-1.60e-01,
399,2.80e-02,8.00e-02,
400,4.00e-02,-1.60e-01,
401,2.72e-02,8.00e-02,
402,3.92e-02,-1.60e-01,
403,2.96e-02,8.00e-02,
404,3.92e-02,8.00e-02,
405,2.88e-02,-2.40e-01,
406,3.04e-02,-1.60e-01,
407,4.16e-02,8.00e-02,
408,4.00e-02,8.00e-02,
409,2.96e-02,-1.60e-01,
410,3.76e-02,-1.60e-01,
411,2.64e-02,8.00e-02,
412,2.80e-02,8.00e-02,
413,3.76e-02,-1.60e-01,
414,2.88e-02,-1.60e-01,
415,3.84e-02,8.00e-02,
416,3.84e-02,8.00e-02,
417,2.88e-02,-1.60e-01,
418,2.96e-02,8.00e-02,
419,4.08e-02,-1.60e-01,
420,4.00e-02,-1.60e-01,
421,2.88e-02,8.00e-02,
422,2.72e-02,8.00e-02,
423,4.08e-02,-1.60e-01,
424,3.84e-02,8.00e-02,
425,2.64e-02,-1.60e-01,
426,2.64e-02,8.00e-02,
427,3.84e-02,-1.60e-01,
428,3.76e-02,8.00e-02,
429,2.80e-02,-1.60e-01,
430,2.88e-02,8.00e-02,
431,3.92e-02,-1.60e-01,
432,2.80e-02,8.00e-02,
433,3.92e-02,-1.60e-01,
434,3.84e-02,-1.60e-01,
435,2.88e-02,8.00e-02,
436,3.76e-02,8.00e-02,
437,2.96e-02,-2.40e-01,
438,2.88e-02,8.00e-02,
439,3.76e-02,-1.60e-01,
440,3.84e-02,8.00e-02,
441,2.80e-02,-1.60e-01,
442,3.76e-02,-1.60e-01,
443,2.80e-02,8.00e-02,
444,2.64e-02,-1.60e-01,
445,4.16e-02,8.00e-02,
446,2.88e-02,8.00e-02,
447,3.92e-02,-1.60e-01,
448,3.84e-02,-1.60e-01,
449,2.72e-02,8.00e-02,
450,2.88e-02,8.00e-02,
451,4.00e-02,-1.60e-01,
452,2.64e-02,-1.60e-01,
453,4.00e-02,8.00e-02,
454,2.80e-02,8.00e-02,
455,3.76e-02,-1.60e-01,
456,3.92e-02,8.00e-02,
457,2.72e-02,-1.60e-01,
458,2.72e-02,8.00e-02,
459,3.84e-02,-1.60e-01,
460,2.88e-02,8.00e-02,
461,4.00e-02,-1.60e-01,
462,4.08e-02,8.00e-02,
463,2.88e-02,-1.60e-01,
464,3.92e-02,8.00e-02,
465,2.88e-02,-1.60e-01,
466,3.84e-02,8.00e-02,
467,2.72e-02,-1.60e-01,
468,2.56e-02,-8.00e-02,
469,3.76e-02,8.00e-02,
470,3.84e-02,8.00e-02,
471,2.72e-02,-1.60e-01,
472,2.72e-02,8.00e-02,
473,3.76e-02,-1.60e-01,
474,2.56e-02,8.00e-02,
475,3.84e-02,-1.60e-01,
476,2.88e-02,8.00e-02,
477,3.92e-02,-1.60e-01,
478,2.96e-02,8.00e-02,
479,3.92e-02,-1.60e-01,
480,3.84e-02,8.00e-02,
481,2.80e-02,-1.60e-01,
482,3.76e-02,8.00e-02,
483,2.80e-02,-1.60e-01,
484,3.84e-02,-1.60e-01,
485,2.80e-02,8.00e-02,
486,2.64e-02,8.00e-02,
487,3.76e-02,-1.60e-01,
488,2.72e-02,-8.00e-02,
489,3.76e-02,8.00e-02,
490,2.80e-02,8.00e-02,
491,3.76e-02,-1.60e-01,
492,4.00e-02,8.00e-02,
493,2.80e-02,-1.60e-01,
494,3.92e-02,8.00e-02,
495,2.80e-02,-8.00e-02,
496,2.72e-02,8.00e-02,
497,3.84e-02,-8.00e-02,
498,2.80e-02,8.00e-02,
499,3.84e-02,-8.00e-02,
500,2.80e-02,-8.00e-02,
501,3.76e-02,8.00e-02,
502,2.80e-02,-8.00e-02,
503,3.92e-02,8.00e-02,
504,2.80e-02,-8.00e-02,
505,4.00e-02,8.00e-02,
506,3.84e-02,8.00e-02,
507,2.88e-02,-1.60e-01,
508,2.72e-02,-8.00e-02,
509,3.76e-02,8.00e-02,
510,3.76e-02,-8.00e-02,
511,2.80e-02,8.00e-02,
512,3.76e-02,8.00e-02,
513,2.64e-02,-1.60e-01,
514,3.76e-02,8.00e-02,
515,2.88e-02,-1.60e-01,
516,2.88e-02,-8.00e-02,
517,3.84e-02,8.00e-02,
518,3.04e-02,-8.00e-02,
519,3.84e-02,8.00e-02,
520,4.08e-02,8.00e-02,
521,2.88e-02,-8.00e-02,
522,4.00e-02,8.00e-02,
523,2.88e-02,-1.60e-01,
524,2.80e-02,-8.00e-02,
525,3.92e-02,8.00e-02,
526,3.84e-02,8.00e-02,
527,2.80e-02,-8.00e-02,
528,3.76e-02,8.00e-02,
529,2.72e-02,-1.60e-01,
530,2.72e-02,8.00e-02,
531,3.92e-02,-1.60e-01,
532,2.88e-02,8.00e-02,
533,3.92e-02,-1.60e-01,
534,2.88e-02,-8.00e-02,
535,3.92e-02,8.00e-02,
536,4.16e-02,-8.00e-02,
537,2.88e-02,8.00e-02,
538,3.84e-02,-8.00e-02,
539,2.80e-02,8.00e-02,
540,3.84e-02,8.00e-02,
541,2.88e-02,-1.60e-01,
542,3.84e-02,-8.00e-02,
543,2.72e-02,8.00e-02,
544,3.76e-02,-8.00e-02,
545,2.72e-02,8.00e-02,
546,3.92e-02,8.00e-02,
547,2.88e-02,-1.60e-01,
548,2.88e-02,-8.00e-02,
549,3.76e-02,8.00e-02,
550,4.08e-02,-8.00e-02,
551,2.80e-02,8.00e-02,
552,3.92e-02,-1.60e-01,
553,2.72e-02,8.00e-02,
554,3.76e-02,-8.00e-02,
555,2.88e-02,8.00e-02,
556,2.80e-02,8.00e-02,
557,3.84e-02,-1.60e-01,
558,3.76e-02,-8.00e-02,
559,2.88e-02,8.00e-02,
560,2.80e-02,8.00e-02,
561,3.84e-02,-8.00e-02,
562,3.84e-02,-8.00e-02,
563,2.96e-02,8.00e-02,
564,3.92e-02,8.00e-02,
565,2.88e-02,-1.60e-01,
566,2.64e-02,-8.00e-02,
567,3.92e-02,8.00e-02,
568,3.92e-02,8.00e-02,
569,2.72e-02,-8.00e-02,
570,2.72e-02,-8.00e-02,
571,3.76e-02,8.00e-02,
572,3.76e-02,8.00e-02,
573,2.64e-02,-8.00e-02,
574,2.88e-02,-8.00e-02,
575,3.92e-02,8.00e-02,
576,3.84e-02,8.00e-02,
577,2.88e-02,-8.00e-02,
578,2.72e-02,8.00e-02,
579,3.84e-02,-1.60e-01,
580,3.92e-02,-8.00e-02,
581,2.88e-02,8.00e-02,
582,3.84e-02,-8.00e-02,
583,2.88e-02,8.00e-02,
584,3.84e-02,-8.00e-02,
585,2.80e-02,8.00e-02,
586,3.92e-02,-8.00e-02,
587,2.56e-02,8.00e-02,
588,2.88e-02,-8.00e-02,
589,3.76e-02,8.00e-02,
590,2.80e-02,-8.00e-02,
591,3.76e-02,8.00e-02,
592,4.00e-02,-8.00e-02,
593,2.80e-02,8.00e-02,
594,3.84e-02,-8.00e-02,
595,2.80e-02,8.00e-02,
596,3.76e-02,8.00e-02,
597,2.64e-02,-1.60e-01,
598,3.84e-02,8.00e-02,
599,2.88e-02,-1.60e-01,
600,3.84e-02,-8.00e-02,
601,2.80e-02,8.00e-02,
602,3.92e-02,8.00e-02,
603,2.72e-02,-8.00e-02,
604,3.84e-02,8.00e-02,
605,2.88e-02,-8.00e-02,
606,3.92e-02,8.00e-02,
607,2.80e-02,-8.00e-02,
608,3.84e-02,8.00e-02,
609,2.72e-02,-8.00e-02,
610,2.80e-02,8.00e-02,
611,3.76e-02,-8.00e-02,
612,2.80e-02,8.00e-02,
613,4.00e-02,-8.00e-02,
614,3.84e-02,8.00e-02,
615,2.80e-02,-8.00e-02,
616,2.88e-02,8.00e-02,
617,3.84e-02,-8.00e-02,
618,4.08e-02,8.00e-02,
619,2.88e-02,-1.60e-01,
620,2.88e-02,8.00e-02,
621,3.84e-02,-1.60e-01,
622,2.88e-02,-8.00e-02,
623,3.76e-02,8.00e-02,
624,3.76e-02,-8.00e-02,
625,2.72e-02,8.00e-02,
626,4.08e-02,8.00e-02,
627,2.72e-02,-1.60e-01,
628,2.88e-02,-8.00e-02,
629,3.92e-02,8.00e-02,
630,3.84e-02,8.00e-02,
631,2.72e-02,-1.60e-01,
632,2.80e-02,-8.00e-02,
633,3.92e-02,8.00e-02,
634,3.76e-02,8.00e-02,
635,2.64e-02,-8.00e-02,
636,3.68e-02,-8.00e-02,
637,2.88e-02,8.00e-02,
638,3.76e-02,8.00e-02,
639,2.64e-02,-1.60e-01,
640,4.00e-02,-8.00e-02,
641,2.64e-02,8.00e-02,
642,3.92e-02,8.00e-02,
643,2.64e-02,-1.60e-01,
644,4.00e-02,-8.00e-02,
645,2.88e-02,8.00e-02,
646,2.88e-02,-1.60e-01,
647,4.00e-02,8.00e-02,
648,3.76e-02,-1.60e-01,
649,2.88e-02,8.00e-02,
650,3.92e-02,8.00e-02,
651,2.88e-02,-8.00e-02,
652,2.96e-02,-8.00e-02,
653,3.84e-02,8.00e-02,
654,4.08e-02,8.00e-02,
655,2.88e-02,-8.00e-02,
656,2.88e-02,-1.60e-01,
657,3.92e-02,8.00e-02,
658,2.64e-02,8.00e-02,
659,4.08e-02,-8.00e-02,
660,3.76e-02,-8.00e-02,
661,2.72e-02,8.00e-02,
662,3.76e-02,8.00e-02,
663,2.80e-02,-1.60e-01,
664,3.84e-02,-8.00e-02,
665,2.80e-02,8.00e-02,
666,2.80e-02,8.00e-02,
667,3.92e-02,-1.60e-01,
668,3.76e-02,-8.00e-02,
669,2.96e-02,8.00e-02,
670,2.80e-02,8.00e-02,
671,3.84e-02,-1.60e-01,
672,2.88e-02,8.00e-02,
673,3.84e-02,-8.00e-02,
674,2.96e-02,8.00e-02,
675,3.92e-02,-1.60e-01,
676,3.76e-02,-8.00e-02,
677,2.80e-02,8.00e-02,
678,2.88e-02,8.00e-02,
679,3.84e-02,-1.60e-01,
680,2.80e-02,8.00e-02,
681,4.00e-02,-1.60e-01,
682,3.92e-02,8.00e-02,
683,2.88e-02,-1.60e-01,
684,2.88e-02,-1.60e-01,
685,3.84e-02,8.00e-02,
686,4.00e-02,8.00e-02,
687,2.88e-02,-8.00e-02,
688,4.08e-02,8.00e-02,
689,2.88e-02,-1.60e-01,
690,2.72e-02,8.00e-02,
691,3.84e-02,-1.60e-01,
692,2.80e-02,-8.00e-02,
693,3.84e-02,8.00e-02,
694,2.80e-02,8.00e-02,
695,4.16e-02,-8.00e-02,
696,2.88e-02,-8.00e-02,
697,4.08e-02,8.00e-02,
698,2.88e-02,8.00e-02,
699,4.00e-02,-1.60e-01,
700,2.96e-02,-8.00e-02,
701,4.00e-02,8.00e-02,
702,3.92e-02,8.00e-02,
703,2.88e-02,-1.60e-01,
704,4.00e-02,8.00e-02,
705,2.80e-02,-1.60e-01,
706,2.64e-02,8.00e-02,
707,3.76e-02,-1.60e-01,
708,3.76e-02,8.00e-02,
709,2.96e-02,-1.60e-01,
710,2.96e-02,8.00e-02,
711,3.84e-02,-1.60e-01,
712,3.84e-02,8.00e-02,
713,2.96e-02,-1.60e-01,
714,3.84e-02,8.00e-02,
715,2.88e-02,-1.60e-01,
716,2.88e-02,8.00e-02,
717,3.92e-02,-1.60e-01,
718,3.84e-02,8.00e-02,
719,2.88e-02,-1.60e-01,
720,2.88e-02,8.00e-02,
721,3.76e-02,-1.60e-01,
722,2.88e-02,8.00e-02,
723,4.00e-02,-1.60e-01,
724,2.96e-02,-1.60e-01,
725,3.92e-02,8.00e-02,
726,2.80e-02,8.00e-02,
727,4.00e-02,-1.60e-01,
728,3.84e-02,8.00e-02,
729,2.88e-02,-2.40e-01,
730,3.92e-02,-1.60e-01,
731,2.88e-02,8.00e-02,
732,2.88e-02,8.00e-02,
733,3.92e-02,-1.60e-01,
734,2.72e-02,8.00e-02,
735,4.08e-02,-8.00e-02,
736,2.72e-02,-1.60e-01,
737,3.92e-02,8.00e-02,
738,2.80e-02,8.00e-02,
739,3.84e-02,-1.60e-01,
740,2.80e-02,-8.00e-02,
741,3.84e-02,8.00e-02,
742,3.92e-02,-8.00e-02,
743,2.96e-02,8.00e-02,
744,2.80e-02,8.00e-02,
745,4.00e-02,-1.60e-01,
746,3.84e-02,8.00e-02,
747,2.72e-02,-1.60e-01,
748,2.88e-02,8.00e-02,
749,3.84e-02,-1.60e-01,
750,3.84e-02,8.00e-02,
751,2.80e-02,-1.60e-01,
752,2.96e-02,8.00e-02,
753,3.84e-02,-1.60e-01,
754,3.04e-02,-8.00e-02,
755,3.84e-02,8.00e-02,
756,3.84e-02,-8.00e-02,
757,2.88e-02,8.00e-02,
758,3.92e-02,-1.60e-01,
759,2.96e-02,8.00e-02,
760,2.88e-02,8.00e-02,
761,4.00e-02,-1.60e-01,
762,3.84e-02,8.00e-02,
763,2.80e-02,-1.60e-01,
764,2.80e-02,8.00e-02,
765,3.84e-02,-1.60e-01,
766,4.00e-02,-1.60e-01,
767,2.88e-02,8.00e-02,
768,2.88e-02,8.00e-02,
769,3.92e-02,-1.60e-01,
770,2.88e-02,-8.00e-02,
771,3.76e-02,8.00e-02,
772,3.92e-02,8.00e-02,
773,2.88e-02,-1.60e-01,
774,3.92e-02,8.00e-02,
775,2.88e-02,-1.60e-01,
776,2.80e-02,8.00e-02,
777,3.92e-02,-1.60e-01,
778,2.96e-02,8.00e-02,
779,3.84e-02,-1.60e-01,
780,2.96e-02,8.00e-02,
781,4.00e-02,-1.60e-01,
782,3.92e-02,8.00e-02,
783,2.96e-02,-1.60e-01,
784,2.96e-02,-1.60e-01,
785,3.92e-02,8.00e-02,
786,3.92e-02,8.00e-02,
787,2.96e-02,-1.60e-01,
788,3.84e-02,8.00e-02,
789,2.96e-02,-1.60e-01,
790,4.00e-02,8.00e-02,
791,2.96e-02,-1.60e-01,
792,3.84e-02,8.00e-02,
793,2.96e-02,-2.40e-01,
794,2.88e-02,-1.60e-01,
795,3.84e-02,8.00e-02,
796,3.84e-02,8.00e-02,
797,2.88e-02,-1.60e-01,
798,3.92e-02,8.00e-02,
799,2.96e-02,-1.60e-01,
800,3.92e-02,8.00e-02,
801,3.04e-02,-1.60e-01,
802,3.92e-02,8.00e-02,
803,2.80e-02,-1.60e-01,
804,4.00e-02,8.00e-02,
805,2.88e-02,-1.60e-01,
806,3.84e-02,8.00e-02,
807,2.96e-02,-1.60e-01,
808,2.96e-02,8.00e-02,
809,3.92e-02,-1.60e-01,
810,2.64e-02,-1.60e-01,
811,4.00e-02,8.00e-02,
812,3.84e-02,-1.60e-01,
813,2.88e-02,8.00e-02,
814,2.80e-02,8.00e-02,
815,3.84e-02,-1.60e-01,
816,2.88e-02,8.00e-02,
817,4.00e-02,-1.60e-01,
818,3.92e-02,8.00e-02,
819,2.88e-02,-1.60e-01,
820,2.88e-02,8.00e-02,
821,3.92e-02,-1.60e-01,
822,2.80e-02,8.00e-02,
823,4.00e-02,-1.60e-01,
824,2.88e-02,8.00e-02,
825,4.08e-02,-1.60e-01,
826,2.88e-02,8.00e-02,
827,4.00e-02,-1.60e-01,
828,3.92e-02,8.00e-02,
829,2.88e-02,-1.60e-01,
830,3.84e-02,8.00e-02,
831,2.96e-02,-1.60e-01,
832,3.76e-02,8.00e-02,
833,2.88e-02,-1.60e-01,
834,2.88e-02,8.00e-02,
835,3.84e-02,-1.60e-01,
836,3.84e-02,-1.60e-01,
837,2.96e-02,8.00e-02,
838,2.96e-02,8.00e-02,
839,3.92e-02,-1.60e-01,
840,3.84e-02,8.00e-02,
841,2.88e-02,-1.60e-01,
842,2.80e-02,-1.60e-01,
843,4.08e-02,8.00e-02,
844,2.96e-02,8.00e-02,
845,4.00e-02,-1.60e-01,
846,3.92e-02,-1.60e-01,
847,2.80e-02,8.00e-02,
848,4.00e-02,-1.60e-01,
849,2.96e-02,8.00e-02,
850,3.84e-02,8.00e-02,
851,2.80e-02,-1.60e-01,
852,3.84e-02,-8.00e-02,
