NMRdata/fe/9t2.csv

X,CH3,CH4,Start,Increment,
Sequence,Volt,Volt,-1.080000e-03,2.000000e-05
0,3.36e-02,8.00e-02,
1,2.16e-02,-1.60e-01,
2,3.52e-02,8.00e-02,
3,2.48e-02,-1.60e-01,
4,2.40e-02,-1.60e-01,
5,3.36e-02,8.00e-02,
6,2.32e-02,8.00e-02,
7,3.36e-02,-8.00e-02,
8,2.24e-02,-1.60e-01,
9,3.36e-02,8.00e-02,
10,3.36e-02,8.00e-02,
11,2.32e-02,-1.60e-01,
12,3.60e-02,-1.60e-01,
13,2.40e-02,8.00e-02,
14,3.52e-02,8.00e-02,
15,2.48e-02,-8.00e-02,
16,3.60e-02,8.00e-02,
17,2.40e-02,-1.60e-01,
18,3.36e-02,8.00e-02,
19,2.40e-02,-2.40e-01,
20,2.48e-02,8.00e-02,
21,3.36e-02,-1.60e-01,
22,2.40e-02,8.00e-02,
23,3.36e-02,-1.60e-01,
24,2.24e-02,8.00e-02,
25,3.52e-02,-1.60e-01,
26,2.48e-02,8.00e-02,
27,3.36e-02,-1.60e-01,
28,2.56e-02,8.00e-02,
29,3.44e-02,-1.60e-01,
30,3.36e-02,8.00e-02,
31,2.48e-02,-1.60e-01,
32,3.36e-02,8.00e-02,
33,2.48e-02,-1.60e-01,
34,2.48e-02,8.00e-02,
35,3.28e-02,-1.60e-01,
36,3.36e-02,8.00e-02,
37,2.24e-02,-1.60e-01,
38,3.36e-02,8.00e-02,
39,2.48e-02,-1.60e-01,
40,3.52e-02,-1.60e-01,
41,2.40e-02,8.00e-02,
42,3.36e-02,-1.60e-01,
43,2.40e-02,8.00e-02,
44,3.36e-02,8.00e-02,
45,2.24e-02,-1.60e-01,
46,2.48e-02,8.00e-02,
47,3.36e-02,-1.60e-01,
48,3.44e-02,8.00e-02,
49,2.48e-02,-1.60e-01,
50,2.32e-02,-1.60e-01,
51,3.36e-02,8.00e-02,
52,2.56e-02,8.00e-02,
53,3.52e-02,-1.60e-01,
54,3.44e-02,5.76e+00,
55,2.48e-02,4.72e+00,
56,2.56e-02,5.20e+00,
57,3.44e-02,4.80e+00,
58,3.12e-02,4.72e+00,
59,2.96e-02,5.20e+00,
60,3.12e-02,4.32e+00,
61,-2.40e-03,5.44e+00,
62,2.40e-03,4.72e+00,
63,-4.00e-03,5.20e+00,
64,-3.20e-03,4.72e+00,
65,-8.00e-04,5.20e+00,
66,-8.00e-04,4.64e+00,
67,-4.00e-03,5.20e+00,
68,-8.00e-04,4.72e+00,
69,-3.20e-02,5.20e+00,
70,-2.96e-02,5.20e+00,
71,-4.56e-02,4.64e+00,
72,-3.52e-02,5.20e+00,
73,2.40e-03,4.72e+00,
74,8.00e-04,5.12e+00,
75,4.32e-02,4.72e+00,
76,4.00e-02,5.20e+00,
77,7.36e-02,4.72e+00,
78,6.80e-02,5.12e+00,
79,8.08e-02,4.72e+00,
80,7.84e-02,5.12e+00,
81,5.12e-02,4.72e+00,
82,5.52e-02,5.12e+00,
83,1.76e-02,4.72e+00,
84,2.32e-02,4.72e+00,
85,-1.60e-03,5.12e+00,
86,3.20e-03,4.72e+00,
87,-6.40e-03,5.12e+00,
88,-4.00e-03,5.12e+00,
89,1.28e-02,4.72e+00,
90,9.60e-03,5.12e+00,
91,3.28e-02,4.72e+00,
92,2.80e-02,5.12e+00,
93,5.04e-02,4.72e+00,
94,4.48e-02,5.12e+00,
95,5.44e-02,4.72e+00,
96,5.28e-02,5.12e+00,
97,3.68e-02,4.72e+00,
98,4.08e-02,5.12e+00,
99,2.32e-02,4.72e+00,
100,2.96e-02,5.12e+00,
101,1.44e-02,4.72e+00,
102,2.16e-02,5.12e+00,
103,1.12e-02,4.72e+00,
104,1.36e-02,5.12e+00,
105,2.56e-02,4.72e+00,
106,1.76e-02,5.12e+00,
107,3.60e-02,4.72e+00,
108,2.88e-02,5.12e+00,
109,4.00e-02,4.72e+00,
110,4.00e-02,5.12e+00,
111,3.12e-02,4.72e+00,
112,3.68e-02,5.12e+00,
113,2.64e-02,4.72e+00,
114,3.36e-02,4.72e+00,
115,2.08e-02,5.12e+00,
116,3.04e-02,5.12e+00,
117,2.00e-02,4.72e+00,
118,2.08e-02,5.12e+00,
119,3.20e-02,4.72e+00,
120,2.16e-02,5.12e+00,
121,3.36e-02,4.72e+00,
122,2.64e-02,5.12e+00,
123,3.60e-02,4.72e+00,
124,2.72e-02,4.72e+00,
125,3.76e-02,5.20e+00,
126,3.36e-02,4.64e+00,
127,2.40e-02,5.20e+00,
128,2.24e-02,5.12e+00,
129,3.28e-02,4.72e+00,
130,2.00e-02,5.12e+00,
131,3.12e-02,4.72e+00,
132,2.32e-02,4.72e+00,
133,3.36e-02,5.12e+00,
134,2.56e-02,4.72e+00,
135,3.60e-02,5.12e+00,
136,2.80e-02,4.72e+00,
137,3.68e-02,5.12e+00,
138,2.56e-02,5.12e+00,
139,3.68e-02,4.72e+00,
140,3.36e-02,4.72e+00,
141,2.40e-02,5.12e+00,
142,3.12e-02,5.12e+00,
143,2.24e-02,4.72e+00,
144,2.96e-02,5.12e+00,
145,2.16e-02,4.72e+00,
146,2.16e-02,5.12e+00,
147,3.36e-02,4.72e+00,
148,2.32e-02,5.12e+00,
149,3.44e-02,4.72e+00,
150,2.40e-02,5.12e+00,
151,3.52e-02,4.72e+00,
152,3.68e-02,5.12e+00,
153,2.72e-02,4.72e+00,
154,3.44e-02,5.12e+00,
155,2.40e-02,4.64e+00,
156,3.20e-02,5.20e+00,
157,2.32e-02,4.64e+00,
158,2.72e-02,5.12e+00,
159,2.88e-02,4.72e+00,
160,2.88e-02,4.32e+00,
161,-3.20e-03,5.20e+00,
162,-8.00e-04,5.36e+00,
163,-1.04e-02,4.64e+00,
164,-8.00e-03,5.12e+00,
165,-9.60e-03,4.64e+00,
166,-9.60e-03,5.12e+00,
167,-8.00e-03,4.64e+00,
168,-9.60e-03,5.12e+00,
169,-7.20e-03,4.64e+00,
170,-7.20e-03,4.64e+00,
171,-9.60e-03,5.20e+00,
172,-1.04e-02,4.72e+00,
173,8.80e-03,5.12e+00,
174,8.00e-04,4.64e+00,
175,2.48e-02,5.20e+00,
176,1.76e-02,4.80e+00,
177,3.44e-02,-1.20e+00,
178,2.64e-02,-1.60e-01,
179,4.00e-02,0.00e+00,
180,3.44e-02,-1.60e-01,
181,4.40e-02,0.00e+00,
182,4.24e-02,-1.60e-01,
183,3.20e-02,0.00e+00,
184,3.76e-02,-1.60e-01,
185,2.56e-02,0.00e+00,
186,3.20e-02,-2.40e-01,
187,1.76e-02,0.00e+00,
188,2.72e-02,-1.60e-01,
189,1.60e-02,0.00e+00,
190,1.68e-02,-1.60e-01,
191,2.56e-02,8.00e-02,
192,1.76e-02,-1.60e-01,
193,3.04e-02,0.00e+00,
194,2.48e-02,-1.60e-01,
195,3.60e-02,0.00e+00,
196,2.80e-02,-2.40e-01,
197,3.84e-02,8.00e-02,
198,3.84e-02,-1.60e-01,
199,2.80e-02,8.00e-02,
200,3.52e-02,-1.60e-01,
201,2.32e-02,0.00e+00,
202,3.20e-02,-1.60e-01,
203,2.00e-02,8.00e-02,
204,1.92e-02,-1.60e-01,
205,2.80e-02,8.00e-02,
206,2.08e-02,-2.40e-01,
207,3.12e-02,8.00e-02,
208,2.40e-02,-1.60e-01,
209,3.52e-02,8.00e-02,
210,2.56e-02,-1.60e-01,
211,3.76e-02,8.00e-02,
212,3.84e-02,-1.60e-01,
213,2.72e-02,8.00e-02,
214,3.52e-02,-1.60e-01,
215,2.24e-02,8.00e-02,
216,2.96e-02,8.00e-02,
217,1.76e-02,-2.40e-01,
218,2.64e-02,-1.60e-01,
219,1.60e-02,8.00e-02,
220,1.76e-02,-1.60e-01,
221,2.96e-02,8.00e-02,
222,2.24e-02,-1.60e-01,
223,3.92e-02,8.00e-02,
224,3.20e-02,-1.60e-01,
225,4.56e-02,8.00e-02,
226,4.64e-02,8.00e-02,
227,3.60e-02,-2.40e-01,
228,4.32e-02,-2.40e-01,
229,2.72e-02,8.00e-02,
230,3.36e-02,-1.60e-01,
231,1.20e-02,8.00e-02,
232,1.92e-02,8.00e-02,
233,4.80e-03,-1.60e-01,
234,3.20e-03,-1.60e-01,
235,1.44e-02,8.00e-02,
236,8.00e-03,-1.60e-01,
237,2.80e-02,8.00e-02,
238,2.24e-02,-2.40e-01,
239,4.72e-02,8.00e-02,
240,4.08e-02,-1.60e-01,
241,6.08e-02,8.00e-02,
242,6.40e-02,-1.60e-01,
243,5.28e-02,8.00e-02,
244,5.84e-02,-1.60e-01,
245,3.12e-02,8.00e-02,
246,3.60e-02,-1.60e-01,
247,4.80e-03,8.00e-02,
248,8.80e-03,-2.40e-01,
249,-1.76e-02,8.00e-02,
250,-1.84e-02,-1.60e-01,
251,-7.20e-03,8.00e-02,
252,-1.44e-02,8.00e-02,
253,1.44e-02,-1.60e-01,
254,9.60e-03,-1.60e-01,
255,5.92e-02,8.00e-02,
256,5.52e-02,-1.60e-01,
257,1.05e-01,8.00e-02,
258,1.06e-01,-1.60e-01,
259,8.96e-02,8.00e-02,
260,9.44e-02,8.00e-02,
261,2.56e-02,-2.40e-01,
262,3.04e-02,-1.60e-01,
263,-4.32e-02,8.00e-02,
264,-3.84e-02,8.00e-02,
265,-6.00e-02,-1.60e-01,
266,-5.44e-02,-1.60e-01,
267,8.00e-04,8.00e-02,
268,-8.00e-04,8.00e-02,
269,6.16e-02,-2.40e-01,
270,6.00e-02,-1.60e-01,
271,8.88e-02,8.00e-02,
272,8.80e-02,-1.60e-01,
273,6.88e-02,8.00e-02,
274,7.36e-02,-1.60e-01,
275,4.08e-02,8.00e-02,
276,4.48e-02,-1.60e-01,
277,9.60e-03,8.00e-02,
278,1.44e-02,-1.60e-01,
279,-8.00e-03,8.00e-02,
280,-1.12e-02,-2.40e-01,
281,0.00e+00,8.00e-02,
282,-5.60e-03,-1.60e-01,
283,1.92e-02,8.00e-02,
284,1.28e-02,-1.60e-01,
285,4.16e-02,8.00e-02,
286,3.52e-02,-1.60e-01,
287,5.60e-02,8.00e-02,
288,5.84e-02,-1.60e-01,
289,4.80e-02,8.00e-02,
290,5.60e-02,8.00e-02,
291,3.60e-02,-2.40e-01,
292,4.00e-02,-1.60e-01,
293,2.08e-02,8.00e-02,
294,2.64e-02,-1.60e-01,
295,1.04e-02,8.00e-02,
296,8.80e-03,8.00e-02,
297,1.76e-02,-1.60e-01,
298,1.12e-02,8.00e-02,
299,2.56e-02,-1.60e-01,
300,1.92e-02,8.00e-02,
301,3.52e-02,-2.40e-01,
302,2.88e-02,8.00e-02,
303,4.16e-02,-2.40e-01,
304,3.20e-02,-1.60e-01,
305,4.24e-02,8.00e-02,
306,4.16e-02,-1.60e-01,
307,2.80e-02,8.00e-02,
308,3.52e-02,-1.60e-01,
309,2.32e-02,8.00e-02,
310,3.12e-02,8.00e-02,
311,1.76e-02,-2.40e-01,
312,1.68e-02,8.00e-02,
313,2.88e-02,-2.40e-01,
314,2.16e-02,-1.60e-01,
315,3.20e-02,8.00e-02,
316,2.48e-02,-1.60e-01,
317,3.36e-02,8.00e-02,
318,3.52e-02,-1.60e-01,
319,2.64e-02,8.00e-02,
320,3.60e-02,8.00e-02,
321,2.48e-02,-2.40e-01,
322,2.40e-02,8.00e-02,
323,3.36e-02,-2.40e-01,
324,3.20e-02,-1.60e-01,
325,2.08e-02,8.00e-02,
326,2.32e-02,-1.60e-01,
327,3.36e-02,8.00e-02,
328,3.44e-02,-1.60e-01,
329,2.40e-02,8.00e-02,
330,3.52e-02,8.00e-02,
331,2.56e-02,-1.60e-01,
332,3.44e-02,-2.40e-01,
333,2.64e-02,8.00e-02,
334,3.44e-02,8.00e-02,
335,2.48e-02,-1.60e-01,
336,3.20e-02,-1.60e-01,
337,2.00e-02,8.00e-02,
338,2.08e-02,8.00e-02,
339,3.04e-02,-1.60e-01,
340,3.28e-02,-1.60e-01,
341,2.08e-02,8.00e-02,
342,2.24e-02,8.00e-02,
343,3.44e-02,-2.40e-01,
344,2.64e-02,-1.60e-01,
345,3.60e-02,8.00e-02,
346,2.64e-02,-1.60e-01,
347,3.68e-02,8.00e-02,
348,3.44e-02,-1.60e-01,
349,2.48e-02,8.00e-02,
350,3.52e-02,-1.60e-01,
351,2.16e-02,8.00e-02,
352,2.24e-02,8.00e-02,
353,3.12e-02,-1.60e-01,
354,2.16e-02,-1.60e-01,
355,3.12e-02,8.00e-02,
356,2.40e-02,-1.60e-01,
357,3.28e-02,8.00e-02,
358,3.52e-02,-1.60e-01,
359,2.64e-02,8.00e-02,
360,2.48e-02,-1.60e-01,
361,3.44e-02,8.00e-02,
362,3.44e-02,8.00e-02,
363,2.40e-02,-2.40e-01,
364,3.44e-02,-1.60e-01,
365,2.24e-02,8.00e-02,
366,2.40e-02,-1.60e-01,
367,3.52e-02,8.00e-02,
368,3.28e-02,-1.60e-01,
369,2.40e-02,8.00e-02,
370,2.32e-02,-1.60e-01,
371,3.28e-02,8.00e-02,
372,3.44e-02,-1.60e-01,
373,2.24e-02,8.00e-02,
374,2.56e-02,-2.40e-01,
375,3.36e-02,8.00e-02,
376,3.44e-02,-1.60e-01,
377,2.56e-02,8.00e-02,
378,3.52e-02,-1.60e-01,
379,2.48e-02,8.00e-02,
380,3.36e-02,8.00e-02,
381,2.40e-02,-1.60e-01,
382,2.48e-02,-1.60e-01,
383,3.28e-02,8.00e-02,
384,3.20e-02,8.00e-02,
385,2.40e-02,-2.40e-01,
386,2.40e-02,-1.60e-01,
387,3.44e-02,8.00e-02,
388,2.56e-02,-1.60e-01,
389,3.44e-02,8.00e-02,
390,2.48e-02,-1.60e-01,
391,3.44e-02,8.00e-02,
392,2.40e-02,8.00e-02,
393,3.52e-02,-1.60e-01,
394,2.40e-02,8.00e-02,
395,3.28e-02,-1.60e-01,
396,3.20e-02,-1.60e-01,
397,2.40e-02,8.00e-02,
398,3.20e-02,-1.60e-01,
399,2.16e-02,8.00e-02,
400,2.32e-02,8.00e-02,
401,3.44e-02,-1.60e-01,
402,3.52e-02,-1.60e-01,
403,2.48e-02,8.00e-02,
404,2.64e-02,-1.60e-01,
405,3.52e-02,8.00e-02,
406,3.52e-02,8.00e-02,
407,2.48e-02,-2.40e-01,
408,3.28e-02,-1.60e-01,
409,2.32e-02,8.00e-02,
410,2.16e-02,8.00e-02,
411,3.28e-02,-1.60e-01,
412,2.16e-02,8.00e-02,
413,3.12e-02,-1.60e-01,
414,3.52e-02,8.00e-02,
415,2.40e-02,-2.40e-01,
416,2.32e-02,-1.60e-01,
417,3.44e-02,8.00e-02,
418,3.52e-02,-1.60e-01,
419,2.56e-02,8.00e-02,
420,2.56e-02,-1.60e-01,
421,3.60e-02,8.00e-02,
422,3.44e-02,-1.60e-01,
423,2.48e-02,8.00e-02,
424,3.28e-02,8.00e-02,
425,2.40e-02,-1.60e-01,
426,3.20e-02,8.00e-02,
427,2.24e-02,-1.60e-01,
428,2.32e-02,8.00e-02,
429,3.20e-02,-1.60e-01,
430,2.32e-02,8.00e-02,
431,3.28e-02,-1.60e-01,
432,2.48e-02,8.00e-02,
433,3.68e-02,-1.60e-01,
434,3.44e-02,8.00e-02,
435,2.64e-02,-1.60e-01,
436,3.52e-02,-1.60e-01,
437,2.48e-02,8.00e-02,
438,2.48e-02,8.00e-02,
439,3.36e-02,-1.60e-01,
440,2.24e-02,8.00e-02,
441,3.44e-02,-1.60e-01,
442,3.44e-02,8.00e-02,
443,2.40e-02,-1.60e-01,
444,3.36e-02,8.00e-02,
445,2.32e-02,-1.60e-01,
446,2.32e-02,8.00e-02,
447,3.52e-02,-1.60e-01,
448,3.52e-02,-8.00e-02,
449,2.40e-02,8.00e-02,
450,3.52e-02,8.00e-02,
451,2.40e-02,-8.00e-02,
452,3.36e-02,8.00e-02,
453,2.32e-02,-1.60e-01,
454,3.52e-02,-8.00e-02,
455,2.32e-02,8.00e-02,
456,3.52e-02,-8.00e-02,
457,2.48e-02,8.00e-02,
458,3.36e-02,-8.00e-02,
459,2.48e-02,8.00e-02,
460,2.32e-02,8.00e-02,
461,3.36e-02,-8.00e-02,
462,3.28e-02,8.00e-02,
463,2.40e-02,-1.60e-01,
464,3.44e-02,-8.00e-02,
465,2.32e-02,8.00e-02,
466,2.48e-02,-8.00e-02,
467,3.44e-02,8.00e-02,
468,3.36e-02,-8.00e-02,
469,2.56e-02,8.00e-02,
470,3.28e-02,-8.00e-02,
471,2.48e-02,8.00e-02,
472,3.28e-02,-8.00e-02,
473,2.40e-02,8.00e-02,
474,2.48e-02,8.00e-02,
475,3.36e-02,-1.60e-01,
476,2.64e-02,-8.00e-02,
477,3.44e-02,8.00e-02,
478,2.56e-02,-8.00e-02,
479,3.44e-02,8.00e-02,
480,3.36e-02,-8.00e-02,
481,2.16e-02,8.00e-02,
482,2.48e-02,8.00e-02,
483,3.36e-02,-8.00e-02,
484,2.32e-02,-8.00e-02,
485,3.44e-02,8.00e-02,
486,2.40e-02,8.00e-02,
487,3.28e-02,-8.00e-02,
488,2.40e-02,-8.00e-02,
489,3.36e-02,8.00e-02,
490,2.24e-02,8.00e-02,
491,3.52e-02,-8.00e-02,
492,3.44e-02,-8.00e-02,
493,2.56e-02,8.00e-02,
494,2.48e-02,8.00e-02,
495,3.44e-02,-8.00e-02,
496,3.36e-02,-8.00e-02,
497,2.40e-02,8.00e-02,
498,2.48e-02,8.00e-02,
499,3.44e-02,-8.00e-02,
500,2.40e-02,-8.00e-02,
501,3.44e-02,8.00e-02,
502,2.32e-02,8.00e-02,
503,3.28e-02,-1.60e-01,
504,2.40e-02,-8.00e-02,
505,3.36e-02,8.00e-02,
506,3.36e-02,-8.00e-02,
507,2.48e-02,8.00e-02,
508,2.56e-02,-8.00e-02,
509,3.60e-02,8.00e-02,
510,2.40e-02,-8.00e-02,
511,3.28e-02,8.00e-02,
512,2.48e-02,8.00e-02,
513,3.36e-02,-8.00e-02,
514,2.56e-02,-8.00e-02,
515,3.28e-02,8.00e-02,
516,3.36e-02,-8.00e-02,
517,2.48e-02,8.00e-02,
518,2.48e-02,-8.00e-02,
519,3.36e-02,8.00e-02,
520,3.44e-02,8.00e-02,
521,2.24e-02,-1.60e-01,
522,2.48e-02,8.00e-02,
523,3.28e-02,-8.00e-02,
524,2.40e-02,8.00e-02,
525,3.44e-02,-1.60e-01,
526,2.40e-02,8.00e-02,
527,3.28e-02,-8.00e-02,
528,2.48e-02,8.00e-02,
529,3.36e-02,-8.00e-02,
530,2.48e-02,8.00e-02,
531,3.36e-02,-8.00e-02,
532,3.28e-02,-8.00e-02,
533,2.48e-02,8.00e-02,
534,2.32e-02,-8.00e-02,
535,3.60e-02,8.00e-02,
536,3.36e-02,-8.00e-02,
537,2.48e-02,8.00e-02,
538,3.36e-02,-8.00e-02,
539,2.48e-02,8.00e-02,
540,3.36e-02,-1.60e-01,
541,2.40e-02,8.00e-02,
542,2.24e-02,8.00e-02,
543,3.44e-02,-1.60e-01,
544,2.24e-02,-8.00e-02,
545,3.36e-02,8.00e-02,
546,2.24e-02,8.00e-02,
547,3.36e-02,-1.60e-01,
548,2.40e-02,8.00e-02,
549,3.44e-02,-1.60e-01,
550,2.48e-02,8.00e-02,
551,3.44e-02,-8.00e-02,
552,3.36e-02,8.00e-02,
553,2.40e-02,-8.00e-02,
554,3.36e-02,8.00e-02,
555,2.48e-02,-1.60e-01,
556,2.48e-02,8.00e-02,
557,3.36e-02,-1.60e-01,
558,3.44e-02,-8.00e-02,
559,2.40e-02,8.00e-02,
560,2.40e-02,8.00e-02,
561,3.44e-02,-1.60e-01,
562,2.40e-02,-1.60e-01,
563,3.36e-02,8.00e-02,
564,2.40e-02,-8.00e-02,
565,3.36e-02,8.00e-02,
566,2.32e-02,-8.00e-02,
567,3.44e-02,8.00e-02,
568,3.36e-02,8.00e-02,
569,2.48e-02,-1.60e-01,
570,3.28e-02,-8.00e-02,
571,2.32e-02,8.00e-02,
572,2.32e-02,8.00e-02,
573,3.28e-02,-1.60e-01,
574,3.36e-02,-8.00e-02,
575,2.32e-02,8.00e-02,
576,3.36e-02,8.00e-02,
577,2.40e-02,-8.00e-02,
578,2.48e-02,-8.00e-02,
579,3.36e-02,8.00e-02,
580,2.48e-02,8.00e-02,
581,3.44e-02,-8.00e-02,
582,3.44e-02,8.00e-02,
583,2.32e-02,-1.60e-01,
584,3.36e-02,-8.00e-02,
585,2.48e-02,8.00e-02,
586,3.28e-02,-8.00e-02,
587,2.40e-02,8.00e-02,
588,3.28e-02,-1.60e-01,
589,2.40e-02,8.00e-02,
590,2.32e-02,-8.00e-02,
591,3.36e-02,8.00e-02,
592,2.48e-02,8.00e-02,
593,3.28e-02,-1.60e-01,
594,2.48e-02,8.00e-02,
595,3.28e-02,-1.60e-01,
596,2.40e-02,-8.00e-02,
597,3.28e-02,8.00e-02,
598,3.20e-02,-8.00e-02,
599,2.40e-02,8.00e-02,
600,2.40e-02,8.00e-02,
601,3.28e-02,-1.60e-01,
602,2.24e-02,-1.60e-01,
603,3.36e-02,8.00e-02,
604,2.32e-02,8.00e-02,
605,3.28e-02,-8.00e-02,
606,2.56e-02,8.00e-02,
607,3.60e-02,-1.60e-01,
608,3.52e-02,8.00e-02,
609,2.40e-02,-1.60e-01,
610,2.48e-02,-8.00e-02,
611,3.36e-02,8.00e-02,
612,3.44e-02,8.00e-02,
613,2.16e-02,-1.60e-01,
614,2.32e-02,-8.00e-02,
615,3.36e-02,8.00e-02,
616,3.28e-02,8.00e-02,
617,2.40e-02,-1.60e-01,
618,3.44e-02,8.00e-02,
619,2.32e-02,-8.00e-02,
620,2.40e-02,-8.00e-02,
621,3.28e-02,8.00e-02,
622,2.32e-02,8.00e-02,
623,3.28e-02,-1.60e-01,
624,2.32e-02,-1.60e-01,
625,3.28e-02,8.00e-02,
626,2.40e-02,-8.00e-02,
627,3.36e-02,8.00e-02,
628,3.20e-02,-8.00e-02,
629,2.48e-02,8.00e-02,
630,2.40e-02,8.00e-02,
631,3.28e-02,-1.60e-01,
632,3.36e-02,8.00e-02,
633,2.40e-02,-8.00e-02,
634,3.28e-02,-8.00e-02,
635,2.48e-02,8.00e-02,
636,2.24e-02,8.00e-02,
637,3.28e-02,-8.00e-02,
638,2.48e-02,-1.60e-01,
639,3.36e-02,8.00e-02,
640,2.24e-02,8.00e-02,
641,3.44e-02,-1.60e-01,
642,3.28e-02,8.00e-02,
643,2.40e-02,-1.60e-01,
644,2.32e-02,8.00e-02,
645,3.28e-02,-1.60e-01,
646,3.28e-02,-8.00e-02,
647,2.24e-02,8.00e-02,
648,2.32e-02,8.00e-02,
649,3.44e-02,-8.00e-02,
650,3.28e-02,8.00e-02,
651,2.32e-02,-1.60e-01,
652,3.36e-02,8.00e-02,
653,2.40e-02,-1.60e-01,
654,2.40e-02,8.00e-02,
655,3.20e-02,-1.60e-01,
656,3.28e-02,-1.60e-01,
657,2.40e-02,8.00e-02,
658,2.32e-02,8.00e-02,
659,3.28e-02,-1.60e-01,
660,3.28e-02,8.00e-02,
661,2.32e-02,-1.60e-01,
662,3.28e-02,8.00e-02,
663,2.48e-02,-1.60e-01,
664,2.40e-02,8.00e-02,
665,3.52e-02,-1.60e-01,
666,3.44e-02,8.00e-02,
667,2.32e-02,-1.60e-01,
668,3.28e-02,-1.60e-01,
669,2.32e-02,8.00e-02,
670,3.20e-02,8.00e-02,
671,2.32e-02,-1.60e-01,
672,3.20e-02,8.00e-02,
673,2.40e-02,-1.60e-01,
674,2.40e-02,8.00e-02,
675,3.36e-02,-1.60e-01,
676,3.28e-02,-1.60e-01,
677,2.48e-02,8.00e-02,
678,2.40e-02,8.00e-02,
679,3.28e-02,-1.60e-01,
680,2.32e-02,-1.60e-01,
681,3.44e-02,8.00e-02,
682,2.48e-02,8.00e-02,
683,3.36e-02,-1.60e-01,
684,2.40e-02,-1.60e-01,
685,3.52e-02,8.00e-02,
686,3.36e-02,8.00e-02,
687,2.32e-02,-1.60e-01,
688,3.20e-02,-1.60e-01,
689,2.32e-02,8.00e-02,
690,2.32e-02,8.00e-02,
691,3.44e-02,-1.60e-01,
692,3.28e-02,8.00e-02,
693,2.40e-02,-1.60e-01,
694,2.56e-02,8.00e-02,
695,3.28e-02,-1.60e-01,
696,2.40e-02,8.00e-02,
697,3.36e-02,-1.60e-01,
698,2.48e-02,8.00e-02,
699,3.36e-02,-1.60e-01,
700,2.48e-02,-1.60e-01,
701,3.44e-02,8.00e-02,
702,2.32e-02,-1.60e-01,
703,3.36e-02,8.00e-02,
704,3.52e-02,8.00e-02,
705,2.32e-02,-1.60e-01,
706,2.32e-02,8.00e-02,
707,3.28e-02,-1.60e-01,
708,2.40e-02,-1.60e-01,
709,3.28e-02,8.00e-02,
710,2.40e-02,-1.60e-01,
711,3.60e-02,8.00e-02,
712,3.28e-02,8.00e-02,
713,2.40e-02,-1.60e-01,
714,2.48e-02,8.00e-02,
715,3.36e-02,-1.60e-01,
716,3.36e-02,8.00e-02,
717,2.48e-02,-1.60e-01,
718,3.36e-02,8.00e-02,
719,2.48e-02,-1.60e-01,
720,2.40e-02,8.00e-02,
721,3.52e-02,-1.60e-01,
722,2.24e-02,8.00e-02,
723,3.52e-02,-1.60e-01,
724,2.32e-02,8.00e-02,
725,3.36e-02,-1.60e-01,
726,2.56e-02,8.00e-02,
727,3.28e-02,-1.60e-01,
728,2.48e-02,8.00e-02,
729,3.28e-02,-1.60e-01,
730,3.28e-02,8.00e-02,
731,2.40e-02,-1.60e-01,
732,3.52e-02,-1.60e-01,
733,2.24e-02,8.00e-02,
734,2.32e-02,8.00e-02,
735,3.20e-02,-1.60e-01,
736,2.40e-02,-1.60e-01,
737,3.28e-02,8.00e-02,
738,2.48e-02,-1.60e-01,
739,3.28e-02,8.00e-02,
740,2.40e-02,8.00e-02,
741,3.36e-02,-1.60e-01,
742,2.40e-02,-1.60e-01,
743,3.36e-02,8.00e-02,
744,2.32e-02,-1.60e-01,
745,3.36e-02,8.00e-02,
746,3.28e-02,8.00e-02,
747,2.32e-02,-1.60e-01,
748,2.32e-02,8.00e-02,
749,3.44e-02,-1.60e-01,
750,3.20e-02,8.00e-02,
751,2.40e-02,-1.60e-01,
752,2.24e-02,8.00e-02,
753,3.28e-02,-1.60e-01,
754,2.40e-02,8.00e-02,
755,3.52e-02,-1.60e-01,
756,2.40e-02,-1.60e-01,
757,3.28e-02,8.00e-02,
758,3.28e-02,-1.60e-01,
759,2.40e-02,8.00e-02,
760,3.20e-02,-1.60e-01,
761,2.32e-02,8.00e-02,
762,2.40e-02,-2.40e-01,
763,3.36e-02,8.00e-02,
764,2.24e-02,8.00e-02,
765,3.28e-02,-1.60e-01,
766,3.36e-02,8.00e-02,
767,2.32e-02,-1.60e-01,
768,2.40e-02,8.00e-02,
769,3.20e-02,-1.60e-01,
770,2.40e-02,-1.60e-01,
771,3.36e-02,8.00e-02,
772,2.40e-02,8.00e-02,
773,3.36e-02,-1.60e-01,
774,3.52e-02,-1.60e-01,
775,2.32e-02,8.00e-02,
776,3.60e-02,8.00e-02,
777,2.32e-02,-1.60e-01,
778,3.28e-02,-1.60e-01,
779,2.32e-02,8.00e-02,
780,2.48e-02,8.00e-02,
781,3.36e-02,-1.60e-01,
782,3.28e-02,8.00e-02,
783,2.40e-02,-2.40e-01,
784,2.56e-02,8.00e-02,
785,3.36e-02,-1.60e-01,
786,2.32e-02,8.00e-02,
787,3.36e-02,-1.60e-01,
788,2.48e-02,8.00e-02,
789,3.52e-02,-1.60e-01,
790,2.48e-02,8.00e-02,
791,3.36e-02,-1.60e-01,
792,3.44e-02,8.00e-02,
793,2.56e-02,-1.60e-01,
794,2.32e-02,-1.60e-01,
795,3.36e-02,8.00e-02,
796,2.48e-02,8.00e-02,
797,3.28e-02,-1.60e-01,
798,2.40e-02,-1.60e-01,
799,3.44e-02,8.00e-02,
800,3.36e-02,8.00e-02,
801,2.32e-02,-1.60e-01,
802,3.36e-02,-1.60e-01,
803,2.48e-02,8.00e-02,
804,2.32e-02,-1.60e-01,
805,3.36e-02,8.00e-02,
806,2.40e-02,8.00e-02,
807,3.44e-02,-1.60e-01,
808,3.52e-02,-1.60e-01,
809,2.24e-02,8.00e-02,
810,2.32e-02,-1.60e-01,
811,3.44e-02,8.00e-02,
812,3.28e-02,8.00e-02,
813,2.40e-02,-1.60e-01,
814,2.32e-02,-1.60e-01,
815,3.28e-02,8.00e-02,
816,3.44e-02,8.00e-02,
817,2.48e-02,-1.60e-01,
818,3.28e-02,-1.60e-01,
819,2.32e-02,8.00e-02,
820,2.24e-02,8.00e-02,
821,3.28e-02,-1.60e-01,
822,2.48e-02,8.00e-02,
823,3.44e-02,-1.60e-01,
824,2.24e-02,8.00e-02,
825,3.36e-02,-1.60e-01,
826,3.36e-02,8.00e-02,
827,2.56e-02,-1.60e-01,
828,3.36e-02,-1.60e-01,
829,2.32e-02,8.00e-02,
830,2.48e-02,8.00e-02,
831,3.44e-02,-1.60e-01,
832,3.44e-02,-1.60e-01,
833,2.48e-02,8.00e-02,
834,3.44e-02,8.00e-02,
835,2.40e-02,-1.60e-01,
836,3.20e-02,-1.60e-01,
837,2.48e-02,8.00e-02,
838,3.28e-02,-8.00e-02,
839,2.48e-02,8.00e-02,
840,3.28e-02,8.00e-02,
841,2.40e-02,-1.60e-01,
842,2.40e-02,8.00e-02,
843,3.44e-02,-1.60e-01,
844,2.48e-02,8.00e-02,
845,3.68e-02,-1.60e-01,
846,3.36e-02,8.00e-02,
847,2.40e-02,-1.60e-01,
848,3.44e-02,8.00e-02,
849,2.32e-02,-1.60e-01,
850,2.40e-02,8.00e-02,
851,3.36e-02,-1.60e-01,
852,3.44e-02,-1.60e-01,
