NMRdata/glyc1/95up/95t10.csv

X,CH3,CH4,Start,Increment,
Sequence,Volt,Volt,-4.800000e-04,2.000000e-05
0,-7.20e-03,-1.60e-01,
1,1.60e-03,8.00e-02,
2,-7.20e-03,8.00e-02,
3,1.60e-03,-2.40e-01,
4,-7.20e-03,-1.60e-01,
5,1.60e-03,8.00e-02,
6,1.60e-03,8.00e-02,
7,-7.20e-03,-1.60e-01,
8,1.60e-03,8.00e-02,
9,-6.40e-03,-1.60e-01,
10,-6.40e-03,-1.60e-01,
11,3.20e-03,8.00e-02,
12,1.60e-03,8.00e-02,
13,-8.00e-03,-1.60e-01,
14,-8.00e-03,-1.60e-01,
15,2.40e-03,8.00e-02,
16,-7.20e-03,8.00e-02,
17,2.40e-03,-1.60e-01,
18,2.40e-03,-1.60e-01,
19,-7.20e-03,8.00e-02,
20,-8.00e-03,-1.60e-01,
21,2.40e-03,8.00e-02,
22,-8.00e-03,8.00e-02,
23,3.20e-03,-1.60e-01,
24,-6.40e-03,5.76e+00,
25,3.20e-03,4.64e+00,
26,2.40e-03,5.20e+00,
27,-6.40e-03,4.64e+00,
28,-8.00e-04,4.64e+00,
29,-3.20e-03,5.20e+00,
30,-8.00e-04,5.36e+00,
31,-1.04e-02,4.56e+00,
32,-9.60e-03,4.64e+00,
33,-5.60e-03,5.20e+00,
34,-5.60e-03,5.12e+00,
35,-8.00e-03,4.64e+00,
36,-8.00e-03,4.64e+00,
37,-5.60e-03,5.20e+00,
38,-5.60e-03,5.20e+00,
39,-2.48e-02,4.64e+00,
40,-2.08e-02,5.12e+00,
41,-5.76e-02,4.72e+00,
42,-6.32e-02,4.64e+00,
43,-5.04e-02,5.12e+00,
44,-5.52e-02,5.12e+00,
45,-2.16e-02,4.72e+00,
46,-2.48e-02,4.72e+00,
47,1.44e-02,5.12e+00,
48,9.60e-03,5.12e+00,
49,3.76e-02,4.64e+00,
50,4.08e-02,4.72e+00,
51,3.12e-02,5.12e+00,
52,3.60e-02,5.12e+00,
53,8.00e-03,4.72e+00,
54,9.60e-03,5.12e+00,
55,-1.84e-02,4.72e+00,
56,-1.20e-02,4.72e+00,
57,-3.04e-02,5.12e+00,
58,-3.04e-02,4.72e+00,
59,-2.00e-02,5.12e+00,
60,-2.72e-02,5.12e+00,
61,-3.20e-03,4.64e+00,
62,-1.12e-02,5.12e+00,
63,1.36e-02,4.72e+00,
64,7.20e-03,4.80e+00,
65,1.84e-02,5.12e+00,
66,2.08e-02,5.12e+00,
67,8.00e-03,4.72e+00,
68,1.60e-02,5.12e+00,
69,-5.60e-03,4.72e+00,
70,0.00e+00,4.80e+00,
71,-1.52e-02,5.12e+00,
72,-7.20e-03,5.12e+00,
73,-1.68e-02,4.72e+00,
74,-1.68e-02,5.12e+00,
75,-2.40e-03,4.72e+00,
76,-9.60e-03,5.12e+00,
77,4.00e-03,4.72e+00,
78,-3.20e-03,4.72e+00,
79,1.04e-02,5.12e+00,
80,1.04e-02,5.12e+00,
81,-1.60e-03,4.64e+00,
82,4.80e-03,5.12e+00,
83,-6.40e-03,4.64e+00,
84,8.00e-04,4.72e+00,
85,-1.12e-02,5.12e+00,
86,-1.28e-02,5.12e+00,
87,-2.40e-03,4.64e+00,
88,-8.00e-03,5.12e+00,
89,3.20e-03,4.64e+00,
90,-4.80e-03,5.12e+00,
91,4.80e-03,4.64e+00,
92,-4.80e-03,5.12e+00,
93,7.20e-03,4.64e+00,
94,5.60e-03,5.12e+00,
95,-4.80e-03,4.64e+00,
96,1.60e-03,5.12e+00,
97,-8.00e-03,4.64e+00,
98,-1.60e-03,5.12e+00,
99,-1.04e-02,4.64e+00,
100,-1.04e-02,5.12e+00,
101,0.00e+00,4.64e+00,
102,-8.80e-03,5.12e+00,
103,2.40e-03,4.64e+00,
104,-4.00e-03,5.12e+00,
105,8.00e-03,4.64e+00,
106,6.40e-03,5.12e+00,
107,-5.60e-03,4.64e+00,
108,3.20e-03,4.64e+00,
109,-6.40e-03,5.12e+00,
110,1.60e-03,5.12e+00,
111,-1.04e-02,4.64e+00,
112,-1.04e-02,5.12e+00,
113,8.00e-04,4.64e+00,
114,-8.00e-04,5.12e+00,
115,-9.60e-03,4.64e+00,
116,-9.60e-03,5.12e+00,
117,2.40e-03,4.64e+00,
118,4.00e-03,5.12e+00,
119,-5.60e-03,4.64e+00,
120,5.60e-03,5.04e+00,
121,-4.80e-03,4.64e+00,
122,4.00e-03,4.64e+00,
123,-7.20e-03,5.12e+00,
124,1.60e-03,5.12e+00,
125,-8.80e-03,4.64e+00,
126,-1.28e-02,5.12e+00,
127,0.00e+00,4.64e+00,
128,-8.80e-03,5.12e+00,
129,-1.60e-03,4.64e+00,
130,-7.20e-03,4.64e+00,
131,1.60e-03,5.12e+00,
132,-7.20e-03,5.12e+00,
133,4.80e-03,4.64e+00,
134,4.80e-03,5.12e+00,
135,-3.20e-03,4.64e+00,
136,4.80e-03,4.64e+00,
137,-5.60e-03,5.12e+00,
138,2.40e-03,4.64e+00,
139,-8.00e-03,5.12e+00,
140,8.00e-04,4.64e+00,
141,-9.60e-03,5.12e+00,
142,0.00e+00,4.64e+00,
143,-8.80e-03,5.12e+00,
144,1.60e-03,4.64e+00,
145,-8.00e-03,5.12e+00,
146,-5.60e-03,4.64e+00,
147,4.80e-03,5.12e+00,
148,5.60e-03,4.64e+00,
149,-4.80e-03,5.12e+00,
150,4.80e-03,4.64e+00,
151,-4.80e-03,5.12e+00,
152,4.00e-03,4.64e+00,
153,-6.40e-03,5.12e+00,
154,-9.60e-03,4.64e+00,
155,2.40e-03,5.12e+00,
156,-8.80e-03,4.64e+00,
157,1.60e-03,5.04e+00,
158,-1.04e-02,5.12e+00,
159,8.00e-04,4.64e+00,
160,-6.40e-03,5.04e+00,
161,5.60e-03,4.64e+00,
162,4.80e-03,4.64e+00,
163,-4.80e-03,5.12e+00,
164,-7.20e-03,5.04e+00,
165,4.00e-03,4.64e+00,
166,-5.60e-03,4.64e+00,
167,4.00e-03,5.12e+00,
168,2.40e-03,5.04e+00,
169,-5.60e-03,4.64e+00,
170,-5.60e-03,5.04e+00,
171,2.40e-03,4.64e+00,
172,-6.40e-03,4.64e+00,
173,3.20e-03,5.12e+00,
174,-5.60e-03,4.64e+00,
175,4.00e-03,5.12e+00,
176,4.00e-03,5.04e+00,
177,-5.60e-03,4.64e+00,
178,7.20e-03,4.64e+00,
179,-4.80e-03,5.04e+00,
180,5.60e-03,4.64e+00,
181,-7.20e-03,5.04e+00,
182,-7.20e-03,4.64e+00,
183,3.20e-03,5.04e+00,
184,3.20e-03,5.04e+00,
185,-5.60e-03,4.64e+00,
186,4.00e-03,4.64e+00,
187,-7.20e-03,5.04e+00,
188,4.00e-03,4.64e+00,
189,-6.40e-03,5.04e+00,
190,-6.40e-03,4.64e+00,
191,4.80e-03,5.12e+00,
192,-6.40e-03,4.64e+00,
193,4.80e-03,5.04e+00,
194,4.00e-03,4.64e+00,
195,-7.20e-03,5.12e+00,
196,1.60e-03,4.64e+00,
197,-7.20e-03,4.96e+00,
198,-6.40e-03,4.64e+00,
199,3.20e-03,5.04e+00,
200,3.20e-03,5.04e+00,
201,-7.20e-03,4.64e+00,
202,-7.20e-03,5.04e+00,
203,3.20e-03,4.64e+00,
204,-5.60e-03,4.64e+00,
205,4.80e-03,5.04e+00,
206,4.00e-03,4.64e+00,
207,-5.60e-03,5.04e+00,
208,2.40e-03,5.04e+00,
209,-7.20e-03,4.64e+00,
210,8.00e-04,4.64e+00,
211,-7.20e-03,5.04e+00,
212,-7.20e-03,5.04e+00,
213,1.60e-03,4.64e+00,
214,-7.20e-03,4.64e+00,
215,3.20e-03,5.04e+00,
216,-5.60e-03,5.04e+00,
217,4.00e-03,4.64e+00,
218,-4.00e-03,5.04e+00,
219,5.60e-03,4.64e+00,
220,3.20e-03,4.64e+00,
221,-6.40e-03,5.04e+00,
222,2.40e-03,5.04e+00,
223,-6.40e-03,4.64e+00,
224,-7.20e-03,4.64e+00,
225,1.60e-03,5.04e+00,
226,4.00e-03,5.04e+00,
227,-7.20e-03,4.64e+00,
228,-7.20e-03,4.64e+00,
229,3.20e-03,5.04e+00,
230,4.00e-03,4.96e+00,
231,-5.60e-03,4.64e+00,
232,5.60e-03,4.64e+00,
233,-5.60e-03,5.04e+00,
234,-5.60e-03,4.64e+00,
235,4.00e-03,4.96e+00,
236,-4.80e-03,4.64e+00,
237,4.80e-03,5.04e+00,
238,4.00e-03,4.64e+00,
239,-8.00e-03,5.04e+00,
240,-6.40e-03,4.64e+00,
241,2.40e-03,5.04e+00,
242,-4.80e-03,5.04e+00,
243,4.00e-03,4.64e+00,
244,-6.40e-03,4.64e+00,
245,4.00e-03,5.04e+00,
246,2.40e-03,5.04e+00,
247,-6.40e-03,4.64e+00,
248,1.60e-03,4.64e+00,
249,-8.00e-03,5.04e+00,
250,2.40e-03,4.64e+00,
251,-7.20e-03,5.04e+00,
252,-7.20e-03,5.04e+00,
253,2.40e-03,4.64e+00,
254,1.60e-03,4.64e+00,
255,-8.00e-03,5.04e+00,
256,-6.40e-03,4.64e+00,
257,3.20e-03,5.04e+00,
258,-5.60e-03,5.04e+00,
259,3.20e-03,4.64e+00,
260,4.80e-03,4.64e+00,
261,-7.20e-03,5.04e+00,
262,2.40e-03,5.04e+00,
263,-7.20e-03,4.64e+00,
264,4.80e-03,5.04e+00,
265,-8.00e-03,4.64e+00,
266,2.40e-03,5.04e+00,
267,-8.00e-03,4.64e+00,
268,2.40e-03,4.64e+00,
269,-6.40e-03,5.04e+00,
270,-5.60e-03,4.64e+00,
271,5.60e-03,5.04e+00,
272,4.80e-03,4.64e+00,
273,-5.60e-03,5.04e+00,
274,-6.40e-03,5.04e+00,
275,3.20e-03,4.64e+00,
276,3.20e-03,4.64e+00,
277,-8.00e-03,5.04e+00,
278,-7.20e-03,5.04e+00,
279,3.20e-03,4.64e+00,
280,-6.40e-03,5.04e+00,
281,2.40e-03,4.64e+00,
282,1.60e-03,5.04e+00,
283,-7.20e-03,4.64e+00,
284,-7.20e-03,5.04e+00,
285,3.20e-03,4.64e+00,
286,-6.40e-03,5.04e+00,
287,4.80e-03,4.64e+00,
288,-8.00e-03,5.04e+00,
289,4.00e-03,4.64e+00,
290,4.00e-03,4.64e+00,
291,-8.80e-03,5.04e+00,
292,3.20e-03,4.64e+00,
293,-5.60e-03,5.04e+00,
294,-5.60e-03,5.04e+00,
295,2.40e-03,4.64e+00,
296,1.60e-03,4.64e+00,
297,-7.20e-03,5.04e+00,
298,-6.40e-03,4.64e+00,
299,2.40e-03,5.04e+00,
300,-6.40e-03,4.64e+00,
301,2.40e-03,5.04e+00,
302,4.00e-03,5.04e+00,
303,-8.80e-03,4.64e+00,
304,-6.40e-03,4.64e+00,
305,4.00e-03,5.04e+00,
306,-5.60e-03,5.04e+00,
307,3.20e-03,4.64e+00,
308,-7.20e-03,4.64e+00,
309,3.20e-03,5.04e+00,
310,-7.20e-03,5.04e+00,
311,3.20e-03,4.64e+00,
312,2.40e-03,5.04e+00,
313,-7.20e-03,4.64e+00,
314,4.80e-03,4.64e+00,
315,-6.40e-03,5.04e+00,
316,3.20e-03,5.04e+00,
317,-6.40e-03,4.64e+00,
318,3.20e-03,4.64e+00,
319,-6.40e-03,5.04e+00,
320,-5.60e-03,4.64e+00,
321,3.20e-03,5.04e+00,
322,-6.40e-03,4.64e+00,
323,4.00e-03,5.04e+00,
324,2.40e-03,5.04e+00,
325,-7.20e-03,4.64e+00,
326,-6.40e-03,4.64e+00,
327,3.20e-03,5.04e+00,
328,3.20e-03,5.04e+00,
329,-5.60e-03,4.64e+00,
330,3.20e-03,5.04e+00,
331,-8.00e-03,4.64e+00,
332,-7.20e-03,5.04e+00,
333,1.60e-03,4.56e+00,
334,1.60e-03,4.64e+00,
335,-7.20e-03,5.04e+00,
336,-8.00e-03,5.04e+00,
337,2.40e-03,4.64e+00,
338,-5.60e-03,5.04e+00,
339,2.40e-03,4.64e+00,
340,5.60e-03,4.64e+00,
341,-5.60e-03,5.04e+00,
342,4.80e-03,4.64e+00,
343,-6.40e-03,5.04e+00,
344,-4.80e-03,4.64e+00,
345,4.00e-03,5.04e+00,
346,6.40e-03,5.04e+00,
347,-6.40e-03,4.64e+00,
348,-7.20e-03,5.04e+00,
349,1.60e-03,4.64e+00,
350,2.40e-03,4.64e+00,
351,-7.20e-03,5.04e+00,
352,-6.40e-03,4.64e+00,
353,3.20e-03,5.04e+00,
354,4.00e-03,5.04e+00,
355,-4.80e-03,4.64e+00,
356,3.20e-03,5.04e+00,
357,-6.40e-03,4.64e+00,
358,4.80e-03,5.04e+00,
359,-5.60e-03,4.64e+00,
360,-6.40e-03,5.04e+00,
361,4.00e-03,4.64e+00,
362,-8.80e-03,4.64e+00,
363,1.60e-03,5.04e+00,
364,-7.20e-03,5.04e+00,
365,3.20e-03,4.64e+00,
366,-7.20e-03,5.04e+00,
367,4.00e-03,4.64e+00,
368,2.40e-03,4.64e+00,
369,-8.80e-03,5.04e+00,
370,-7.20e-03,4.64e+00,
371,3.20e-03,5.04e+00,
372,-6.40e-03,5.04e+00,
373,4.00e-03,4.64e+00,
374,4.00e-03,5.04e+00,
375,-5.60e-03,4.64e+00,
376,2.40e-03,5.04e+00,
377,-6.40e-03,4.64e+00,
378,-8.80e-03,5.04e+00,
379,4.00e-03,4.64e+00,
380,3.20e-03,5.04e+00,
381,-7.20e-03,4.64e+00,
382,-5.60e-03,5.04e+00,
383,4.80e-03,4.64e+00,
384,-5.60e-03,4.64e+00,
385,5.60e-03,5.04e+00,
386,-4.80e-03,4.64e+00,
387,5.60e-03,5.04e+00,
388,-6.40e-03,5.04e+00,
389,4.80e-03,4.64e+00,
390,-8.00e-03,5.04e+00,
391,2.40e-03,4.64e+00,
392,-6.40e-03,4.64e+00,
393,2.40e-03,5.04e+00,
394,4.00e-03,4.64e+00,
395,-6.40e-03,5.04e+00,
396,-6.40e-03,4.64e+00,
397,5.60e-03,5.04e+00,
398,5.60e-03,4.64e+00,
399,-5.60e-03,5.04e+00,
400,2.40e-03,5.04e+00,
401,-7.20e-03,4.64e+00,
402,-6.40e-03,4.64e+00,
403,2.40e-03,5.04e+00,
404,-4.80e-03,5.04e+00,
405,4.00e-03,4.64e+00,
406,4.00e-03,4.64e+00,
407,-6.40e-03,5.04e+00,
408,3.20e-03,4.64e+00,
409,-7.20e-03,5.04e+00,
410,2.40e-03,5.04e+00,
411,-7.20e-03,4.64e+00,
412,-6.40e-03,5.04e+00,
413,3.20e-03,4.64e+00,
414,4.00e-03,4.64e+00,
415,-6.40e-03,5.04e+00,
416,1.60e-03,4.64e+00,
417,-7.20e-03,5.04e+00,
418,-6.40e-03,4.64e+00,
419,3.20e-03,5.04e+00,
420,3.20e-03,4.64e+00,
421,-7.20e-03,5.04e+00,
422,1.60e-03,4.64e+00,
423,-8.80e-03,5.04e+00,
424,-8.00e-03,5.04e+00,
425,1.60e-03,4.64e+00,
426,2.40e-03,4.64e+00,
427,-8.00e-03,5.04e+00,
428,-7.20e-03,4.64e+00,
429,2.40e-03,5.04e+00,
430,-6.40e-03,5.04e+00,
431,2.40e-03,4.64e+00,
432,2.40e-03,4.64e+00,
433,-8.80e-03,5.04e+00,
434,2.40e-03,5.04e+00,
435,-8.00e-03,4.64e+00,
436,2.40e-03,4.64e+00,
437,-8.80e-03,5.04e+00,
438,1.60e-03,4.64e+00,
439,-7.20e-03,5.04e+00,
440,-6.40e-03,4.64e+00,
441,4.80e-03,5.04e+00,
442,-6.40e-03,5.04e+00,
443,3.20e-03,4.64e+00,
444,3.20e-03,4.64e+00,
445,-7.20e-03,5.04e+00,
446,8.00e-04,4.64e+00,
447,-7.20e-03,5.04e+00,
448,-8.00e-03,4.64e+00,
449,2.40e-03,5.04e+00,
450,-8.00e-03,5.04e+00,
451,1.60e-03,4.64e+00,
452,-6.40e-03,5.04e+00,
453,4.00e-03,4.64e+00,
454,-5.60e-03,4.64e+00,
455,4.00e-03,5.04e+00,
456,2.40e-03,5.04e+00,
457,-5.60e-03,4.64e+00,
458,-6.40e-03,4.64e+00,
459,4.00e-03,5.04e+00,
460,4.80e-03,5.04e+00,
461,-8.00e-03,4.64e+00,
462,-7.20e-03,4.64e+00,
463,2.40e-03,5.04e+00,
464,3.20e-03,4.64e+00,
465,-7.20e-03,5.04e+00,
466,2.40e-03,5.04e+00,
467,-8.80e-03,4.64e+00,
468,3.20e-03,5.04e+00,
469,-7.20e-03,4.64e+00,
470,-8.00e-03,5.04e+00,
471,4.00e-03,4.64e+00,
472,4.00e-03,5.04e+00,
473,-5.60e-03,4.64e+00,
474,-6.40e-03,5.04e+00,
475,3.20e-03,4.64e+00,
476,1.60e-03,5.04e+00,
477,-8.80e-03,4.64e+00,
478,-7.20e-03,5.04e+00,
479,3.20e-03,4.64e+00,
480,3.20e-03,4.64e+00,
481,-6.40e-03,5.04e+00,
482,2.40e-03,4.64e+00,
483,-6.40e-03,5.04e+00,
484,4.00e-03,5.04e+00,
485,-7.20e-03,4.64e+00,
486,2.40e-03,4.64e+00,
487,-7.20e-03,5.04e+00,
488,3.20e-03,4.64e+00,
489,-7.20e-03,5.04e+00,
490,-8.00e-03,4.64e+00,
491,1.60e-03,5.04e+00,
492,-6.40e-03,5.04e+00,
493,2.40e-03,4.64e+00,
494,-5.60e-03,5.04e+00,
495,3.20e-03,4.48e+00,
496,3.20e-03,4.56e+00,
497,-5.60e-03,5.04e+00,
498,2.40e-03,5.04e+00,
499,-6.40e-03,4.64e+00,
500,3.20e-03,4.64e+00,
501,-7.20e-03,5.04e+00,
502,1.60e-03,4.64e+00,
503,-8.00e-03,5.04e+00,
504,-6.40e-03,5.04e+00,
505,4.00e-03,4.64e+00,
506,-8.80e-03,5.04e+00,
507,3.20e-03,4.64e+00,
508,-8.00e-03,4.64e+00,
509,2.40e-03,5.04e+00,
510,-5.60e-03,5.04e+00,
511,3.20e-03,4.64e+00,
512,4.80e-03,4.56e+00,
513,-5.60e-03,5.04e+00,
514,3.20e-03,4.64e+00,
515,-7.20e-03,5.04e+00,
516,-8.00e-03,4.64e+00,
517,4.00e-03,5.04e+00,
518,4.00e-03,5.04e+00,
519,-6.40e-03,4.64e+00,
520,-6.40e-03,4.64e+00,
521,3.20e-03,5.04e+00,
522,2.40e-03,4.64e+00,
523,-8.00e-03,5.04e+00,
524,2.40e-03,4.56e+00,
525,-8.00e-03,5.12e+00,
526,2.40e-03,5.12e+00,
527,-8.00e-03,4.56e+00,
528,-8.00e-04,4.56e+00,
529,-3.20e-03,5.12e+00,
530,-8.00e-04,4.16e+00,
531,-1.20e-02,5.20e+00,
532,-1.36e-02,5.12e+00,
533,-7.20e-03,4.48e+00,
534,-7.20e-03,4.56e+00,
535,-9.60e-03,5.12e+00,
536,-9.60e-03,5.12e+00,
537,-7.20e-03,4.64e+00,
538,-7.20e-03,4.64e+00,
539,-8.80e-03,5.04e+00,
540,-7.20e-03,4.56e+00,
541,-8.80e-03,5.12e+00,
542,-6.40e-03,4.64e+00,
543,-1.68e-02,5.12e+00,
544,-1.68e-02,5.12e+00,
545,-4.00e-03,-1.20e+00,
546,-1.12e-02,-2.40e-01,
547,7.20e-03,0.00e+00,
548,8.00e-04,0.00e+00,
549,1.28e-02,-3.20e-01,
550,1.52e-02,-1.60e-01,
551,1.60e-03,0.00e+00,
552,1.04e-02,-1.60e-01,
553,-4.00e-03,0.00e+00,
554,1.60e-03,-1.60e-01,
555,-1.12e-02,0.00e+00,
556,-1.44e-02,-1.60e-01,
557,-3.20e-03,0.00e+00,
558,-1.28e-02,-2.40e-01,
559,-3.20e-03,0.00e+00,
560,-1.04e-02,0.00e+00,
561,1.60e-03,-2.40e-01,
562,-4.80e-03,-1.60e-01,
563,5.60e-03,0.00e+00,
564,-1.60e-03,-1.60e-01,
565,5.60e-03,0.00e+00,
566,5.60e-03,-1.60e-01,
567,-5.60e-03,0.00e+00,
568,1.60e-03,0.00e+00,
569,-8.00e-03,-2.40e-01,
570,0.00e+00,-1.60e-01,
571,-9.60e-03,0.00e+00,
572,-1.20e-02,-1.60e-01,
573,-8.00e-04,0.00e+00,
574,-8.80e-03,-1.60e-01,
575,2.40e-03,0.00e+00,
576,-3.20e-03,-1.60e-01,
577,4.00e-03,0.00e+00,
578,4.00e-03,-1.60e-01,
579,-7.20e-03,0.00e+00,
580,3.20e-03,-2.40e-01,
581,-7.20e-03,0.00e+00,
582,2.40e-03,-1.60e-01,
583,-8.00e-03,0.00e+00,
584,-8.00e-03,-1.60e-01,
585,3.20e-03,-1.60e-01,
586,-7.20e-03,-1.60e-01,
587,3.20e-03,0.00e+00,
588,-5.60e-03,-1.60e-01,
589,4.80e-03,-1.60e-01,
590,4.80e-03,-2.40e-01,
591,-4.80e-03,0.00e+00,
592,4.00e-03,-1.60e-01,
593,-5.60e-03,-1.60e-01,
594,2.40e-03,-1.60e-01,
595,-8.00e-03,0.00e+00,
596,8.00e-04,-1.60e-01,
597,-9.60e-03,-1.60e-01,
598,-8.80e-03,-1.60e-01,
599,8.00e-04,0.00e+00,
600,-7.20e-03,0.00e+00,
601,3.20e-03,-2.40e-01,
602,-7.20e-03,0.00e+00,
603,4.00e-03,-2.40e-01,
604,4.80e-03,-1.60e-01,
605,-4.80e-03,0.00e+00,
606,3.20e-03,-1.60e-01,
607,-6.40e-03,0.00e+00,
608,3.20e-03,-1.60e-01,
609,-8.00e-03,0.00e+00,
610,8.00e-04,0.00e+00,
611,-8.00e-03,-2.40e-01,
612,-8.80e-03,-1.60e-01,
613,8.00e-04,0.00e+00,
614,-8.80e-03,-1.60e-01,
615,1.60e-03,0.00e+00,
616,-6.40e-03,-1.60e-01,
617,4.00e-03,0.00e+00,
618,-4.80e-03,-1.60e-01,
619,3.20e-03,0.00e+00,
620,3.20e-03,0.00e+00,
621,-6.40e-03,-2.40e-01,
622,3.20e-03,0.00e+00,
623,-6.40e-03,-2.40e-01,
624,4.00e-03,-1.60e-01,
625,-8.00e-03,0.00e+00,
626,-6.40e-03,-1.60e-01,
627,2.40e-03,0.00e+00,
628,1.60e-03,-1.60e-01,
629,-7.20e-03,0.00e+00,
630,-7.20e-03,-1.60e-01,
631,2.40e-03,8.00e-02,
632,-6.40e-03,-2.40e-01,
633,2.40e-03,0.00e+00,
634,-8.00e-03,-1.60e-01,
635,4.00e-03,8.00e-02,
636,-6.40e-03,-1.60e-01,
637,4.00e-03,8.00e-02,
638,-5.60e-03,-1.60e-01,
639,5.60e-03,8.00e-02,
640,4.00e-03,-1.60e-01,
641,-5.60e-03,8.00e-02,
642,2.40e-03,0.00e+00,
643,-7.20e-03,-2.40e-01,
644,-6.40e-03,-2.40e-01,
645,2.40e-03,8.00e-02,
646,-7.20e-03,-1.60e-01,
647,3.20e-03,8.00e-02,
648,1.60e-03,-1.60e-01,
649,-7.20e-03,0.00e+00,
650,-6.40e-03,-1.60e-01,
651,3.20e-03,8.00e-02,
652,2.40e-03,8.00e-02,
653,-6.40e-03,-2.40e-01,
654,-7.20e-03,8.00e-02,
655,4.00e-03,-2.40e-01,
656,8.00e-04,-1.60e-01,
657,-7.20e-03,8.00e-02,
658,-6.40e-03,-1.60e-01,
659,2.40e-03,8.00e-02,
660,4.00e-03,-1.60e-01,
661,-8.00e-03,8.00e-02,
662,2.40e-03,8.00e-02,
663,-7.20e-03,-2.40e-01,
664,-6.40e-03,8.00e-02,
665,4.00e-03,-2.40e-01,
666,3.20e-03,-1.60e-01,
667,-5.60e-03,8.00e-02,
668,4.80e-03,-1.60e-01,
669,-8.00e-03,8.00e-02,
670,2.40e-03,-1.60e-01,
671,-8.80e-03,8.00e-02,
672,-6.40e-03,-1.60e-01,
673,4.00e-03,8.00e-02,
674,5.60e-03,-2.40e-01,
675,-4.80e-03,8.00e-02,
676,4.80e-03,-1.60e-01,
677,-5.60e-03,8.00e-02,
678,3.20e-03,-1.60e-01,
679,-4.80e-03,8.00e-02,
680,3.20e-03,-1.60e-01,
681,-6.40e-03,8.00e-02,
682,1.60e-03,-1.60e-01,
683,-8.00e-03,8.00e-02,
684,1.60e-03,8.00e-02,
685,-6.40e-03,-2.40e-01,
686,-5.60e-03,-1.60e-01,
687,2.40e-03,8.00e-02,
688,2.40e-03,-1.60e-01,
689,-7.20e-03,8.00e-02,
690,4.00e-03,-1.60e-01,
691,-7.20e-03,8.00e-02,
692,-6.40e-03,-1.60e-01,
693,3.20e-03,8.00e-02,
694,-6.40e-03,8.00e-02,
695,4.00e-03,-2.40e-01,
696,-8.00e-03,-1.60e-01,
697,3.20e-03,8.00e-02,
698,-8.80e-03,-1.60e-01,
699,1.60e-03,8.00e-02,
700,-8.00e-03,-1.60e-01,
701,3.20e-03,8.00e-02,
702,-4.80e-03,-1.60e-01,
703,3.20e-03,8.00e-02,
704,-6.40e-03,8.00e-02,
705,4.00e-03,-2.40e-01,
706,4.00e-03,-1.60e-01,
707,-4.80e-03,8.00e-02,
708,-4.80e-03,-1.60e-01,
709,4.00e-03,8.00e-02,
710,3.20e-03,-1.60e-01,
711,-7.20e-03,8.00e-02,
712,-6.40e-03,-1.60e-01,
713,4.80e-03,8.00e-02,
714,-4.80e-03,8.00e-02,
715,4.00e-03,-1.60e-01,
716,2.40e-03,8.00e-02,
717,-7.20e-03,-2.40e-01,
718,-6.40e-03,-1.60e-01,
719,4.80e-03,8.00e-02,
720,2.40e-03,-1.60e-01,
721,-8.00e-03,8.00e-02,
722,3.20e-03,-1.60e-01,
723,-9.60e-03,8.00e-02,
724,-8.00e-03,8.00e-02,
725,2.40e-03,-1.60e-01,
726,1.60e-03,-1.60e-01,
727,-8.80e-03,8.00e-02,
728,-7.20e-03,-1.60e-01,
729,2.40e-03,8.00e-02,
730,-7.20e-03,-1.60e-01,
731,2.40e-03,8.00e-02,
732,2.40e-03,-1.60e-01,
733,-6.40e-03,8.00e-02,
734,-6.40e-03,8.00e-02,
735,4.00e-03,-1.60e-01,
736,3.20e-03,8.00e-02,
737,-6.40e-03,-1.60e-01,
738,2.40e-03,8.00e-02,
739,-6.40e-03,-1.60e-01,
740,-7.20e-03,-1.60e-01,
741,4.00e-03,8.00e-02,
742,-7.20e-03,8.00e-02,
743,3.20e-03,-1.60e-01,
744,3.20e-03,8.00e-02,
745,-7.20e-03,-1.60e-01,
746,2.40e-03,8.00e-02,
747,-7.20e-03,-1.60e-01,
748,-7.20e-03,8.00e-02,
749,3.20e-03,-1.60e-01,
750,3.20e-03,8.00e-02,
751,-8.00e-03,-1.60e-01,
752,-9.60e-03,8.00e-02,
753,3.20e-03,-1.60e-01,
754,3.20e-03,-1.60e-01,
755,-7.20e-03,8.00e-02,
756,2.40e-03,-1.60e-01,
757,-6.40e-03,8.00e-02,
758,-7.20e-03,-1.60e-01,
759,2.40e-03,8.00e-02,
760,-6.40e-03,8.00e-02,
761,3.20e-03,-1.60e-01,
762,-4.80e-03,-8.00e-02,
763,5.60e-03,8.00e-02,
764,4.00e-03,-8.00e-02,
765,-6.40e-03,8.00e-02,
766,3.20e-03,-8.00e-02,
767,-4.80e-03,8.00e-02,
768,-7.20e-03,8.00e-02,
769,4.80e-03,-1.60e-01,
770,4.00e-03,-8.00e-02,
771,-7.20e-03,8.00e-02,
772,-4.80e-03,-8.00e-02,
773,4.80e-03,8.00e-02,
774,-4.00e-03,-1.60e-01,
775,4.80e-03,8.00e-02,
776,-5.60e-03,-8.00e-02,
777,4.80e-03,8.00e-02,
778,-4.80e-03,-8.00e-02,
779,4.80e-03,8.00e-02,
780,-5.60e-03,8.00e-02,
781,5.60e-03,-1.60e-01,
782,-5.60e-03,8.00e-02,
783,4.80e-03,-1.60e-01,
784,4.00e-03,-8.00e-02,
785,-5.60e-03,8.00e-02,
786,3.20e-03,8.00e-02,
787,-7.20e-03,-8.00e-02,
788,4.00e-03,-8.00e-02,
789,-8.00e-03,8.00e-02,
790,8.00e-04,8.00e-02,
791,-8.00e-03,-1.60e-01,
792,-6.40e-03,-8.00e-02,
793,2.40e-03,8.00e-02,
794,-6.40e-03,8.00e-02,
795,2.40e-03,-8.00e-02,
796,-5.60e-03,8.00e-02,
797,4.80e-03,-1.60e-01,
798,3.20e-03,8.00e-02,
799,-7.20e-03,-8.00e-02,
800,-7.20e-03,-8.00e-02,
801,4.00e-03,8.00e-02,
802,5.60e-03,8.00e-02,
803,-5.60e-03,-8.00e-02,
804,-7.20e-03,-8.00e-02,
805,3.20e-03,8.00e-02,
806,-5.60e-03,8.00e-02,
807,4.00e-03,-8.00e-02,
808,2.40e-03,-8.00e-02,
809,-7.20e-03,8.00e-02,
810,-8.80e-03,-8.00e-02,
811,2.40e-03,8.00e-02,
812,-6.40e-03,8.00e-02,
813,1.60e-03,-1.60e-01,
814,-7.20e-03,8.00e-02,
815,2.40e-03,-1.60e-01,
816,4.00e-03,-8.00e-02,
817,-5.60e-03,8.00e-02,
818,-6.40e-03,8.00e-02,
819,4.00e-03,-8.00e-02,
820,3.20e-03,-8.00e-02,
821,-8.00e-03,8.00e-02,
822,-8.00e-03,8.00e-02,
823,2.40e-03,-8.00e-02,
824,1.60e-03,-8.00e-02,
825,-8.80e-03,8.00e-02,
826,-8.00e-03,8.00e-02,
827,1.60e-03,-8.00e-02,
828,-8.00e-03,-8.00e-02,
829,4.80e-03,8.00e-02,
830,4.80e-03,8.00e-02,
831,-6.40e-03,-8.00e-02,
832,4.00e-03,-8.00e-02,
833,-7.20e-03,8.00e-02,
834,2.40e-03,8.00e-02,
835,-6.40e-03,-8.00e-02,
836,-9.60e-03,0.00e+00,
837,4.00e-03,-8.00e-02,
838,-6.40e-03,8.00e-02,
839,4.80e-03,-8.00e-02,
840,3.20e-03,-8.00e-02,
841,-7.20e-03,8.00e-02,
842,2.40e-03,-8.00e-02,
843,-8.00e-03,8.00e-02,
