NMRdata/glyc1/95up/95t41.csv

X,CH3,CH4,Start,Increment,
Sequence,Volt,Volt,-4.800000e-04,2.000000e-05
0,-6.40e-03,-1.60e-01,
1,2.40e-03,8.00e-02,
2,-6.40e-03,8.00e-02,
3,2.40e-03,-1.60e-01,
4,-6.40e-03,8.00e-02,
5,1.60e-03,-1.60e-01,
6,-6.40e-03,8.00e-02,
7,1.60e-03,-1.60e-01,
8,-6.40e-03,8.00e-02,
9,2.40e-03,-1.60e-01,
10,1.60e-03,-1.60e-01,
11,-5.60e-03,8.00e-02,
12,2.40e-03,8.00e-02,
13,-5.60e-03,-1.60e-01,
14,1.60e-03,-1.60e-01,
15,-5.60e-03,8.00e-02,
16,-5.60e-03,8.00e-02,
17,2.40e-03,-1.60e-01,
18,2.40e-03,-1.60e-01,
19,-7.20e-03,8.00e-02,
20,-7.20e-03,8.00e-02,
21,1.60e-03,-1.60e-01,
22,-5.60e-03,8.00e-02,
23,2.40e-03,-1.60e-01,
24,2.40e-03,5.76e+00,
25,-5.60e-03,4.72e+00,
26,-5.60e-03,5.12e+00,
27,1.60e-03,4.64e+00,
28,-8.00e-04,5.20e+00,
29,-3.20e-03,4.64e+00,
30,-8.00e-04,5.44e+00,
31,-1.12e-02,4.56e+00,
32,-9.60e-03,4.72e+00,
33,-5.60e-03,5.20e+00,
34,-8.00e-03,4.64e+00,
35,-5.60e-03,5.12e+00,
36,-8.00e-03,5.12e+00,
37,-5.60e-03,4.64e+00,
38,-5.60e-03,5.20e+00,
39,-2.64e-02,4.64e+00,
40,-2.32e-02,5.12e+00,
41,-5.84e-02,4.64e+00,
42,-6.16e-02,5.12e+00,
43,-5.04e-02,4.64e+00,
44,-5.60e-02,5.12e+00,
45,-2.24e-02,4.72e+00,
46,-2.64e-02,5.12e+00,
47,1.28e-02,4.72e+00,
48,1.04e-02,4.72e+00,
49,3.68e-02,5.12e+00,
50,3.20e-02,5.12e+00,
51,4.16e-02,4.72e+00,
52,3.60e-02,5.12e+00,
53,8.80e-03,4.72e+00,
54,1.12e-02,5.12e+00,
55,-1.76e-02,4.72e+00,
56,-1.20e-02,4.72e+00,
57,-3.04e-02,5.12e+00,
58,-3.12e-02,5.12e+00,
59,-2.08e-02,4.72e+00,
60,-2.72e-02,4.72e+00,
61,-6.40e-03,5.12e+00,
62,-1.20e-02,5.12e+00,
63,1.12e-02,4.72e+00,
64,6.40e-03,5.12e+00,
65,2.00e-02,4.72e+00,
66,1.92e-02,5.12e+00,
67,6.40e-03,4.72e+00,
68,1.20e-02,5.12e+00,
69,-6.40e-03,4.72e+00,
70,8.00e-04,4.72e+00,
71,-1.52e-02,5.12e+00,
72,-9.60e-03,5.12e+00,
73,-1.76e-02,4.72e+00,
74,-1.68e-02,5.12e+00,
75,-3.20e-03,4.72e+00,
76,-9.60e-03,4.72e+00,
77,4.80e-03,5.12e+00,
78,-2.40e-03,5.12e+00,
79,8.00e-03,4.72e+00,
80,8.00e-03,5.12e+00,
81,-8.00e-04,4.64e+00,
82,4.80e-03,5.12e+00,
83,-5.60e-03,4.72e+00,
84,0.00e+00,4.72e+00,
85,-8.80e-03,5.12e+00,
86,-1.12e-02,5.12e+00,
87,-2.40e-03,4.72e+00,
88,-1.04e-02,5.12e+00,
89,-8.00e-04,4.64e+00,
90,-5.60e-03,5.12e+00,
91,3.20e-03,4.72e+00,
92,-2.40e-03,4.64e+00,
93,4.80e-03,5.12e+00,
94,4.00e-03,4.72e+00,
95,-4.00e-03,5.12e+00,
96,2.40e-03,4.64e+00,
97,-8.00e-03,5.12e+00,
98,-8.00e-04,5.12e+00,
99,-9.60e-03,4.64e+00,
100,-9.60e-03,5.12e+00,
101,-8.00e-04,4.72e+00,
102,-7.20e-03,5.12e+00,
103,3.20e-03,4.72e+00,
104,-4.00e-03,5.12e+00,
105,4.80e-03,4.64e+00,
106,4.80e-03,5.12e+00,
107,-2.40e-03,4.72e+00,
108,3.20e-03,4.72e+00,
109,-6.40e-03,5.12e+00,
110,0.00e+00,5.12e+00,
111,-8.80e-03,4.64e+00,
112,-2.40e-03,4.72e+00,
113,-1.20e-02,5.12e+00,
114,-1.04e-02,4.72e+00,
115,-1.60e-03,5.12e+00,
116,-8.80e-03,5.12e+00,
117,2.40e-03,4.64e+00,
118,-4.00e-03,5.12e+00,
119,4.80e-03,4.72e+00,
120,-2.40e-03,5.12e+00,
121,5.60e-03,4.64e+00,
122,4.00e-03,4.64e+00,
123,-4.80e-03,5.12e+00,
124,1.60e-03,5.12e+00,
125,-8.00e-03,4.72e+00,
126,-1.60e-03,4.64e+00,
127,-9.60e-03,5.12e+00,
128,-9.60e-03,5.12e+00,
129,-8.00e-04,4.64e+00,
130,-8.80e-03,5.12e+00,
131,8.00e-04,4.64e+00,
132,-5.60e-03,5.12e+00,
133,2.40e-03,4.64e+00,
134,2.40e-03,5.12e+00,
135,-4.80e-03,4.64e+00,
136,-4.00e-03,5.12e+00,
137,3.20e-03,4.64e+00,
138,1.60e-03,5.12e+00,
139,-7.20e-03,4.64e+00,
140,8.00e-04,5.12e+00,
141,-9.60e-03,4.64e+00,
142,-9.60e-03,5.12e+00,
143,0.00e+00,4.64e+00,
144,-8.00e-03,4.64e+00,
145,8.00e-04,5.12e+00,
146,-7.20e-03,4.64e+00,
147,1.60e-03,5.12e+00,
148,2.40e-03,4.64e+00,
149,-6.40e-03,5.12e+00,
150,-4.80e-03,4.64e+00,
151,2.40e-03,5.12e+00,
152,-6.40e-03,4.64e+00,
153,8.00e-04,5.12e+00,
154,-8.80e-03,4.64e+00,
155,0.00e+00,5.12e+00,
156,-8.00e-03,4.64e+00,
157,8.00e-04,5.12e+00,
158,-6.40e-03,5.12e+00,
159,1.60e-03,4.64e+00,
160,-6.40e-03,4.64e+00,
161,1.60e-03,5.12e+00,
162,2.40e-03,4.72e+00,
163,-5.60e-03,5.12e+00,
164,2.40e-03,5.12e+00,
165,-6.40e-03,4.64e+00,
166,1.60e-03,4.64e+00,
167,-7.20e-03,5.12e+00,
168,-7.20e-03,4.64e+00,
169,8.00e-04,5.12e+00,
170,0.00e+00,4.64e+00,
171,-7.20e-03,5.04e+00,
172,-7.20e-03,5.04e+00,
173,1.60e-03,4.64e+00,
174,-5.60e-03,4.64e+00,
175,1.60e-03,5.04e+00,
176,-6.40e-03,5.04e+00,
177,1.60e-03,4.64e+00,
178,1.60e-03,4.64e+00,
179,-7.20e-03,5.12e+00,
180,-8.00e-03,5.12e+00,
181,8.00e-04,4.64e+00,
182,-8.00e-03,5.04e+00,
183,8.00e-04,4.64e+00,
184,-8.00e-03,4.64e+00,
185,1.60e-03,5.04e+00,
186,-7.20e-03,4.64e+00,
187,8.00e-04,5.04e+00,
188,-4.80e-03,4.64e+00,
189,2.40e-03,5.04e+00,
190,-4.80e-03,5.04e+00,
191,2.40e-03,4.64e+00,
192,3.20e-03,4.80e+00,
193,-6.40e-03,4.64e+00,
194,8.00e-04,5.12e+00,
195,-8.00e-03,4.56e+00,
196,-7.20e-03,5.12e+00,
197,8.00e-04,4.64e+00,
198,-7.20e-03,4.64e+00,
199,1.60e-03,5.04e+00,
200,-7.20e-03,5.04e+00,
201,2.40e-03,4.64e+00,
202,-5.60e-03,5.04e+00,
203,2.40e-03,4.64e+00,
204,-4.80e-03,4.64e+00,
205,2.40e-03,5.04e+00,
206,-4.80e-03,4.64e+00,
207,2.40e-03,5.04e+00,
208,1.60e-03,5.04e+00,
209,-6.40e-03,4.64e+00,
210,-7.20e-03,4.64e+00,
211,1.60e-03,5.12e+00,
212,0.00e+00,5.04e+00,
213,-7.20e-03,4.64e+00,
214,-6.40e-03,4.64e+00,
215,2.40e-03,5.12e+00,
216,-4.80e-03,4.64e+00,
217,2.40e-03,5.04e+00,
218,2.40e-03,4.64e+00,
219,-4.80e-03,5.12e+00,
220,-4.80e-03,4.64e+00,
221,3.20e-03,5.04e+00,
222,2.40e-03,4.64e+00,
223,-7.20e-03,5.04e+00,
224,-8.00e-04,4.64e+00,
225,-8.80e-03,5.12e+00,
226,0.00e+00,4.64e+00,
227,-8.80e-03,5.12e+00,
228,-3.20e-03,4.64e+00,
229,-1.60e-03,5.12e+00,
230,-8.00e-04,4.64e+00,
231,-1.20e-02,5.28e+00,
232,-1.36e-02,5.12e+00,
233,-7.20e-03,4.56e+00,
234,-7.20e-03,4.64e+00,
235,-9.60e-03,5.12e+00,
236,-7.20e-03,4.64e+00,
237,-8.80e-03,5.12e+00,
238,-7.20e-03,4.64e+00,
239,-9.60e-03,5.04e+00,
240,-7.20e-03,4.64e+00,
241,-8.80e-03,5.12e+00,
242,-6.40e-03,4.64e+00,
243,-1.76e-02,5.12e+00,
244,-1.76e-02,5.04e+00,
245,-6.40e-03,4.56e+00,
246,-1.20e-02,4.96e+00,
247,2.40e-03,-1.28e+00,
248,-3.20e-03,0.00e+00,
249,9.60e-03,-2.40e-01,
250,9.60e-03,-1.60e-01,
251,1.60e-03,0.00e+00,
252,9.60e-03,-1.60e-01,
253,-1.60e-03,0.00e+00,
254,4.00e-03,-1.60e-01,
255,-8.80e-03,0.00e+00,
256,-1.60e-03,-1.60e-01,
257,-1.28e-02,0.00e+00,
258,-1.28e-02,0.00e+00,
259,-3.20e-03,-2.40e-01,
260,-9.60e-03,0.00e+00,
261,1.60e-03,-1.60e-01,
262,-4.80e-03,-1.60e-01,
263,4.00e-03,0.00e+00,
264,4.00e-03,0.00e+00,
265,-4.00e-03,-1.60e-01,
266,4.00e-03,-1.60e-01,
267,-4.00e-03,0.00e+00,
268,1.60e-03,0.00e+00,
269,-6.40e-03,-2.40e-01,
270,0.00e+00,-1.60e-01,
271,-8.80e-03,0.00e+00,
272,-8.00e-04,-8.00e-02,
273,-8.80e-03,-1.60e-01,
274,-8.00e-03,-1.60e-01,
275,8.00e-04,0.00e+00,
276,-4.80e-03,0.00e+00,
277,2.40e-03,-1.60e-01,
278,2.40e-03,-1.60e-01,
279,-5.60e-03,0.00e+00,
280,8.00e-04,-2.40e-01,
281,-7.20e-03,0.00e+00,
282,8.00e-04,-1.60e-01,
283,-7.20e-03,0.00e+00,
284,-8.00e-03,-1.60e-01,
285,0.00e+00,0.00e+00,
286,-8.00e-03,-1.60e-01,
287,1.60e-03,0.00e+00,
288,-5.60e-03,0.00e+00,
289,2.40e-03,-1.60e-01,
290,3.20e-03,0.00e+00,
291,-4.80e-03,-2.40e-01,
292,-4.80e-03,-1.60e-01,
293,2.40e-03,0.00e+00,
294,1.60e-03,-1.60e-01,
295,-7.20e-03,0.00e+00,
296,-8.00e-03,-1.60e-01,
297,0.00e+00,0.00e+00,
298,-8.80e-03,-1.60e-01,
299,0.00e+00,0.00e+00,
300,-8.00e-03,0.00e+00,
301,8.00e-04,-2.40e-01,
302,-5.60e-03,-1.60e-01,
303,2.40e-03,0.00e+00,
304,3.20e-03,-1.60e-01,
305,-5.60e-03,0.00e+00,
306,2.40e-03,-1.60e-01,
307,-6.40e-03,0.00e+00,
308,1.60e-03,0.00e+00,
309,-6.40e-03,-1.60e-01,
310,-8.00e-03,-2.40e-01,
311,8.00e-04,0.00e+00,
312,-8.00e-03,0.00e+00,
313,0.00e+00,-1.60e-01,
314,-8.00e-03,-1.60e-01,
315,1.60e-03,0.00e+00,
316,-4.80e-03,-8.00e-02,
317,3.20e-03,-1.60e-01,
318,4.00e-03,-1.60e-01,
319,-4.80e-03,0.00e+00,
320,4.00e-03,-1.60e-01,
321,-7.20e-03,0.00e+00,
322,1.60e-03,-2.40e-01,
323,-7.20e-03,0.00e+00,
324,-7.20e-03,-1.60e-01,
325,8.00e-04,0.00e+00,
326,8.00e-04,-1.60e-01,
327,-7.20e-03,0.00e+00,
328,-6.40e-03,-1.60e-01,
329,1.60e-03,0.00e+00,
330,-4.00e-03,-1.60e-01,
331,2.40e-03,0.00e+00,
332,-4.00e-03,0.00e+00,
333,4.00e-03,-2.40e-01,
334,2.40e-03,-1.60e-01,
335,-6.40e-03,0.00e+00,
336,1.60e-03,-1.60e-01,
337,-8.00e-03,0.00e+00,
338,-8.80e-03,-1.60e-01,
339,0.00e+00,0.00e+00,
340,-8.80e-03,-1.60e-01,
341,8.00e-04,0.00e+00,
342,-6.40e-03,-2.40e-01,
343,3.20e-03,0.00e+00,
344,-4.00e-03,-8.00e-02,
345,3.20e-03,-1.60e-01,
346,3.20e-03,-1.60e-01,
347,-4.80e-03,0.00e+00,
348,2.40e-03,-8.00e-02,
349,-4.80e-03,-1.60e-01,
350,8.00e-04,-1.60e-01,
351,-7.20e-03,0.00e+00,
352,0.00e+00,0.00e+00,
353,-8.80e-03,-2.40e-01,
354,-8.00e-04,-1.60e-01,
355,-8.80e-03,0.00e+00,
356,-6.40e-03,-1.60e-01,
357,1.60e-03,-1.60e-01,
358,-4.00e-03,-1.60e-01,
359,4.00e-03,0.00e+00,
360,3.20e-03,-1.60e-01,
361,-4.00e-03,0.00e+00,
362,3.20e-03,0.00e+00,
363,-6.40e-03,-2.40e-01,
364,0.00e+00,0.00e+00,
365,-7.20e-03,-2.40e-01,
366,-8.00e-03,-1.60e-01,
367,0.00e+00,0.00e+00,
368,-8.00e-03,-1.60e-01,
369,8.00e-04,0.00e+00,
370,-5.60e-03,-1.60e-01,
371,3.20e-03,0.00e+00,
372,4.00e-03,-1.60e-01,
373,-4.00e-03,0.00e+00,
374,4.00e-03,-2.40e-01,
375,-4.00e-03,8.00e-02,
376,1.60e-03,0.00e+00,
377,-7.20e-03,-1.60e-01,
378,0.00e+00,-1.60e-01,
379,-8.80e-03,8.00e-02,
380,-9.60e-03,-1.60e-01,
381,0.00e+00,8.00e-02,
382,-6.40e-03,-1.60e-01,
383,3.20e-03,8.00e-02,
384,-3.20e-03,8.00e-02,
385,7.20e-03,-2.40e-01,
386,6.40e-03,-1.60e-01,
387,-1.60e-03,0.00e+00,
388,5.60e-03,8.00e-02,
389,-6.40e-03,-1.60e-01,
390,8.00e-04,-1.60e-01,
391,-1.12e-02,8.00e-02,
392,-4.80e-03,-1.60e-01,
393,-1.36e-02,8.00e-02,
394,-1.52e-02,8.00e-02,
395,-3.20e-03,-2.40e-01,
396,-9.60e-03,-1.60e-01,
397,5.60e-03,8.00e-02,
398,0.00e+00,-1.60e-01,
399,1.28e-02,8.00e-02,
400,6.40e-03,8.00e-02,
401,1.44e-02,-1.60e-01,
402,1.36e-02,-1.60e-01,
403,-2.40e-03,8.00e-02,
404,2.40e-03,8.00e-02,
405,-1.60e-02,-2.40e-01,
406,-1.04e-02,-1.60e-01,
407,-2.40e-02,8.00e-02,
408,-2.56e-02,-1.60e-01,
409,-1.52e-02,8.00e-02,
410,-2.00e-02,-1.60e-01,
411,-8.00e-04,8.00e-02,
412,-4.80e-03,-1.60e-01,
413,1.84e-02,8.00e-02,
414,1.36e-02,-1.60e-01,
415,2.88e-02,8.00e-02,
416,2.88e-02,-2.40e-01,
417,1.60e-02,8.00e-02,
418,2.00e-02,-1.60e-01,
419,-6.40e-03,8.00e-02,
420,-1.60e-03,-1.60e-01,
421,-3.20e-02,8.00e-02,
422,-2.72e-02,8.00e-02,
423,-4.64e-02,-1.60e-01,
424,-4.72e-02,-1.60e-01,
425,-2.96e-02,8.00e-02,
426,-3.44e-02,-2.40e-01,
427,1.28e-02,8.00e-02,
428,8.00e-03,-1.60e-01,
429,5.60e-02,8.00e-02,
430,6.40e-02,-1.60e-01,
431,5.04e-02,8.00e-02,
432,5.68e-02,8.00e-02,
433,0.00e+00,-1.60e-01,
434,4.00e-03,-1.60e-01,
435,-5.44e-02,8.00e-02,
436,-4.88e-02,8.00e-02,
437,-6.56e-02,-2.40e-01,
438,-6.08e-02,-1.60e-01,
439,-2.00e-02,8.00e-02,
440,-2.40e-02,-1.60e-01,
441,1.84e-02,8.00e-02,
442,1.36e-02,8.00e-02,
443,3.60e-02,-1.60e-01,
444,3.68e-02,-1.60e-01,
445,2.40e-02,8.00e-02,
446,2.96e-02,8.00e-02,
447,4.80e-03,-2.40e-01,
448,9.60e-03,8.00e-02,
449,-1.76e-02,-2.40e-01,
450,-1.28e-02,8.00e-02,
451,-2.96e-02,-1.60e-01,
452,-3.04e-02,-1.60e-01,
453,-2.00e-02,8.00e-02,
454,-2.56e-02,-1.60e-01,
455,-5.60e-03,8.00e-02,
456,-9.60e-03,8.00e-02,
457,1.04e-02,-2.40e-01,
458,5.60e-03,-1.60e-01,
459,1.76e-02,8.00e-02,
460,1.84e-02,-1.60e-01,
461,8.00e-03,8.00e-02,
462,1.28e-02,8.00e-02,
463,-3.20e-03,-1.60e-01,
464,2.40e-03,-1.60e-01,
465,-1.36e-02,8.00e-02,
466,-8.00e-03,-1.60e-01,
467,-1.76e-02,8.00e-02,
468,-1.68e-02,-1.60e-01,
469,-5.60e-03,8.00e-02,
470,-1.20e-02,-1.60e-01,
471,1.60e-03,8.00e-02,
472,-4.80e-03,-1.60e-01,
473,7.20e-03,8.00e-02,
474,8.00e-03,8.00e-02,
475,0.00e+00,-1.60e-01,
476,7.20e-03,8.00e-02,
477,-2.40e-03,-1.60e-01,
478,4.00e-03,-1.60e-01,
479,-7.20e-03,8.00e-02,
480,-8.00e-04,8.00e-02,
481,-9.60e-03,-1.60e-01,
482,-1.04e-02,8.00e-02,
483,-2.40e-03,-1.60e-01,
484,-8.80e-03,8.00e-02,
485,1.60e-03,-1.60e-01,
486,-5.60e-03,-1.60e-01,
487,4.00e-03,8.00e-02,
488,-4.00e-03,8.00e-02,
489,4.00e-03,-1.60e-01,
490,4.00e-03,8.00e-02,
491,-5.60e-03,-1.60e-01,
492,8.00e-04,8.00e-02,
493,-8.00e-03,-1.60e-01,
494,-8.00e-03,8.00e-02,
495,-8.00e-04,-1.60e-01,
496,-8.80e-03,8.00e-02,
497,8.00e-04,-1.60e-01,
498,-5.60e-03,8.00e-02,
499,3.20e-03,-1.60e-01,
500,4.00e-03,-1.60e-01,
501,-4.80e-03,8.00e-02,
502,-4.80e-03,-1.60e-01,
503,3.20e-03,8.00e-02,
504,-8.00e-03,8.00e-02,
505,2.40e-03,-1.60e-01,
506,0.00e+00,8.00e-02,
507,-8.80e-03,-1.60e-01,
508,-8.00e-04,8.00e-02,
509,-8.80e-03,-1.60e-01,
510,-9.60e-03,-8.00e-02,
511,8.00e-04,8.00e-02,
512,-7.20e-03,-8.00e-02,
513,3.20e-03,8.00e-02,
514,-4.00e-03,8.00e-02,
515,3.20e-03,-1.60e-01,
516,2.40e-03,8.00e-02,
517,-4.80e-03,-1.60e-01,
518,1.60e-03,8.00e-02,
519,-6.40e-03,-1.60e-01,
520,8.00e-04,8.00e-02,
521,-8.80e-03,-1.60e-01,
522,-8.00e-04,8.00e-02,
523,-8.00e-03,-1.60e-01,
524,8.00e-04,-8.00e-02,
525,-8.80e-03,8.00e-02,
526,-5.60e-03,8.00e-02,
527,2.40e-03,-1.60e-01,
528,-5.60e-03,8.00e-02,
529,3.20e-03,-1.60e-01,
530,3.20e-03,8.00e-02,
531,-4.00e-03,-1.60e-01,
532,1.60e-03,8.00e-02,
533,-6.40e-03,-8.00e-02,
534,-8.00e-04,8.00e-02,
535,-8.00e-03,-1.60e-01,
536,-8.00e-04,8.00e-02,
537,-9.60e-03,-8.00e-02,
538,-8.80e-03,8.00e-02,
539,8.00e-04,-1.60e-01,
540,1.60e-03,8.00e-02,
541,-7.20e-03,-1.60e-01,
542,-5.60e-03,-8.00e-02,
543,2.40e-03,8.00e-02,
544,2.40e-03,-1.60e-01,
545,-4.80e-03,8.00e-02,
546,1.60e-03,-8.00e-02,
547,-5.60e-03,8.00e-02,
548,-8.80e-03,0.00e+00,
549,8.00e-04,-1.60e-01,
550,0.00e+00,-8.00e-02,
551,-8.00e-03,8.00e-02,
552,-8.00e-03,-8.00e-02,
553,8.00e-04,8.00e-02,
554,3.20e-03,-8.00e-02,
555,-6.40e-03,8.00e-02,
556,-7.20e-03,-1.60e-01,
557,2.40e-03,8.00e-02,
558,-6.40e-03,8.00e-02,
559,1.60e-03,-1.60e-01,
560,-5.60e-03,-8.00e-02,
561,2.40e-03,8.00e-02,
562,8.00e-04,-8.00e-02,
563,-7.20e-03,8.00e-02,
564,8.00e-04,-8.00e-02,
565,-7.20e-03,8.00e-02,
566,-6.40e-03,-8.00e-02,
567,8.00e-04,8.00e-02,
568,-6.40e-03,-8.00e-02,
569,1.60e-03,8.00e-02,
570,2.40e-03,8.00e-02,
571,-4.80e-03,-1.60e-01,
572,1.60e-03,-8.00e-02,
573,-8.00e-03,8.00e-02,
574,8.00e-04,8.00e-02,
575,-7.20e-03,-8.00e-02,
576,-7.20e-03,-8.00e-02,
577,1.60e-03,8.00e-02,
578,-7.20e-03,8.00e-02,
579,8.00e-04,-1.60e-01,
580,1.60e-03,-8.00e-02,
581,-6.40e-03,8.00e-02,
582,-5.60e-03,-8.00e-02,
583,2.40e-03,8.00e-02,
584,-6.40e-03,-8.00e-02,
585,2.40e-03,8.00e-02,
586,1.60e-03,-8.00e-02,
587,-6.40e-03,8.00e-02,
588,-7.20e-03,-8.00e-02,
589,1.60e-03,8.00e-02,
590,0.00e+00,-8.00e-02,
591,-8.00e-03,8.00e-02,
592,-7.20e-03,-8.00e-02,
593,8.00e-04,8.00e-02,
594,-7.20e-03,8.00e-02,
595,3.20e-03,-1.60e-01,
596,-4.80e-03,-8.00e-02,
597,3.20e-03,8.00e-02,
598,-4.80e-03,-8.00e-02,
599,3.20e-03,8.00e-02,
600,3.20e-03,-8.00e-02,
601,-5.60e-03,8.00e-02,
602,1.60e-03,-8.00e-02,
603,-6.40e-03,8.00e-02,
604,8.00e-04,-8.00e-02,
605,-7.20e-03,8.00e-02,
606,8.00e-04,-8.00e-02,
607,-6.40e-03,8.00e-02,
608,-6.40e-03,-8.00e-02,
609,1.60e-03,8.00e-02,
610,-4.00e-03,-8.00e-02,
611,4.00e-03,8.00e-02,
612,-4.80e-03,-8.00e-02,
613,2.40e-03,8.00e-02,
614,2.40e-03,8.00e-02,
615,-5.60e-03,-1.60e-01,
616,1.60e-03,8.00e-02,
617,-6.40e-03,-1.60e-01,
618,8.00e-04,-8.00e-02,
619,-6.40e-03,8.00e-02,
620,-7.20e-03,-8.00e-02,
621,1.60e-03,8.00e-02,
622,8.00e-04,8.00e-02,
623,-7.20e-03,-1.60e-01,
624,-6.40e-03,-8.00e-02,
625,1.60e-03,8.00e-02,
626,-5.60e-03,8.00e-02,
627,2.40e-03,-1.60e-01,
628,-5.60e-03,-8.00e-02,
629,2.40e-03,8.00e-02,
630,1.60e-03,8.00e-02,
631,-6.40e-03,-8.00e-02,
632,8.00e-04,-8.00e-02,
633,-7.20e-03,8.00e-02,
634,-7.20e-03,8.00e-02,
635,8.00e-04,-1.60e-01,
636,-7.20e-03,-8.00e-02,
637,1.60e-03,8.00e-02,
638,-5.60e-03,8.00e-02,
639,2.40e-03,-1.60e-01,
640,2.40e-03,-8.00e-02,
641,-5.60e-03,8.00e-02,
642,-5.60e-03,8.00e-02,
643,2.40e-03,-1.60e-01,
644,1.60e-03,-8.00e-02,
645,-7.20e-03,8.00e-02,
646,8.00e-04,8.00e-02,
647,-6.40e-03,-1.60e-01,
648,-7.20e-03,-8.00e-02,
649,8.00e-04,8.00e-02,
650,-6.40e-03,8.00e-02,
651,2.40e-03,-1.60e-01,
652,-6.40e-03,-1.60e-01,
653,2.40e-03,8.00e-02,
654,1.60e-03,-8.00e-02,
655,-5.60e-03,8.00e-02,
656,-6.40e-03,8.00e-02,
657,2.40e-03,-1.60e-01,
658,1.60e-03,8.00e-02,
659,-8.00e-03,-1.60e-01,
660,-7.20e-03,8.00e-02,
661,8.00e-04,-1.60e-01,
662,8.00e-04,8.00e-02,
663,-7.20e-03,-1.60e-01,
664,-6.40e-03,-8.00e-02,
665,1.60e-03,8.00e-02,
666,-6.40e-03,8.00e-02,
667,2.40e-03,-8.00e-02,
668,-6.40e-03,-8.00e-02,
669,8.00e-04,8.00e-02,
670,-7.20e-03,8.00e-02,
671,1.60e-03,-1.60e-01,
672,1.60e-03,-8.00e-02,
673,-6.40e-03,8.00e-02,
674,8.00e-04,8.00e-02,
675,-7.20e-03,-1.60e-01,
676,-7.20e-03,-8.00e-02,
677,8.00e-04,8.00e-02,
678,-7.20e-03,8.00e-02,
679,1.60e-03,-8.00e-02,
680,2.40e-03,8.00e-02,
681,-7.20e-03,-1.60e-01,
682,1.60e-03,8.00e-02,
683,-6.40e-03,-1.60e-01,
684,-6.40e-03,8.00e-02,
685,1.60e-03,-1.60e-01,
686,1.60e-03,8.00e-02,
687,-6.40e-03,-1.60e-01,
688,-7.20e-03,8.00e-02,
689,1.60e-03,-1.60e-01,
690,-7.20e-03,8.00e-02,
691,8.00e-04,-1.60e-01,
692,-6.40e-03,8.00e-02,
693,1.60e-03,-1.60e-01,
694,1.60e-03,-1.60e-01,
695,-7.20e-03,8.00e-02,
696,1.60e-03,-1.60e-01,
697,-7.20e-03,8.00e-02,
698,8.00e-04,8.00e-02,
699,-6.40e-03,-1.60e-01,
700,1.60e-03,8.00e-02,
701,-6.40e-03,-1.60e-01,
702,1.60e-03,8.00e-02,
703,-7.20e-03,-1.60e-01,
704,-7.20e-03,8.00e-02,
705,1.60e-03,-1.60e-01,
706,-8.00e-03,8.00e-02,
707,8.00e-04,-8.00e-02,
708,-6.40e-03,8.00e-02,
709,2.40e-03,-2.40e-01,
710,8.00e-04,8.00e-02,
711,-7.20e-03,-1.60e-01,
712,-5.60e-03,8.00e-02,
713,1.60e-03,-1.60e-01,
714,2.40e-03,8.00e-02,
715,-6.40e-03,-8.00e-02,
716,-5.60e-03,-1.60e-01,
717,2.40e-03,8.00e-02,
718,1.60e-03,8.00e-02,
719,-8.00e-03,-1.60e-01,
720,1.60e-03,8.00e-02,
721,-7.20e-03,-1.60e-01,
722,1.60e-03,8.00e-02,
723,-6.40e-03,-1.60e-01,
724,1.60e-03,8.00e-02,
725,-6.40e-03,-1.60e-01,
726,1.60e-03,8.00e-02,
727,-8.00e-03,-1.60e-01,
728,8.00e-04,8.00e-02,
729,-7.20e-03,-1.60e-01,
730,1.60e-03,8.00e-02,
731,-7.20e-03,-1.60e-01,
732,-5.60e-03,8.00e-02,
733,1.60e-03,-1.60e-01,
734,-5.60e-03,8.00e-02,
735,3.20e-03,-1.60e-01,
736,1.60e-03,8.00e-02,
737,-7.20e-03,-1.60e-01,
738,1.60e-03,-8.00e-02,
739,-6.40e-03,8.00e-02,
740,-7.20e-03,8.00e-02,
741,2.40e-03,-1.60e-01,
742,1.60e-03,8.00e-02,
743,-7.20e-03,-1.60e-01,
744,1.60e-03,-8.00e-02,
745,-6.40e-03,8.00e-02,
746,2.40e-03,8.00e-02,
747,-7.20e-03,-1.60e-01,
748,-6.40e-03,-1.60e-01,
749,1.60e-03,8.00e-02,
750,1.60e-03,8.00e-02,
751,-7.20e-03,-1.60e-01,
752,-5.60e-03,8.00e-02,
753,1.60e-03,-1.60e-01,
754,2.40e-03,8.00e-02,
755,-7.20e-03,-1.60e-01,
756,2.40e-03,-1.60e-01,
757,-7.20e-03,8.00e-02,
758,8.00e-04,8.00e-02,
759,-6.40e-03,-1.60e-01,
760,-6.40e-03,8.00e-02,
761,1.60e-03,-1.60e-01,
762,2.40e-03,-8.00e-02,
763,-6.40e-03,8.00e-02,
764,3.20e-03,-1.60e-01,
765,-5.60e-03,8.00e-02,
766,-6.40e-03,8.00e-02,
767,2.40e-03,-1.60e-01,
768,1.60e-03,8.00e-02,
769,-6.40e-03,-1.60e-01,
770,-6.40e-03,8.00e-02,
771,2.40e-03,-1.60e-01,
772,-7.20e-03,8.00e-02,
773,3.20e-03,-2.40e-01,
774,2.40e-03,8.00e-02,
775,-5.60e-03,-1.60e-01,
776,2.40e-03,8.00e-02,
777,-5.60e-03,-1.60e-01,
778,3.20e-03,8.00e-02,
779,-4.80e-03,-1.60e-01,
780,1.60e-03,8.00e-02,
781,-7.20e-03,-1.60e-01,
782,1.60e-03,8.00e-02,
783,-6.40e-03,-2.40e-01,
784,-6.40e-03,-1.60e-01,
785,1.60e-03,8.00e-02,
786,-6.40e-03,8.00e-02,
787,2.40e-03,-8.00e-02,
788,-7.20e-03,8.00e-02,
789,8.00e-04,-1.60e-01,
790,-7.20e-03,8.00e-02,
791,1.60e-03,-1.60e-01,
792,1.60e-03,-1.60e-01,
793,-6.40e-03,8.00e-02,
794,-5.60e-03,8.00e-02,
795,2.40e-03,-8.00e-02,
796,4.00e-03,-1.60e-01,
797,-5.60e-03,8.00e-02,
798,3.20e-03,8.00e-02,
799,-6.40e-03,-1.60e-01,
800,1.60e-03,8.00e-02,
801,-7.20e-03,-1.60e-01,
802,1.60e-03,8.00e-02,
803,-7.20e-03,-1.60e-01,
804,-7.20e-03,-1.60e-01,
805,1.60e-03,8.00e-02,
806,1.60e-03,8.00e-02,
807,-5.60e-03,-1.60e-01,
808,1.60e-03,-1.60e-01,
809,-5.60e-03,8.00e-02,
810,1.60e-03,8.00e-02,
811,-5.60e-03,-1.60e-01,
812,1.60e-03,8.00e-02,
813,-6.40e-03,-1.60e-01,
814,8.00e-04,8.00e-02,
815,-6.40e-03,-1.60e-01,
816,-6.40e-03,8.00e-02,
817,8.00e-04,-1.60e-01,
818,8.00e-04,8.00e-02,
819,-5.60e-03,-1.60e-01,
820,1.60e-03,8.00e-02,
821,-6.40e-03,-1.60e-01,
822,-4.80e-03,8.00e-02,
823,3.20e-03,-1.60e-01,
824,1.60e-03,8.00e-02,
825,-6.40e-03,-1.60e-01,
826,-5.60e-03,8.00e-02,
827,2.40e-03,-1.60e-01,
828,1.60e-03,8.00e-02,
829,-5.60e-03,-1.60e-01,
830,-6.40e-03,8.00e-02,
831,1.60e-03,-1.60e-01,
832,-6.40e-03,8.00e-02,
833,1.60e-03,-1.60e-01,
834,1.60e-03,8.00e-02,
835,-7.20e-03,-1.60e-01,
836,-7.20e-03,8.00e-02,
