NMRdata/glyc1/95up/95t4.csv

X,CH3,CH4,Start,Increment,
Sequence,Volt,Volt,-4.800000e-04,2.000000e-05
0,2.40e-03,8.00e-02,
1,-4.80e-03,-1.60e-01,
2,-5.60e-03,8.00e-02,
3,1.60e-03,-1.60e-01,
4,2.40e-03,-1.60e-01,
5,-4.80e-03,8.00e-02,
6,1.60e-03,-1.60e-01,
7,-7.20e-03,8.00e-02,
8,-5.60e-03,8.00e-02,
9,1.60e-03,-1.60e-01,
10,3.20e-03,-1.60e-01,
11,-6.40e-03,8.00e-02,
12,8.00e-04,-1.60e-01,
13,-6.40e-03,8.00e-02,
14,1.60e-03,8.00e-02,
15,-6.40e-03,-2.40e-01,
16,-5.60e-03,-1.60e-01,
17,2.40e-03,8.00e-02,
18,2.40e-03,-1.60e-01,
19,-7.20e-03,8.00e-02,
20,8.00e-04,-1.60e-01,
21,-6.40e-03,8.00e-02,
22,1.60e-03,8.00e-02,
23,-6.40e-03,-1.60e-01,
24,-5.60e-03,5.84e+00,
25,2.40e-03,4.64e+00,
26,8.00e-04,5.12e+00,
27,-5.60e-03,4.72e+00,
28,-3.20e-03,5.20e+00,
29,-8.00e-04,4.64e+00,
30,0.00e+00,5.36e+00,
31,-1.04e-02,4.56e+00,
32,-9.60e-03,5.12e+00,
33,-5.60e-03,4.64e+00,
34,-5.60e-03,5.12e+00,
35,-8.00e-03,4.72e+00,
36,-5.60e-03,5.12e+00,
37,-8.00e-03,4.64e+00,
38,-5.60e-03,4.64e+00,
39,-2.64e-02,5.20e+00,
40,-2.32e-02,5.12e+00,
41,-5.92e-02,4.64e+00,
42,-6.08e-02,5.12e+00,
43,-5.12e-02,4.64e+00,
44,-5.44e-02,5.12e+00,
45,-2.48e-02,4.72e+00,
46,-2.72e-02,5.12e+00,
47,1.20e-02,4.64e+00,
48,8.80e-03,5.12e+00,
49,3.52e-02,4.72e+00,
50,4.00e-02,5.12e+00,
51,3.12e-02,4.72e+00,
52,3.60e-02,5.12e+00,
53,8.00e-03,4.72e+00,
54,1.28e-02,5.12e+00,
55,-1.68e-02,4.72e+00,
56,-1.44e-02,5.12e+00,
57,-2.96e-02,4.72e+00,
58,-3.12e-02,5.12e+00,
59,-2.32e-02,4.72e+00,
60,-2.72e-02,5.12e+00,
61,-6.40e-03,4.72e+00,
62,-1.12e-02,5.12e+00,
63,1.04e-02,4.64e+00,
64,5.60e-03,5.12e+00,
65,1.84e-02,4.80e+00,
66,1.84e-02,5.12e+00,
67,8.00e-03,4.72e+00,
68,1.20e-02,5.12e+00,
69,-4.80e-03,4.80e+00,
70,0.00e+00,5.12e+00,
71,-1.28e-02,4.72e+00,
72,-8.00e-03,5.12e+00,
73,-1.60e-02,4.80e+00,
74,-1.60e-02,5.12e+00,
75,-5.60e-03,4.72e+00,
76,-1.04e-02,5.12e+00,
77,2.40e-03,4.72e+00,
78,-3.20e-03,5.12e+00,
79,7.20e-03,4.64e+00,
80,7.20e-03,5.12e+00,
81,-1.60e-03,4.72e+00,
82,4.80e-03,4.72e+00,
83,-4.80e-03,5.12e+00,
84,8.00e-04,5.12e+00,
85,-8.80e-03,4.72e+00,
86,-2.40e-03,5.12e+00,
87,-9.60e-03,4.72e+00,
88,-1.04e-02,5.12e+00,
89,0.00e+00,4.72e+00,
90,-6.40e-03,5.12e+00,
91,3.20e-03,4.72e+00,
92,-3.20e-03,5.12e+00,
93,4.80e-03,4.72e+00,
94,4.00e-03,5.12e+00,
95,-4.00e-03,4.72e+00,
96,1.60e-03,5.12e+00,
97,-7.20e-03,4.72e+00,
98,-8.80e-03,5.12e+00,
99,-8.00e-04,4.72e+00,
100,-8.00e-04,4.72e+00,
101,-8.00e-03,5.12e+00,
102,-7.20e-03,5.12e+00,
103,1.60e-03,4.64e+00,
104,-4.80e-03,5.12e+00,
105,4.80e-03,4.72e+00,
106,4.80e-03,5.12e+00,
107,-4.00e-03,4.64e+00,
108,3.20e-03,5.12e+00,
109,-5.60e-03,4.72e+00,
110,4.00e-03,4.64e+00,
111,-8.00e-03,5.12e+00,
112,-8.80e-03,5.12e+00,
113,-8.00e-04,4.72e+00,
114,-9.60e-03,5.12e+00,
115,-8.00e-04,4.64e+00,
116,-8.00e-03,5.12e+00,
117,1.60e-03,4.72e+00,
118,-4.00e-03,5.12e+00,
119,4.00e-03,4.64e+00,
120,-3.20e-03,4.64e+00,
121,4.80e-03,5.12e+00,
122,4.00e-03,5.12e+00,
123,-4.00e-03,4.64e+00,
124,1.60e-03,5.12e+00,
125,-6.40e-03,4.72e+00,
126,-8.00e-04,4.64e+00,
127,-8.00e-03,5.12e+00,
128,-9.60e-03,5.12e+00,
129,-8.00e-04,4.64e+00,
130,-7.20e-03,4.64e+00,
131,1.60e-03,5.12e+00,
132,-4.80e-03,5.12e+00,
133,3.20e-03,4.64e+00,
134,-3.20e-03,4.64e+00,
135,4.80e-03,5.12e+00,
136,3.20e-03,5.12e+00,
137,-4.00e-03,4.72e+00,
138,2.40e-03,5.12e+00,
139,-7.20e-03,4.64e+00,
140,0.00e+00,5.12e+00,
141,-8.00e-03,4.64e+00,
142,-8.00e-04,4.64e+00,
143,-8.80e-03,5.12e+00,
144,-7.20e-03,5.12e+00,
145,8.00e-04,4.64e+00,
146,2.40e-03,4.64e+00,
147,-4.80e-03,5.12e+00,
148,1.60e-03,4.64e+00,
149,-5.60e-03,5.12e+00,
150,2.40e-03,4.64e+00,
151,-4.80e-03,5.12e+00,
152,1.60e-03,5.12e+00,
153,-6.40e-03,4.64e+00,
154,0.00e+00,5.12e+00,
155,-9.60e-03,4.64e+00,
156,0.00e+00,5.12e+00,
157,-8.80e-03,4.64e+00,
158,-7.20e-03,5.12e+00,
159,8.00e-04,4.64e+00,
160,-5.60e-03,5.12e+00,
161,2.40e-03,4.64e+00,
162,2.40e-03,4.64e+00,
163,-4.80e-03,5.04e+00,
164,2.40e-03,5.04e+00,
165,-7.20e-03,4.64e+00,
166,1.60e-03,4.64e+00,
167,-7.20e-03,5.12e+00,
168,-7.20e-03,5.12e+00,
169,0.00e+00,4.64e+00,
170,0.00e+00,4.64e+00,
171,-9.60e-03,5.04e+00,
172,-6.40e-03,4.64e+00,
173,1.60e-03,5.12e+00,
174,-5.60e-03,4.64e+00,
175,4.80e-03,5.12e+00,
176,2.40e-03,4.64e+00,
177,-5.60e-03,5.12e+00,
178,1.60e-03,5.04e+00,
179,-5.60e-03,4.64e+00,
180,8.00e-04,5.04e+00,
181,-7.20e-03,4.64e+00,
182,-7.20e-03,5.04e+00,
183,1.60e-03,4.64e+00,
184,-7.20e-03,5.04e+00,
185,8.00e-04,4.64e+00,
186,-5.60e-03,4.64e+00,
187,1.60e-03,5.04e+00,
188,-4.80e-03,4.64e+00,
189,4.00e-03,4.96e+00,
190,2.40e-03,4.64e+00,
191,-5.60e-03,5.12e+00,
192,1.60e-03,4.64e+00,
193,-6.40e-03,5.04e+00,
194,0.00e+00,4.64e+00,
195,-7.20e-03,5.12e+00,
196,-7.20e-03,5.12e+00,
197,1.60e-03,4.64e+00,
198,-8.00e-03,4.64e+00,
199,8.00e-04,4.96e+00,
200,-7.20e-03,4.64e+00,
201,8.00e-04,5.04e+00,
202,-5.60e-03,4.64e+00,
203,2.40e-03,5.04e+00,
204,-4.00e-03,4.64e+00,
205,3.20e-03,5.04e+00,
206,8.00e-03,4.64e+00,
207,-5.60e-03,5.04e+00,
208,1.60e-03,4.64e+00,
209,-6.40e-03,5.04e+00,
210,0.00e+00,5.04e+00,
211,-7.20e-03,4.64e+00,
212,8.00e-04,4.64e+00,
213,-7.20e-03,5.04e+00,
214,-7.20e-03,4.64e+00,
215,1.60e-03,5.04e+00,
216,-4.80e-03,4.64e+00,
217,3.20e-03,5.04e+00,
218,-6.40e-03,5.04e+00,
219,3.20e-03,4.64e+00,
220,2.40e-03,4.64e+00,
221,-5.60e-03,5.04e+00,
222,1.60e-03,5.04e+00,
223,-6.40e-03,4.64e+00,
224,-8.00e-03,5.04e+00,
225,1.60e-03,4.64e+00,
226,-8.00e-03,5.12e+00,
227,1.60e-03,4.56e+00,
228,-4.00e-03,5.12e+00,
229,-1.60e-03,4.56e+00,
230,-1.60e-03,4.64e+00,
231,-1.20e-02,5.20e+00,
232,-1.36e-02,5.12e+00,
233,-7.20e-03,4.48e+00,
234,-7.20e-03,5.12e+00,
235,-9.60e-03,4.56e+00,
236,-7.20e-03,5.12e+00,
237,-9.60e-03,4.56e+00,
238,-7.20e-03,4.64e+00,
239,-9.60e-03,5.12e+00,
240,-7.20e-03,5.04e+00,
241,-8.80e-03,4.56e+00,
242,-7.20e-03,4.56e+00,
243,-1.52e-02,5.12e+00,
244,-1.52e-02,5.04e+00,
245,-4.80e-03,4.56e+00,
246,-1.04e-02,4.96e+00,
247,3.20e-03,-1.36e+00,
248,-1.60e-03,0.00e+00,
249,1.04e-02,-2.40e-01,
250,4.00e-03,0.00e+00,
251,1.20e-02,-2.40e-01,
252,9.60e-03,-1.60e-01,
253,-1.60e-03,0.00e+00,
254,4.00e-03,0.00e+00,
255,-8.00e-03,-2.40e-01,
256,-1.60e-03,-1.60e-01,
257,-1.20e-02,0.00e+00,
258,-1.12e-02,-1.60e-01,
259,-2.40e-03,0.00e+00,
260,-9.60e-03,-1.60e-01,
261,0.00e+00,0.00e+00,
262,-4.80e-03,-1.60e-01,
263,2.40e-03,0.00e+00,
264,4.80e-03,-1.60e-01,
265,-2.40e-03,0.00e+00,
266,4.00e-03,-2.40e-01,
267,-4.80e-03,0.00e+00,
268,1.60e-03,-1.60e-01,
269,-6.40e-03,0.00e+00,
270,8.00e-04,-1.60e-01,
271,-8.00e-03,0.00e+00,
272,0.00e+00,-1.60e-01,
273,-7.20e-03,0.00e+00,
274,-5.60e-03,-1.60e-01,
275,2.40e-03,0.00e+00,
276,-4.80e-03,0.00e+00,
277,4.00e-03,-2.40e-01,
278,3.20e-03,-1.60e-01,
279,-5.60e-03,0.00e+00,
280,3.20e-03,-1.60e-01,
281,-5.60e-03,0.00e+00,
282,8.00e-04,-1.60e-01,
283,-7.20e-03,0.00e+00,
284,-8.80e-03,-1.60e-01,
285,8.00e-04,0.00e+00,
286,8.00e-04,0.00e+00,
287,-7.20e-03,-2.40e-01,
288,-4.80e-03,0.00e+00,
289,2.40e-03,-2.40e-01,
290,2.40e-03,-1.60e-01,
291,-4.80e-03,0.00e+00,
292,1.60e-03,-1.60e-01,
293,-4.80e-03,0.00e+00,
294,1.60e-03,-1.60e-01,
295,-6.40e-03,0.00e+00,
296,0.00e+00,0.00e+00,
297,-7.20e-03,-2.40e-01,
298,-7.20e-03,-1.60e-01,
299,0.00e+00,0.00e+00,
300,-8.80e-03,-1.60e-01,
301,8.00e-04,0.00e+00,
302,1.60e-03,-1.60e-01,
303,-5.60e-03,0.00e+00,
304,-4.80e-03,-1.60e-01,
305,3.20e-03,-1.60e-01,
306,-4.00e-03,0.00e+00,
307,3.20e-03,-2.40e-01,
308,2.40e-03,-8.00e-02,
309,-5.60e-03,-2.40e-01,
310,0.00e+00,-1.60e-01,
311,-8.00e-03,0.00e+00,
312,-8.00e-04,-1.60e-01,
313,-8.80e-03,-1.60e-01,
314,-8.00e-03,-1.60e-01,
315,1.60e-03,0.00e+00,
316,2.40e-03,-1.60e-01,
317,-4.80e-03,-1.60e-01,
318,2.40e-03,-2.40e-01,
319,-6.40e-03,0.00e+00,
320,2.40e-03,-1.60e-01,
321,-6.40e-03,0.00e+00,
322,8.00e-04,-1.60e-01,
323,-7.20e-03,0.00e+00,
324,-7.20e-03,-1.60e-01,
325,0.00e+00,0.00e+00,
326,-7.20e-03,-1.60e-01,
327,1.60e-03,0.00e+00,
328,-7.20e-03,0.00e+00,
329,8.00e-04,-2.40e-01,
330,-5.60e-03,-2.40e-01,
331,3.20e-03,0.00e+00,
332,2.40e-03,-1.60e-01,
333,-7.20e-03,0.00e+00,
334,-5.60e-03,-1.60e-01,
335,3.20e-03,0.00e+00,
336,8.00e-04,-1.60e-01,
337,-8.00e-03,0.00e+00,
338,-8.00e-03,0.00e+00,
339,-8.00e-04,-2.40e-01,
340,-8.00e-03,-1.60e-01,
341,0.00e+00,0.00e+00,
342,-6.40e-03,-1.60e-01,
343,1.60e-03,0.00e+00,
344,-3.20e-03,-1.60e-01,
345,5.60e-03,-8.00e-02,
346,3.20e-03,-1.60e-01,
347,-4.00e-03,0.00e+00,
348,3.20e-03,-8.00e-02,
349,-7.20e-03,-2.40e-01,
350,-8.00e-04,-2.40e-01,
351,-8.80e-03,0.00e+00,
352,-8.80e-03,-1.60e-01,
353,-1.60e-03,8.00e-02,
354,-8.00e-03,-1.60e-01,
355,-8.00e-04,0.00e+00,
356,-6.40e-03,-1.60e-01,
357,1.60e-03,-1.60e-01,
358,-4.80e-03,-1.60e-01,
359,3.20e-03,0.00e+00,
360,-4.00e-03,0.00e+00,
361,4.80e-03,-2.40e-01,
362,2.40e-03,-1.60e-01,
363,-5.60e-03,0.00e+00,
364,-8.00e-04,-1.60e-01,
365,-8.00e-03,0.00e+00,
366,-9.60e-03,-1.60e-01,
367,0.00e+00,8.00e-02,
368,-7.20e-03,-1.60e-01,
369,8.00e-04,0.00e+00,
370,-6.40e-03,8.00e-02,
371,1.60e-03,-2.40e-01,
372,-3.20e-03,-2.40e-01,
373,4.00e-03,0.00e+00,
374,-5.60e-03,-1.60e-01,
375,3.20e-03,0.00e+00,
376,8.00e-04,-1.60e-01,
377,-8.00e-03,8.00e-02,
378,-1.60e-03,-1.60e-01,
379,-9.60e-03,8.00e-02,
380,-9.60e-03,8.00e-02,
381,8.00e-04,-2.40e-01,
382,-6.40e-03,-2.40e-01,
383,3.20e-03,8.00e-02,
384,-1.60e-03,-1.60e-01,
385,7.20e-03,8.00e-02,
386,8.00e-03,-1.60e-01,
387,-1.60e-03,8.00e-02,
388,4.00e-03,-1.60e-01,
389,-6.40e-03,8.00e-02,
390,0.00e+00,8.00e-02,
391,-1.20e-02,-2.40e-01,
392,-6.40e-03,8.00e-02,
393,-1.60e-02,-2.40e-01,
394,-1.52e-02,-1.60e-01,
395,-4.00e-03,8.00e-02,
396,-8.80e-03,-1.60e-01,
397,5.60e-03,8.00e-02,
398,8.00e-04,-1.60e-01,
399,1.28e-02,8.00e-02,
400,1.36e-02,8.00e-02,
401,5.60e-03,-1.60e-01,
402,9.60e-03,8.00e-02,
403,-2.40e-03,-2.40e-01,
404,1.60e-03,-1.60e-01,
405,-1.76e-02,8.00e-02,
406,-1.20e-02,-1.60e-01,
407,-2.48e-02,8.00e-02,
408,-2.72e-02,-1.60e-01,
409,-1.60e-02,8.00e-02,
410,-2.16e-02,-1.60e-01,
411,0.00e+00,8.00e-02,
412,-4.80e-03,8.00e-02,
413,2.00e-02,-2.40e-01,
414,1.52e-02,-1.60e-01,
415,2.80e-02,8.00e-02,
416,2.80e-02,-1.60e-01,
417,1.36e-02,8.00e-02,
418,1.76e-02,8.00e-02,
419,-9.60e-03,-1.60e-01,
420,-4.00e-03,-1.60e-01,
421,-3.28e-02,8.00e-02,
422,-2.96e-02,-1.60e-01,
423,-4.64e-02,8.00e-02,
424,-4.80e-02,8.00e-02,
425,-2.80e-02,-1.60e-01,
426,-3.20e-02,-1.60e-01,
427,1.52e-02,8.00e-02,
428,1.12e-02,-1.60e-01,
429,5.68e-02,8.00e-02,
430,6.48e-02,-1.60e-01,
431,5.04e-02,8.00e-02,
432,5.36e-02,-1.60e-01,
433,-4.00e-03,8.00e-02,
434,-8.00e-04,-1.60e-01,
435,-5.52e-02,8.00e-02,
436,-5.20e-02,-1.60e-01,
437,-6.64e-02,8.00e-02,
438,-6.00e-02,8.00e-02,
439,-1.68e-02,-1.60e-01,
440,-2.16e-02,-1.60e-01,
441,2.16e-02,8.00e-02,
442,1.68e-02,-1.60e-01,
443,3.60e-02,8.00e-02,
444,3.68e-02,8.00e-02,
445,2.32e-02,-2.40e-01,
446,2.80e-02,-1.60e-01,
447,4.00e-03,8.00e-02,
448,8.80e-03,-1.60e-01,
449,-2.08e-02,8.00e-02,
450,-1.36e-02,-1.60e-01,
451,-3.04e-02,8.00e-02,
452,-3.12e-02,-1.60e-01,
453,-2.24e-02,8.00e-02,
454,-2.64e-02,8.00e-02,
455,-3.20e-03,-2.40e-01,
456,-8.00e-03,-1.60e-01,
457,1.12e-02,8.00e-02,
458,6.40e-03,-1.60e-01,
459,2.08e-02,8.00e-02,
460,1.92e-02,-1.60e-01,
461,6.40e-03,8.00e-02,
462,1.20e-02,8.00e-02,
463,-5.60e-03,-1.60e-01,
464,0.00e+00,-1.60e-01,
465,-1.52e-02,8.00e-02,
466,-9.60e-03,-1.60e-01,
467,-1.92e-02,8.00e-02,
468,-1.68e-02,-1.60e-01,
469,-6.40e-03,8.00e-02,
470,-1.20e-02,8.00e-02,
471,2.40e-03,-1.60e-01,
472,-2.40e-03,-1.60e-01,
473,8.00e-03,8.00e-02,
474,8.00e-03,-1.60e-01,
475,8.00e-04,8.00e-02,
476,6.40e-03,-1.60e-01,
477,-2.40e-03,8.00e-02,
478,3.20e-03,-1.60e-01,
479,-8.00e-03,8.00e-02,
480,-1.60e-03,8.00e-02,
481,-1.28e-02,-1.60e-01,
482,-1.20e-02,8.00e-02,
483,-2.40e-03,-1.60e-01,
484,-7.20e-03,8.00e-02,
485,8.00e-04,-1.60e-01,
486,-7.20e-03,8.00e-02,
487,2.40e-03,-1.60e-01,
488,4.00e-03,-1.60e-01,
489,-4.00e-03,8.00e-02,
490,3.20e-03,8.00e-02,
491,-4.80e-03,-1.60e-01,
492,1.60e-03,8.00e-02,
493,-8.00e-03,-1.60e-01,
494,-8.00e-03,8.00e-02,
495,-8.00e-04,-1.60e-01,
496,-9.60e-03,8.00e-02,
497,2.40e-03,-1.60e-01,
498,3.20e-03,8.00e-02,
499,-4.80e-03,-1.60e-01,
500,-4.80e-03,8.00e-02,
501,3.20e-03,-1.60e-01,
502,2.40e-03,8.00e-02,
503,-6.40e-03,-1.60e-01,
504,1.60e-03,-1.60e-01,
505,-8.00e-03,8.00e-02,
506,-8.00e-04,8.00e-02,
507,-9.60e-03,-8.00e-02,
508,-8.80e-03,-8.00e-02,
509,-8.00e-04,8.00e-02,
510,-7.20e-03,8.00e-02,
511,1.60e-03,-8.00e-02,
512,2.40e-03,-8.00e-02,
513,-5.60e-03,8.00e-02,
514,-6.40e-03,8.00e-02,
515,4.80e-03,-1.60e-01,
516,4.00e-03,-1.60e-01,
517,-4.80e-03,8.00e-02,
518,1.60e-03,8.00e-02,
519,-7.20e-03,-1.60e-01,
520,8.00e-04,-8.00e-02,
521,-8.00e-03,8.00e-02,
522,-8.00e-04,-8.00e-02,
523,-8.00e-03,8.00e-02,
524,-7.20e-03,8.00e-02,
525,8.00e-04,-1.60e-01,
526,1.60e-03,-8.00e-02,
527,-5.60e-03,8.00e-02,
528,-4.80e-03,-8.00e-02,
529,3.20e-03,8.00e-02,
530,2.40e-03,8.00e-02,
531,-4.80e-03,-1.60e-01,
532,2.40e-03,8.00e-02,
533,-6.40e-03,-1.60e-01,
534,1.60e-03,8.00e-02,
535,-7.20e-03,-1.60e-01,
536,-7.20e-03,8.00e-02,
537,8.00e-04,-1.60e-01,
538,-5.60e-03,-8.00e-02,
539,4.80e-03,8.00e-02,
540,1.60e-03,-8.00e-02,
541,-6.40e-03,8.00e-02,
542,-4.80e-03,8.00e-02,
543,3.20e-03,-8.00e-02,
544,2.40e-03,-8.00e-02,
545,-5.60e-03,8.00e-02,
546,-6.40e-03,-8.00e-02,
547,1.60e-03,8.00e-02,
548,2.40e-03,-1.60e-01,
549,-7.20e-03,8.00e-02,
550,3.20e-03,8.00e-02,
551,-7.20e-03,-8.00e-02,
552,-6.40e-03,-8.00e-02,
553,1.60e-03,8.00e-02,
554,8.00e-04,-8.00e-02,
555,-8.00e-03,8.00e-02,
556,2.40e-03,-8.00e-02,
557,-5.60e-03,8.00e-02,
558,8.00e-04,8.00e-02,
559,-6.40e-03,-1.60e-01,
560,8.00e-04,-8.00e-02,
561,-8.80e-03,8.00e-02,
562,-7.20e-03,8.00e-02,
563,8.00e-04,-8.00e-02,
564,-7.20e-03,-8.00e-02,
565,8.00e-04,8.00e-02,
566,-4.80e-03,-8.00e-02,
567,2.40e-03,8.00e-02,
568,2.40e-03,-1.60e-01,
569,-5.60e-03,8.00e-02,
570,-5.60e-03,8.00e-02,
571,2.40e-03,-1.60e-01,
572,1.60e-03,-8.00e-02,
573,-5.60e-03,8.00e-02,
574,-7.20e-03,-8.00e-02,
575,1.60e-03,8.00e-02,
576,-8.00e-03,8.00e-02,
577,8.00e-04,-1.60e-01,
578,-8.00e-03,8.00e-02,
579,8.00e-04,-8.00e-02,
580,-7.20e-03,8.00e-02,
581,1.60e-03,-1.60e-01,
582,-5.60e-03,8.00e-02,
583,2.40e-03,-8.00e-02,
584,4.80e-03,-8.00e-02,
585,-5.60e-03,8.00e-02,
586,1.60e-03,8.00e-02,
587,-6.40e-03,-8.00e-02,
588,8.00e-04,-8.00e-02,
589,-8.00e-03,8.00e-02,
590,-8.00e-04,8.00e-02,
591,-8.80e-03,-8.00e-02,
592,-7.20e-03,-8.00e-02,
593,2.40e-03,8.00e-02,
594,1.60e-03,8.00e-02,
595,-5.60e-03,-8.00e-02,
596,-4.00e-03,-8.00e-02,
597,4.00e-03,8.00e-02,
598,3.20e-03,8.00e-02,
599,-4.80e-03,-8.00e-02,
600,-4.00e-03,8.00e-02,
601,2.40e-03,-1.60e-01,
602,1.60e-03,-8.00e-02,
603,-7.20e-03,8.00e-02,
604,-7.20e-03,-8.00e-02,
605,8.00e-04,8.00e-02,
606,0.00e+00,-8.00e-02,
607,-6.40e-03,8.00e-02,
608,-7.20e-03,8.00e-02,
609,8.00e-04,-1.60e-01,
610,-5.60e-03,8.00e-02,
611,2.40e-03,-1.60e-01,
612,-5.60e-03,8.00e-02,
613,3.20e-03,-1.60e-01,
614,-4.80e-03,-8.00e-02,
615,3.20e-03,8.00e-02,
616,-4.80e-03,-8.00e-02,
617,2.40e-03,8.00e-02,
618,3.20e-03,-8.00e-02,
619,-6.40e-03,8.00e-02,
620,8.00e-04,-8.00e-02,
621,-8.00e-03,8.00e-02,
622,-8.00e-03,8.00e-02,
623,0.00e+00,-8.00e-02,
624,-5.60e-03,-8.00e-02,
625,1.60e-03,8.00e-02,
626,-4.80e-03,8.00e-02,
627,3.20e-03,-8.00e-02,
628,2.40e-03,-8.00e-02,
629,-6.40e-03,8.00e-02,
630,8.00e-04,8.00e-02,
631,-6.40e-03,-1.60e-01,
632,-8.00e-04,8.00e-02,
633,-8.00e-03,-1.60e-01,
634,0.00e+00,8.00e-02,
635,-8.80e-03,-8.00e-02,
636,-8.80e-03,-8.00e-02,
637,1.60e-03,8.00e-02,
638,-4.80e-03,8.00e-02,
639,2.40e-03,-8.00e-02,
640,1.60e-03,-8.00e-02,
641,-6.40e-03,8.00e-02,
642,-6.40e-03,-8.00e-02,
643,8.00e-04,8.00e-02,
644,1.60e-03,-8.00e-02,
645,-7.20e-03,8.00e-02,
646,-8.00e-03,-8.00e-02,
647,8.00e-04,8.00e-02,
648,8.00e-04,8.00e-02,
649,-8.00e-03,-1.60e-01,
650,-7.20e-03,8.00e-02,
651,1.60e-03,-1.60e-01,
652,2.40e-03,-8.00e-02,
653,-6.40e-03,8.00e-02,
654,-4.80e-03,8.00e-02,
655,2.40e-03,-1.60e-01,
656,2.40e-03,-1.60e-01,
657,-5.60e-03,8.00e-02,
658,8.00e-04,-8.00e-02,
659,-6.40e-03,8.00e-02,
660,-6.40e-03,-1.60e-01,
661,1.60e-03,8.00e-02,
662,8.00e-04,-1.60e-01,
663,-6.40e-03,8.00e-02,
664,-6.40e-03,-8.00e-02,
665,1.60e-03,8.00e-02,
666,-4.80e-03,-1.60e-01,
667,1.60e-03,8.00e-02,
668,2.40e-03,-8.00e-02,
669,-6.40e-03,8.00e-02,
670,-7.20e-03,8.00e-02,
671,8.00e-04,-8.00e-02,
672,-8.00e-03,8.00e-02,
673,1.60e-03,-1.60e-01,
674,8.00e-04,8.00e-02,
675,-7.20e-03,-1.60e-01,
676,1.60e-03,-1.60e-01,
677,-6.40e-03,8.00e-02,
678,-6.40e-03,8.00e-02,
679,2.40e-03,-8.00e-02,
680,-6.40e-03,8.00e-02,
681,2.40e-03,-1.60e-01,
682,-5.60e-03,8.00e-02,
683,1.60e-03,-1.60e-01,
684,1.60e-03,-8.00e-02,
685,-6.40e-03,8.00e-02,
686,-7.20e-03,-1.60e-01,
687,8.00e-04,8.00e-02,
688,-7.20e-03,8.00e-02,
689,1.60e-03,-8.00e-02,
690,8.00e-04,8.00e-02,
691,-7.20e-03,-1.60e-01,
692,-5.60e-03,-8.00e-02,
693,2.40e-03,8.00e-02,
694,2.40e-03,8.00e-02,
695,-4.80e-03,-1.60e-01,
696,3.20e-03,-8.00e-02,
697,-6.40e-03,8.00e-02,
698,1.60e-03,8.00e-02,
699,-8.00e-03,-1.60e-01,
700,8.00e-04,8.00e-02,
701,-8.00e-03,-1.60e-01,
702,8.00e-04,8.00e-02,
703,-7.20e-03,-1.60e-01,
704,-7.20e-03,-8.00e-02,
705,1.60e-03,8.00e-02,
706,2.40e-03,8.00e-02,
707,-6.40e-03,-8.00e-02,
708,-6.40e-03,8.00e-02,
709,1.60e-03,-1.60e-01,
710,1.60e-03,-1.60e-01,
711,-5.60e-03,8.00e-02,
712,8.00e-04,8.00e-02,
713,-7.20e-03,-1.60e-01,
714,-6.40e-03,8.00e-02,
715,1.60e-03,-1.60e-01,
716,-6.40e-03,-1.60e-01,
717,2.40e-03,8.00e-02,
718,1.60e-03,8.00e-02,
719,-5.60e-03,-8.00e-02,
720,-6.40e-03,8.00e-02,
721,2.40e-03,-1.60e-01,
722,8.00e-04,8.00e-02,
723,-7.20e-03,-1.60e-01,
724,8.00e-04,8.00e-02,
725,-6.40e-03,-1.60e-01,
726,1.60e-03,8.00e-02,
727,-6.40e-03,-1.60e-01,
728,8.00e-04,-1.60e-01,
729,-6.40e-03,8.00e-02,
730,-6.40e-03,8.00e-02,
731,8.00e-04,-1.60e-01,
732,1.60e-03,8.00e-02,
733,-7.20e-03,-1.60e-01,
734,8.00e-04,8.00e-02,
735,-6.40e-03,-1.60e-01,
736,-7.20e-03,-1.60e-01,
737,1.60e-03,8.00e-02,
738,2.40e-03,8.00e-02,
739,-7.20e-03,-1.60e-01,
740,-6.40e-03,8.00e-02,
741,2.40e-03,-1.60e-01,
742,1.60e-03,8.00e-02,
743,-7.20e-03,-1.60e-01,
744,0.00e+00,-1.60e-01,
745,-8.00e-03,8.00e-02,
746,-6.40e-03,8.00e-02,
747,2.40e-03,-1.60e-01,
748,1.60e-03,8.00e-02,
749,-8.00e-03,-1.60e-01,
750,-7.20e-03,8.00e-02,
751,1.60e-03,-1.60e-01,
752,1.60e-03,-1.60e-01,
753,-6.40e-03,8.00e-02,
754,1.60e-03,8.00e-02,
755,-7.20e-03,-1.60e-01,
756,-6.40e-03,8.00e-02,
757,8.00e-04,-1.60e-01,
758,2.40e-03,8.00e-02,
759,-7.20e-03,-1.60e-01,
760,-6.40e-03,8.00e-02,
761,2.40e-03,-1.60e-01,
762,-5.60e-03,8.00e-02,
763,1.60e-03,-1.60e-01,
764,2.40e-03,8.00e-02,
765,-5.60e-03,-1.60e-01,
766,-5.60e-03,8.00e-02,
767,2.40e-03,-1.60e-01,
768,0.00e+00,8.00e-02,
769,-7.20e-03,-1.60e-01,
770,-7.20e-03,8.00e-02,
771,8.00e-04,-1.60e-01,
772,-6.40e-03,8.00e-02,
773,1.60e-03,-8.00e-02,
774,2.40e-03,8.00e-02,
775,-5.60e-03,-1.60e-01,
776,1.60e-03,-1.60e-01,
777,-7.20e-03,8.00e-02,
778,-6.40e-03,-1.60e-01,
779,1.60e-03,8.00e-02,
780,1.60e-03,8.00e-02,
781,-6.40e-03,-1.60e-01,
782,1.60e-03,8.00e-02,
783,-8.00e-03,-1.60e-01,
784,-6.40e-03,-1.60e-01,
785,1.60e-03,8.00e-02,
786,-5.60e-03,8.00e-02,
787,1.60e-03,-1.60e-01,
788,-6.40e-03,-1.60e-01,
789,2.40e-03,8.00e-02,
790,-6.40e-03,-1.60e-01,
791,1.60e-03,8.00e-02,
792,-5.60e-03,8.00e-02,
793,1.60e-03,-1.60e-01,
794,-4.80e-03,8.00e-02,
795,1.60e-03,-1.60e-01,
796,1.60e-03,-1.60e-01,
797,-7.20e-03,8.00e-02,
798,8.00e-04,8.00e-02,
799,-8.00e-03,-1.60e-01,
800,1.60e-03,8.00e-02,
801,-6.40e-03,-1.60e-01,
802,8.00e-04,-1.60e-01,
803,-7.20e-03,8.00e-02,
804,-7.20e-03,8.00e-02,
805,2.40e-03,-1.60e-01,
806,1.60e-03,8.00e-02,
807,-6.40e-03,-1.60e-01,
808,-8.00e-03,8.00e-02,
809,3.20e-03,-1.60e-01,
810,2.40e-03,8.00e-02,
811,-5.60e-03,-1.60e-01,
812,2.40e-03,8.00e-02,
813,-7.20e-03,-1.60e-01,
814,8.00e-04,8.00e-02,
815,-7.20e-03,-1.60e-01,
816,8.00e-04,8.00e-02,
817,-6.40e-03,-1.60e-01,
818,-5.60e-03,-1.60e-01,
819,1.60e-03,8.00e-02,
820,2.40e-03,8.00e-02,
821,-5.60e-03,-1.60e-01,
822,-6.40e-03,8.00e-02,
823,1.60e-03,-2.40e-01,
824,-6.40e-03,8.00e-02,
825,1.60e-03,-1.60e-01,
826,-7.20e-03,8.00e-02,
827,1.60e-03,-1.60e-01,
828,8.00e-04,-1.60e-01,
829,-8.00e-03,8.00e-02,
830,-6.40e-03,8.00e-02,
831,1.60e-03,-1.60e-01,
832,1.60e-03,-1.60e-01,
833,-8.80e-03,8.00e-02,
834,-6.40e-03,8.00e-02,
835,1.60e-03,-1.60e-01,
836,1.60e-03,-1.60e-01,
