NMRdata/glyc1/95up/95t5.csv

X,CH3,CH4,Start,Increment,
Sequence,Volt,Volt,-4.800000e-04,2.000000e-05
0,-6.40e-03,-1.60e-01,
1,1.60e-03,8.00e-02,
2,-6.40e-03,8.00e-02,
3,1.60e-03,-1.60e-01,
4,8.00e-04,-1.60e-01,
5,-8.00e-03,8.00e-02,
6,2.40e-03,8.00e-02,
7,-5.60e-03,-1.60e-01,
8,-6.40e-03,8.00e-02,
9,8.00e-04,-1.60e-01,
10,2.40e-03,8.00e-02,
11,-5.60e-03,-1.60e-01,
12,-8.00e-03,8.00e-02,
13,8.00e-04,-1.60e-01,
14,8.00e-04,-1.60e-01,
15,-7.20e-03,8.00e-02,
16,-6.40e-03,-1.60e-01,
17,8.00e-04,8.00e-02,
18,1.60e-03,8.00e-02,
19,-6.40e-03,-1.60e-01,
20,1.60e-03,-1.60e-01,
21,-5.60e-03,8.00e-02,
22,-5.60e-03,-1.60e-01,
23,2.40e-03,8.00e-02,
24,-5.60e-03,5.84e+00,
25,1.60e-03,4.72e+00,
26,1.60e-03,5.12e+00,
27,-7.20e-03,4.64e+00,
28,-3.20e-03,5.20e+00,
29,-8.00e-04,4.64e+00,
30,-8.00e-04,5.28e+00,
31,-1.12e-02,4.56e+00,
32,-9.60e-03,5.20e+00,
33,-5.60e-03,4.64e+00,
34,-8.00e-03,4.64e+00,
35,-5.60e-03,5.20e+00,
36,-8.00e-03,5.20e+00,
37,-5.60e-03,4.64e+00,
38,-5.60e-03,5.12e+00,
39,-2.56e-02,4.64e+00,
40,-2.24e-02,5.12e+00,
41,-5.84e-02,4.64e+00,
42,-6.16e-02,5.12e+00,
43,-5.04e-02,4.64e+00,
44,-5.52e-02,5.12e+00,
45,-2.16e-02,4.72e+00,
46,-2.64e-02,5.12e+00,
47,1.28e-02,4.72e+00,
48,7.20e-03,5.12e+00,
49,3.76e-02,4.72e+00,
50,3.04e-02,5.12e+00,
51,4.08e-02,4.72e+00,
52,3.52e-02,5.12e+00,
53,8.00e-03,4.72e+00,
54,1.20e-02,5.12e+00,
55,-1.76e-02,4.72e+00,
56,-1.52e-02,5.12e+00,
57,-3.04e-02,4.72e+00,
58,-3.12e-02,5.12e+00,
59,-2.08e-02,4.72e+00,
60,-2.64e-02,5.12e+00,
61,-4.80e-03,4.72e+00,
62,-9.60e-03,5.12e+00,
63,1.12e-02,4.72e+00,
64,6.40e-03,5.12e+00,
65,1.76e-02,4.72e+00,
66,1.84e-02,5.12e+00,
67,6.40e-03,4.72e+00,
68,1.20e-02,5.12e+00,
69,-5.60e-03,4.72e+00,
70,0.00e+00,5.12e+00,
71,-1.44e-02,4.64e+00,
72,-8.80e-03,5.12e+00,
73,-1.76e-02,4.72e+00,
74,-1.44e-02,5.12e+00,
75,-5.60e-03,4.72e+00,
76,-9.60e-03,5.12e+00,
77,2.40e-03,4.64e+00,
78,-2.40e-03,4.72e+00,
79,8.80e-03,5.12e+00,
80,8.80e-03,5.12e+00,
81,8.00e-04,4.72e+00,
82,6.40e-03,5.12e+00,
83,-4.80e-03,4.72e+00,
84,8.00e-04,5.12e+00,
85,-9.60e-03,4.72e+00,
86,-1.60e-03,4.64e+00,
87,-9.60e-03,5.12e+00,
88,-8.00e-03,5.12e+00,
89,8.00e-04,4.72e+00,
90,-6.40e-03,4.64e+00,
91,3.20e-03,5.12e+00,
92,3.20e-03,5.12e+00,
93,-4.80e-03,4.72e+00,
94,2.40e-03,5.12e+00,
95,-4.80e-03,4.72e+00,
96,1.60e-03,5.12e+00,
97,-6.40e-03,4.72e+00,
98,-8.80e-03,5.12e+00,
99,8.00e-04,4.72e+00,
100,-9.60e-03,5.12e+00,
101,-8.00e-04,4.72e+00,
102,-7.20e-03,4.64e+00,
103,3.20e-03,5.12e+00,
104,-3.20e-03,5.12e+00,
105,4.00e-03,4.72e+00,
106,4.00e-03,4.72e+00,
107,-3.20e-03,5.12e+00,
108,4.00e-03,5.12e+00,
109,-5.60e-03,4.64e+00,
110,0.00e+00,4.64e+00,
111,-9.60e-03,5.12e+00,
112,-9.60e-03,5.12e+00,
113,-2.40e-03,4.64e+00,
114,-9.60e-03,5.12e+00,
115,-1.60e-03,4.72e+00,
116,-8.00e-03,5.12e+00,
117,3.20e-03,4.64e+00,
118,-4.80e-03,5.12e+00,
119,4.80e-03,4.64e+00,
120,-3.20e-03,5.12e+00,
121,4.80e-03,4.72e+00,
122,3.20e-03,4.72e+00,
123,-4.80e-03,5.12e+00,
124,8.00e-04,5.12e+00,
125,-8.00e-03,4.72e+00,
126,-8.80e-03,4.72e+00,
127,0.00e+00,5.12e+00,
128,-9.60e-03,4.64e+00,
129,0.00e+00,5.12e+00,
130,-8.00e-03,4.72e+00,
131,0.00e+00,5.12e+00,
132,-4.80e-03,5.12e+00,
133,2.40e-03,4.64e+00,
134,4.00e-03,4.72e+00,
135,-4.00e-03,5.12e+00,
136,3.20e-03,4.64e+00,
137,-4.80e-03,5.12e+00,
138,8.00e-04,5.12e+00,
139,-8.00e-03,4.64e+00,
140,0.00e+00,5.12e+00,
141,-9.60e-03,4.64e+00,
142,-8.00e-03,4.72e+00,
143,0.00e+00,5.12e+00,
144,-8.00e-03,4.64e+00,
145,8.00e-04,5.12e+00,
146,-5.60e-03,5.12e+00,
147,3.20e-03,4.64e+00,
148,3.20e-03,5.12e+00,
149,-4.80e-03,4.64e+00,
150,2.40e-03,4.64e+00,
151,-4.80e-03,5.12e+00,
152,-6.40e-03,4.64e+00,
153,1.60e-03,5.12e+00,
154,8.00e-04,4.64e+00,
155,-7.20e-03,5.12e+00,
156,-7.20e-03,5.12e+00,
157,0.00e+00,4.64e+00,
158,-7.20e-03,5.04e+00,
159,3.20e-03,4.64e+00,
160,-4.80e-03,4.64e+00,
161,2.40e-03,5.12e+00,
162,-4.80e-03,5.04e+00,
163,2.40e-03,4.64e+00,
164,1.60e-03,4.64e+00,
165,-6.40e-03,5.12e+00,
166,2.40e-03,4.64e+00,
167,-6.40e-03,5.12e+00,
168,8.00e-04,4.64e+00,
169,-6.40e-03,5.04e+00,
170,-8.00e-03,5.04e+00,
171,8.00e-04,4.64e+00,
172,-5.60e-03,4.64e+00,
173,1.60e-03,5.12e+00,
174,-4.80e-03,4.64e+00,
175,2.40e-03,5.04e+00,
176,-4.00e-03,4.64e+00,
177,4.80e-03,5.04e+00,
178,1.60e-03,5.04e+00,
179,-6.40e-03,4.64e+00,
180,1.60e-03,4.64e+00,
181,-6.40e-03,5.04e+00,
182,8.00e-04,4.64e+00,
183,-7.20e-03,5.12e+00,
184,8.00e-04,4.64e+00,
185,-8.80e-03,5.04e+00,
186,-6.40e-03,5.04e+00,
187,2.40e-03,4.64e+00,
188,-5.60e-03,5.12e+00,
189,3.20e-03,4.64e+00,
190,3.20e-03,4.64e+00,
191,-4.80e-03,5.12e+00,
192,2.40e-03,4.64e+00,
193,-6.40e-03,5.04e+00,
194,8.00e-04,4.64e+00,
195,-6.40e-03,5.04e+00,
196,-8.00e-03,4.64e+00,
197,2.40e-03,5.04e+00,
198,8.00e-04,5.04e+00,
199,-7.20e-03,4.64e+00,
200,-7.20e-03,5.04e+00,
201,1.60e-03,4.64e+00,
202,-5.60e-03,5.04e+00,
203,2.40e-03,4.64e+00,
204,-4.80e-03,4.64e+00,
205,3.20e-03,5.04e+00,
206,1.60e-03,5.04e+00,
207,-5.60e-03,4.64e+00,
208,2.40e-03,4.64e+00,
209,-5.60e-03,5.04e+00,
210,-7.20e-03,5.04e+00,
211,8.00e-04,4.64e+00,
212,-6.40e-03,4.64e+00,
213,1.60e-03,5.04e+00,
214,-5.60e-03,5.04e+00,
215,1.60e-03,4.64e+00,
216,-4.80e-03,4.64e+00,
217,2.40e-03,5.04e+00,
218,-4.80e-03,4.64e+00,
219,2.40e-03,5.04e+00,
220,2.40e-03,4.64e+00,
221,-5.60e-03,5.04e+00,
222,-8.00e-03,4.64e+00,
223,2.40e-03,5.04e+00,
224,1.60e-03,4.64e+00,
225,-6.40e-03,5.04e+00,
226,0.00e+00,5.04e+00,
227,-7.20e-03,4.64e+00,
228,-5.60e-03,4.64e+00,
229,1.60e-03,5.04e+00,
230,-5.60e-03,4.64e+00,
231,1.60e-03,5.12e+00,
232,1.60e-03,4.64e+00,
233,-6.40e-03,5.04e+00,
234,1.60e-03,4.64e+00,
235,-7.20e-03,5.04e+00,
236,-7.20e-03,5.04e+00,
237,1.60e-03,4.64e+00,
238,1.60e-03,4.64e+00,
239,-6.40e-03,5.12e+00,
240,-6.40e-03,4.64e+00,
241,2.40e-03,5.04e+00,
242,1.60e-03,5.04e+00,
243,-5.60e-03,4.64e+00,
244,-4.80e-03,4.64e+00,
245,2.40e-03,5.04e+00,
246,-6.40e-03,5.12e+00,
247,1.60e-03,4.56e+00,
248,1.60e-03,5.04e+00,
249,-8.00e-03,4.64e+00,
250,-5.60e-03,4.64e+00,
251,2.40e-03,5.04e+00,
252,1.60e-03,5.04e+00,
253,-6.40e-03,4.64e+00,
254,1.60e-03,4.64e+00,
255,-7.20e-03,5.04e+00,
256,-7.20e-03,5.04e+00,
257,2.40e-03,4.64e+00,
258,-5.60e-03,5.04e+00,
259,2.40e-03,4.64e+00,
260,1.60e-03,4.64e+00,
261,-6.40e-03,5.04e+00,
262,-7.20e-03,4.64e+00,
263,1.60e-03,5.04e+00,
264,-7.20e-03,4.64e+00,
265,1.60e-03,5.04e+00,
266,-6.40e-03,4.64e+00,
267,2.40e-03,5.04e+00,
268,-6.40e-03,5.04e+00,
269,1.60e-03,4.64e+00,
270,-5.60e-03,5.04e+00,
271,4.00e-03,4.64e+00,
272,1.60e-03,5.04e+00,
273,-7.20e-03,4.64e+00,
274,-7.20e-03,5.04e+00,
275,8.00e-04,4.56e+00,
276,-7.20e-03,4.56e+00,
277,8.00e-04,5.12e+00,
278,-3.20e-03,5.12e+00,
279,-1.60e-03,4.56e+00,
280,-1.60e-03,4.32e+00,
281,-1.20e-02,5.20e+00,
282,-1.36e-02,5.28e+00,
283,-7.20e-03,4.48e+00,
284,-7.20e-03,4.56e+00,
285,-9.60e-03,5.12e+00,
286,-7.20e-03,4.56e+00,
287,-9.60e-03,5.04e+00,
288,-7.20e-03,5.04e+00,
289,-8.80e-03,4.64e+00,
290,-7.20e-03,5.04e+00,
291,-8.80e-03,4.48e+00,
292,-7.20e-03,5.04e+00,
293,-1.60e-02,4.56e+00,
294,-1.68e-02,5.12e+00,
295,-6.40e-03,-1.28e+00,
296,-1.28e-02,-2.40e-01,
297,4.80e-03,0.00e+00,
298,-1.60e-03,0.00e+00,
299,9.60e-03,-3.20e-01,
300,2.40e-03,0.00e+00,
301,1.12e-02,-3.20e-01,
302,8.80e-03,0.00e+00,
303,-1.60e-03,-3.20e-01,
304,4.80e-03,0.00e+00,
305,-7.20e-03,-2.40e-01,
306,-1.60e-03,-2.40e-01,
307,-1.04e-02,0.00e+00,
308,-1.04e-02,0.00e+00,
309,-1.60e-03,-1.60e-01,
310,-8.80e-03,-1.60e-01,
311,0.00e+00,0.00e+00,
312,-6.40e-03,-8.00e-02,
313,3.20e-03,-2.40e-01,
314,-2.40e-03,-1.60e-01,
315,5.60e-03,0.00e+00,
316,6.40e-03,-2.40e-01,
317,-3.20e-03,0.00e+00,
318,4.00e-03,-1.60e-01,
319,-4.80e-03,0.00e+00,
320,1.60e-03,-1.60e-01,
321,-7.20e-03,0.00e+00,
322,0.00e+00,-1.60e-01,
323,-8.80e-03,0.00e+00,
324,-8.00e-04,-1.60e-01,
325,-8.00e-03,0.00e+00,
326,-7.20e-03,0.00e+00,
327,8.00e-04,-2.40e-01,
328,-6.40e-03,-1.60e-01,
329,1.60e-03,0.00e+00,
330,-5.60e-03,-1.60e-01,
331,2.40e-03,0.00e+00,
332,-5.60e-03,-1.60e-01,
333,1.60e-03,0.00e+00,
334,1.60e-03,-1.60e-01,
335,-5.60e-03,0.00e+00,
336,-6.40e-03,0.00e+00,
337,1.60e-03,-2.40e-01,
338,1.60e-03,-2.40e-01,
339,-6.40e-03,0.00e+00,
340,-6.40e-03,-1.60e-01,
341,2.40e-03,0.00e+00,
342,-8.00e-03,-1.60e-01,
343,1.60e-03,0.00e+00,
344,-6.40e-03,-1.60e-01,
345,2.40e-03,-1.60e-01,
346,8.00e-04,-1.60e-01,
347,-6.40e-03,0.00e+00,
348,-7.20e-03,-8.00e-02,
349,0.00e+00,-2.40e-01,
350,-7.20e-03,-1.60e-01,
351,1.60e-03,0.00e+00,
352,-6.40e-03,-1.60e-01,
353,8.00e-04,-8.00e-02,
354,-6.40e-03,-1.60e-01,
355,3.20e-03,0.00e+00,
356,-6.40e-03,-1.60e-01,
357,2.40e-03,-2.40e-01,
358,-4.80e-03,-2.40e-01,
359,2.40e-03,0.00e+00,
360,1.60e-03,-1.60e-01,
361,-6.40e-03,0.00e+00,
362,1.60e-03,-1.60e-01,
363,-7.20e-03,0.00e+00,
364,-8.00e-03,-1.60e-01,
365,8.00e-04,0.00e+00,
366,8.00e-04,-1.60e-01,
367,-6.40e-03,0.00e+00,
368,-5.60e-03,0.00e+00,
369,3.20e-03,-2.40e-01,
370,1.60e-03,-1.60e-01,
371,-6.40e-03,0.00e+00,
372,-5.60e-03,-1.60e-01,
373,2.40e-03,0.00e+00,
374,-4.80e-03,-1.60e-01,
375,2.40e-03,0.00e+00,
376,2.40e-03,-1.60e-01,
377,-5.60e-03,0.00e+00,
378,-6.40e-03,0.00e+00,
379,1.60e-03,-2.40e-01,
380,-6.40e-03,-1.60e-01,
381,1.60e-03,0.00e+00,
382,2.40e-03,-1.60e-01,
383,-5.60e-03,0.00e+00,
384,-6.40e-03,-1.60e-01,
385,2.40e-03,-1.60e-01,
386,-5.60e-03,-1.60e-01,
387,3.20e-03,0.00e+00,
388,2.40e-03,-1.60e-01,
389,-5.60e-03,-2.40e-01,
390,1.60e-03,-2.40e-01,
391,-6.40e-03,0.00e+00,
392,8.00e-04,-1.60e-01,
393,-6.40e-03,-1.60e-01,
394,-7.20e-03,-1.60e-01,
395,8.00e-04,0.00e+00,
396,8.00e-04,-1.60e-01,
397,-6.40e-03,-1.60e-01,
398,-6.40e-03,-1.60e-01,
399,2.40e-03,0.00e+00,
400,-5.60e-03,0.00e+00,
401,3.20e-03,-2.40e-01,
402,-4.80e-03,-1.60e-01,
403,3.20e-03,0.00e+00,
404,-5.60e-03,-1.60e-01,
405,3.20e-03,0.00e+00,
406,3.20e-03,-1.60e-01,
407,-5.60e-03,0.00e+00,
408,-6.40e-03,-1.60e-01,
409,1.60e-03,0.00e+00,
410,8.00e-04,0.00e+00,
411,-6.40e-03,-2.40e-01,
412,2.40e-03,-1.60e-01,
413,-6.40e-03,0.00e+00,
414,-5.60e-03,-1.60e-01,
415,2.40e-03,0.00e+00,
416,-4.80e-03,-1.60e-01,
417,4.00e-03,0.00e+00,
418,2.40e-03,-1.60e-01,
419,-5.60e-03,0.00e+00,
420,1.60e-03,8.00e-02,
421,-6.40e-03,-2.40e-01,
422,1.60e-03,-1.60e-01,
423,-7.20e-03,8.00e-02,
424,-8.80e-03,-1.60e-01,
425,8.00e-04,0.00e+00,
426,-5.60e-03,-1.60e-01,
427,1.60e-03,8.00e-02,
428,-4.80e-03,-1.60e-01,
429,2.40e-03,8.00e-02,
430,-4.80e-03,-2.40e-01,
431,3.20e-03,8.00e-02,
432,3.20e-03,-2.40e-01,
433,-5.60e-03,8.00e-02,
434,-7.20e-03,-1.60e-01,
435,1.60e-03,8.00e-02,
436,8.00e-04,-1.60e-01,
437,-8.00e-03,8.00e-02,
438,-7.20e-03,-1.60e-01,
439,0.00e+00,8.00e-02,
440,-8.00e-03,-1.60e-01,
441,2.40e-03,8.00e-02,
442,-5.60e-03,8.00e-02,
443,2.40e-03,-2.40e-01,
444,2.40e-03,-1.60e-01,
445,-4.80e-03,8.00e-02,
446,-4.80e-03,-1.60e-01,
447,2.40e-03,8.00e-02,
448,1.60e-03,-1.60e-01,
449,-5.60e-03,8.00e-02,
450,0.00e+00,-1.60e-01,
451,-7.20e-03,8.00e-02,
452,0.00e+00,8.00e-02,
453,-9.60e-03,-2.40e-01,
454,-8.00e-03,-1.60e-01,
455,2.40e-03,8.00e-02,
456,-6.40e-03,-1.60e-01,
457,2.40e-03,8.00e-02,
458,-4.80e-03,-1.60e-01,
459,5.60e-03,8.00e-02,
460,4.80e-03,-1.60e-01,
461,-4.00e-03,8.00e-02,
462,3.20e-03,8.00e-02,
463,-5.60e-03,-2.40e-01,
464,8.00e-04,-1.60e-01,
465,-8.80e-03,8.00e-02,
466,-8.80e-03,-1.60e-01,
467,0.00e+00,8.00e-02,
468,-8.00e-03,-1.60e-01,
469,8.00e-04,8.00e-02,
470,-8.00e-03,8.00e-02,
471,2.40e-03,-1.60e-01,
472,-5.60e-03,8.00e-02,
473,4.00e-03,-2.40e-01,
474,2.40e-03,-1.60e-01,
475,-6.40e-03,8.00e-02,
476,8.00e-04,-1.60e-01,
477,-8.00e-03,8.00e-02,
478,-8.80e-03,-1.60e-01,
479,1.60e-03,8.00e-02,
480,-7.20e-03,-1.60e-01,
481,8.00e-04,8.00e-02,
482,-5.60e-03,-1.60e-01,
483,3.20e-03,8.00e-02,
484,-3.20e-03,8.00e-02,
485,5.60e-03,-2.40e-01,
486,4.80e-03,-1.60e-01,
487,-2.40e-03,8.00e-02,
488,4.80e-03,-1.60e-01,
489,-8.00e-03,8.00e-02,
490,-2.40e-03,-1.60e-01,
491,-1.28e-02,8.00e-02,
492,-6.40e-03,-1.60e-01,
493,-1.44e-02,8.00e-02,
494,-1.44e-02,8.00e-02,
495,-2.40e-03,-2.40e-01,
496,-8.00e-03,-1.60e-01,
497,6.40e-03,8.00e-02,
498,8.00e-04,8.00e-02,
499,1.28e-02,-1.60e-01,
500,1.36e-02,8.00e-02,
501,5.60e-03,-1.60e-01,
502,1.04e-02,8.00e-02,
503,-4.80e-03,-1.60e-01,
504,0.00e+00,8.00e-02,
505,-1.76e-02,-2.40e-01,
506,-1.12e-02,-1.60e-01,
507,-2.40e-02,8.00e-02,
508,-2.32e-02,-1.60e-01,
509,-1.28e-02,8.00e-02,
510,-1.92e-02,-1.60e-01,
511,3.20e-03,8.00e-02,
512,-2.40e-03,8.00e-02,
513,1.92e-02,-1.60e-01,
514,1.36e-02,8.00e-02,
515,2.64e-02,-2.40e-01,
516,2.64e-02,-1.60e-01,
517,1.12e-02,8.00e-02,
518,1.60e-02,8.00e-02,
519,-9.60e-03,-1.60e-01,
520,-4.80e-03,-1.60e-01,
521,-3.20e-02,8.00e-02,
522,-2.72e-02,-1.60e-01,
523,-4.40e-02,8.00e-02,
524,-4.32e-02,8.00e-02,
525,-2.48e-02,-1.60e-01,
526,-2.96e-02,8.00e-02,
527,1.68e-02,-1.60e-01,
528,1.28e-02,8.00e-02,
529,5.52e-02,-1.60e-01,
530,6.08e-02,8.00e-02,
531,4.16e-02,-1.60e-01,
532,4.80e-02,8.00e-02,
533,-8.00e-03,-1.60e-01,
534,-4.00e-03,8.00e-02,
535,-5.36e-02,-1.60e-01,
536,-4.96e-02,8.00e-02,
537,-6.16e-02,-1.60e-01,
538,-5.44e-02,8.00e-02,
539,-1.36e-02,-1.60e-01,
540,-1.76e-02,8.00e-02,
541,2.16e-02,-1.60e-01,
542,1.60e-02,-1.60e-01,
543,3.36e-02,8.00e-02,
544,3.28e-02,8.00e-02,
545,2.08e-02,-1.60e-01,
546,2.48e-02,8.00e-02,
547,1.60e-03,-1.60e-01,
548,6.40e-03,-8.00e-02,
549,-1.92e-02,8.00e-02,
550,-1.44e-02,-1.60e-01,
551,-2.96e-02,8.00e-02,
552,-3.04e-02,-1.60e-01,
553,-1.84e-02,8.00e-02,
554,-2.24e-02,-1.60e-01,
555,-2.40e-03,8.00e-02,
556,-7.20e-03,-2.40e-01,
557,1.12e-02,8.00e-02,
558,5.60e-03,8.00e-02,
559,1.68e-02,-1.60e-01,
560,1.68e-02,8.00e-02,
561,5.60e-03,-1.60e-01,
562,1.20e-02,8.00e-02,
563,-4.80e-03,-1.60e-01,
564,-8.00e-04,-8.00e-02,
565,-1.44e-02,8.00e-02,
566,-8.00e-03,8.00e-02,
567,-1.76e-02,-1.60e-01,
568,-1.68e-02,-2.40e-01,
569,-4.80e-03,8.00e-02,
570,-1.12e-02,-8.00e-02,
571,2.40e-03,8.00e-02,
572,-3.20e-03,-1.60e-01,
573,7.20e-03,8.00e-02,
574,8.00e-03,-8.00e-02,
575,0.00e+00,8.00e-02,
576,6.40e-03,-1.60e-01,
577,-4.00e-03,8.00e-02,
578,1.60e-03,8.00e-02,
579,-8.00e-03,-2.40e-01,
580,-1.60e-03,-8.00e-02,
581,-1.04e-02,8.00e-02,
582,-1.04e-02,8.00e-02,
583,-1.60e-03,-1.60e-01,
584,-8.00e-03,-8.00e-02,
585,1.60e-03,8.00e-02,
586,-4.80e-03,8.00e-02,
587,3.20e-03,-8.00e-02,
588,4.00e-03,-1.60e-01,
589,-4.00e-03,8.00e-02,
590,2.40e-03,8.00e-02,
591,-4.80e-03,-1.60e-01,
592,1.60e-03,8.00e-02,
593,-6.40e-03,-1.60e-01,
594,-7.20e-03,8.00e-02,
595,0.00e+00,-1.60e-01,
596,-7.20e-03,-8.00e-02,
597,1.60e-03,8.00e-02,
598,-5.60e-03,8.00e-02,
599,2.40e-03,-8.00e-02,
600,-4.80e-03,-8.00e-02,
601,3.20e-03,8.00e-02,
602,-4.00e-03,-8.00e-02,
603,2.40e-03,8.00e-02,
604,1.60e-03,-8.00e-02,
605,-7.20e-03,8.00e-02,
606,-8.00e-04,-8.00e-02,
607,-7.20e-03,8.00e-02,
608,-8.00e-03,-8.00e-02,
609,8.00e-04,8.00e-02,
610,-7.20e-03,-8.00e-02,
611,1.60e-03,8.00e-02,
612,-4.80e-03,-8.00e-02,
613,3.20e-03,8.00e-02,
614,-4.80e-03,-8.00e-02,
615,4.00e-03,8.00e-02,
616,3.20e-03,-8.00e-02,
617,-4.80e-03,8.00e-02,
618,1.60e-03,-8.00e-02,
619,-7.20e-03,8.00e-02,
620,-8.00e-04,-8.00e-02,
621,-8.00e-03,8.00e-02,
622,-7.20e-03,8.00e-02,
623,0.00e+00,-1.60e-01,
624,-7.20e-03,-8.00e-02,
625,1.60e-03,8.00e-02,
626,-8.80e-03,8.00e-02,
627,1.60e-03,-8.00e-02,
628,-4.00e-03,-8.00e-02,
629,4.00e-03,8.00e-02,
630,3.20e-03,8.00e-02,
631,-4.80e-03,-8.00e-02,
632,2.40e-03,-8.00e-02,
633,-7.20e-03,8.00e-02,
634,8.00e-04,8.00e-02,
635,-8.00e-03,-8.00e-02,
636,-8.80e-03,-8.00e-02,
637,8.00e-04,8.00e-02,
638,-5.60e-03,8.00e-02,
639,1.60e-03,-8.00e-02,
640,-8.00e-03,-8.00e-02,
641,2.40e-03,8.00e-02,
642,-6.40e-03,8.00e-02,
643,3.20e-03,-1.60e-01,
644,2.40e-03,-8.00e-02,
645,-4.80e-03,8.00e-02,
646,-5.60e-03,-8.00e-02,
647,2.40e-03,8.00e-02,
648,8.00e-04,-8.00e-02,
649,-7.20e-03,8.00e-02,
650,-7.20e-03,-8.00e-02,
651,-8.00e-04,8.00e-02,
652,-8.00e-03,-8.00e-02,
653,1.60e-03,8.00e-02,
654,-6.40e-03,-8.00e-02,
655,2.40e-03,8.00e-02,
656,1.60e-03,-8.00e-02,
657,-6.40e-03,8.00e-02,
658,-4.80e-03,-8.00e-02,
659,1.60e-03,8.00e-02,
660,-4.80e-03,8.00e-02,
661,2.40e-03,-1.60e-01,
662,8.00e-04,8.00e-02,
663,-8.00e-03,-1.60e-01,
664,-6.40e-03,8.00e-02,
665,8.00e-04,-1.60e-01,
666,-5.60e-03,8.00e-02,
667,8.00e-04,-8.00e-02,
668,1.60e-03,-8.00e-02,
669,-6.40e-03,8.00e-02,
670,-5.60e-03,8.00e-02,
671,2.40e-03,-8.00e-02,
672,-4.80e-03,-8.00e-02,
673,2.40e-03,8.00e-02,
674,1.60e-03,8.00e-02,
675,-5.60e-03,-8.00e-02,
676,8.00e-04,-8.00e-02,
677,-8.80e-03,8.00e-02,
678,1.60e-03,8.00e-02,
679,-6.40e-03,-8.00e-02,
680,1.60e-03,-8.00e-02,
681,-5.60e-03,8.00e-02,
682,2.40e-03,-8.00e-02,
683,-6.40e-03,8.00e-02,
684,2.40e-03,-8.00e-02,
685,-6.40e-03,8.00e-02,
686,-5.60e-03,8.00e-02,
687,3.20e-03,-1.60e-01,
688,2.40e-03,-8.00e-02,
689,-5.60e-03,8.00e-02,
690,-6.40e-03,-8.00e-02,
691,1.60e-03,8.00e-02,
692,-6.40e-03,8.00e-02,
693,8.00e-04,-1.60e-01,
694,-6.40e-03,8.00e-02,
695,1.60e-03,-1.60e-01,
696,2.40e-03,8.00e-02,
697,-6.40e-03,-1.60e-01,
698,-6.40e-03,-8.00e-02,
699,1.60e-03,8.00e-02,
700,-5.60e-03,-8.00e-02,
701,2.40e-03,8.00e-02,
702,1.60e-03,8.00e-02,
703,-7.20e-03,-8.00e-02,
704,8.00e-04,-8.00e-02,
705,-8.00e-03,8.00e-02,
706,-8.00e-03,8.00e-02,
707,8.00e-04,-8.00e-02,
708,2.40e-03,-8.00e-02,
709,-7.20e-03,8.00e-02,
710,-8.80e-03,8.00e-02,
711,1.60e-03,-1.60e-01,
712,-5.60e-03,-8.00e-02,
713,4.00e-03,8.00e-02,
714,3.20e-03,8.00e-02,
715,-6.40e-03,-8.00e-02,
716,-6.40e-03,8.00e-02,
717,2.40e-03,-1.60e-01,
718,-5.60e-03,8.00e-02,
719,3.20e-03,-1.60e-01,
720,-6.40e-03,8.00e-02,
721,3.20e-03,-1.60e-01,
722,-6.40e-03,8.00e-02,
723,2.40e-03,-1.60e-01,
724,-4.80e-03,-8.00e-02,
725,2.40e-03,8.00e-02,
726,-6.40e-03,-8.00e-02,
727,3.20e-03,8.00e-02,
728,1.60e-03,8.00e-02,
729,-5.60e-03,-1.60e-01,
730,2.40e-03,-1.60e-01,
731,-6.40e-03,8.00e-02,
732,-6.40e-03,-8.00e-02,
733,1.60e-03,8.00e-02,
734,1.60e-03,8.00e-02,
735,-7.20e-03,-1.60e-01,
736,1.60e-03,-8.00e-02,
737,-7.20e-03,8.00e-02,
738,-7.20e-03,8.00e-02,
739,2.40e-03,-1.60e-01,
740,-4.80e-03,-1.60e-01,
741,3.20e-03,8.00e-02,
742,2.40e-03,-1.60e-01,
743,-7.20e-03,8.00e-02,
744,-7.20e-03,8.00e-02,
745,2.40e-03,-1.60e-01,
746,-5.60e-03,8.00e-02,
747,2.40e-03,-8.00e-02,
748,1.60e-03,-8.00e-02,
749,-6.40e-03,8.00e-02,
750,-5.60e-03,8.00e-02,
751,2.40e-03,-1.60e-01,
752,1.60e-03,-1.60e-01,
753,-7.20e-03,8.00e-02,
754,1.60e-03,8.00e-02,
755,-7.20e-03,-1.60e-01,
756,1.60e-03,-8.00e-02,
757,-7.20e-03,8.00e-02,
758,-7.20e-03,-1.60e-01,
759,1.60e-03,8.00e-02,
760,1.60e-03,-1.60e-01,
761,-6.40e-03,8.00e-02,
762,-7.20e-03,8.00e-02,
763,2.40e-03,-1.60e-01,
764,8.00e-04,8.00e-02,
765,-8.00e-03,-1.60e-01,
766,-8.00e-03,-8.00e-02,
767,8.00e-04,8.00e-02,
768,1.60e-03,8.00e-02,
769,-6.40e-03,-8.00e-02,
770,-5.60e-03,-8.00e-02,
771,1.60e-03,8.00e-02,
772,3.20e-03,-8.00e-02,
773,-5.60e-03,8.00e-02,
774,-6.40e-03,8.00e-02,
775,2.40e-03,-1.60e-01,
776,-7.20e-03,-8.00e-02,
777,2.40e-03,8.00e-02,
778,1.60e-03,8.00e-02,
779,-6.40e-03,-1.60e-01,
780,-6.40e-03,8.00e-02,
781,1.60e-03,-1.60e-01,
782,8.00e-04,8.00e-02,
783,-8.00e-03,-1.60e-01,
784,-8.00e-03,-1.60e-01,
785,8.00e-04,8.00e-02,
786,-6.40e-03,8.00e-02,
787,1.60e-03,-1.60e-01,
788,-5.60e-03,8.00e-02,
789,2.40e-03,-1.60e-01,
790,-4.80e-03,8.00e-02,
791,6.40e-03,-8.00e-02,
792,-6.40e-03,8.00e-02,
793,3.20e-03,-1.60e-01,
794,2.40e-03,-1.60e-01,
795,-4.80e-03,8.00e-02,
796,1.60e-03,-8.00e-02,
797,-6.40e-03,8.00e-02,
798,2.40e-03,-1.60e-01,
799,-7.20e-03,8.00e-02,
800,2.40e-03,8.00e-02,
801,-7.20e-03,-1.60e-01,
802,8.00e-04,-1.60e-01,
803,-8.00e-03,8.00e-02,
804,-8.00e-03,-1.60e-01,
805,8.00e-04,8.00e-02,
806,1.60e-03,-1.60e-01,
807,-7.20e-03,8.00e-02,
808,-7.20e-03,8.00e-02,
809,2.40e-03,-1.60e-01,
810,1.60e-03,8.00e-02,
811,-7.20e-03,-1.60e-01,
812,-7.20e-03,8.00e-02,
813,2.40e-03,-1.60e-01,
814,8.00e-04,-1.60e-01,
815,-8.00e-03,8.00e-02,
816,8.00e-04,8.00e-02,
817,-8.00e-03,-1.60e-01,
818,-6.40e-03,8.00e-02,
819,1.60e-03,-1.60e-01,
820,8.00e-04,8.00e-02,
821,-7.20e-03,-1.60e-01,
822,-6.40e-03,-1.60e-01,
823,3.20e-03,8.00e-02,
824,1.60e-03,8.00e-02,
825,-8.00e-03,-1.60e-01,
826,3.20e-03,-1.60e-01,
827,-7.20e-03,8.00e-02,
828,3.20e-03,-1.60e-01,
829,-7.20e-03,8.00e-02,
830,2.40e-03,8.00e-02,
831,-6.40e-03,-1.60e-01,
832,-4.80e-03,8.00e-02,
833,3.20e-03,-1.60e-01,
834,1.60e-03,8.00e-02,
835,-6.40e-03,-1.60e-01,
836,-5.60e-03,8.00e-02,
837,2.40e-03,-1.60e-01,
