NMRdata/glyc1/95up/95t6.csv

X,CH3,CH4,Start,Increment,
Sequence,Volt,Volt,-4.800000e-04,2.000000e-05
0,-7.20e-03,8.00e-02,
1,1.60e-03,-2.40e-01,
2,2.40e-03,8.00e-02,
3,-6.40e-03,-1.60e-01,
4,-6.40e-03,8.00e-02,
5,1.60e-03,-1.60e-01,
6,-6.40e-03,8.00e-02,
7,1.60e-03,-1.60e-01,
8,-7.20e-03,8.00e-02,
9,8.00e-04,-1.60e-01,
10,-7.20e-03,-1.60e-01,
11,8.00e-04,8.00e-02,
12,-6.40e-03,-1.60e-01,
13,1.60e-03,8.00e-02,
14,-6.40e-03,-1.60e-01,
15,2.40e-03,8.00e-02,
16,-7.20e-03,8.00e-02,
17,3.20e-03,-1.60e-01,
18,2.40e-03,-1.60e-01,
19,-8.00e-03,8.00e-02,
20,-6.40e-03,8.00e-02,
21,1.60e-03,-1.60e-01,
22,1.60e-03,-1.60e-01,
23,-6.40e-03,8.00e-02,
24,1.60e-03,5.76e+00,
25,-5.60e-03,4.72e+00,
26,8.00e-04,5.12e+00,
27,-7.20e-03,4.64e+00,
28,-4.00e-03,5.20e+00,
29,-1.60e-03,4.64e+00,
30,-1.60e-03,5.44e+00,
31,-1.12e-02,4.56e+00,
32,-9.60e-03,4.64e+00,
33,-5.60e-03,5.20e+00,
34,-5.60e-03,5.12e+00,
35,-8.00e-03,4.64e+00,
36,-8.00e-03,5.12e+00,
37,-5.60e-03,4.56e+00,
38,-5.60e-03,5.12e+00,
39,-2.64e-02,4.64e+00,
40,-2.16e-02,5.12e+00,
41,-5.76e-02,4.72e+00,
42,-6.08e-02,5.12e+00,
43,-5.04e-02,4.64e+00,
44,-5.44e-02,4.72e+00,
45,-2.24e-02,5.12e+00,
46,-3.04e-02,5.12e+00,
47,1.20e-02,4.64e+00,
48,4.80e-03,5.12e+00,
49,3.60e-02,4.72e+00,
50,4.16e-02,5.12e+00,
51,2.96e-02,4.72e+00,
52,3.52e-02,5.12e+00,
53,7.20e-03,4.72e+00,
54,1.04e-02,5.12e+00,
55,-1.84e-02,4.64e+00,
56,-1.28e-02,5.12e+00,
57,-3.04e-02,4.72e+00,
58,-3.12e-02,5.12e+00,
59,-2.16e-02,4.72e+00,
60,-2.64e-02,4.72e+00,
61,-4.80e-03,5.12e+00,
62,-1.12e-02,5.12e+00,
63,1.12e-02,4.64e+00,
64,7.20e-03,4.72e+00,
65,1.92e-02,5.12e+00,
66,1.84e-02,5.12e+00,
67,7.20e-03,4.72e+00,
68,1.20e-02,5.12e+00,
69,-5.60e-03,4.72e+00,
70,0.00e+00,5.12e+00,
71,-1.44e-02,4.64e+00,
72,-8.80e-03,5.12e+00,
73,-1.84e-02,4.72e+00,
74,-1.68e-02,5.12e+00,
75,-4.80e-03,4.72e+00,
76,-9.60e-03,4.80e+00,
77,3.20e-03,5.12e+00,
78,-3.20e-03,5.12e+00,
79,7.20e-03,4.64e+00,
80,8.00e-03,5.12e+00,
81,-8.00e-04,4.72e+00,
82,5.60e-03,4.72e+00,
83,-4.80e-03,5.12e+00,
84,8.00e-04,4.72e+00,
85,-9.60e-03,5.12e+00,
86,-2.40e-03,5.12e+00,
87,-1.20e-02,4.64e+00,
88,-9.60e-03,5.12e+00,
89,0.00e+00,4.72e+00,
90,-7.20e-03,5.12e+00,
91,2.40e-03,4.72e+00,
92,-4.80e-03,5.12e+00,
93,4.80e-03,4.72e+00,
94,4.00e-03,5.12e+00,
95,-5.60e-03,4.64e+00,
96,8.00e-04,4.72e+00,
97,-8.80e-03,5.12e+00,
98,-8.80e-03,5.12e+00,
99,-1.60e-03,4.64e+00,
100,-9.60e-03,4.72e+00,
101,-8.00e-04,5.12e+00,
102,-7.20e-03,5.12e+00,
103,2.40e-03,4.64e+00,
104,-4.80e-03,5.12e+00,
105,3.20e-03,4.64e+00,
106,-4.00e-03,4.72e+00,
107,4.00e-03,5.12e+00,
108,4.80e-03,4.64e+00,
109,-5.60e-03,5.12e+00,
110,8.00e-04,5.12e+00,
111,-9.60e-03,4.64e+00,
112,-9.60e-03,5.12e+00,
113,-8.00e-04,4.64e+00,
114,-9.60e-03,5.12e+00,
115,-1.60e-03,4.64e+00,
116,-7.20e-03,4.72e+00,
117,2.40e-03,5.12e+00,
118,-4.80e-03,5.12e+00,
119,4.80e-03,4.64e+00,
120,5.60e-03,5.12e+00,
121,-3.20e-03,4.64e+00,
122,3.20e-03,5.12e+00,
123,-4.80e-03,4.64e+00,
124,8.00e-04,5.12e+00,
125,-8.80e-03,4.64e+00,
126,-1.60e-03,5.12e+00,
127,-8.80e-03,4.64e+00,
128,-1.60e-03,5.12e+00,
129,-9.60e-03,4.72e+00,
130,-8.00e-03,4.64e+00,
131,1.60e-03,5.12e+00,
132,-5.60e-03,4.64e+00,
133,3.20e-03,5.12e+00,
134,3.20e-03,5.12e+00,
135,-4.80e-03,4.64e+00,
136,3.20e-03,5.12e+00,
137,-4.00e-03,4.64e+00,
138,2.40e-03,4.64e+00,
139,-7.20e-03,5.12e+00,
140,-8.00e-04,4.64e+00,
141,-8.80e-03,5.12e+00,
142,-8.00e-03,5.12e+00,
143,-8.00e-04,4.64e+00,
144,-8.00e-03,5.12e+00,
145,1.60e-03,4.72e+00,
146,-5.60e-03,4.64e+00,
147,2.40e-03,5.12e+00,
148,-5.60e-03,4.64e+00,
149,3.20e-03,5.12e+00,
150,2.40e-03,5.12e+00,
151,-4.80e-03,4.64e+00,
152,1.60e-03,5.12e+00,
153,-6.40e-03,4.64e+00,
154,1.60e-03,4.64e+00,
155,-8.00e-03,5.12e+00,
156,-8.80e-03,4.64e+00,
157,8.00e-04,5.12e+00,
158,-6.40e-03,4.64e+00,
159,1.60e-03,4.96e+00,
160,-4.80e-03,5.12e+00,
161,3.20e-03,4.64e+00,
162,-6.40e-03,4.64e+00,
163,2.40e-03,5.04e+00,
164,-4.80e-03,4.64e+00,
165,2.40e-03,5.12e+00,
166,1.60e-03,4.64e+00,
167,-7.20e-03,5.12e+00,
168,-8.00e-03,5.12e+00,
169,8.00e-04,4.64e+00,
170,1.60e-03,4.64e+00,
171,-6.40e-03,5.04e+00,
172,8.00e-04,4.64e+00,
173,-8.00e-03,5.12e+00,
174,2.40e-03,5.04e+00,
175,-6.40e-03,4.64e+00,
176,-7.20e-03,4.64e+00,
177,2.40e-03,5.04e+00,
178,-8.80e-03,5.04e+00,
179,1.60e-03,4.64e+00,
180,3.20e-03,4.64e+00,
181,-7.20e-03,5.04e+00,
182,0.00e+00,4.64e+00,
183,-8.80e-03,5.04e+00,
184,0.00e+00,5.12e+00,
185,-8.80e-03,4.64e+00,
186,-8.00e-03,4.64e+00,
187,3.20e-03,5.04e+00,
188,4.80e-03,4.64e+00,
189,-4.00e-03,4.96e+00,
190,3.20e-03,4.64e+00,
191,-4.80e-03,5.04e+00,
192,3.20e-03,4.64e+00,
193,-7.20e-03,5.12e+00,
194,-8.00e-03,4.64e+00,
195,8.00e-04,5.04e+00,
196,1.60e-03,4.64e+00,
197,-8.00e-03,4.96e+00,
198,-8.80e-03,4.64e+00,
199,8.00e-04,5.04e+00,
200,0.00e+00,4.64e+00,
201,-8.00e-03,5.04e+00,
202,-6.40e-03,5.04e+00,
203,3.20e-03,4.64e+00,
204,-4.80e-03,4.64e+00,
205,4.00e-03,5.04e+00,
206,-4.80e-03,4.64e+00,
207,6.40e-03,5.04e+00,
208,4.00e-03,5.04e+00,
209,-6.40e-03,4.64e+00,
210,-7.20e-03,5.04e+00,
211,2.40e-03,4.64e+00,
212,-7.20e-03,4.64e+00,
213,8.00e-04,5.04e+00,
214,-8.00e-03,5.04e+00,
215,2.40e-03,4.64e+00,
216,-4.80e-03,4.64e+00,
217,3.20e-03,5.04e+00,
218,3.20e-03,5.04e+00,
219,-4.80e-03,4.64e+00,
220,1.60e-03,4.64e+00,
221,-6.40e-03,5.04e+00,
222,1.60e-03,4.64e+00,
223,-7.20e-03,5.04e+00,
224,-8.00e-03,4.64e+00,
225,8.00e-04,5.04e+00,
226,-8.00e-03,5.04e+00,
227,8.00e-04,4.64e+00,
228,-6.40e-03,4.64e+00,
229,3.20e-03,4.96e+00,
230,-4.80e-03,4.64e+00,
231,3.20e-03,4.96e+00,
232,-4.80e-03,4.64e+00,
233,2.40e-03,5.12e+00,
234,-6.40e-03,5.04e+00,
235,3.20e-03,4.64e+00,
236,-6.40e-03,4.64e+00,
237,1.60e-03,5.04e+00,
238,-8.00e-03,4.64e+00,
239,1.60e-03,5.04e+00,
240,-7.20e-03,5.04e+00,
241,8.00e-04,4.64e+00,
242,-6.40e-03,5.04e+00,
243,3.20e-03,4.64e+00,
244,2.40e-03,5.04e+00,
245,-6.40e-03,4.64e+00,
246,-4.80e-03,4.64e+00,
247,2.40e-03,5.04e+00,
248,2.40e-03,4.64e+00,
249,-6.40e-03,5.04e+00,
250,-6.40e-03,5.04e+00,
251,8.00e-04,4.64e+00,
252,8.00e-04,5.04e+00,
253,-6.40e-03,4.64e+00,
254,-6.40e-03,5.04e+00,
255,8.00e-04,4.64e+00,
256,1.60e-03,4.64e+00,
257,-6.40e-03,5.04e+00,
258,-5.60e-03,5.04e+00,
259,3.20e-03,4.64e+00,
260,2.40e-03,5.04e+00,
261,-5.60e-03,4.64e+00,
262,4.00e-03,5.04e+00,
263,-7.20e-03,4.64e+00,
264,2.40e-03,4.64e+00,
265,-8.00e-03,5.04e+00,
266,8.00e-04,4.64e+00,
267,-8.80e-03,5.04e+00,
268,8.00e-04,4.64e+00,
269,-8.00e-03,5.04e+00,
270,-6.40e-03,4.64e+00,
271,1.60e-03,5.04e+00,
272,-7.20e-03,5.04e+00,
273,3.20e-03,4.64e+00,
274,-4.00e-03,4.64e+00,
275,4.00e-03,5.04e+00,
276,2.40e-03,5.04e+00,
277,-8.00e-03,4.56e+00,
278,1.60e-03,4.64e+00,
279,-7.20e-03,5.04e+00,
280,-7.20e-03,5.04e+00,
281,1.60e-03,4.64e+00,
282,0.00e+00,4.64e+00,
283,-8.80e-03,5.04e+00,
284,-8.80e-03,4.64e+00,
285,8.00e-04,5.04e+00,
286,2.40e-03,5.04e+00,
287,-6.40e-03,4.64e+00,
288,2.40e-03,4.64e+00,
289,-5.60e-03,5.04e+00,
290,1.60e-03,5.04e+00,
291,-6.40e-03,4.64e+00,
292,8.00e-04,5.04e+00,
293,-8.00e-03,4.64e+00,
294,1.60e-03,4.56e+00,
295,-8.00e-03,5.12e+00,
296,-9.60e-03,5.04e+00,
297,8.00e-04,4.56e+00,
298,8.00e-04,4.64e+00,
299,-7.20e-03,5.04e+00,
300,8.00e-04,4.64e+00,
301,-8.00e-03,5.04e+00,
302,-8.00e-03,5.04e+00,
303,2.40e-03,4.64e+00,
304,2.40e-03,5.04e+00,
305,-6.40e-03,4.64e+00,
306,-6.40e-03,4.64e+00,
307,2.40e-03,5.04e+00,
308,-8.00e-03,5.04e+00,
309,1.60e-03,4.64e+00,
310,2.40e-03,4.64e+00,
311,-9.60e-03,5.04e+00,
312,-6.40e-03,4.64e+00,
313,1.60e-03,5.04e+00,
314,3.20e-03,4.64e+00,
315,-7.20e-03,5.04e+00,
316,-4.80e-03,4.64e+00,
317,3.20e-03,5.04e+00,
318,2.40e-03,4.56e+00,
319,-8.00e-03,5.04e+00,
320,-7.20e-03,5.04e+00,
321,1.60e-03,4.64e+00,
322,-7.20e-03,5.04e+00,
323,1.60e-03,4.56e+00,
324,-8.00e-03,5.04e+00,
325,1.60e-03,4.56e+00,
326,8.00e-04,4.56e+00,
327,-7.20e-03,5.12e+00,
328,-3.20e-03,5.04e+00,
329,-8.00e-04,4.56e+00,
330,-1.60e-03,4.24e+00,
331,-1.20e-02,5.20e+00,
332,-1.44e-02,5.20e+00,
333,-7.20e-03,4.40e+00,
334,-7.20e-03,5.12e+00,
335,-9.60e-03,4.48e+00,
336,-7.20e-03,5.04e+00,
337,-9.60e-03,4.64e+00,
338,-7.20e-03,5.04e+00,
339,-9.60e-03,4.56e+00,
340,-8.80e-03,4.64e+00,
341,-7.20e-03,5.04e+00,
342,-5.60e-03,4.64e+00,
343,-1.76e-02,5.04e+00,
344,-1.84e-02,5.04e+00,
345,-5.60e-03,-1.36e+00,
346,-9.60e-03,0.00e+00,
347,4.00e-03,-3.20e-01,
348,-2.40e-03,0.00e+00,
349,1.04e-02,-3.20e-01,
350,3.20e-03,0.00e+00,
351,1.28e-02,-3.20e-01,
352,9.60e-03,0.00e+00,
353,-1.60e-03,-3.20e-01,
354,4.80e-03,-1.60e-01,
355,-1.20e-02,0.00e+00,
356,-4.00e-03,0.00e+00,
357,-1.20e-02,-2.40e-01,
358,-1.20e-02,-1.60e-01,
359,-3.20e-03,0.00e+00,
360,-1.04e-02,-1.60e-01,
361,8.00e-04,0.00e+00,
362,-6.40e-03,0.00e+00,
363,4.80e-03,-2.40e-01,
364,-2.40e-03,0.00e+00,
365,5.60e-03,-2.40e-01,
366,5.60e-03,-1.60e-01,
367,-4.00e-03,0.00e+00,
368,4.00e-03,0.00e+00,
369,-8.00e-03,-2.40e-01,
370,-8.00e-04,-1.60e-01,
371,-9.60e-03,0.00e+00,
372,-8.80e-03,-1.60e-01,
373,-8.00e-04,0.00e+00,
374,0.00e+00,-1.60e-01,
375,-8.00e-03,0.00e+00,
376,-6.40e-03,-1.60e-01,
377,1.60e-03,0.00e+00,
378,4.00e-03,0.00e+00,
379,-4.00e-03,-2.40e-01,
380,2.40e-03,-1.60e-01,
381,-6.40e-03,0.00e+00,
382,-5.60e-03,-1.60e-01,
383,2.40e-03,0.00e+00,
384,1.60e-03,0.00e+00,
385,-8.80e-03,-1.60e-01,
386,-8.00e-03,-1.60e-01,
387,2.40e-03,0.00e+00,
388,3.20e-03,-8.00e-02,
389,-7.20e-03,-2.40e-01,
390,-6.40e-03,-1.60e-01,
391,2.40e-03,0.00e+00,
392,3.20e-03,-1.60e-01,
393,-6.40e-03,-8.00e-02,
394,-8.80e-03,-1.60e-01,
395,-8.00e-04,0.00e+00,
396,0.00e+00,-8.00e-02,
397,-8.00e-03,-1.60e-01,
398,-8.00e-03,-2.40e-01,
399,8.00e-04,0.00e+00,
400,-8.00e-03,-2.40e-01,
401,8.00e-04,0.00e+00,
402,1.60e-03,-1.60e-01,
403,-7.20e-03,0.00e+00,
404,-4.80e-03,-1.60e-01,
405,4.00e-03,0.00e+00,
406,3.20e-03,-1.60e-01,
407,-4.80e-03,0.00e+00,
408,1.60e-03,-1.60e-01,
409,-8.00e-03,0.00e+00,
410,0.00e+00,0.00e+00,
411,-8.80e-03,-2.40e-01,
412,0.00e+00,-1.60e-01,
413,-8.80e-03,0.00e+00,
414,-7.20e-03,-1.60e-01,
415,8.00e-04,0.00e+00,
416,-6.40e-03,-1.60e-01,
417,2.40e-03,0.00e+00,
418,-5.60e-03,-1.60e-01,
419,4.00e-03,0.00e+00,
420,3.20e-03,0.00e+00,
421,-7.20e-03,-2.40e-01,
422,2.40e-03,-1.60e-01,
423,-5.60e-03,0.00e+00,
424,-7.20e-03,-1.60e-01,
425,1.60e-03,-1.60e-01,
426,0.00e+00,-1.60e-01,
427,-8.80e-03,0.00e+00,
428,-7.20e-03,-1.60e-01,
429,1.60e-03,-1.60e-01,
430,-7.20e-03,-2.40e-01,
431,8.00e-04,0.00e+00,
432,-7.20e-03,-1.60e-01,
433,1.60e-03,-1.60e-01,
434,-6.40e-03,-1.60e-01,
435,1.60e-03,8.00e-02,
436,-5.60e-03,-1.60e-01,
437,2.40e-03,-1.60e-01,
438,2.40e-03,-1.60e-01,
439,-7.20e-03,0.00e+00,
440,-8.00e-03,-1.60e-01,
441,8.00e-04,0.00e+00,
442,-6.40e-03,-2.40e-01,
443,1.60e-03,0.00e+00,
444,-6.40e-03,-1.60e-01,
445,2.40e-03,0.00e+00,
446,-5.60e-03,-1.60e-01,
447,2.40e-03,0.00e+00,
448,2.40e-03,-1.60e-01,
449,-5.60e-03,0.00e+00,
450,-5.60e-03,-1.60e-01,
451,3.20e-03,0.00e+00,
452,1.60e-03,-2.40e-01,
453,-7.20e-03,0.00e+00,
454,-7.20e-03,-1.60e-01,
455,8.00e-04,0.00e+00,
456,8.00e-04,-1.60e-01,
457,-8.00e-03,8.00e-02,
458,-4.80e-03,-1.60e-01,
459,2.40e-03,8.00e-02,
460,-6.40e-03,-1.60e-01,
461,2.40e-03,0.00e+00,
462,-4.80e-03,-2.40e-01,
463,3.20e-03,8.00e-02,
464,2.40e-03,-1.60e-01,
465,-6.40e-03,0.00e+00,
466,-7.20e-03,-1.60e-01,
467,1.60e-03,8.00e-02,
468,8.00e-04,-1.60e-01,
469,-8.00e-03,8.00e-02,
470,-8.00e-03,-1.60e-01,
471,1.60e-03,8.00e-02,
472,-5.60e-03,8.00e-02,
473,3.20e-03,-2.40e-01,
474,-6.40e-03,-1.60e-01,
475,2.40e-03,8.00e-02,
476,-4.80e-03,-1.60e-01,
477,3.20e-03,8.00e-02,
478,2.40e-03,8.00e-02,
479,-5.60e-03,-1.60e-01,
480,2.40e-03,-1.60e-01,
481,-7.20e-03,8.00e-02,
482,8.00e-04,8.00e-02,
483,-7.20e-03,-2.40e-01,
484,-7.20e-03,-1.60e-01,
485,8.00e-04,8.00e-02,
486,-6.40e-03,-1.60e-01,
487,1.60e-03,8.00e-02,
488,-6.40e-03,-1.60e-01,
489,3.20e-03,8.00e-02,
490,3.20e-03,-1.60e-01,
491,-4.80e-03,8.00e-02,
492,-4.80e-03,-1.60e-01,
493,2.40e-03,8.00e-02,
494,1.60e-03,-1.60e-01,
495,-7.20e-03,8.00e-02,
496,-7.20e-03,-1.60e-01,
497,8.00e-04,8.00e-02,
498,-7.20e-03,-1.60e-01,
499,1.60e-03,8.00e-02,
500,2.40e-03,-1.60e-01,
501,-7.20e-03,8.00e-02,
502,-5.60e-03,-1.60e-01,
503,3.20e-03,8.00e-02,
504,4.00e-03,-2.40e-01,
505,-5.60e-03,8.00e-02,
506,8.00e-04,-1.60e-01,
507,-7.20e-03,8.00e-02,
508,1.60e-03,-1.60e-01,
509,-7.20e-03,8.00e-02,
510,8.00e-04,-1.60e-01,
511,-8.00e-03,8.00e-02,
512,-7.20e-03,-1.60e-01,
513,8.00e-04,8.00e-02,
514,-7.20e-03,-1.60e-01,
515,2.40e-03,8.00e-02,
516,-4.80e-03,-1.60e-01,
517,3.20e-03,8.00e-02,
518,-6.40e-03,-1.60e-01,
519,3.20e-03,8.00e-02,
520,1.60e-03,-1.60e-01,
521,-7.20e-03,8.00e-02,
522,8.00e-04,-1.60e-01,
523,-8.00e-03,8.00e-02,
524,8.00e-04,8.00e-02,
525,-8.80e-03,-2.40e-01,
526,-7.20e-03,-1.60e-01,
527,2.40e-03,8.00e-02,
528,-6.40e-03,-1.60e-01,
529,2.40e-03,8.00e-02,
530,-4.80e-03,8.00e-02,
531,3.20e-03,-1.60e-01,
532,2.40e-03,-1.60e-01,
533,-4.80e-03,8.00e-02,
534,1.60e-03,8.00e-02,
535,-6.40e-03,-1.60e-01,
536,0.00e+00,8.00e-02,
537,-8.80e-03,-2.40e-01,
538,-8.80e-03,-1.60e-01,
539,0.00e+00,8.00e-02,
540,-7.20e-03,8.00e-02,
541,8.00e-04,-1.60e-01,
542,-6.40e-03,-1.60e-01,
543,2.40e-03,8.00e-02,
544,-4.80e-03,8.00e-02,
545,3.20e-03,-1.60e-01,
546,3.20e-03,-2.40e-01,
547,-5.60e-03,8.00e-02,
548,1.60e-03,-1.60e-01,
549,-6.40e-03,8.00e-02,
550,0.00e+00,8.00e-02,
551,-8.80e-03,-1.60e-01,
552,-8.00e-04,-1.60e-01,
553,-8.80e-03,8.00e-02,
554,-8.80e-03,-1.60e-01,
555,8.00e-04,8.00e-02,
556,-5.60e-03,-1.60e-01,
557,2.40e-03,8.00e-02,
558,-4.80e-03,8.00e-02,
559,3.20e-03,-1.60e-01,
560,3.20e-03,8.00e-02,
561,-5.60e-03,-1.60e-01,
562,2.40e-03,8.00e-02,
563,-5.60e-03,-1.60e-01,
564,1.60e-03,-1.60e-01,
565,-7.20e-03,8.00e-02,
566,-8.00e-04,8.00e-02,
567,-8.00e-03,-1.60e-01,
568,-8.80e-03,8.00e-02,
569,1.60e-03,-1.60e-01,
570,2.40e-03,8.00e-02,
571,-5.60e-03,-1.60e-01,
572,-4.80e-03,8.00e-02,
573,3.20e-03,-8.00e-02,
574,3.20e-03,-8.00e-02,
575,-4.80e-03,8.00e-02,
576,1.60e-03,8.00e-02,
577,-8.00e-03,-1.60e-01,
578,0.00e+00,-8.00e-02,
579,-8.80e-03,8.00e-02,
580,-8.00e-03,8.00e-02,
581,0.00e+00,-1.60e-01,
582,-6.40e-03,-8.00e-02,
583,4.00e-03,8.00e-02,
584,-3.20e-03,-1.60e-01,
585,5.60e-03,8.00e-02,
586,6.40e-03,-8.00e-02,
587,-2.40e-03,8.00e-02,
588,4.00e-03,-1.60e-01,
589,-6.40e-03,8.00e-02,
590,-1.60e-03,-8.00e-02,
591,-1.28e-02,8.00e-02,
592,-4.80e-03,8.00e-02,
593,-1.44e-02,-1.60e-01,
594,-1.36e-02,-8.00e-02,
595,-3.20e-03,8.00e-02,
596,-8.80e-03,-8.00e-02,
597,5.60e-03,8.00e-02,
598,0.00e+00,-8.00e-02,
599,1.36e-02,8.00e-02,
600,1.44e-02,-8.00e-02,
601,5.60e-03,8.00e-02,
602,1.04e-02,-8.00e-02,
603,-4.00e-03,8.00e-02,
604,3.20e-03,8.00e-02,
605,-1.44e-02,-1.60e-01,
606,-1.04e-02,-8.00e-02,
607,-2.24e-02,8.00e-02,
608,-2.32e-02,-8.00e-02,
609,-1.44e-02,8.00e-02,
610,-1.76e-02,-8.00e-02,
611,8.00e-04,8.00e-02,
612,-4.00e-03,-8.00e-02,
613,1.84e-02,8.00e-02,
614,1.28e-02,-8.00e-02,
615,2.64e-02,8.00e-02,
616,2.80e-02,-8.00e-02,
617,1.28e-02,8.00e-02,
618,1.76e-02,-8.00e-02,
619,-6.40e-03,8.00e-02,
620,-1.60e-03,-8.00e-02,
621,-2.88e-02,8.00e-02,
622,-2.40e-02,-8.00e-02,
623,-4.16e-02,8.00e-02,
624,-4.24e-02,-8.00e-02,
625,-2.56e-02,8.00e-02,
626,-3.12e-02,-8.00e-02,
627,1.20e-02,8.00e-02,
628,8.00e-03,-8.00e-02,
629,5.04e-02,8.00e-02,
630,5.76e-02,-8.00e-02,
631,4.32e-02,8.00e-02,
632,4.88e-02,-8.00e-02,
633,-2.40e-03,0.00e+00,
634,8.00e-04,8.00e-02,
635,-4.80e-02,-8.00e-02,
636,-4.40e-02,-8.00e-02,
637,-5.76e-02,8.00e-02,
638,-5.12e-02,-8.00e-02,
639,-1.52e-02,8.00e-02,
640,-2.00e-02,-8.00e-02,
641,1.68e-02,8.00e-02,
642,1.28e-02,-8.00e-02,
643,3.04e-02,8.00e-02,
644,3.20e-02,-8.00e-02,
645,2.00e-02,8.00e-02,
646,2.56e-02,-8.00e-02,
647,4.00e-03,8.00e-02,
648,8.00e-03,-8.00e-02,
649,-1.68e-02,8.00e-02,
650,-1.12e-02,-8.00e-02,
651,-2.72e-02,8.00e-02,
652,-2.72e-02,-8.00e-02,
653,-1.60e-02,8.00e-02,
654,-2.16e-02,-8.00e-02,
655,-4.00e-03,8.00e-02,
656,-8.00e-03,-8.00e-02,
657,1.12e-02,8.00e-02,
658,4.80e-03,-8.00e-02,
659,1.60e-02,8.00e-02,
660,1.60e-02,-8.00e-02,
661,7.20e-03,8.00e-02,
662,1.20e-02,-8.00e-02,
663,-4.00e-03,8.00e-02,
664,8.00e-04,-8.00e-02,
665,-1.36e-02,8.00e-02,
666,-6.40e-03,8.00e-02,
667,-1.76e-02,-8.00e-02,
668,-1.60e-02,-8.00e-02,
669,-4.00e-03,8.00e-02,
670,-1.12e-02,8.00e-02,
671,3.20e-03,-8.00e-02,
672,-3.20e-03,-8.00e-02,
673,7.20e-03,8.00e-02,
674,8.00e-04,-8.00e-02,
675,8.80e-03,8.00e-02,
676,7.20e-03,-8.00e-02,
677,-4.00e-03,8.00e-02,
678,2.40e-03,-8.00e-02,
679,-8.00e-03,8.00e-02,
680,-1.60e-03,8.00e-02,
681,-9.60e-03,-1.60e-01,
682,-1.04e-02,-8.00e-02,
683,-8.00e-04,8.00e-02,
684,-8.80e-03,-8.00e-02,
685,2.40e-03,8.00e-02,
686,-4.80e-03,-8.00e-02,
687,2.40e-03,8.00e-02,
688,-4.80e-03,8.00e-02,
689,3.20e-03,-8.00e-02,
690,3.20e-03,-8.00e-02,
691,-5.60e-03,8.00e-02,
692,8.00e-04,8.00e-02,
693,-7.20e-03,-1.60e-01,
694,0.00e+00,-8.00e-02,
695,-8.00e-03,8.00e-02,
696,-8.00e-03,-8.00e-02,
697,1.60e-03,8.00e-02,
698,-6.40e-03,-8.00e-02,
699,1.60e-03,8.00e-02,
700,-4.00e-03,-8.00e-02,
701,3.20e-03,8.00e-02,
702,3.20e-03,8.00e-02,
703,-5.60e-03,-8.00e-02,
704,8.00e-04,-8.00e-02,
705,-8.00e-03,8.00e-02,
706,0.00e+00,8.00e-02,
707,-8.80e-03,-8.00e-02,
708,-8.00e-03,-8.00e-02,
709,8.00e-04,8.00e-02,
710,-8.00e-03,8.00e-02,
711,2.40e-03,-8.00e-02,
712,-4.00e-03,-8.00e-02,
713,4.00e-03,8.00e-02,
714,-4.00e-03,8.00e-02,
715,4.80e-03,-8.00e-02,
716,4.80e-03,-8.00e-02,
717,-4.80e-03,8.00e-02,
718,8.00e-04,8.00e-02,
719,-7.20e-03,-8.00e-02,
720,0.00e+00,-8.00e-02,
721,-8.00e-03,8.00e-02,
722,-8.80e-03,-8.00e-02,
723,8.00e-04,8.00e-02,
724,-6.40e-03,8.00e-02,
725,2.40e-03,-1.60e-01,
726,-5.60e-03,-8.00e-02,
727,4.00e-03,8.00e-02,
728,-4.80e-03,-8.00e-02,
729,4.00e-03,8.00e-02,
730,4.80e-03,8.00e-02,
731,-4.80e-03,-1.60e-01,
732,3.20e-03,-8.00e-02,
733,-6.40e-03,8.00e-02,
734,1.60e-03,-8.00e-02,
735,-7.20e-03,8.00e-02,
736,-8.80e-03,-8.00e-02,
737,0.00e+00,8.00e-02,
738,-7.20e-03,-8.00e-02,
739,2.40e-03,8.00e-02,
740,2.40e-03,-8.00e-02,
741,-6.40e-03,8.00e-02,
742,3.20e-03,8.00e-02,
743,-4.80e-03,-1.60e-01,
744,-4.80e-03,-8.00e-02,
745,2.40e-03,8.00e-02,
746,2.40e-03,8.00e-02,
747,-6.40e-03,-8.00e-02,
748,8.00e-04,8.00e-02,
749,-9.60e-03,-1.60e-01,
750,0.00e+00,8.00e-02,
751,-8.80e-03,-1.60e-01,
752,-7.20e-03,8.00e-02,
753,3.20e-03,-1.60e-01,
754,2.40e-03,8.00e-02,
755,-6.40e-03,-8.00e-02,
756,-6.40e-03,-1.60e-01,
757,4.00e-03,8.00e-02,
758,3.20e-03,8.00e-02,
759,-7.20e-03,-8.00e-02,
760,-8.00e-03,-8.00e-02,
761,1.60e-03,8.00e-02,
762,-8.00e-03,-8.00e-02,
763,4.00e-03,8.00e-02,
764,1.60e-03,-8.00e-02,
765,-8.00e-03,8.00e-02,
766,1.60e-03,8.00e-02,
767,-7.20e-03,-8.00e-02,
768,-6.40e-03,8.00e-02,
769,3.20e-03,-1.60e-01,
770,2.40e-03,8.00e-02,
771,-6.40e-03,-1.60e-01,
772,-8.00e-03,8.00e-02,
773,1.60e-03,-1.60e-01,
774,3.20e-03,8.00e-02,
775,-8.00e-03,-1.60e-01,
776,-8.00e-03,8.00e-02,
777,8.00e-04,-1.60e-01,
778,-7.20e-03,-1.60e-01,
779,8.00e-04,8.00e-02,
780,-1.04e-02,8.00e-02,
781,1.60e-03,-1.60e-01,
782,-5.60e-03,8.00e-02,
783,2.40e-03,-1.60e-01,
784,-5.60e-03,-8.00e-02,
785,3.20e-03,8.00e-02,
786,2.40e-03,8.00e-02,
787,-6.40e-03,-8.00e-02,
788,3.20e-03,-1.60e-01,
789,-8.80e-03,8.00e-02,
790,-8.00e-03,8.00e-02,
791,1.60e-03,-1.60e-01,
792,8.00e-04,8.00e-02,
793,-8.80e-03,-1.60e-01,
794,-8.00e-03,8.00e-02,
795,8.00e-04,-1.60e-01,
796,-6.40e-03,8.00e-02,
797,2.40e-03,-2.40e-01,
798,1.60e-03,8.00e-02,
799,-8.00e-03,-2.40e-01,
800,-7.20e-03,-1.60e-01,
801,2.40e-03,8.00e-02,
802,-6.40e-03,8.00e-02,
803,1.60e-03,-1.60e-01,
804,8.00e-04,8.00e-02,
805,-7.20e-03,-1.60e-01,
806,0.00e+00,8.00e-02,
807,-8.00e-03,-1.60e-01,
808,-8.80e-03,8.00e-02,
809,1.60e-03,-1.60e-01,
810,-6.40e-03,8.00e-02,
811,2.40e-03,-1.60e-01,
812,1.60e-03,8.00e-02,
813,-5.60e-03,-1.60e-01,
814,1.60e-03,8.00e-02,
815,-7.20e-03,-1.60e-01,
816,1.60e-03,8.00e-02,
817,-7.20e-03,-1.60e-01,
818,8.00e-04,8.00e-02,
819,-8.00e-03,-2.40e-01,
820,-7.20e-03,8.00e-02,
821,8.00e-04,-1.60e-01,
822,-7.20e-03,8.00e-02,
823,1.60e-03,-1.60e-01,
824,-6.40e-03,-8.00e-02,
825,2.40e-03,8.00e-02,
826,3.20e-03,8.00e-02,
827,-5.60e-03,-1.60e-01,
828,1.60e-03,8.00e-02,
829,-6.40e-03,-1.60e-01,
830,1.60e-03,8.00e-02,
831,-7.20e-03,-1.60e-01,
832,-7.20e-03,8.00e-02,
833,4.00e-03,-1.60e-01,
834,8.00e-04,8.00e-02,
835,-7.20e-03,-1.60e-01,
836,-5.60e-03,8.00e-02,
837,1.60e-03,-1.60e-01,
838,1.60e-03,8.00e-02,
