NMRdata/glyc1/95up/95t7.csv

X,CH3,CH4,Start,Increment,
Sequence,Volt,Volt,-4.800000e-04,2.000000e-05
0,2.40e-03,8.00e-02,
1,-5.60e-03,-1.60e-01,
2,-6.40e-03,8.00e-02,
3,2.40e-03,-1.60e-01,
4,2.40e-03,8.00e-02,
5,-5.60e-03,-1.60e-01,
6,-7.20e-03,8.00e-02,
7,2.40e-03,-1.60e-01,
8,-5.60e-03,8.00e-02,
9,2.40e-03,-1.60e-01,
10,-4.80e-03,8.00e-02,
11,2.40e-03,-1.60e-01,
12,1.60e-03,8.00e-02,
13,-8.00e-03,-1.60e-01,
14,-5.60e-03,-1.60e-01,
15,1.60e-03,8.00e-02,
16,2.40e-03,-1.60e-01,
17,-7.20e-03,8.00e-02,
18,1.60e-03,-1.60e-01,
19,-7.20e-03,8.00e-02,
20,1.60e-03,-1.60e-01,
21,-6.40e-03,8.00e-02,
22,-6.40e-03,8.00e-02,
23,2.40e-03,-1.60e-01,
24,8.00e-04,5.76e+00,
25,-7.20e-03,4.64e+00,
26,8.00e-04,5.12e+00,
27,-7.20e-03,4.72e+00,
28,-3.20e-03,5.20e+00,
29,-1.60e-03,4.64e+00,
30,-8.00e-04,5.36e+00,
31,-1.12e-02,4.56e+00,
32,-9.60e-03,4.72e+00,
33,-5.60e-03,5.20e+00,
34,-5.60e-03,4.64e+00,
35,-8.00e-03,5.12e+00,
36,-5.60e-03,4.72e+00,
37,-8.00e-03,5.20e+00,
38,-5.60e-03,4.64e+00,
39,-2.56e-02,5.20e+00,
40,-2.08e-02,5.12e+00,
41,-5.76e-02,4.64e+00,
42,-6.00e-02,5.12e+00,
43,-4.96e-02,4.72e+00,
44,-5.52e-02,5.12e+00,
45,-2.16e-02,4.72e+00,
46,-2.64e-02,5.12e+00,
47,1.36e-02,4.72e+00,
48,1.12e-02,4.72e+00,
49,3.68e-02,5.12e+00,
50,4.08e-02,5.12e+00,
51,2.88e-02,4.72e+00,
52,3.52e-02,5.12e+00,
53,8.80e-03,4.72e+00,
54,1.20e-02,5.12e+00,
55,-1.76e-02,4.72e+00,
56,-1.20e-02,5.12e+00,
57,-2.96e-02,4.72e+00,
58,-2.96e-02,5.12e+00,
59,-2.08e-02,4.72e+00,
60,-2.64e-02,4.72e+00,
61,-5.60e-03,5.12e+00,
62,-9.60e-03,5.12e+00,
63,1.20e-02,4.72e+00,
64,7.20e-03,5.12e+00,
65,1.92e-02,4.72e+00,
66,1.84e-02,5.12e+00,
67,7.20e-03,4.72e+00,
68,1.28e-02,4.72e+00,
69,-5.60e-03,5.12e+00,
70,-8.00e-04,5.12e+00,
71,-1.36e-02,4.72e+00,
72,-8.00e-03,5.12e+00,
73,-1.76e-02,4.72e+00,
74,-1.60e-02,5.12e+00,
75,-4.00e-03,4.64e+00,
76,-1.04e-02,4.72e+00,
77,3.20e-03,5.12e+00,
78,-4.80e-03,5.12e+00,
79,7.20e-03,4.72e+00,
80,7.20e-03,5.12e+00,
81,-8.00e-04,4.64e+00,
82,4.80e-03,5.12e+00,
83,-4.80e-03,4.64e+00,
84,1.60e-03,5.12e+00,
85,-9.60e-03,4.64e+00,
86,-3.20e-03,5.12e+00,
87,-1.04e-02,4.72e+00,
88,-9.60e-03,5.12e+00,
89,0.00e+00,4.72e+00,
90,-7.20e-03,5.12e+00,
91,2.40e-03,4.64e+00,
92,-4.00e-03,4.72e+00,
93,4.00e-03,5.12e+00,
94,4.00e-03,5.12e+00,
95,-4.80e-03,4.64e+00,
96,2.40e-03,5.12e+00,
97,-8.00e-03,4.64e+00,
98,0.00e+00,5.12e+00,
99,-1.04e-02,4.64e+00,
100,-9.60e-03,5.12e+00,
101,-8.00e-04,4.64e+00,
102,-8.00e-03,5.12e+00,
103,3.20e-03,4.64e+00,
104,-4.00e-03,5.12e+00,
105,3.20e-03,4.64e+00,
106,4.00e-03,5.12e+00,
107,-4.00e-03,4.64e+00,
108,-4.80e-03,5.12e+00,
109,4.80e-03,4.72e+00,
110,1.60e-03,5.12e+00,
111,-8.80e-03,4.72e+00,
112,-2.40e-03,5.12e+00,
113,-1.04e-02,4.72e+00,
114,-8.80e-03,5.12e+00,
115,-8.00e-04,4.64e+00,
116,-7.20e-03,5.12e+00,
117,2.40e-03,4.64e+00,
118,4.00e-03,5.12e+00,
119,-4.80e-03,4.80e+00,
120,-3.20e-03,4.72e+00,
121,4.00e-03,5.12e+00,
122,4.80e-03,5.12e+00,
123,-5.60e-03,4.64e+00,
124,8.00e-04,5.12e+00,
125,-8.00e-03,4.64e+00,
126,0.00e+00,5.12e+00,
127,-8.80e-03,4.64e+00,
128,-1.04e-02,5.12e+00,
129,-1.60e-03,4.64e+00,
130,-8.00e-03,5.12e+00,
131,8.00e-04,4.64e+00,
132,-6.40e-03,5.12e+00,
133,3.20e-03,4.72e+00,
134,-5.60e-03,5.12e+00,
135,3.20e-03,4.64e+00,
136,4.00e-03,5.12e+00,
137,-7.20e-03,4.64e+00,
138,8.00e-04,5.12e+00,
139,-7.20e-03,4.64e+00,
140,-8.00e-03,5.12e+00,
141,8.00e-04,4.64e+00,
142,-8.80e-03,5.12e+00,
143,0.00e+00,4.64e+00,
144,-8.00e-03,5.12e+00,
145,0.00e+00,4.64e+00,
146,-5.60e-03,5.12e+00,
147,2.40e-03,4.64e+00,
148,-4.80e-03,4.64e+00,
149,4.00e-03,5.12e+00,
150,-4.80e-03,4.72e+00,
151,3.20e-03,5.12e+00,
152,2.40e-03,5.12e+00,
153,-7.20e-03,4.64e+00,
154,-7.20e-03,4.64e+00,
155,1.60e-03,5.12e+00,
156,-8.00e-03,4.64e+00,
157,1.60e-03,5.12e+00,
158,1.60e-03,4.64e+00,
159,-6.40e-03,5.12e+00,
160,3.20e-03,4.64e+00,
161,-5.60e-03,5.12e+00,
162,3.20e-03,4.64e+00,
163,-4.80e-03,5.12e+00,
164,2.40e-03,5.12e+00,
165,-6.40e-03,4.64e+00,
166,8.00e-04,4.64e+00,
167,-6.40e-03,5.12e+00,
168,8.00e-04,4.64e+00,
169,-7.20e-03,5.12e+00,
170,-7.20e-03,5.04e+00,
171,8.00e-04,4.64e+00,
172,-6.40e-03,5.12e+00,
173,2.40e-03,4.64e+00,
174,-4.80e-03,4.64e+00,
175,2.40e-03,5.12e+00,
176,-5.60e-03,5.12e+00,
177,4.00e-03,4.64e+00,
178,2.40e-03,4.64e+00,
179,-5.60e-03,5.12e+00,
180,8.00e-04,4.64e+00,
181,-7.20e-03,5.12e+00,
182,8.00e-04,5.12e+00,
183,-8.00e-03,4.64e+00,
184,0.00e+00,5.12e+00,
185,-8.00e-03,4.64e+00,
186,-6.40e-03,4.64e+00,
187,1.60e-03,5.12e+00,
188,-6.40e-03,4.64e+00,
189,2.40e-03,5.12e+00,
190,-4.80e-03,4.64e+00,
191,4.00e-03,5.12e+00,
192,2.40e-03,4.64e+00,
193,-6.40e-03,5.12e+00,
194,-6.40e-03,4.64e+00,
195,1.60e-03,5.04e+00,
196,0.00e+00,4.64e+00,
197,-7.20e-03,5.12e+00,
198,-7.20e-03,4.64e+00,
199,8.00e-04,5.04e+00,
200,8.00e-04,5.04e+00,
201,-7.20e-03,4.64e+00,
202,-6.40e-03,5.04e+00,
203,2.40e-03,4.64e+00,
204,-4.80e-03,4.64e+00,
205,3.20e-03,5.12e+00,
206,2.40e-03,4.64e+00,
207,-5.60e-03,5.04e+00,
208,8.00e-04,4.64e+00,
209,-6.40e-03,5.12e+00,
210,1.60e-03,5.04e+00,
211,-7.20e-03,4.64e+00,
212,0.00e+00,5.04e+00,
213,-7.20e-03,4.64e+00,
214,1.60e-03,4.64e+00,
215,-6.40e-03,5.04e+00,
216,-6.40e-03,4.64e+00,
217,1.60e-03,5.04e+00,
218,-6.40e-03,5.04e+00,
219,1.60e-03,4.64e+00,
220,1.60e-03,4.64e+00,
221,-5.60e-03,5.12e+00,
222,8.00e-04,4.64e+00,
223,-7.20e-03,5.12e+00,
224,-6.40e-03,5.04e+00,
225,2.40e-03,4.64e+00,
226,1.60e-03,4.64e+00,
227,-6.40e-03,5.04e+00,
228,-7.20e-03,4.64e+00,
229,2.40e-03,5.12e+00,
230,2.40e-03,4.64e+00,
231,-7.20e-03,4.96e+00,
232,-4.80e-03,4.64e+00,
233,2.40e-03,5.04e+00,
234,2.40e-03,4.64e+00,
235,-6.40e-03,5.04e+00,
236,-7.20e-03,4.64e+00,
237,2.40e-03,5.04e+00,
238,8.00e-04,4.64e+00,
239,-7.20e-03,4.96e+00,
240,8.00e-04,4.64e+00,
241,-7.20e-03,5.04e+00,
242,-7.20e-03,4.64e+00,
243,1.60e-03,5.04e+00,
244,-6.40e-03,5.04e+00,
245,1.60e-03,4.64e+00,
246,-4.80e-03,4.64e+00,
247,2.40e-03,5.04e+00,
248,2.40e-03,5.04e+00,
249,-5.60e-03,4.64e+00,
250,-9.60e-03,4.64e+00,
251,8.00e-04,5.04e+00,
252,0.00e+00,4.64e+00,
253,-8.00e-03,5.12e+00,
254,1.60e-03,4.64e+00,
255,-7.20e-03,5.04e+00,
256,-5.60e-03,4.64e+00,
257,1.60e-03,5.04e+00,
258,-5.60e-03,5.04e+00,
259,2.40e-03,4.64e+00,
260,1.60e-03,4.64e+00,
261,-8.00e-03,5.12e+00,
262,2.40e-03,4.64e+00,
263,-6.40e-03,5.04e+00,
264,-7.20e-03,5.04e+00,
265,8.00e-04,4.64e+00,
266,1.60e-03,5.04e+00,
267,-7.20e-03,4.64e+00,
268,-8.00e-03,4.64e+00,
269,1.60e-03,5.04e+00,
270,-6.40e-03,4.64e+00,
271,1.60e-03,4.96e+00,
272,-6.40e-03,4.64e+00,
273,2.40e-03,5.04e+00,
274,1.60e-03,4.64e+00,
275,-5.60e-03,5.04e+00,
276,1.60e-03,4.64e+00,
277,-6.40e-03,5.12e+00,
278,-7.20e-03,4.64e+00,
279,1.60e-03,5.04e+00,
280,-7.20e-03,4.64e+00,
281,2.40e-03,5.04e+00,
282,-6.40e-03,5.04e+00,
283,1.60e-03,4.64e+00,
284,1.60e-03,4.64e+00,
285,-6.40e-03,5.04e+00,
286,1.60e-03,4.64e+00,
287,-7.20e-03,5.04e+00,
288,-7.20e-03,5.04e+00,
289,2.40e-03,4.64e+00,
290,2.40e-03,5.04e+00,
291,-7.20e-03,4.64e+00,
292,8.00e-04,4.64e+00,
293,-6.40e-03,5.04e+00,
294,-7.20e-03,5.04e+00,
295,8.00e-04,4.64e+00,
296,-7.20e-03,5.04e+00,
297,1.60e-03,4.64e+00,
298,2.40e-03,4.64e+00,
299,-7.20e-03,5.04e+00,
300,1.60e-03,5.04e+00,
301,-7.20e-03,4.64e+00,
302,-7.20e-03,5.04e+00,
303,3.20e-03,4.64e+00,
304,-6.40e-03,5.04e+00,
305,1.60e-03,4.64e+00,
306,-6.40e-03,5.04e+00,
307,2.40e-03,4.64e+00,
308,1.60e-03,4.64e+00,
309,-6.40e-03,5.04e+00,
310,-7.20e-03,5.04e+00,
311,1.60e-03,4.64e+00,
312,2.40e-03,4.64e+00,
313,-5.60e-03,5.04e+00,
314,-5.60e-03,4.64e+00,
315,1.60e-03,5.04e+00,
316,2.40e-03,4.64e+00,
317,-8.00e-03,5.04e+00,
318,-7.20e-03,5.04e+00,
319,2.40e-03,4.64e+00,
320,-6.40e-03,5.04e+00,
321,1.60e-03,4.64e+00,
322,-6.40e-03,4.64e+00,
323,2.40e-03,5.04e+00,
324,1.60e-03,4.64e+00,
325,-7.20e-03,5.04e+00,
326,-4.80e-03,4.64e+00,
327,1.60e-03,5.04e+00,
328,2.40e-03,5.04e+00,
329,-5.60e-03,4.64e+00,
330,-4.80e-03,5.04e+00,
331,2.40e-03,4.64e+00,
332,2.40e-03,5.04e+00,
333,-5.60e-03,4.64e+00,
334,-5.60e-03,5.04e+00,
335,2.40e-03,4.64e+00,
336,-6.40e-03,5.04e+00,
337,2.40e-03,4.64e+00,
338,1.60e-03,5.04e+00,
339,-6.40e-03,4.64e+00,
340,-5.60e-03,4.64e+00,
341,3.20e-03,5.04e+00,
342,1.60e-03,5.04e+00,
343,-6.40e-03,4.64e+00,
344,1.60e-03,4.64e+00,
345,-7.20e-03,5.12e+00,
346,-7.20e-03,4.56e+00,
347,8.00e-04,5.12e+00,
348,1.60e-03,4.64e+00,
349,-6.40e-03,5.04e+00,
350,-5.60e-03,4.64e+00,
351,1.60e-03,5.04e+00,
352,2.40e-03,4.64e+00,
353,-5.60e-03,5.04e+00,
354,-6.40e-03,5.04e+00,
355,4.00e-03,4.64e+00,
356,2.40e-03,4.64e+00,
357,-8.00e-03,5.04e+00,
358,1.60e-03,5.04e+00,
359,-6.40e-03,4.64e+00,
360,1.60e-03,4.64e+00,
361,-5.60e-03,5.04e+00,
362,1.60e-03,4.64e+00,
363,-6.40e-03,5.04e+00,
364,-6.40e-03,4.64e+00,
365,1.60e-03,5.04e+00,
366,-5.60e-03,4.64e+00,
367,2.40e-03,5.04e+00,
368,2.40e-03,5.04e+00,
369,-5.60e-03,4.64e+00,
370,2.40e-03,4.64e+00,
371,-6.40e-03,5.04e+00,
372,1.60e-03,5.04e+00,
373,-6.40e-03,4.64e+00,
374,1.60e-03,4.56e+00,
375,-6.40e-03,5.04e+00,
376,0.00e+00,4.64e+00,
377,-6.40e-03,5.04e+00,
378,-1.60e-03,5.12e+00,
379,-4.00e-03,4.56e+00,
380,-1.60e-03,4.40e+00,
381,-1.20e-02,5.28e+00,
382,-1.44e-02,5.36e+00,
383,-7.20e-03,4.56e+00,
384,-7.20e-03,5.12e+00,
385,-8.80e-03,4.56e+00,
386,-8.80e-03,4.56e+00,
387,-6.40e-03,5.04e+00,
388,-8.80e-03,4.64e+00,
389,-6.40e-03,5.04e+00,
390,-8.80e-03,4.56e+00,
391,-6.40e-03,5.12e+00,
392,-6.40e-03,5.04e+00,
393,-1.60e-02,4.56e+00,
394,-1.60e-02,5.12e+00,
395,-4.80e-03,-1.36e+00,
396,-9.60e-03,0.00e+00,
397,4.80e-03,-3.20e-01,
398,-8.00e-04,0.00e+00,
399,1.12e-02,-3.20e-01,
400,1.12e-02,0.00e+00,
401,3.20e-03,-1.60e-01,
402,8.80e-03,-1.60e-01,
403,-2.40e-03,0.00e+00,
404,2.40e-03,0.00e+00,
405,-8.80e-03,-2.40e-01,
406,-4.00e-03,0.00e+00,
407,-1.20e-02,-2.40e-01,
408,-1.12e-02,-1.60e-01,
409,-2.40e-03,0.00e+00,
410,-8.80e-03,-1.60e-01,
411,8.00e-04,0.00e+00,
412,-4.80e-03,-1.60e-01,
413,4.00e-03,0.00e+00,
414,-3.20e-03,-1.60e-01,
415,4.80e-03,0.00e+00,
416,4.80e-03,-2.40e-01,
417,-4.00e-03,0.00e+00,
418,3.20e-03,-1.60e-01,
419,-5.60e-03,0.00e+00,
420,1.60e-03,-1.60e-01,
421,-8.80e-03,0.00e+00,
422,-8.00e-04,-1.60e-01,
423,-8.80e-03,0.00e+00,
424,-6.40e-03,0.00e+00,
425,1.60e-03,-1.60e-01,
426,-6.40e-03,-2.40e-01,
427,3.20e-03,0.00e+00,
428,2.40e-03,0.00e+00,
429,-7.20e-03,-1.60e-01,
430,2.40e-03,-1.60e-01,
431,-6.40e-03,0.00e+00,
432,8.00e-04,0.00e+00,
433,-6.40e-03,-1.60e-01,
434,-6.40e-03,-1.60e-01,
435,8.00e-04,0.00e+00,
436,1.60e-03,0.00e+00,
437,-6.40e-03,-2.40e-01,
438,-6.40e-03,-1.60e-01,
439,2.40e-03,0.00e+00,
440,-4.80e-03,-1.60e-01,
441,3.20e-03,0.00e+00,
442,2.40e-03,-1.60e-01,
443,-5.60e-03,0.00e+00,
444,2.40e-03,-1.60e-01,
445,-6.40e-03,0.00e+00,
446,8.00e-04,0.00e+00,
447,-8.80e-03,-2.40e-01,
448,-7.20e-03,0.00e+00,
449,8.00e-04,-2.40e-01,
450,-6.40e-03,-1.60e-01,
451,8.00e-04,0.00e+00,
452,1.60e-03,-1.60e-01,
453,-6.40e-03,0.00e+00,
454,3.20e-03,-1.60e-01,
455,-4.80e-03,0.00e+00,
456,1.60e-03,0.00e+00,
457,-4.80e-03,-2.40e-01,
458,8.00e-04,-1.60e-01,
459,-7.20e-03,0.00e+00,
460,8.00e-04,-1.60e-01,
461,-8.00e-03,0.00e+00,
462,-7.20e-03,-1.60e-01,
463,0.00e+00,0.00e+00,
464,-8.00e-03,-1.60e-01,
465,8.00e-04,-1.60e-01,
466,-5.60e-03,-1.60e-01,
467,2.40e-03,0.00e+00,
468,-4.00e-03,-8.00e-02,
469,3.20e-03,-2.40e-01,
470,-4.80e-03,-1.60e-01,
471,3.20e-03,0.00e+00,
472,-6.40e-03,-1.60e-01,
473,2.40e-03,-1.60e-01,
474,2.40e-03,-1.60e-01,
475,-6.40e-03,0.00e+00,
476,8.00e-04,-1.60e-01,
477,-7.20e-03,0.00e+00,
478,-7.20e-03,-2.40e-01,
479,1.60e-03,0.00e+00,
480,8.00e-04,-1.60e-01,
481,-7.20e-03,0.00e+00,
482,-6.40e-03,-1.60e-01,
483,2.40e-03,0.00e+00,
484,-5.60e-03,-1.60e-01,
485,5.60e-03,0.00e+00,
486,-4.80e-03,-1.60e-01,
487,2.40e-03,0.00e+00,
488,2.40e-03,8.00e-02,
489,-5.60e-03,-2.40e-01,
490,1.60e-03,-2.40e-01,
491,-7.20e-03,8.00e-02,
492,-6.40e-03,-1.60e-01,
493,1.60e-03,0.00e+00,
494,-5.60e-03,-1.60e-01,
495,3.20e-03,0.00e+00,
496,-5.60e-03,-1.60e-01,
497,2.40e-03,0.00e+00,
498,1.60e-03,0.00e+00,
499,-5.60e-03,-2.40e-01,
500,1.60e-03,-1.60e-01,
501,-7.20e-03,0.00e+00,
502,2.40e-03,-1.60e-01,
503,-6.40e-03,8.00e-02,
504,1.60e-03,-1.60e-01,
505,-6.40e-03,8.00e-02,
506,3.20e-03,-1.60e-01,
507,-5.60e-03,8.00e-02,
508,-6.40e-03,-1.60e-01,
509,1.60e-03,8.00e-02,
510,2.40e-03,-2.40e-01,
511,-6.40e-03,8.00e-02,
512,-6.40e-03,-1.60e-01,
513,8.00e-04,8.00e-02,
514,-7.20e-03,-1.60e-01,
515,8.00e-04,8.00e-02,
516,-7.20e-03,-1.60e-01,
517,1.60e-03,8.00e-02,
518,2.40e-03,-1.60e-01,
519,-7.20e-03,8.00e-02,
520,1.60e-03,8.00e-02,
521,-6.40e-03,-2.40e-01,
522,-6.40e-03,-1.60e-01,
523,3.20e-03,8.00e-02,
524,-5.60e-03,-1.60e-01,
525,3.20e-03,8.00e-02,
526,-5.60e-03,-1.60e-01,
527,2.40e-03,8.00e-02,
528,-5.60e-03,-1.60e-01,
529,2.40e-03,8.00e-02,
530,3.20e-03,8.00e-02,
531,-6.40e-03,-2.40e-01,
532,8.00e-04,8.00e-02,
533,-7.20e-03,-2.40e-01,
534,-6.40e-03,-1.60e-01,
535,1.60e-03,8.00e-02,
536,2.40e-03,-1.60e-01,
537,-5.60e-03,8.00e-02,
538,8.00e-04,-1.60e-01,
539,-7.20e-03,8.00e-02,
540,-7.20e-03,8.00e-02,
541,8.00e-04,-2.40e-01,
542,-7.20e-03,8.00e-02,
543,1.60e-03,-2.40e-01,
544,-6.40e-03,-1.60e-01,
545,8.00e-04,8.00e-02,
546,-6.40e-03,8.00e-02,
547,1.60e-03,-1.60e-01,
548,-6.40e-03,-1.60e-01,
549,1.60e-03,8.00e-02,
550,1.60e-03,8.00e-02,
551,-6.40e-03,-2.40e-01,
552,-7.20e-03,8.00e-02,
553,8.00e-04,-2.40e-01,
554,0.00e+00,-1.60e-01,
555,-8.00e-03,8.00e-02,
556,-5.60e-03,-1.60e-01,
557,2.40e-03,8.00e-02,
558,2.40e-03,-1.60e-01,
559,-6.40e-03,8.00e-02,
560,1.60e-03,-1.60e-01,
561,-6.40e-03,8.00e-02,
562,-6.40e-03,8.00e-02,
563,2.40e-03,-2.40e-01,
564,2.40e-03,-1.60e-01,
565,-5.60e-03,8.00e-02,
566,8.00e-04,-1.60e-01,
567,-7.20e-03,8.00e-02,
568,-8.00e-03,-1.60e-01,
569,0.00e+00,8.00e-02,
570,8.00e-04,-1.60e-01,
571,-8.00e-03,8.00e-02,
572,-5.60e-03,8.00e-02,
573,2.40e-03,-2.40e-01,
574,-4.80e-03,-1.60e-01,
575,2.40e-03,8.00e-02,
576,2.40e-03,8.00e-02,
577,-4.80e-03,-1.60e-01,
578,-5.60e-03,-1.60e-01,
579,2.40e-03,8.00e-02,
580,-6.40e-03,-1.60e-01,
581,1.60e-03,8.00e-02,
582,1.60e-03,-1.60e-01,
583,-7.20e-03,8.00e-02,
584,1.60e-03,8.00e-02,
585,-8.00e-03,-2.40e-01,
586,-7.20e-03,8.00e-02,
587,1.60e-03,-1.60e-01,
588,-5.60e-03,8.00e-02,
589,3.20e-03,-1.60e-01,
590,2.40e-03,-1.60e-01,
591,-7.20e-03,8.00e-02,
592,1.60e-03,8.00e-02,
593,-6.40e-03,-2.40e-01,
594,8.00e-04,-1.60e-01,
595,-7.20e-03,8.00e-02,
596,1.60e-03,8.00e-02,
597,-8.00e-03,-1.60e-01,
598,-7.20e-03,8.00e-02,
599,8.00e-04,-1.60e-01,
600,8.00e-04,8.00e-02,
601,-7.20e-03,-1.60e-01,
602,-4.80e-03,8.00e-02,
603,2.40e-03,-1.60e-01,
604,2.40e-03,-1.60e-01,
605,-6.40e-03,8.00e-02,
606,-6.40e-03,8.00e-02,
607,1.60e-03,-1.60e-01,
608,8.00e-04,-1.60e-01,
609,-8.00e-03,8.00e-02,
610,-6.40e-03,-1.60e-01,
611,2.40e-03,8.00e-02,
612,-7.20e-03,8.00e-02,
613,8.00e-04,-1.60e-01,
614,-7.20e-03,8.00e-02,
615,2.40e-03,-1.60e-01,
616,3.20e-03,8.00e-02,
617,-4.80e-03,-1.60e-01,
618,2.40e-03,-8.00e-02,
619,-6.40e-03,8.00e-02,
620,8.00e-04,-8.00e-02,
621,-6.40e-03,8.00e-02,
622,1.60e-03,8.00e-02,
623,-7.20e-03,-1.60e-01,
624,1.60e-03,8.00e-02,
625,-6.40e-03,-1.60e-01,
626,-7.20e-03,8.00e-02,
627,1.60e-03,-1.60e-01,
628,2.40e-03,-1.60e-01,
629,-5.60e-03,8.00e-02,
630,3.20e-03,8.00e-02,
631,-4.80e-03,-1.60e-01,
632,3.20e-03,-8.00e-02,
633,-4.80e-03,8.00e-02,
634,8.00e-04,-8.00e-02,
635,-7.20e-03,8.00e-02,
636,0.00e+00,-8.00e-02,
637,-8.80e-03,8.00e-02,
638,-8.80e-03,-8.00e-02,
639,0.00e+00,8.00e-02,
640,-7.20e-03,8.00e-02,
641,2.40e-03,-1.60e-01,
642,-5.60e-03,-8.00e-02,
643,2.40e-03,8.00e-02,
644,2.40e-03,-8.00e-02,
645,-4.80e-03,8.00e-02,
646,-4.80e-03,-8.00e-02,
647,3.20e-03,8.00e-02,
648,2.40e-03,-8.00e-02,
649,-6.40e-03,8.00e-02,
650,2.40e-03,-8.00e-02,
651,-7.20e-03,8.00e-02,
652,-8.00e-04,8.00e-02,
653,-8.00e-03,-1.60e-01,
654,0.00e+00,-8.00e-02,
655,-8.00e-03,8.00e-02,
656,-7.20e-03,-8.00e-02,
657,2.40e-03,8.00e-02,
658,-4.00e-03,8.00e-02,
659,3.20e-03,-1.60e-01,
660,3.20e-03,-8.00e-02,
661,-4.80e-03,8.00e-02,
662,1.60e-03,8.00e-02,
663,-6.40e-03,-8.00e-02,
664,-7.20e-03,8.00e-02,
665,8.00e-04,-8.00e-02,
666,0.00e+00,-8.00e-02,
667,-7.20e-03,8.00e-02,
668,-5.60e-03,-8.00e-02,
669,1.60e-03,8.00e-02,
670,-5.60e-03,-8.00e-02,
671,3.20e-03,8.00e-02,
672,3.20e-03,8.00e-02,
673,-5.60e-03,-1.60e-01,
674,2.40e-03,-8.00e-02,
675,-5.60e-03,8.00e-02,
676,8.00e-04,-8.00e-02,
677,-8.00e-03,8.00e-02,
678,-1.60e-03,-8.00e-02,
679,-9.60e-03,8.00e-02,
680,-8.80e-03,8.00e-02,
681,8.00e-04,-1.60e-01,
682,-6.40e-03,-8.00e-02,
683,3.20e-03,8.00e-02,
684,-4.80e-03,-8.00e-02,
685,4.80e-03,8.00e-02,
686,5.60e-03,-8.00e-02,
687,-2.40e-03,8.00e-02,
688,4.00e-03,8.00e-02,
689,-7.20e-03,-8.00e-02,
690,-8.00e-04,-8.00e-02,
691,-1.20e-02,8.00e-02,
692,-1.28e-02,-8.00e-02,
693,-5.60e-03,8.00e-02,
694,-1.28e-02,-8.00e-02,
695,-2.40e-03,8.00e-02,
696,-8.80e-03,-8.00e-02,
697,6.40e-03,8.00e-02,
698,-8.00e-04,-8.00e-02,
699,1.12e-02,8.00e-02,
700,1.36e-02,-8.00e-02,
701,3.20e-03,8.00e-02,
702,8.80e-03,-8.00e-02,
703,-4.80e-03,8.00e-02,
704,0.00e+00,-8.00e-02,
705,-1.68e-02,8.00e-02,
706,-1.12e-02,-8.00e-02,
707,-2.16e-02,8.00e-02,
708,-2.16e-02,-1.60e-01,
709,-1.04e-02,8.00e-02,
710,-1.68e-02,8.00e-02,
711,2.40e-03,-8.00e-02,
712,-3.20e-03,-8.00e-02,
713,1.84e-02,8.00e-02,
714,1.28e-02,-8.00e-02,
715,2.40e-02,8.00e-02,
716,2.32e-02,-8.00e-02,
717,8.00e-03,8.00e-02,
718,1.36e-02,-8.00e-02,
719,-1.04e-02,8.00e-02,
720,-5.60e-03,-8.00e-02,
721,-2.96e-02,8.00e-02,
722,-2.40e-02,-8.00e-02,
723,-3.92e-02,8.00e-02,
724,-3.92e-02,-8.00e-02,
725,-1.92e-02,8.00e-02,
726,-2.64e-02,-8.00e-02,
727,1.76e-02,8.00e-02,
728,1.36e-02,-8.00e-02,
729,4.96e-02,8.00e-02,
730,5.36e-02,-8.00e-02,
731,3.76e-02,8.00e-02,
732,4.16e-02,-8.00e-02,
733,-1.04e-02,8.00e-02,
734,-6.40e-03,-8.00e-02,
735,-4.96e-02,8.00e-02,
736,-5.44e-02,-8.00e-02,
737,-4.16e-02,8.00e-02,
738,-4.64e-02,8.00e-02,
739,-8.00e-03,-1.60e-01,
740,-1.28e-02,-8.00e-02,
741,2.08e-02,8.00e-02,
742,1.60e-02,-8.00e-02,
743,3.04e-02,8.00e-02,
744,3.04e-02,-8.00e-02,
745,1.68e-02,8.00e-02,
746,2.16e-02,-8.00e-02,
747,-8.00e-04,8.00e-02,
748,4.00e-03,-8.00e-02,
749,-1.76e-02,8.00e-02,
750,-1.28e-02,8.00e-02,
751,-2.64e-02,-1.60e-01,
752,-2.64e-02,-8.00e-02,
753,-1.36e-02,8.00e-02,
754,-1.84e-02,8.00e-02,
755,8.00e-04,-1.60e-01,
756,-4.00e-03,-8.00e-02,
757,1.28e-02,8.00e-02,
758,4.80e-03,8.00e-02,
759,1.60e-02,-8.00e-02,
760,1.60e-02,-8.00e-02,
761,3.20e-03,8.00e-02,
762,1.04e-02,8.00e-02,
763,-8.00e-03,-1.60e-01,
764,0.00e+00,-8.00e-02,
765,-1.36e-02,8.00e-02,
766,-7.20e-03,8.00e-02,
767,-1.60e-02,-8.00e-02,
768,-1.36e-02,-8.00e-02,
769,-3.20e-03,8.00e-02,
770,-9.60e-03,-8.00e-02,
771,1.60e-03,8.00e-02,
772,-2.40e-03,-8.00e-02,
773,6.40e-03,8.00e-02,
774,7.20e-03,-8.00e-02,
775,-8.00e-04,8.00e-02,
776,6.40e-03,-8.00e-02,
777,-4.00e-03,8.00e-02,
778,1.60e-03,-8.00e-02,
779,-8.00e-03,8.00e-02,
780,-8.00e-04,8.00e-02,
781,-9.60e-03,-1.60e-01,
782,-1.04e-02,8.00e-02,
783,-1.60e-03,-1.60e-01,
784,-8.80e-03,-8.00e-02,
785,1.60e-03,8.00e-02,
786,-4.80e-03,8.00e-02,
787,4.80e-03,-8.00e-02,
788,6.40e-03,-8.00e-02,
789,-4.00e-03,8.00e-02,
790,-6.40e-03,8.00e-02,
791,2.40e-03,-1.60e-01,
792,8.00e-04,-8.00e-02,
793,-8.00e-03,8.00e-02,
794,0.00e+00,8.00e-02,
795,-9.60e-03,-1.60e-01,
796,-8.00e-03,-8.00e-02,
797,2.40e-03,8.00e-02,
798,-4.80e-03,8.00e-02,
799,3.20e-03,-8.00e-02,
800,-5.60e-03,-8.00e-02,
801,3.20e-03,8.00e-02,
802,3.20e-03,8.00e-02,
803,-4.80e-03,-1.60e-01,
804,1.60e-03,-8.00e-02,
805,-6.40e-03,8.00e-02,
806,8.00e-04,8.00e-02,
807,-8.80e-03,-8.00e-02,
808,-7.20e-03,-8.00e-02,
809,8.00e-04,8.00e-02,
810,-5.60e-03,-8.00e-02,
811,1.60e-03,8.00e-02,
812,-5.60e-03,-8.00e-02,
813,2.40e-03,8.00e-02,
814,2.40e-03,8.00e-02,
815,-5.60e-03,-8.00e-02,
816,2.40e-03,-1.60e-01,
817,-4.80e-03,8.00e-02,
818,2.40e-03,-8.00e-02,
819,-7.20e-03,8.00e-02,
820,-7.20e-03,-8.00e-02,
821,8.00e-04,8.00e-02,
822,-8.80e-03,8.00e-02,
823,8.00e-04,-8.00e-02,
824,1.60e-03,8.00e-02,
825,-6.40e-03,-1.60e-01,
826,-5.60e-03,8.00e-02,
827,3.20e-03,-1.60e-01,
828,-6.40e-03,-8.00e-02,
829,2.40e-03,8.00e-02,
830,-4.80e-03,8.00e-02,
831,3.20e-03,-8.00e-02,
832,2.40e-03,-8.00e-02,
833,-7.20e-03,8.00e-02,
834,8.00e-04,8.00e-02,
835,-8.00e-03,-8.00e-02,
836,-7.20e-03,-1.60e-01,
837,8.00e-04,8.00e-02,
838,-6.40e-03,8.00e-02,
839,2.40e-03,-8.00e-02,
