NMRdata/glyc1/95up/95t8.csv

X,CH3,CH4,Start,Increment,
Sequence,Volt,Volt,-4.800000e-04,2.000000e-05
0,1.60e-03,8.00e-02,
1,-8.00e-03,-1.60e-01,
2,8.00e-04,8.00e-02,
3,-8.00e-03,-1.60e-01,
4,-6.40e-03,-1.60e-01,
5,1.60e-03,8.00e-02,
6,1.60e-03,8.00e-02,
7,-5.60e-03,-1.60e-01,
8,-5.60e-03,-1.60e-01,
9,1.60e-03,8.00e-02,
10,-6.40e-03,8.00e-02,
11,1.60e-03,-1.60e-01,
12,1.60e-03,8.00e-02,
13,-5.60e-03,-1.60e-01,
14,8.00e-04,-1.60e-01,
15,-7.20e-03,8.00e-02,
16,1.60e-03,8.00e-02,
17,-6.40e-03,-1.60e-01,
18,-5.60e-03,8.00e-02,
19,2.40e-03,-1.60e-01,
20,3.20e-03,8.00e-02,
21,-7.20e-03,-1.60e-01,
22,-8.00e-03,8.00e-02,
23,1.60e-03,-1.60e-01,
24,-8.00e-03,5.84e+00,
25,1.60e-03,4.72e+00,
26,-7.20e-03,4.64e+00,
27,2.40e-03,5.20e+00,
28,0.00e+00,5.20e+00,
29,-2.40e-03,4.64e+00,
30,0.00e+00,5.36e+00,
31,-1.04e-02,4.64e+00,
32,-9.60e-03,4.64e+00,
33,-5.60e-03,5.20e+00,
34,-8.00e-03,5.12e+00,
35,-5.60e-03,4.72e+00,
36,-5.60e-03,4.72e+00,
37,-8.00e-03,5.20e+00,
38,-5.60e-03,5.12e+00,
39,-2.88e-02,4.64e+00,
40,-2.00e-02,5.12e+00,
41,-5.68e-02,4.64e+00,
42,-6.08e-02,5.12e+00,
43,-4.80e-02,4.64e+00,
44,-5.52e-02,4.72e+00,
45,-2.16e-02,5.12e+00,
46,-2.64e-02,5.12e+00,
47,9.60e-03,4.72e+00,
48,7.20e-03,5.12e+00,
49,3.68e-02,4.72e+00,
50,4.00e-02,4.72e+00,
51,2.96e-02,5.12e+00,
52,3.44e-02,5.12e+00,
53,8.00e-03,4.64e+00,
54,1.12e-02,5.12e+00,
55,-1.76e-02,4.72e+00,
56,-1.28e-02,5.12e+00,
57,-3.12e-02,4.72e+00,
58,-3.36e-02,5.12e+00,
59,-2.00e-02,4.72e+00,
60,-2.56e-02,5.12e+00,
61,-6.40e-03,4.72e+00,
62,-1.12e-02,4.72e+00,
63,1.20e-02,5.12e+00,
64,6.40e-03,5.12e+00,
65,1.84e-02,4.64e+00,
66,1.84e-02,5.12e+00,
67,6.40e-03,4.72e+00,
68,1.28e-02,5.12e+00,
69,-3.20e-03,4.72e+00,
70,1.60e-03,4.72e+00,
71,-1.44e-02,5.12e+00,
72,-8.80e-03,5.12e+00,
73,-1.68e-02,4.64e+00,
74,-1.60e-02,5.12e+00,
75,-4.80e-03,4.72e+00,
76,-1.12e-02,5.12e+00,
77,2.40e-03,4.64e+00,
78,-2.40e-03,4.72e+00,
79,7.20e-03,5.12e+00,
80,7.20e-03,5.12e+00,
81,-1.60e-03,4.64e+00,
82,6.40e-03,5.12e+00,
83,-5.60e-03,4.72e+00,
84,1.60e-03,5.12e+00,
85,-8.80e-03,4.64e+00,
86,-2.40e-03,4.64e+00,
87,-1.04e-02,5.12e+00,
88,-1.04e-02,5.12e+00,
89,0.00e+00,4.64e+00,
90,-6.40e-03,5.12e+00,
91,3.20e-03,4.72e+00,
92,-4.80e-03,5.12e+00,
93,4.00e-03,4.72e+00,
94,4.00e-03,5.12e+00,
95,-4.00e-03,4.64e+00,
96,2.40e-03,4.72e+00,
97,-7.20e-03,5.12e+00,
98,-1.04e-02,5.12e+00,
99,0.00e+00,4.72e+00,
100,-9.60e-03,5.12e+00,
101,-1.60e-03,4.72e+00,
102,-7.20e-03,4.64e+00,
103,3.20e-03,5.12e+00,
104,-4.80e-03,5.12e+00,
105,4.00e-03,4.72e+00,
106,-3.20e-03,4.72e+00,
107,4.00e-03,5.12e+00,
108,3.20e-03,5.12e+00,
109,-4.00e-03,4.64e+00,
110,1.60e-03,4.64e+00,
111,-8.00e-03,5.12e+00,
112,-8.80e-03,5.12e+00,
113,-8.00e-04,4.64e+00,
114,-1.60e-03,5.12e+00,
115,-9.60e-03,4.64e+00,
116,-8.80e-03,5.12e+00,
117,1.60e-03,4.72e+00,
118,-4.00e-03,4.64e+00,
119,4.80e-03,5.12e+00,
120,4.80e-03,5.12e+00,
121,-2.40e-03,4.64e+00,
122,4.00e-03,5.12e+00,
123,-4.80e-03,4.64e+00,
124,1.60e-03,5.12e+00,
125,-8.00e-03,4.64e+00,
126,-1.60e-03,4.72e+00,
127,-8.80e-03,5.12e+00,
128,-1.04e-02,5.12e+00,
129,-8.00e-04,4.64e+00,
130,-7.20e-03,5.12e+00,
131,8.00e-04,4.64e+00,
132,-5.60e-03,4.64e+00,
133,3.20e-03,5.12e+00,
134,3.20e-03,4.72e+00,
135,-4.00e-03,5.12e+00,
136,4.00e-03,5.12e+00,
137,-4.00e-03,4.64e+00,
138,2.40e-03,5.12e+00,
139,-6.40e-03,4.64e+00,
140,0.00e+00,5.12e+00,
141,-9.60e-03,4.64e+00,
142,-1.60e-03,4.64e+00,
143,-9.60e-03,5.12e+00,
144,-8.00e-03,4.64e+00,
145,1.60e-03,5.12e+00,
146,-6.40e-03,4.64e+00,
147,1.60e-03,5.12e+00,
148,-4.80e-03,4.64e+00,
149,3.20e-03,5.12e+00,
150,-6.40e-03,5.12e+00,
151,3.20e-03,4.64e+00,
152,1.60e-03,4.64e+00,
153,-6.40e-03,5.12e+00,
154,0.00e+00,5.12e+00,
155,-7.20e-03,4.64e+00,
156,-7.20e-03,4.64e+00,
157,0.00e+00,5.12e+00,
158,8.00e-04,4.64e+00,
159,-7.20e-03,5.12e+00,
160,-5.60e-03,5.04e+00,
161,2.40e-03,4.64e+00,
162,-4.80e-03,5.12e+00,
163,3.20e-03,4.64e+00,
164,4.00e-03,4.64e+00,
165,-4.80e-03,5.04e+00,
166,1.60e-03,4.64e+00,
167,-8.00e-03,5.12e+00,
168,0.00e+00,4.64e+00,
169,-8.80e-03,5.12e+00,
170,-8.00e-03,4.64e+00,
171,8.00e-04,5.04e+00,
172,-7.20e-03,4.64e+00,
173,2.40e-03,5.12e+00,
174,1.60e-03,5.04e+00,
175,-5.60e-03,4.64e+00,
176,-4.80e-03,5.04e+00,
177,3.20e-03,4.64e+00,
178,1.60e-03,5.04e+00,
179,-6.40e-03,4.64e+00,
180,8.00e-04,5.04e+00,
181,-7.20e-03,4.64e+00,
182,0.00e+00,4.64e+00,
183,-8.00e-03,5.12e+00,
184,-7.20e-03,4.64e+00,
185,8.00e-04,5.04e+00,
186,1.60e-03,5.04e+00,
187,-8.00e-03,4.64e+00,
188,-4.80e-03,5.04e+00,
189,2.40e-03,4.64e+00,
190,4.00e-03,4.64e+00,
191,-4.80e-03,5.04e+00,
192,1.60e-03,4.64e+00,
193,-6.40e-03,4.96e+00,
194,1.60e-03,4.64e+00,
195,-7.20e-03,5.04e+00,
196,8.00e-04,4.64e+00,
197,-8.00e-03,5.04e+00,
198,-8.00e-03,4.64e+00,
199,1.60e-03,5.12e+00,
200,-5.60e-03,4.64e+00,
201,3.20e-03,5.04e+00,
202,-4.80e-03,4.64e+00,
203,3.20e-03,5.04e+00,
204,3.20e-03,5.04e+00,
205,-4.80e-03,4.64e+00,
206,2.40e-03,4.64e+00,
207,-5.60e-03,5.04e+00,
208,3.20e-03,4.64e+00,
209,-6.40e-03,5.04e+00,
210,8.00e-04,4.64e+00,
211,-7.20e-03,5.04e+00,
212,-6.40e-03,4.64e+00,
213,8.00e-04,5.04e+00,
214,-6.40e-03,5.04e+00,
215,1.60e-03,4.64e+00,
216,-6.40e-03,4.64e+00,
217,1.60e-03,5.04e+00,
218,-5.60e-03,5.04e+00,
219,4.00e-03,4.64e+00,
220,2.40e-03,4.64e+00,
221,-6.40e-03,5.04e+00,
222,2.40e-03,5.04e+00,
223,-8.00e-03,4.64e+00,
224,-7.20e-03,4.64e+00,
225,1.60e-03,5.04e+00,
226,8.00e-04,4.64e+00,
227,-8.80e-03,5.04e+00,
228,-7.20e-03,4.96e+00,
229,1.60e-03,4.64e+00,
230,-6.40e-03,4.64e+00,
231,1.60e-03,5.12e+00,
232,2.40e-03,4.64e+00,
233,-5.60e-03,5.04e+00,
234,2.40e-03,5.04e+00,
235,-7.20e-03,4.64e+00,
236,2.40e-03,4.64e+00,
237,-7.20e-03,5.04e+00,
238,8.00e-04,4.64e+00,
239,-7.20e-03,5.04e+00,
240,8.00e-04,5.04e+00,
241,-6.40e-03,4.64e+00,
242,1.60e-03,5.04e+00,
243,-8.00e-03,4.64e+00,
244,-4.80e-03,5.04e+00,
245,3.20e-03,4.64e+00,
246,-6.40e-03,5.04e+00,
247,1.60e-03,4.64e+00,
248,1.60e-03,4.64e+00,
249,-6.40e-03,5.04e+00,
250,1.60e-03,4.64e+00,
251,-8.00e-03,5.04e+00,
252,8.00e-04,4.64e+00,
253,-8.00e-03,5.04e+00,
254,0.00e+00,4.64e+00,
255,-7.20e-03,5.04e+00,
256,-6.40e-03,5.04e+00,
257,2.40e-03,4.64e+00,
258,-4.80e-03,4.64e+00,
259,2.40e-03,5.04e+00,
260,2.40e-03,4.64e+00,
261,-4.80e-03,5.04e+00,
262,3.20e-03,4.64e+00,
263,-6.40e-03,5.04e+00,
264,1.60e-03,4.64e+00,
265,-5.60e-03,5.04e+00,
266,-6.40e-03,5.04e+00,
267,8.00e-04,4.64e+00,
268,8.00e-04,4.64e+00,
269,-8.00e-03,5.04e+00,
270,1.60e-03,5.04e+00,
271,-6.40e-03,4.64e+00,
272,-5.60e-03,4.64e+00,
273,1.60e-03,5.04e+00,
274,2.40e-03,4.64e+00,
275,-5.60e-03,5.04e+00,
276,-6.40e-03,5.04e+00,
277,2.40e-03,4.64e+00,
278,-6.40e-03,4.64e+00,
279,1.60e-03,5.04e+00,
280,8.00e-04,4.64e+00,
281,-7.20e-03,5.04e+00,
282,8.00e-04,5.04e+00,
283,-8.00e-03,4.64e+00,
284,-7.20e-03,4.64e+00,
285,1.60e-03,5.04e+00,
286,-6.40e-03,4.64e+00,
287,1.60e-03,5.04e+00,
288,-6.40e-03,4.64e+00,
289,1.60e-03,5.04e+00,
290,8.00e-04,4.64e+00,
291,-7.20e-03,5.04e+00,
292,1.60e-03,4.64e+00,
293,-6.40e-03,5.04e+00,
294,-6.40e-03,4.64e+00,
295,8.00e-04,5.04e+00,
296,1.60e-03,4.64e+00,
297,-8.00e-03,5.04e+00,
298,8.00e-04,4.64e+00,
299,-5.60e-03,5.04e+00,
300,-5.60e-03,5.04e+00,
301,1.60e-03,4.64e+00,
302,1.60e-03,4.64e+00,
303,-6.40e-03,5.04e+00,
304,8.00e-04,4.64e+00,
305,-6.40e-03,5.04e+00,
306,-7.20e-03,5.04e+00,
307,1.60e-03,4.64e+00,
308,8.00e-04,5.04e+00,
309,-7.20e-03,4.64e+00,
310,-6.40e-03,4.64e+00,
311,1.60e-03,5.04e+00,
312,8.00e-04,5.04e+00,
313,-6.40e-03,4.64e+00,
314,-7.20e-03,4.96e+00,
315,1.60e-03,4.64e+00,
316,-5.60e-03,4.64e+00,
317,2.40e-03,4.96e+00,
318,8.00e-04,4.64e+00,
319,-7.20e-03,5.04e+00,
320,8.00e-04,5.04e+00,
321,-6.40e-03,4.64e+00,
322,-6.40e-03,5.04e+00,
323,1.60e-03,4.64e+00,
324,0.00e+00,5.04e+00,
325,-7.20e-03,4.64e+00,
326,-4.80e-03,4.64e+00,
327,1.60e-03,5.04e+00,
328,-5.60e-03,4.64e+00,
329,1.60e-03,5.04e+00,
330,-7.20e-03,5.04e+00,
331,1.60e-03,4.64e+00,
332,-7.20e-03,4.64e+00,
333,1.60e-03,5.04e+00,
334,1.60e-03,5.04e+00,
335,-7.20e-03,4.64e+00,
336,8.00e-04,4.64e+00,
337,-7.20e-03,5.04e+00,
338,-6.40e-03,5.04e+00,
339,1.60e-03,4.64e+00,
340,-6.40e-03,5.04e+00,
341,1.60e-03,4.64e+00,
342,8.00e-04,4.64e+00,
343,-5.60e-03,5.04e+00,
344,-5.60e-03,4.64e+00,
345,8.00e-04,5.04e+00,
346,2.40e-03,4.96e+00,
347,-6.40e-03,4.64e+00,
348,8.00e-04,5.04e+00,
349,-6.40e-03,4.64e+00,
350,1.60e-03,4.64e+00,
351,-7.20e-03,5.04e+00,
352,-6.40e-03,5.04e+00,
353,8.00e-04,4.64e+00,
354,1.60e-03,5.04e+00,
355,-5.60e-03,4.64e+00,
356,1.60e-03,4.64e+00,
357,-6.40e-03,5.04e+00,
358,1.60e-03,4.64e+00,
359,-7.20e-03,5.04e+00,
360,-5.60e-03,4.64e+00,
361,8.00e-04,5.04e+00,
362,8.00e-04,4.64e+00,
363,-6.40e-03,5.04e+00,
364,8.00e-04,5.04e+00,
365,-6.40e-03,4.64e+00,
366,-6.40e-03,5.04e+00,
367,1.60e-03,4.64e+00,
368,-7.20e-03,4.64e+00,
369,1.60e-03,5.04e+00,
370,1.60e-03,5.04e+00,
371,-5.60e-03,4.64e+00,
372,-7.20e-03,5.04e+00,
373,1.60e-03,4.64e+00,
374,1.60e-03,4.64e+00,
375,-5.60e-03,5.04e+00,
376,8.00e-04,5.04e+00,
377,-6.40e-03,4.64e+00,
378,1.60e-03,4.64e+00,
379,-6.40e-03,5.04e+00,
380,-6.40e-03,4.64e+00,
381,1.60e-03,5.04e+00,
382,-5.60e-03,4.64e+00,
383,2.40e-03,5.04e+00,
384,2.40e-03,4.64e+00,
385,-5.60e-03,5.04e+00,
386,2.40e-03,5.04e+00,
387,-5.60e-03,4.64e+00,
388,8.00e-04,4.64e+00,
389,-6.40e-03,5.04e+00,
390,-6.40e-03,5.04e+00,
391,8.00e-04,4.64e+00,
392,1.60e-03,5.04e+00,
393,-7.20e-03,4.64e+00,
394,-7.20e-03,4.64e+00,
395,1.60e-03,5.12e+00,
396,-6.40e-03,4.64e+00,
397,1.60e-03,5.04e+00,
398,-6.40e-03,4.64e+00,
399,1.60e-03,5.04e+00,
400,-5.60e-03,4.64e+00,
401,1.60e-03,5.04e+00,
402,-5.60e-03,4.64e+00,
403,2.40e-03,5.04e+00,
404,-5.60e-03,4.64e+00,
405,1.60e-03,5.04e+00,
406,1.60e-03,5.04e+00,
407,-6.40e-03,4.64e+00,
408,-7.20e-03,5.04e+00,
409,3.20e-03,4.64e+00,
410,1.60e-03,4.64e+00,
411,-7.20e-03,5.04e+00,
412,-6.40e-03,5.04e+00,
413,1.60e-03,4.64e+00,
414,-6.40e-03,5.04e+00,
415,2.40e-03,4.64e+00,
416,-5.60e-03,4.64e+00,
417,1.60e-03,5.04e+00,
418,2.40e-03,5.04e+00,
419,-5.60e-03,4.64e+00,
420,1.60e-03,4.64e+00,
421,-7.20e-03,5.04e+00,
422,-6.40e-03,5.04e+00,
423,1.60e-03,4.64e+00,
424,-7.20e-03,5.04e+00,
425,8.00e-04,4.56e+00,
426,1.60e-03,5.04e+00,
427,-6.40e-03,4.56e+00,
428,-2.40e-03,4.56e+00,
429,-8.00e-04,5.12e+00,
430,0.00e+00,4.64e+00,
431,-1.20e-02,5.20e+00,
432,-1.36e-02,5.12e+00,
433,-7.20e-03,4.40e+00,
434,-8.80e-03,4.64e+00,
435,-7.20e-03,5.12e+00,
436,-7.20e-03,4.64e+00,
437,-8.80e-03,5.04e+00,
438,-7.20e-03,5.04e+00,
439,-8.80e-03,4.64e+00,
440,-8.80e-03,4.56e+00,
441,-6.40e-03,5.12e+00,
442,-6.40e-03,4.64e+00,
443,-1.60e-02,5.12e+00,
444,-1.68e-02,5.12e+00,
445,-5.60e-03,-1.44e+00,
446,-1.12e-02,0.00e+00,
447,4.80e-03,-3.20e-01,
448,-1.60e-03,0.00e+00,
449,1.12e-02,-2.40e-01,
450,1.20e-02,0.00e+00,
451,4.00e-03,-2.40e-01,
452,8.80e-03,-1.60e-01,
453,-2.40e-03,0.00e+00,
454,1.60e-03,0.00e+00,
455,-8.80e-03,-2.40e-01,
456,-4.80e-03,-1.60e-01,
457,-1.20e-02,0.00e+00,
458,-1.20e-02,-1.60e-01,
459,-4.00e-03,0.00e+00,
460,-9.60e-03,0.00e+00,
461,0.00e+00,-2.40e-01,
462,-5.60e-03,-2.40e-01,
463,4.80e-03,0.00e+00,
464,-1.60e-03,-1.60e-01,
465,7.20e-03,-1.60e-01,
466,4.80e-03,-1.60e-01,
467,-4.00e-03,0.00e+00,
468,2.40e-03,-8.00e-02,
469,-7.20e-03,-1.60e-01,
470,-8.00e-03,-1.60e-01,
471,8.00e-04,0.00e+00,
472,-8.80e-03,-2.40e-01,
473,-8.00e-04,-8.00e-02,
474,-8.00e-03,-1.60e-01,
475,8.00e-04,0.00e+00,
476,-5.60e-03,-1.60e-01,
477,2.40e-03,-1.60e-01,
478,-4.80e-03,-1.60e-01,
479,3.20e-03,0.00e+00,
480,3.20e-03,-1.60e-01,
481,-4.00e-03,0.00e+00,
482,-5.60e-03,0.00e+00,
483,1.60e-03,-2.40e-01,
484,8.00e-04,-1.60e-01,
485,-8.80e-03,0.00e+00,
486,8.00e-04,-1.60e-01,
487,-7.20e-03,0.00e+00,
488,-5.60e-03,-1.60e-01,
489,1.60e-03,0.00e+00,
490,4.00e-03,-1.60e-01,
491,-4.80e-03,0.00e+00,
492,-4.80e-03,0.00e+00,
493,2.40e-03,-2.40e-01,
494,2.40e-03,-1.60e-01,
495,-6.40e-03,0.00e+00,
496,8.00e-04,-1.60e-01,
497,-8.00e-03,0.00e+00,
498,-8.00e-04,-1.60e-01,
499,-8.80e-03,0.00e+00,
500,-8.00e-03,-1.60e-01,
501,8.00e-04,0.00e+00,
502,2.40e-03,0.00e+00,
503,-6.40e-03,-2.40e-01,
504,2.40e-03,-1.60e-01,
505,-6.40e-03,-1.60e-01,
506,3.20e-03,-1.60e-01,
507,-5.60e-03,0.00e+00,
508,4.80e-03,-1.60e-01,
509,-6.40e-03,-1.60e-01,
510,8.00e-04,-1.60e-01,
511,-8.00e-03,0.00e+00,
512,-8.00e-03,-1.60e-01,
513,1.60e-03,-2.40e-01,
514,-8.00e-03,-2.40e-01,
515,0.00e+00,0.00e+00,
516,-6.40e-03,-1.60e-01,
517,2.40e-03,-1.60e-01,
518,-5.60e-03,-1.60e-01,
519,2.40e-03,0.00e+00,
520,-5.60e-03,-1.60e-01,
521,4.00e-03,0.00e+00,
522,3.20e-03,-1.60e-01,
523,-4.80e-03,0.00e+00,
524,3.20e-03,-2.40e-01,
525,-7.20e-03,8.00e-02,
526,-7.20e-03,-1.60e-01,
527,1.60e-03,0.00e+00,
528,-8.00e-03,-1.60e-01,
529,8.00e-04,0.00e+00,
530,-8.00e-03,-1.60e-01,
531,1.60e-03,0.00e+00,
532,1.60e-03,-1.60e-01,
533,-6.40e-03,0.00e+00,
534,-4.80e-03,0.00e+00,
535,2.40e-03,-2.40e-01,
536,-5.60e-03,-1.60e-01,
537,3.20e-03,0.00e+00,
538,8.00e-04,-1.60e-01,
539,-6.40e-03,0.00e+00,
540,-7.20e-03,-1.60e-01,
541,1.60e-03,0.00e+00,
542,-8.00e-03,-1.60e-01,
543,8.00e-04,0.00e+00,
544,8.00e-04,-2.40e-01,
545,-7.20e-03,0.00e+00,
546,1.60e-03,-1.60e-01,
547,-6.40e-03,0.00e+00,
548,1.60e-03,-1.60e-01,
549,-6.40e-03,0.00e+00,
550,3.20e-03,-1.60e-01,
551,-6.40e-03,0.00e+00,
552,-7.20e-03,-1.60e-01,
553,3.20e-03,8.00e-02,
554,8.00e-04,8.00e-02,
555,-8.00e-03,-2.40e-01,
556,-7.20e-03,-1.60e-01,
557,8.00e-04,8.00e-02,
558,-7.20e-03,-1.60e-01,
559,8.00e-04,8.00e-02,
560,-6.40e-03,-1.60e-01,
561,3.20e-03,8.00e-02,
562,2.40e-03,-1.60e-01,
563,-6.40e-03,8.00e-02,
564,-7.20e-03,-1.60e-01,
565,8.00e-04,8.00e-02,
566,-6.40e-03,8.00e-02,
567,1.60e-03,-2.40e-01,
568,-8.00e-03,-1.60e-01,
569,8.00e-04,8.00e-02,
570,-6.40e-03,-1.60e-01,
571,1.60e-03,8.00e-02,
572,1.60e-03,8.00e-02,
573,-7.20e-03,-1.60e-01,
574,-6.40e-03,-1.60e-01,
575,1.60e-03,8.00e-02,
576,-4.80e-03,-2.40e-01,
577,3.20e-03,8.00e-02,
578,2.40e-03,-1.60e-01,
579,-6.40e-03,8.00e-02,
580,2.40e-03,-1.60e-01,
581,-6.40e-03,8.00e-02,
582,2.40e-03,8.00e-02,
583,-7.20e-03,-1.60e-01,
584,1.60e-03,8.00e-02,
585,-7.20e-03,-1.60e-01,
586,-8.00e-03,-1.60e-01,
587,8.00e-04,8.00e-02,
588,2.40e-03,-1.60e-01,
589,-7.20e-03,8.00e-02,
590,8.00e-04,-1.60e-01,
591,-7.20e-03,8.00e-02,
592,1.60e-03,-1.60e-01,
593,-6.40e-03,8.00e-02,
594,1.60e-03,8.00e-02,
595,-6.40e-03,-1.60e-01,
596,8.00e-04,8.00e-02,
597,-8.00e-03,-2.40e-01,
598,0.00e+00,-1.60e-01,
599,-8.00e-03,8.00e-02,
600,8.00e-04,-1.60e-01,
601,-8.00e-03,8.00e-02,
602,8.00e-04,-1.60e-01,
603,-7.20e-03,8.00e-02,
604,-5.60e-03,-1.60e-01,
605,2.40e-03,8.00e-02,
606,-4.00e-03,-1.60e-01,
607,3.20e-03,8.00e-02,
608,3.20e-03,-2.40e-01,
609,-5.60e-03,8.00e-02,
610,0.00e+00,-1.60e-01,
611,-7.20e-03,8.00e-02,
612,-8.00e-03,-1.60e-01,
613,8.00e-04,8.00e-02,
614,8.00e-04,-1.60e-01,
615,-5.60e-03,8.00e-02,
616,1.60e-03,8.00e-02,
617,-5.60e-03,-1.60e-01,
618,-8.00e-03,8.00e-02,
619,2.40e-03,-2.40e-01,
620,1.60e-03,-1.60e-01,
621,-6.40e-03,8.00e-02,
622,2.40e-03,-1.60e-01,
623,-5.60e-03,8.00e-02,
624,8.00e-04,-1.60e-01,
625,-6.40e-03,8.00e-02,
626,-6.40e-03,-1.60e-01,
627,1.60e-03,8.00e-02,
628,-7.20e-03,8.00e-02,
629,8.00e-04,-2.40e-01,
630,1.60e-03,-1.60e-01,
631,-6.40e-03,8.00e-02,
632,1.60e-03,-1.60e-01,
633,-5.60e-03,8.00e-02,
634,2.40e-03,8.00e-02,
635,-6.40e-03,-1.60e-01,
636,8.00e-04,-1.60e-01,
637,-8.00e-03,8.00e-02,
638,8.00e-04,8.00e-02,
639,-7.20e-03,-2.40e-01,
640,8.00e-04,-1.60e-01,
641,-8.00e-03,8.00e-02,
642,-7.20e-03,-1.60e-01,
643,1.60e-03,8.00e-02,
644,-5.60e-03,8.00e-02,
645,1.60e-03,-1.60e-01,
646,-4.80e-03,-1.60e-01,
647,2.40e-03,8.00e-02,
648,2.40e-03,-1.60e-01,
649,-6.40e-03,8.00e-02,
650,8.00e-04,-1.60e-01,
651,-7.20e-03,8.00e-02,
652,-7.20e-03,-1.60e-01,
653,1.60e-03,8.00e-02,
654,0.00e+00,-1.60e-01,
655,-7.20e-03,8.00e-02,
656,-7.20e-03,8.00e-02,
657,8.00e-04,-1.60e-01,
658,-4.80e-03,-1.60e-01,
659,2.40e-03,8.00e-02,
660,3.20e-03,8.00e-02,
661,-4.80e-03,-1.60e-01,
662,1.60e-03,8.00e-02,
663,-7.20e-03,-1.60e-01,
664,-6.40e-03,8.00e-02,
665,1.60e-03,-1.60e-01,
666,-7.20e-03,8.00e-02,
667,8.00e-04,-1.60e-01,
668,0.00e+00,-1.60e-01,
669,-8.00e-03,8.00e-02,
670,-8.00e-03,8.00e-02,
671,8.00e-04,-1.60e-01,
672,1.60e-03,-1.60e-01,
673,-5.60e-03,8.00e-02,
674,2.40e-03,8.00e-02,
675,-5.60e-03,-1.60e-01,
676,2.40e-03,8.00e-02,
677,-6.40e-03,-1.60e-01,
678,-6.40e-03,8.00e-02,
679,1.60e-03,-1.60e-01,
680,8.00e-04,8.00e-02,
681,-8.00e-03,-1.60e-01,
682,0.00e+00,8.00e-02,
683,-8.80e-03,-1.60e-01,
684,-7.20e-03,8.00e-02,
685,1.60e-03,-1.60e-01,
686,-4.80e-03,8.00e-02,
687,2.40e-03,-1.60e-01,
688,-6.40e-03,-8.00e-02,
689,1.60e-03,8.00e-02,
690,-5.60e-03,8.00e-02,
691,1.60e-03,-1.60e-01,
692,1.60e-03,-1.60e-01,
693,-6.40e-03,8.00e-02,
694,0.00e+00,8.00e-02,
695,-7.20e-03,-1.60e-01,
696,1.60e-03,8.00e-02,
697,-8.00e-03,-1.60e-01,
698,-7.20e-03,8.00e-02,
699,1.60e-03,-1.60e-01,
700,-6.40e-03,8.00e-02,
701,3.20e-03,-1.60e-01,
702,-5.60e-03,8.00e-02,
703,2.40e-03,-1.60e-01,
704,2.40e-03,8.00e-02,
705,-4.80e-03,-1.60e-01,
706,8.00e-04,8.00e-02,
707,-6.40e-03,-1.60e-01,
708,-6.40e-03,-8.00e-02,
709,1.60e-03,8.00e-02,
710,-8.00e-03,8.00e-02,
711,8.00e-04,-8.00e-02,
712,-6.40e-03,8.00e-02,
713,1.60e-03,-1.60e-01,
714,1.60e-03,8.00e-02,
715,-6.40e-03,-1.60e-01,
716,2.40e-03,-8.00e-02,
717,-5.60e-03,8.00e-02,
718,4.80e-03,8.00e-02,
719,-5.60e-03,-8.00e-02,
720,-7.20e-03,8.00e-02,
721,1.60e-03,-1.60e-01,
722,0.00e+00,-8.00e-02,
723,-7.20e-03,8.00e-02,
724,-7.20e-03,-8.00e-02,
725,0.00e+00,8.00e-02,
726,-7.20e-03,8.00e-02,
727,1.60e-03,-1.60e-01,
728,-4.80e-03,-8.00e-02,
729,2.40e-03,8.00e-02,
730,-4.80e-03,-8.00e-02,
731,3.20e-03,8.00e-02,
732,3.20e-03,-8.00e-02,
733,-4.80e-03,8.00e-02,
734,8.00e-04,-8.00e-02,
735,-6.40e-03,8.00e-02,
736,8.00e-04,-8.00e-02,
737,-8.00e-03,8.00e-02,
738,0.00e+00,8.00e-02,
739,-8.00e-03,-8.00e-02,
740,-6.40e-03,-8.00e-02,
741,1.60e-03,8.00e-02,
742,-5.60e-03,8.00e-02,
743,1.60e-03,-1.60e-01,
744,-4.80e-03,-8.00e-02,
745,3.20e-03,8.00e-02,
746,-4.80e-03,8.00e-02,
747,3.20e-03,-8.00e-02,
748,-5.60e-03,-1.60e-01,
749,2.40e-03,8.00e-02,
750,8.00e-04,8.00e-02,
751,-7.20e-03,-8.00e-02,
752,-8.00e-03,-8.00e-02,
753,8.00e-04,8.00e-02,
754,-7.20e-03,8.00e-02,
755,8.00e-04,-8.00e-02,
756,-5.60e-03,-8.00e-02,
757,3.20e-03,8.00e-02,
758,3.20e-03,8.00e-02,
759,-4.80e-03,-8.00e-02,
760,2.40e-03,-8.00e-02,
761,-5.60e-03,8.00e-02,
762,2.40e-03,8.00e-02,
763,-7.20e-03,-1.60e-01,
764,0.00e+00,-8.00e-02,
765,-8.00e-03,8.00e-02,
766,-8.00e-03,-8.00e-02,
767,8.00e-04,8.00e-02,
768,-7.20e-03,-8.00e-02,
769,1.60e-03,8.00e-02,
770,3.20e-03,-8.00e-02,
771,-6.40e-03,8.00e-02,
772,4.00e-03,-8.00e-02,
773,-4.00e-03,8.00e-02,
774,2.40e-03,-8.00e-02,
775,-4.80e-03,8.00e-02,
776,-6.40e-03,-8.00e-02,
777,8.00e-04,8.00e-02,
778,-8.80e-03,8.00e-02,
779,-8.00e-04,-8.00e-02,
780,-7.20e-03,-8.00e-02,
781,8.00e-04,8.00e-02,
782,-6.40e-03,8.00e-02,
783,4.00e-03,-8.00e-02,
784,-2.40e-03,-8.00e-02,
785,6.40e-03,8.00e-02,
786,-2.40e-03,8.00e-02,
787,5.60e-03,-8.00e-02,
788,3.20e-03,-8.00e-02,
789,-6.40e-03,8.00e-02,
790,8.00e-04,8.00e-02,
791,-1.04e-02,-1.60e-01,
792,-4.00e-03,-8.00e-02,
793,-1.28e-02,8.00e-02,
794,-1.20e-02,8.00e-02,
795,0.00e+00,-8.00e-02,
796,-6.40e-03,-8.00e-02,
797,5.60e-03,8.00e-02,
798,0.00e+00,8.00e-02,
799,1.20e-02,-8.00e-02,
800,1.20e-02,-8.00e-02,
801,3.20e-03,8.00e-02,
802,9.60e-03,-8.00e-02,
803,-4.80e-03,8.00e-02,
804,8.00e-04,-8.00e-02,
805,-1.44e-02,8.00e-02,
806,-8.80e-03,8.00e-02,
807,-2.08e-02,-8.00e-02,
808,-2.00e-02,-8.00e-02,
809,-1.04e-02,8.00e-02,
810,-1.68e-02,8.00e-02,
811,1.60e-03,-1.60e-01,
812,-3.20e-03,8.00e-02,
813,1.60e-02,-1.60e-01,
814,1.12e-02,-8.00e-02,
815,2.32e-02,8.00e-02,
816,2.32e-02,8.00e-02,
817,8.80e-03,-1.60e-01,
818,1.44e-02,-8.00e-02,
819,-8.80e-03,8.00e-02,
820,-4.80e-03,-8.00e-02,
821,-2.72e-02,8.00e-02,
822,-2.08e-02,8.00e-02,
823,-3.68e-02,-8.00e-02,
824,-3.76e-02,-8.00e-02,
825,-2.08e-02,8.00e-02,
826,-2.64e-02,8.00e-02,
827,1.20e-02,-8.00e-02,
828,8.00e-03,-8.00e-02,
829,4.56e-02,8.00e-02,
830,5.04e-02,8.00e-02,
831,3.68e-02,-8.00e-02,
832,4.00e-02,-8.00e-02,
833,-5.60e-03,8.00e-02,
834,-3.20e-03,8.00e-02,
835,-4.56e-02,-8.00e-02,
836,-5.20e-02,-1.60e-01,
837,-4.08e-02,8.00e-02,
838,-4.64e-02,-8.00e-02,
839,-1.12e-02,8.00e-02,
840,-1.68e-02,-8.00e-02,
841,1.76e-02,8.00e-02,
