NMRdata/glyc1/95up/95t9.csv

X,CH3,CH4,Start,Increment,
Sequence,Volt,Volt,-4.800000e-04,2.000000e-05
0,-8.00e-03,-1.60e-01,
1,1.60e-03,8.00e-02,
2,1.60e-03,8.00e-02,
3,-6.40e-03,-1.60e-01,
4,4.00e-03,8.00e-02,
5,-6.40e-03,-1.60e-01,
6,-8.00e-03,-1.60e-01,
7,8.00e-04,8.00e-02,
8,3.20e-03,-1.60e-01,
9,-7.20e-03,8.00e-02,
10,1.60e-03,-1.60e-01,
11,-5.60e-03,8.00e-02,
12,0.00e+00,8.00e-02,
13,-7.20e-03,-1.60e-01,
14,-5.60e-03,-1.60e-01,
15,1.60e-03,8.00e-02,
16,3.20e-03,8.00e-02,
17,-7.20e-03,-1.60e-01,
18,-6.40e-03,-1.60e-01,
19,8.00e-04,8.00e-02,
20,8.00e-04,-1.60e-01,
21,-7.20e-03,8.00e-02,
22,4.00e-03,8.00e-02,
23,-5.60e-03,-1.60e-01,
24,8.00e-04,5.76e+00,
25,-6.40e-03,4.72e+00,
26,1.60e-03,5.20e+00,
27,-6.40e-03,4.64e+00,
28,-2.40e-03,4.64e+00,
29,-8.00e-04,5.12e+00,
30,-8.00e-04,5.36e+00,
31,-1.04e-02,4.64e+00,
32,-9.60e-03,5.20e+00,
33,-5.60e-03,4.64e+00,
34,-5.60e-03,5.12e+00,
35,-8.00e-03,4.72e+00,
36,-5.60e-03,5.12e+00,
37,-8.00e-03,4.64e+00,
38,-5.60e-03,4.64e+00,
39,-2.64e-02,5.12e+00,
40,-2.32e-02,5.12e+00,
41,-5.92e-02,4.64e+00,
42,-6.16e-02,4.64e+00,
43,-5.04e-02,5.12e+00,
44,-5.52e-02,4.72e+00,
45,-2.24e-02,5.12e+00,
46,-2.64e-02,5.12e+00,
47,1.20e-02,4.72e+00,
48,6.40e-03,5.12e+00,
49,3.52e-02,4.72e+00,
50,4.16e-02,5.12e+00,
51,3.04e-02,4.72e+00,
52,3.44e-02,4.72e+00,
53,8.80e-03,5.12e+00,
54,1.20e-02,5.12e+00,
55,-1.60e-02,4.64e+00,
56,-1.20e-02,5.12e+00,
57,-3.12e-02,4.72e+00,
58,-3.20e-02,5.12e+00,
59,-2.24e-02,4.72e+00,
60,-2.72e-02,4.72e+00,
61,-7.20e-03,5.12e+00,
62,-1.20e-02,5.12e+00,
63,1.04e-02,4.64e+00,
64,5.60e-03,5.12e+00,
65,1.92e-02,4.72e+00,
66,1.92e-02,4.80e+00,
67,7.20e-03,5.12e+00,
68,1.12e-02,4.80e+00,
69,-6.40e-03,5.12e+00,
70,-8.00e-04,5.12e+00,
71,-1.52e-02,4.72e+00,
72,-8.80e-03,5.12e+00,
73,-1.68e-02,4.64e+00,
74,-1.52e-02,5.12e+00,
75,-4.80e-03,4.72e+00,
76,-9.60e-03,4.80e+00,
77,3.20e-03,5.12e+00,
78,-1.60e-03,5.12e+00,
79,8.00e-03,4.64e+00,
80,8.00e-03,5.12e+00,
81,-8.00e-04,4.72e+00,
82,4.80e-03,5.12e+00,
83,-4.80e-03,4.72e+00,
84,8.00e-04,5.12e+00,
85,-1.04e-02,4.72e+00,
86,-1.28e-02,5.12e+00,
87,-1.60e-03,4.64e+00,
88,-1.04e-02,5.12e+00,
89,-8.00e-04,4.64e+00,
90,-6.40e-03,5.12e+00,
91,3.20e-03,4.72e+00,
92,-3.20e-03,5.12e+00,
93,4.80e-03,4.72e+00,
94,4.00e-03,5.12e+00,
95,-4.00e-03,4.64e+00,
96,4.00e-03,5.12e+00,
97,-8.00e-03,4.64e+00,
98,-8.00e-04,5.12e+00,
99,-8.80e-03,4.64e+00,
100,-9.60e-03,5.12e+00,
101,8.00e-04,4.72e+00,
102,-6.40e-03,5.12e+00,
103,2.40e-03,4.64e+00,
104,-4.80e-03,5.12e+00,
105,4.00e-03,4.64e+00,
106,-3.20e-03,5.12e+00,
107,4.80e-03,4.72e+00,
108,4.00e-03,5.12e+00,
109,-5.60e-03,4.64e+00,
110,1.60e-03,5.12e+00,
111,-8.80e-03,4.64e+00,
112,-9.60e-03,5.12e+00,
113,-1.60e-03,4.64e+00,
114,-9.60e-03,5.12e+00,
115,1.60e-03,4.64e+00,
116,-8.00e-03,5.12e+00,
117,4.00e-03,4.64e+00,
118,-5.60e-03,5.12e+00,
119,4.00e-03,4.72e+00,
120,5.60e-03,5.12e+00,
121,-3.20e-03,4.72e+00,
122,4.00e-03,4.64e+00,
123,-7.20e-03,5.12e+00,
124,8.00e-04,4.64e+00,
125,-8.00e-03,5.04e+00,
126,-1.60e-03,5.12e+00,
127,-9.60e-03,4.64e+00,
128,-8.80e-03,5.12e+00,
129,-8.00e-04,4.64e+00,
130,-7.20e-03,4.64e+00,
131,2.40e-03,5.12e+00,
132,-4.80e-03,4.64e+00,
133,2.40e-03,5.04e+00,
134,4.00e-03,4.64e+00,
135,-3.20e-03,5.12e+00,
136,4.00e-03,5.12e+00,
137,-4.00e-03,4.64e+00,
138,2.40e-03,4.64e+00,
139,-5.60e-03,5.12e+00,
140,8.00e-04,4.64e+00,
141,-8.00e-03,5.12e+00,
142,-7.20e-03,4.64e+00,
143,8.00e-04,5.12e+00,
144,-8.00e-03,5.12e+00,
145,8.00e-04,4.64e+00,
146,-6.40e-03,4.64e+00,
147,3.20e-03,5.04e+00,
148,-4.80e-03,4.64e+00,
149,3.20e-03,5.12e+00,
150,3.20e-03,4.64e+00,
151,-5.60e-03,5.12e+00,
152,-5.60e-03,5.12e+00,
153,2.40e-03,4.64e+00,
154,-6.40e-03,4.64e+00,
155,1.60e-03,5.04e+00,
156,0.00e+00,4.64e+00,
157,-8.00e-03,5.04e+00,
158,-6.40e-03,5.04e+00,
159,2.40e-03,4.64e+00,
160,-5.60e-03,5.12e+00,
161,3.20e-03,4.64e+00,
162,2.40e-03,5.04e+00,
163,-4.80e-03,4.64e+00,
164,-4.80e-03,5.04e+00,
165,2.40e-03,4.64e+00,
166,1.60e-03,5.04e+00,
167,-7.20e-03,4.64e+00,
168,8.00e-04,5.04e+00,
169,-7.20e-03,4.64e+00,
170,-7.20e-03,5.04e+00,
171,1.60e-03,4.64e+00,
172,3.20e-03,4.64e+00,
173,-6.40e-03,5.04e+00,
174,-5.60e-03,5.04e+00,
175,4.00e-03,4.64e+00,
176,3.20e-03,4.64e+00,
177,-4.80e-03,5.04e+00,
178,-6.40e-03,4.64e+00,
179,2.40e-03,5.04e+00,
180,8.00e-04,5.04e+00,
181,-8.00e-03,4.64e+00,
182,8.00e-04,5.04e+00,
183,-8.80e-03,4.64e+00,
184,-7.20e-03,4.64e+00,
185,8.00e-04,5.04e+00,
186,8.00e-04,5.04e+00,
187,-7.20e-03,4.64e+00,
188,2.40e-03,4.64e+00,
189,-6.40e-03,5.04e+00,
190,-5.60e-03,4.96e+00,
191,3.20e-03,4.64e+00,
192,4.80e-03,5.12e+00,
193,-5.60e-03,4.64e+00,
194,8.00e-04,4.64e+00,
195,-7.20e-03,5.04e+00,
196,8.00e-04,4.64e+00,
197,-8.00e-03,5.04e+00,
198,0.00e+00,4.64e+00,
199,-8.80e-03,4.96e+00,
200,-8.00e-03,4.64e+00,
201,2.40e-03,5.04e+00,
202,1.60e-03,5.04e+00,
203,-7.20e-03,4.64e+00,
204,-5.60e-03,5.04e+00,
205,3.20e-03,4.64e+00,
206,2.40e-03,4.64e+00,
207,-5.60e-03,5.04e+00,
208,4.00e-03,5.04e+00,
209,-5.60e-03,4.64e+00,
210,-8.80e-03,4.64e+00,
211,1.60e-03,5.04e+00,
212,-7.20e-03,5.04e+00,
213,1.60e-03,4.64e+00,
214,8.00e-04,5.04e+00,
215,-6.40e-03,4.64e+00,
216,-5.60e-03,5.04e+00,
217,2.40e-03,4.64e+00,
218,-4.80e-03,4.64e+00,
219,3.20e-03,5.04e+00,
220,2.40e-03,5.04e+00,
221,-6.40e-03,4.64e+00,
222,-6.40e-03,4.64e+00,
223,2.40e-03,5.04e+00,
224,-7.20e-03,4.64e+00,
225,2.40e-03,5.04e+00,
226,1.60e-03,4.64e+00,
227,-6.40e-03,5.04e+00,
228,2.40e-03,4.64e+00,
229,-6.40e-03,5.04e+00,
230,2.40e-03,4.64e+00,
231,-5.60e-03,4.96e+00,
232,-6.40e-03,4.64e+00,
233,2.40e-03,5.04e+00,
234,4.00e-03,5.04e+00,
235,-5.60e-03,4.64e+00,
236,-7.20e-03,4.64e+00,
237,1.60e-03,5.04e+00,
238,8.00e-04,4.64e+00,
239,-7.20e-03,5.04e+00,
240,-7.20e-03,4.64e+00,
241,8.00e-04,5.04e+00,
242,-7.20e-03,5.04e+00,
243,2.40e-03,4.64e+00,
244,-5.60e-03,4.64e+00,
245,3.20e-03,5.04e+00,
246,1.60e-03,5.04e+00,
247,-6.40e-03,4.64e+00,
248,1.60e-03,4.64e+00,
249,-6.40e-03,5.04e+00,
250,-6.40e-03,4.64e+00,
251,1.60e-03,5.04e+00,
252,1.60e-03,4.64e+00,
253,-7.20e-03,5.04e+00,
254,-7.20e-03,4.64e+00,
255,1.60e-03,5.04e+00,
256,-5.60e-03,5.04e+00,
257,3.20e-03,4.64e+00,
258,3.20e-03,4.64e+00,
259,-6.40e-03,5.04e+00,
260,1.60e-03,4.64e+00,
261,-7.20e-03,5.04e+00,
262,-6.40e-03,4.64e+00,
263,1.60e-03,5.04e+00,
264,2.40e-03,5.04e+00,
265,-6.40e-03,4.64e+00,
266,2.40e-03,4.64e+00,
267,-8.00e-03,5.04e+00,
268,-7.20e-03,4.64e+00,
269,1.60e-03,5.04e+00,
270,-7.20e-03,4.64e+00,
271,1.60e-03,5.04e+00,
272,-6.40e-03,4.64e+00,
273,8.00e-04,5.04e+00,
274,-6.40e-03,4.64e+00,
275,2.40e-03,5.04e+00,
276,-5.60e-03,4.64e+00,
277,2.40e-03,5.04e+00,
278,1.60e-03,4.64e+00,
279,-7.20e-03,5.04e+00,
280,1.60e-03,4.64e+00,
281,-7.20e-03,5.04e+00,
282,1.60e-03,4.64e+00,
283,-6.40e-03,5.04e+00,
284,1.60e-03,5.04e+00,
285,-6.40e-03,4.64e+00,
286,-4.80e-03,4.64e+00,
287,2.40e-03,5.04e+00,
288,2.40e-03,5.04e+00,
289,-4.80e-03,4.64e+00,
290,-5.60e-03,4.64e+00,
291,2.40e-03,5.04e+00,
292,1.60e-03,4.64e+00,
293,-7.20e-03,5.04e+00,
294,8.00e-04,4.64e+00,
295,-7.20e-03,5.04e+00,
296,-7.20e-03,5.04e+00,
297,1.60e-03,4.64e+00,
298,-6.40e-03,5.04e+00,
299,1.60e-03,4.64e+00,
300,-5.60e-03,4.64e+00,
301,2.40e-03,5.04e+00,
302,1.60e-03,5.04e+00,
303,-7.20e-03,4.64e+00,
304,1.60e-03,4.64e+00,
305,-7.20e-03,5.04e+00,
306,1.60e-03,5.04e+00,
307,-7.20e-03,4.64e+00,
308,8.00e-04,5.04e+00,
309,-7.20e-03,4.64e+00,
310,-8.00e-03,4.64e+00,
311,8.00e-04,5.04e+00,
312,1.60e-03,4.64e+00,
313,-8.80e-03,5.04e+00,
314,-7.20e-03,5.04e+00,
315,1.60e-03,4.64e+00,
316,-5.60e-03,5.04e+00,
317,2.40e-03,4.64e+00,
318,-5.60e-03,4.64e+00,
319,2.40e-03,5.04e+00,
320,1.60e-03,4.64e+00,
321,-7.20e-03,5.04e+00,
322,2.40e-03,4.64e+00,
323,-8.00e-03,5.04e+00,
324,-7.20e-03,5.04e+00,
325,1.60e-03,4.64e+00,
326,-6.40e-03,4.64e+00,
327,1.60e-03,5.04e+00,
328,-4.80e-03,4.64e+00,
329,2.40e-03,5.04e+00,
330,1.60e-03,4.64e+00,
331,-6.40e-03,5.04e+00,
332,-6.40e-03,4.64e+00,
333,2.40e-03,5.04e+00,
334,1.60e-03,4.64e+00,
335,-7.20e-03,5.04e+00,
336,-6.40e-03,4.64e+00,
337,1.60e-03,5.04e+00,
338,-6.40e-03,4.64e+00,
339,1.60e-03,5.04e+00,
340,1.60e-03,5.04e+00,
341,-8.00e-03,4.64e+00,
342,-6.40e-03,4.64e+00,
343,2.40e-03,5.04e+00,
344,-6.40e-03,4.64e+00,
345,1.60e-03,5.04e+00,
346,-6.40e-03,5.04e+00,
347,2.40e-03,4.64e+00,
348,8.00e-04,4.64e+00,
349,-7.20e-03,5.04e+00,
350,-7.20e-03,5.04e+00,
351,8.00e-04,4.64e+00,
352,1.60e-03,4.64e+00,
353,-6.40e-03,5.04e+00,
354,8.00e-04,5.04e+00,
355,-7.20e-03,4.64e+00,
356,-7.20e-03,4.64e+00,
357,1.60e-03,5.04e+00,
358,3.20e-03,4.64e+00,
359,-6.40e-03,5.04e+00,
360,-6.40e-03,4.64e+00,
361,1.60e-03,5.04e+00,
362,1.60e-03,5.04e+00,
363,-6.40e-03,4.64e+00,
364,-7.20e-03,4.64e+00,
365,1.60e-03,5.04e+00,
366,-7.20e-03,5.04e+00,
367,1.60e-03,4.64e+00,
368,1.60e-03,5.04e+00,
369,-7.20e-03,4.64e+00,
370,-5.60e-03,4.64e+00,
371,2.40e-03,5.04e+00,
372,-4.80e-03,4.64e+00,
373,2.40e-03,5.04e+00,
374,2.40e-03,4.64e+00,
375,-6.40e-03,5.04e+00,
376,-7.20e-03,5.04e+00,
377,1.60e-03,4.64e+00,
378,8.00e-04,5.04e+00,
379,-6.40e-03,4.64e+00,
380,-6.40e-03,4.64e+00,
381,2.40e-03,5.04e+00,
382,-6.40e-03,5.04e+00,
383,2.40e-03,4.64e+00,
384,-6.40e-03,4.64e+00,
385,2.40e-03,5.04e+00,
386,1.60e-03,5.04e+00,
387,-6.40e-03,4.64e+00,
388,2.40e-03,4.64e+00,
389,-5.60e-03,5.04e+00,
390,-5.60e-03,5.04e+00,
391,1.60e-03,4.64e+00,
392,-5.60e-03,5.04e+00,
393,3.20e-03,4.64e+00,
394,-7.20e-03,4.64e+00,
395,1.60e-03,5.04e+00,
396,-7.20e-03,5.04e+00,
397,1.60e-03,4.64e+00,
398,-6.40e-03,5.04e+00,
399,1.60e-03,4.64e+00,
400,1.60e-03,5.04e+00,
401,-6.40e-03,4.64e+00,
402,-6.40e-03,5.04e+00,
403,1.60e-03,4.64e+00,
404,-8.00e-03,4.64e+00,
405,1.60e-03,5.04e+00,
406,-7.20e-03,4.64e+00,
407,8.00e-04,5.04e+00,
408,-8.00e-03,5.04e+00,
409,1.60e-03,4.64e+00,
410,1.60e-03,5.04e+00,
411,-8.00e-03,4.64e+00,
412,2.40e-03,4.64e+00,
413,-5.60e-03,5.04e+00,
414,2.40e-03,5.04e+00,
415,-7.20e-03,4.64e+00,
416,1.60e-03,4.64e+00,
417,-5.60e-03,5.04e+00,
418,-7.20e-03,5.04e+00,
419,0.00e+00,4.64e+00,
420,-6.40e-03,5.04e+00,
421,8.00e-04,4.64e+00,
422,8.00e-04,4.64e+00,
423,-7.20e-03,5.04e+00,
424,-5.60e-03,4.64e+00,
425,4.00e-03,5.04e+00,
426,1.60e-03,4.96e+00,
427,-7.20e-03,4.64e+00,
428,1.60e-03,5.04e+00,
429,-8.00e-03,4.64e+00,
430,1.60e-03,4.64e+00,
431,-8.00e-03,5.04e+00,
432,1.60e-03,5.04e+00,
433,-6.40e-03,4.64e+00,
434,-7.20e-03,5.04e+00,
435,1.60e-03,4.64e+00,
436,-5.60e-03,4.64e+00,
437,2.40e-03,5.04e+00,
438,1.60e-03,4.64e+00,
439,-8.00e-03,5.04e+00,
440,2.40e-03,4.64e+00,
441,-6.40e-03,5.04e+00,
442,8.00e-04,5.04e+00,
443,-8.00e-03,4.64e+00,
444,-7.20e-03,4.64e+00,
445,8.00e-04,5.12e+00,
446,-7.20e-03,5.04e+00,
447,1.60e-03,4.56e+00,
448,-5.60e-03,4.64e+00,
449,1.60e-03,5.04e+00,
450,-5.60e-03,4.64e+00,
451,1.60e-03,5.04e+00,
452,-5.60e-03,5.04e+00,
453,2.40e-03,4.64e+00,
454,8.00e-04,4.64e+00,
455,-5.60e-03,5.04e+00,
456,-5.60e-03,5.04e+00,
457,8.00e-04,4.64e+00,
458,8.00e-04,4.64e+00,
459,-7.20e-03,5.04e+00,
460,8.00e-04,5.04e+00,
461,-7.20e-03,4.64e+00,
462,-8.00e-03,5.04e+00,
463,1.60e-03,4.64e+00,
464,1.60e-03,4.64e+00,
465,-6.40e-03,5.04e+00,
466,-7.20e-03,5.04e+00,
467,2.40e-03,4.64e+00,
468,2.40e-03,5.04e+00,
469,-6.40e-03,4.64e+00,
470,-5.60e-03,5.04e+00,
471,8.00e-04,4.64e+00,
472,2.40e-03,5.04e+00,
473,-7.20e-03,4.64e+00,
474,-8.80e-03,5.04e+00,
475,0.00e+00,4.56e+00,
476,-8.00e-04,4.64e+00,
477,-8.80e-03,5.04e+00,
478,-4.80e-03,5.04e+00,
479,-2.40e-03,4.56e+00,
480,-2.40e-03,4.48e+00,
481,-1.28e-02,5.28e+00,
482,-1.36e-02,4.64e+00,
483,-7.20e-03,5.36e+00,
484,-7.20e-03,4.56e+00,
485,-9.60e-03,5.04e+00,
486,-7.20e-03,5.04e+00,
487,-9.60e-03,4.64e+00,
488,-7.20e-03,5.04e+00,
489,-9.60e-03,4.56e+00,
490,-7.20e-03,5.04e+00,
491,-9.60e-03,4.56e+00,
492,-7.20e-03,5.04e+00,
493,-1.60e-02,4.56e+00,
494,-1.52e-02,5.04e+00,
495,-4.00e-03,-1.44e+00,
496,-9.60e-03,0.00e+00,
497,6.40e-03,-3.20e-01,
498,1.60e-03,0.00e+00,
499,1.20e-02,-2.40e-01,
500,1.28e-02,0.00e+00,
501,2.40e-03,-2.40e-01,
502,9.60e-03,0.00e+00,
503,-4.00e-03,-2.40e-01,
504,1.60e-03,-1.60e-01,
505,-9.60e-03,0.00e+00,
506,-4.00e-03,-1.60e-01,
507,-1.28e-02,0.00e+00,
508,-1.28e-02,0.00e+00,
509,-2.40e-03,-2.40e-01,
510,-8.80e-03,-2.40e-01,
511,1.60e-03,0.00e+00,
512,-4.00e-03,-1.60e-01,
513,5.60e-03,-8.00e-02,
514,-1.60e-03,-1.60e-01,
515,5.60e-03,0.00e+00,
516,4.00e-03,-1.60e-01,
517,-4.80e-03,-8.00e-02,
518,2.40e-03,-1.60e-01,
519,-7.20e-03,0.00e+00,
520,-8.00e-04,0.00e+00,
521,-8.00e-03,-2.40e-01,
522,-8.80e-03,-1.60e-01,
523,0.00e+00,0.00e+00,
524,-6.40e-03,-1.60e-01,
525,8.00e-04,0.00e+00,
526,-4.80e-03,-1.60e-01,
527,4.80e-03,0.00e+00,
528,2.40e-03,-1.60e-01,
529,-4.00e-03,0.00e+00,
530,1.60e-03,0.00e+00,
531,-5.60e-03,-2.40e-01,
532,0.00e+00,-1.60e-01,
533,-8.00e-03,0.00e+00,
534,-7.20e-03,-1.60e-01,
535,0.00e+00,0.00e+00,
536,-6.40e-03,-1.60e-01,
537,1.60e-03,0.00e+00,
538,-4.80e-03,-1.60e-01,
539,2.40e-03,0.00e+00,
540,-5.60e-03,0.00e+00,
541,3.20e-03,-2.40e-01,
542,2.40e-03,-2.40e-01,
543,-5.60e-03,0.00e+00,
544,1.60e-03,-1.60e-01,
545,-5.60e-03,-1.60e-01,
546,0.00e+00,-1.60e-01,
547,-7.20e-03,0.00e+00,
548,0.00e+00,-1.60e-01,
549,-7.20e-03,-1.60e-01,
550,-6.40e-03,0.00e+00,
551,8.00e-04,-2.40e-01,
552,-5.60e-03,-1.60e-01,
553,3.20e-03,-2.40e-01,
554,-4.00e-03,-1.60e-01,
555,4.00e-03,0.00e+00,
556,2.40e-03,-1.60e-01,
557,-4.80e-03,-1.60e-01,
558,2.40e-03,-1.60e-01,
559,-5.60e-03,0.00e+00,
560,-7.20e-03,-1.60e-01,
561,8.00e-04,0.00e+00,
562,0.00e+00,0.00e+00,
563,-8.00e-03,-2.40e-01,
564,-7.20e-03,-1.60e-01,
565,1.60e-03,0.00e+00,
566,-5.60e-03,-1.60e-01,
567,1.60e-03,0.00e+00,
568,4.00e-03,-1.60e-01,
569,-5.60e-03,0.00e+00,
570,-5.60e-03,-1.60e-01,
571,1.60e-03,0.00e+00,
572,1.60e-03,0.00e+00,
573,-6.40e-03,-2.40e-01,
574,8.00e-04,-1.60e-01,
575,-8.00e-03,0.00e+00,
576,0.00e+00,-1.60e-01,
577,-7.20e-03,0.00e+00,
578,-7.20e-03,-1.60e-01,
579,8.00e-04,8.00e-02,
580,-5.60e-03,-1.60e-01,
581,2.40e-03,0.00e+00,
582,2.40e-03,0.00e+00,
583,-5.60e-03,-2.40e-01,
584,-6.40e-03,-1.60e-01,
585,3.20e-03,8.00e-02,
586,-5.60e-03,-1.60e-01,
587,1.60e-03,0.00e+00,
588,8.00e-04,-1.60e-01,
589,-7.20e-03,0.00e+00,
590,-6.40e-03,-1.60e-01,
591,1.60e-03,8.00e-02,
592,-5.60e-03,8.00e-02,
593,1.60e-03,-2.40e-01,
594,1.60e-03,-2.40e-01,
595,-7.20e-03,0.00e+00,
596,-6.40e-03,-1.60e-01,
597,1.60e-03,8.00e-02,
598,2.40e-03,-1.60e-01,
599,-5.60e-03,0.00e+00,
600,-6.40e-03,-1.60e-01,
601,1.60e-03,8.00e-02,
602,-6.40e-03,-1.60e-01,
603,2.40e-03,0.00e+00,
604,8.00e-04,-2.40e-01,
605,-6.40e-03,8.00e-02,
606,-5.60e-03,-1.60e-01,
607,1.60e-03,8.00e-02,
608,2.40e-03,-1.60e-01,
609,-6.40e-03,8.00e-02,
610,2.40e-03,8.00e-02,
611,-5.60e-03,-1.60e-01,
612,8.00e-04,8.00e-02,
613,-5.60e-03,-1.60e-01,
614,-6.40e-03,8.00e-02,
615,1.60e-03,-2.40e-01,
616,8.00e-04,8.00e-02,
617,-6.40e-03,-1.60e-01,
618,-6.40e-03,-1.60e-01,
619,1.60e-03,8.00e-02,
620,2.40e-03,-1.60e-01,
621,-4.80e-03,8.00e-02,
622,2.40e-03,-1.60e-01,
623,-5.60e-03,8.00e-02,
624,1.60e-03,8.00e-02,
625,-6.40e-03,-2.40e-01,
626,-5.60e-03,-1.60e-01,
627,3.20e-03,8.00e-02,
628,1.60e-03,-1.60e-01,
629,-6.40e-03,8.00e-02,
630,1.60e-03,8.00e-02,
631,-7.20e-03,-1.60e-01,
632,1.60e-03,-1.60e-01,
633,-6.40e-03,8.00e-02,
634,-7.20e-03,8.00e-02,
635,2.40e-03,-2.40e-01,
636,1.60e-03,-2.40e-01,
637,-7.20e-03,8.00e-02,
638,-7.20e-03,-1.60e-01,
639,2.40e-03,8.00e-02,
640,-6.40e-03,8.00e-02,
641,1.60e-03,-1.60e-01,
642,-5.60e-03,-1.60e-01,
643,3.20e-03,8.00e-02,
644,-5.60e-03,-1.60e-01,
645,2.40e-03,8.00e-02,
646,-5.60e-03,-1.60e-01,
647,1.60e-03,8.00e-02,
648,-7.20e-03,-1.60e-01,
649,2.40e-03,8.00e-02,
650,2.40e-03,-1.60e-01,
651,-5.60e-03,8.00e-02,
652,-6.40e-03,-1.60e-01,
653,4.00e-03,8.00e-02,
654,1.60e-03,-1.60e-01,
655,-5.60e-03,8.00e-02,
656,2.40e-03,8.00e-02,
657,-6.40e-03,-2.40e-01,
658,-6.40e-03,-1.60e-01,
659,1.60e-03,8.00e-02,
660,1.60e-03,-1.60e-01,
661,-7.20e-03,8.00e-02,
662,-6.40e-03,8.00e-02,
663,1.60e-03,-1.60e-01,
664,-5.60e-03,-1.60e-01,
665,1.60e-03,8.00e-02,
666,-5.60e-03,8.00e-02,
667,3.20e-03,-2.40e-01,
668,1.60e-03,-1.60e-01,
669,-7.20e-03,8.00e-02,
670,8.00e-04,-1.60e-01,
671,-7.20e-03,8.00e-02,
672,-7.20e-03,-1.60e-01,
673,2.40e-03,8.00e-02,
674,-8.00e-03,8.00e-02,
675,2.40e-03,-1.60e-01,
676,2.40e-03,8.00e-02,
677,-5.60e-03,-2.40e-01,
678,1.60e-03,8.00e-02,
679,-5.60e-03,-1.60e-01,
680,2.40e-03,-1.60e-01,
681,-5.60e-03,8.00e-02,
682,-7.20e-03,8.00e-02,
683,8.00e-04,-1.60e-01,
684,-7.20e-03,-1.60e-01,
685,1.60e-03,8.00e-02,
686,-7.20e-03,-1.60e-01,
687,1.60e-03,8.00e-02,
688,1.60e-03,-1.60e-01,
689,-6.40e-03,8.00e-02,
690,-7.20e-03,-1.60e-01,
691,2.40e-03,8.00e-02,
692,2.40e-03,8.00e-02,
693,-5.60e-03,-1.60e-01,
694,-6.40e-03,8.00e-02,
695,1.60e-03,-1.60e-01,
696,2.40e-03,-1.60e-01,
697,-5.60e-03,8.00e-02,
698,1.60e-03,-1.60e-01,
699,-6.40e-03,8.00e-02,
700,8.00e-04,8.00e-02,
701,-8.00e-03,-1.60e-01,
702,8.00e-04,8.00e-02,
703,-8.80e-03,-1.60e-01,
704,-6.40e-03,8.00e-02,
705,2.40e-03,-1.60e-01,
706,2.40e-03,8.00e-02,
707,-6.40e-03,-1.60e-01,
708,-6.40e-03,-1.60e-01,
709,2.40e-03,8.00e-02,
710,-6.40e-03,8.00e-02,
711,1.60e-03,-1.60e-01,
712,-6.40e-03,-1.60e-01,
713,2.40e-03,8.00e-02,
714,1.60e-03,8.00e-02,
715,-6.40e-03,-1.60e-01,
716,2.40e-03,-1.60e-01,
717,-5.60e-03,8.00e-02,
718,-4.80e-03,8.00e-02,
719,2.40e-03,-1.60e-01,
720,-6.40e-03,-1.60e-01,
721,3.20e-03,8.00e-02,
722,-4.80e-03,8.00e-02,
723,3.20e-03,-1.60e-01,
724,1.60e-03,8.00e-02,
725,-6.40e-03,-1.60e-01,
726,1.60e-03,8.00e-02,
727,-7.20e-03,-1.60e-01,
728,-7.20e-03,8.00e-02,
729,8.00e-04,-1.60e-01,
730,-7.20e-03,-1.60e-01,
731,2.40e-03,8.00e-02,
732,2.40e-03,8.00e-02,
733,-6.40e-03,-1.60e-01,
734,-5.60e-03,8.00e-02,
735,1.60e-03,-1.60e-01,
736,8.00e-04,8.00e-02,
737,-7.20e-03,-1.60e-01,
738,-9.60e-03,-8.00e-02,
739,8.00e-04,8.00e-02,
740,2.40e-03,8.00e-02,
741,-7.20e-03,-1.60e-01,
742,-8.00e-03,8.00e-02,
743,8.00e-04,-8.00e-02,
744,-8.00e-03,-8.00e-02,
745,1.60e-03,8.00e-02,
746,2.40e-03,8.00e-02,
747,-6.40e-03,-1.60e-01,
748,-6.40e-03,8.00e-02,
749,2.40e-03,-1.60e-01,
750,2.40e-03,8.00e-02,
751,-6.40e-03,-1.60e-01,
752,-6.40e-03,-8.00e-02,
753,1.60e-03,8.00e-02,
754,-7.20e-03,8.00e-02,
755,0.00e+00,-1.60e-01,
756,8.00e-04,8.00e-02,
757,-7.20e-03,-1.60e-01,
758,-6.40e-03,8.00e-02,
759,3.20e-03,-1.60e-01,
760,4.00e-03,-8.00e-02,
761,-6.40e-03,8.00e-02,
762,1.60e-03,-8.00e-02,
763,-7.20e-03,8.00e-02,
764,-6.40e-03,8.00e-02,
765,2.40e-03,-1.60e-01,
766,1.60e-03,8.00e-02,
767,-8.80e-03,-1.60e-01,
768,-7.20e-03,8.00e-02,
769,0.00e+00,-1.60e-01,
770,8.00e-04,8.00e-02,
771,-6.40e-03,-1.60e-01,
772,-7.20e-03,-8.00e-02,
773,1.60e-03,8.00e-02,
774,-4.80e-03,8.00e-02,
775,2.40e-03,-1.60e-01,
776,-4.80e-03,8.00e-02,
777,2.40e-03,-1.60e-01,
778,-4.80e-03,-8.00e-02,
779,1.60e-03,8.00e-02,
780,4.00e-03,-8.00e-02,
781,-7.20e-03,8.00e-02,
782,0.00e+00,8.00e-02,
783,-8.00e-03,-1.60e-01,
784,-7.20e-03,-1.60e-01,
785,8.00e-04,8.00e-02,
786,-7.20e-03,8.00e-02,
787,1.60e-03,-1.60e-01,
788,1.60e-03,-1.60e-01,
789,-6.40e-03,8.00e-02,
790,1.60e-03,8.00e-02,
791,-6.40e-03,-8.00e-02,
792,1.60e-03,-8.00e-02,
793,-6.40e-03,8.00e-02,
794,1.60e-03,8.00e-02,
795,-7.20e-03,-8.00e-02,
796,-7.20e-03,8.00e-02,
797,8.00e-04,-1.60e-01,
798,-6.40e-03,8.00e-02,
799,2.40e-03,-8.00e-02,
800,-6.40e-03,-8.00e-02,
801,1.60e-03,8.00e-02,
802,2.40e-03,-8.00e-02,
803,-5.60e-03,8.00e-02,
804,-5.60e-03,-8.00e-02,
805,1.60e-03,8.00e-02,
806,8.00e-04,8.00e-02,
807,-6.40e-03,-8.00e-02,
808,8.00e-04,-8.00e-02,
809,-8.00e-03,8.00e-02,
810,0.00e+00,-8.00e-02,
811,-8.00e-03,8.00e-02,
812,-7.20e-03,8.00e-02,
813,1.60e-03,-1.60e-01,
814,2.40e-03,-8.00e-02,
815,-6.40e-03,8.00e-02,
816,2.40e-03,-8.00e-02,
817,-6.40e-03,8.00e-02,
818,-5.60e-03,-8.00e-02,
819,1.60e-03,8.00e-02,
820,1.60e-03,-8.00e-02,
821,-7.20e-03,8.00e-02,
822,1.60e-03,8.00e-02,
823,-7.20e-03,-8.00e-02,
824,-8.00e-03,-8.00e-02,
825,2.40e-03,8.00e-02,
826,-5.60e-03,8.00e-02,
827,2.40e-03,-8.00e-02,
828,-5.60e-03,-1.60e-01,
829,4.00e-03,8.00e-02,
830,3.20e-03,8.00e-02,
831,-4.80e-03,-1.60e-01,
832,-4.80e-03,-8.00e-02,
833,2.40e-03,8.00e-02,
834,1.60e-03,8.00e-02,
835,-7.20e-03,-8.00e-02,
836,-7.20e-03,-8.00e-02,
837,8.00e-04,8.00e-02,
838,-7.20e-03,8.00e-02,
839,8.00e-04,-1.60e-01,
840,-7.20e-03,-8.00e-02,
841,8.00e-04,8.00e-02,
842,-6.40e-03,8.00e-02,
