NMRdata/glyc1/95up/98t101.csv

X,CH3,CH4,Start,Increment,
Sequence,Volt,Volt,-4.800000e-04,2.000000e-05
0,-5.60e-03,-1.60e-01,
1,2.40e-03,8.00e-02,
2,4.00e-03,8.00e-02,
3,-4.80e-03,-1.60e-01,
4,2.40e-03,-1.60e-01,
5,-5.60e-03,8.00e-02,
6,3.20e-03,8.00e-02,
7,-7.20e-03,-1.60e-01,
8,-7.20e-03,8.00e-02,
9,1.60e-03,-1.60e-01,
10,8.00e-04,8.00e-02,
11,-8.00e-03,-1.60e-01,
12,-7.20e-03,-1.60e-01,
13,1.60e-03,8.00e-02,
14,-5.60e-03,8.00e-02,
15,2.40e-03,-1.60e-01,
16,4.00e-03,8.00e-02,
17,-6.40e-03,-1.60e-01,
18,2.40e-03,-1.60e-01,
19,-6.40e-03,8.00e-02,
20,-4.80e-03,8.00e-02,
21,4.00e-03,-1.60e-01,
22,2.40e-03,-1.60e-01,
23,-5.60e-03,8.00e-02,
24,-6.40e-03,5.76e+00,
25,1.60e-03,4.64e+00,
26,-5.60e-03,4.72e+00,
27,1.60e-03,5.20e+00,
28,-2.40e-03,5.20e+00,
29,-8.00e-04,4.72e+00,
30,-8.00e-04,5.28e+00,
31,-1.04e-02,4.64e+00,
32,-9.60e-03,4.72e+00,
33,-5.60e-03,5.20e+00,
34,-5.60e-03,4.72e+00,
35,-8.00e-03,5.20e+00,
36,-5.60e-03,5.20e+00,
37,-8.00e-03,4.64e+00,
38,-5.60e-03,5.20e+00,
39,-2.80e-02,4.64e+00,
40,-2.48e-02,4.72e+00,
41,-5.84e-02,5.20e+00,
42,-6.08e-02,4.64e+00,
43,-4.88e-02,5.20e+00,
44,-5.44e-02,4.72e+00,
45,-2.40e-02,5.12e+00,
46,-2.72e-02,5.12e+00,
47,1.36e-02,4.72e+00,
48,1.04e-02,4.72e+00,
49,3.76e-02,5.20e+00,
50,4.08e-02,5.12e+00,
51,3.04e-02,4.72e+00,
52,3.52e-02,5.12e+00,
53,8.80e-03,4.72e+00,
54,1.20e-02,5.12e+00,
55,-1.76e-02,4.72e+00,
56,-1.36e-02,5.12e+00,
57,-3.28e-02,4.72e+00,
58,-3.28e-02,5.12e+00,
59,-2.40e-02,4.72e+00,
60,-2.80e-02,5.12e+00,
61,-6.40e-03,4.72e+00,
62,-1.12e-02,5.12e+00,
63,1.04e-02,4.72e+00,
64,6.40e-03,4.80e+00,
65,2.00e-02,5.12e+00,
66,1.92e-02,5.12e+00,
67,7.20e-03,4.72e+00,
68,1.28e-02,5.12e+00,
69,-3.20e-03,4.72e+00,
70,8.00e-04,5.12e+00,
71,-1.44e-02,4.72e+00,
72,-9.60e-03,5.12e+00,
73,-1.92e-02,4.72e+00,
74,-1.76e-02,5.12e+00,
75,-6.40e-03,4.72e+00,
76,-1.28e-02,5.12e+00,
77,1.60e-03,4.72e+00,
78,-4.80e-03,5.12e+00,
79,8.00e-03,4.64e+00,
80,8.80e-03,4.72e+00,
81,0.00e+00,5.12e+00,
82,5.60e-03,5.12e+00,
83,-4.00e-03,4.72e+00,
84,1.60e-03,5.12e+00,
85,-8.80e-03,4.72e+00,
86,-1.60e-03,5.12e+00,
87,-1.12e-02,4.72e+00,
88,-1.04e-02,5.12e+00,
89,-8.00e-04,4.72e+00,
90,-8.00e-03,4.72e+00,
91,2.40e-03,5.12e+00,
92,-4.00e-03,4.72e+00,
93,4.00e-03,5.12e+00,
94,3.20e-03,5.12e+00,
95,-4.00e-03,4.64e+00,
96,-7.20e-03,5.12e+00,
97,2.40e-03,4.72e+00,
98,-8.00e-04,5.12e+00,
99,-8.80e-03,4.72e+00,
100,-9.60e-03,5.12e+00,
101,0.00e+00,4.72e+00,
102,-8.00e-03,5.12e+00,
103,8.00e-04,4.72e+00,
104,-4.80e-03,5.12e+00,
105,4.00e-03,4.72e+00,
106,-3.20e-03,5.12e+00,
107,5.60e-03,4.72e+00,
108,4.00e-03,5.12e+00,
109,-6.40e-03,4.80e+00,
110,0.00e+00,5.12e+00,
111,-8.80e-03,4.64e+00,
112,-1.60e-03,5.12e+00,
113,-1.04e-02,4.72e+00,
114,-1.04e-02,5.12e+00,
115,-1.60e-03,4.72e+00,
116,-9.60e-03,5.04e+00,
117,8.00e-04,5.12e+00,
118,-5.60e-03,5.12e+00,
119,4.00e-03,4.72e+00,
120,-2.40e-03,5.12e+00,
121,5.60e-03,4.64e+00,
122,4.80e-03,4.72e+00,
123,-4.00e-03,5.12e+00,
124,3.20e-03,5.12e+00,
125,-9.60e-03,4.72e+00,
126,-1.60e-03,5.12e+00,
127,-9.60e-03,4.64e+00,
128,-9.60e-03,5.12e+00,
129,-1.60e-03,4.72e+00,
130,-8.00e-04,5.12e+00,
131,-9.60e-03,4.72e+00,
132,-5.60e-03,5.12e+00,
133,1.60e-03,4.64e+00,
134,-4.00e-03,5.12e+00,
135,4.00e-03,4.72e+00,
136,-4.00e-03,5.12e+00,
137,4.00e-03,4.72e+00,
138,-5.60e-03,4.72e+00,
139,2.40e-03,5.12e+00,
140,8.00e-04,5.12e+00,
141,-8.00e-03,4.64e+00,
142,-8.80e-03,5.12e+00,
143,-8.00e-04,4.64e+00,
144,0.00e+00,5.12e+00,
145,-8.00e-03,4.72e+00,
146,-8.00e-03,5.12e+00,
147,2.40e-03,4.64e+00,
148,-4.80e-03,5.12e+00,
149,2.40e-03,4.80e+00,
150,2.40e-03,5.12e+00,
151,-5.60e-03,4.64e+00,
152,2.40e-03,5.12e+00,
153,-5.60e-03,4.64e+00,
154,0.00e+00,5.12e+00,
155,-7.20e-03,4.64e+00,
156,0.00e+00,5.12e+00,
157,-8.00e-03,4.72e+00,
158,-8.00e-03,5.12e+00,
159,1.60e-03,4.72e+00,
160,-5.60e-03,5.12e+00,
161,1.60e-03,4.64e+00,
162,1.60e-03,5.12e+00,
163,-6.40e-03,4.64e+00,
164,-4.80e-03,5.12e+00,
165,3.20e-03,4.64e+00,
166,8.00e-04,5.12e+00,
167,-7.20e-03,4.64e+00,
168,8.00e-04,5.12e+00,
169,-7.20e-03,4.64e+00,
170,-8.00e-03,5.12e+00,
171,0.00e+00,4.72e+00,
172,-7.20e-03,5.12e+00,
173,1.60e-03,4.64e+00,
174,-5.60e-03,4.64e+00,
175,2.40e-03,5.12e+00,
176,-4.80e-03,4.72e+00,
177,3.20e-03,5.12e+00,
178,2.40e-03,5.12e+00,
179,-4.80e-03,4.64e+00,
180,-6.40e-03,5.12e+00,
181,2.40e-03,4.64e+00,
182,0.00e+00,5.12e+00,
183,-8.80e-03,4.64e+00,
184,-8.00e-03,4.64e+00,
185,8.00e-04,5.12e+00,
186,-8.00e-03,5.12e+00,
187,1.60e-03,4.64e+00,
188,-6.40e-03,5.12e+00,
189,2.40e-03,4.64e+00,
190,-4.80e-03,5.12e+00,
191,2.40e-03,4.64e+00,
192,2.40e-03,4.72e+00,
193,-5.60e-03,5.12e+00,
194,2.40e-03,5.12e+00,
195,-7.20e-03,4.64e+00,
196,-8.80e-03,5.12e+00,
197,0.00e+00,4.64e+00,
198,-8.00e-03,5.12e+00,
199,0.00e+00,4.64e+00,
200,-8.00e-03,5.12e+00,
201,0.00e+00,4.64e+00,
202,-6.40e-03,5.12e+00,
203,1.60e-03,4.64e+00,
204,1.60e-03,5.12e+00,
205,-6.40e-03,4.64e+00,
206,1.60e-03,5.12e+00,
207,-6.40e-03,4.64e+00,
208,2.40e-03,5.12e+00,
209,-7.20e-03,4.64e+00,
210,-7.20e-03,4.64e+00,
211,8.00e-04,5.12e+00,
212,0.00e+00,5.12e+00,
213,-7.20e-03,4.64e+00,
214,8.00e-04,5.12e+00,
215,-9.60e-03,4.64e+00,
216,-6.40e-03,5.12e+00,
217,2.40e-03,4.64e+00,
218,2.40e-03,5.12e+00,
219,-5.60e-03,4.64e+00,
220,1.60e-03,4.64e+00,
221,-6.40e-03,5.12e+00,
222,8.00e-04,4.64e+00,
223,-8.80e-03,5.12e+00,
224,-8.00e-03,4.64e+00,
225,8.00e-04,5.12e+00,
226,-8.00e-03,4.64e+00,
227,8.00e-04,5.12e+00,
228,1.60e-03,4.64e+00,
229,-7.20e-03,5.12e+00,
230,-7.20e-03,5.12e+00,
231,3.20e-03,4.64e+00,
232,2.40e-03,5.12e+00,
233,-5.60e-03,4.64e+00,
234,1.60e-03,5.12e+00,
235,-7.20e-03,4.64e+00,
236,-8.80e-03,4.64e+00,
237,8.00e-04,5.12e+00,
238,-7.20e-03,4.64e+00,
239,0.00e+00,5.12e+00,
240,-7.20e-03,5.12e+00,
241,8.00e-04,4.64e+00,
242,-7.20e-03,5.12e+00,
243,8.00e-04,4.64e+00,
244,1.60e-03,4.64e+00,
245,-8.00e-03,5.12e+00,
246,-6.40e-03,5.12e+00,
247,1.60e-03,4.64e+00,
248,1.60e-03,4.64e+00,
249,-5.60e-03,5.12e+00,
250,-5.60e-03,4.64e+00,
251,8.00e-04,5.12e+00,
252,1.60e-03,5.12e+00,
253,-7.20e-03,4.64e+00,
254,0.00e+00,4.64e+00,
255,-7.20e-03,5.12e+00,
256,-6.40e-03,5.12e+00,
257,2.40e-03,4.64e+00,
258,1.60e-03,5.04e+00,
259,-7.20e-03,4.64e+00,
260,-5.60e-03,5.12e+00,
261,1.60e-03,4.64e+00,
262,2.40e-03,4.64e+00,
263,-5.60e-03,5.12e+00,
264,1.60e-03,4.64e+00,
265,-8.00e-03,5.12e+00,
266,-7.20e-03,4.64e+00,
267,1.60e-03,5.04e+00,
268,1.60e-03,5.04e+00,
269,-7.20e-03,4.64e+00,
270,1.60e-03,5.04e+00,
271,-7.20e-03,4.64e+00,
272,-6.40e-03,4.64e+00,
273,1.60e-03,5.12e+00,
274,1.60e-03,4.64e+00,
275,-7.20e-03,5.12e+00,
276,-7.20e-03,4.64e+00,
277,3.20e-03,5.12e+00,
278,8.00e-04,4.64e+00,
279,-6.40e-03,5.12e+00,
280,-7.20e-03,4.64e+00,
281,8.00e-04,5.12e+00,
282,8.00e-04,4.64e+00,
283,-6.40e-03,5.12e+00,
284,1.60e-03,4.64e+00,
285,-7.20e-03,5.04e+00,
286,-5.60e-03,5.04e+00,
287,2.40e-03,4.64e+00,
288,-5.60e-03,4.64e+00,
289,2.40e-03,5.12e+00,
290,-6.40e-03,4.64e+00,
291,1.60e-03,5.04e+00,
292,1.60e-03,5.04e+00,
293,-7.20e-03,4.64e+00,
294,-7.20e-03,5.04e+00,
295,1.60e-03,4.64e+00,
296,1.60e-03,4.64e+00,
297,-6.40e-03,5.12e+00,
298,-6.40e-03,4.64e+00,
299,1.60e-03,5.12e+00,
300,-6.40e-03,5.04e+00,
301,2.40e-03,4.64e+00,
302,-7.20e-03,4.64e+00,
303,2.40e-03,5.12e+00,
304,-5.60e-03,5.12e+00,
305,1.60e-03,4.64e+00,
306,-7.20e-03,5.04e+00,
307,1.60e-03,4.64e+00,
308,1.60e-03,4.64e+00,
309,-7.20e-03,5.04e+00,
310,-7.20e-03,5.04e+00,
311,1.60e-03,4.64e+00,
312,-6.40e-03,4.64e+00,
313,3.20e-03,5.12e+00,
314,4.00e-03,4.64e+00,
315,-5.60e-03,5.12e+00,
316,3.20e-03,4.64e+00,
317,-5.60e-03,5.04e+00,
318,-6.40e-03,4.64e+00,
319,2.40e-03,5.04e+00,
320,-6.40e-03,4.64e+00,
321,1.60e-03,5.12e+00,
322,1.60e-03,4.64e+00,
323,-6.40e-03,5.12e+00,
324,8.00e-04,5.04e+00,
325,-6.40e-03,4.64e+00,
326,-6.40e-03,4.64e+00,
327,1.60e-03,5.04e+00,
328,-7.20e-03,4.64e+00,
329,1.60e-03,5.12e+00,
330,2.40e-03,5.04e+00,
331,-6.40e-03,4.64e+00,
332,-6.40e-03,4.64e+00,
333,1.60e-03,5.04e+00,
334,3.20e-03,4.64e+00,
335,-8.00e-03,5.12e+00,
336,1.60e-03,4.64e+00,
337,-8.00e-03,5.12e+00,
338,-6.40e-03,5.04e+00,
339,1.60e-03,4.64e+00,
340,-8.00e-03,5.04e+00,
341,1.60e-03,4.64e+00,
342,-6.40e-03,4.64e+00,
343,3.20e-03,5.04e+00,
344,3.20e-03,4.64e+00,
345,-7.20e-03,5.04e+00,
346,1.60e-03,4.64e+00,
347,-7.20e-03,5.12e+00,
348,-6.40e-03,4.64e+00,
349,2.40e-03,5.12e+00,
350,8.00e-04,4.64e+00,
351,-7.20e-03,5.12e+00,
352,-7.20e-03,4.64e+00,
353,2.40e-03,5.12e+00,
354,2.40e-03,4.64e+00,
355,-6.40e-03,5.04e+00,
356,1.60e-03,4.64e+00,
357,-7.20e-03,5.04e+00,
358,-6.40e-03,4.64e+00,
359,1.60e-03,5.04e+00,
360,4.80e-03,4.64e+00,
361,-6.40e-03,5.04e+00,
362,8.00e-04,4.64e+00,
363,-7.20e-03,5.04e+00,
364,8.00e-04,4.64e+00,
365,-8.00e-03,5.04e+00,
366,-6.40e-03,4.64e+00,
367,4.00e-03,5.04e+00,
368,-6.40e-03,4.64e+00,
369,2.40e-03,5.04e+00,
370,2.40e-03,4.64e+00,
371,-6.40e-03,5.12e+00,
372,1.60e-03,5.04e+00,
373,-7.20e-03,4.64e+00,
374,-7.20e-03,5.04e+00,
375,3.20e-03,4.64e+00,
376,2.40e-03,4.64e+00,
377,-5.60e-03,5.12e+00,
378,-6.40e-03,4.64e+00,
379,1.60e-03,5.04e+00,
380,2.40e-03,5.04e+00,
381,-7.20e-03,4.64e+00,
382,8.00e-04,5.04e+00,
383,-9.60e-03,4.64e+00,
384,-5.60e-03,4.64e+00,
385,3.20e-03,5.12e+00,
386,3.20e-03,4.96e+00,
387,-6.40e-03,4.64e+00,
388,2.40e-03,4.64e+00,
389,-7.20e-03,5.12e+00,
390,-8.00e-03,4.64e+00,
391,8.00e-04,5.04e+00,
392,8.00e-04,4.64e+00,
393,-6.40e-03,5.12e+00,
394,1.60e-03,4.96e+00,
395,-6.40e-03,4.64e+00,
396,1.60e-03,4.64e+00,
397,-7.20e-03,5.04e+00,
398,-7.20e-03,4.64e+00,
399,2.40e-03,5.12e+00,
400,8.00e-04,4.64e+00,
401,-8.80e-03,5.12e+00,
402,2.40e-03,4.64e+00,
403,-6.40e-03,5.04e+00,
404,1.60e-03,4.64e+00,
405,-8.00e-03,5.04e+00,
406,8.00e-04,5.04e+00,
407,-8.00e-03,4.64e+00,
408,-6.40e-03,4.64e+00,
409,1.60e-03,5.12e+00,
410,8.00e-04,5.04e+00,
411,-6.40e-03,4.64e+00,
412,-7.20e-03,5.04e+00,
413,2.40e-03,4.64e+00,
414,2.40e-03,4.64e+00,
415,-5.60e-03,5.04e+00,
416,2.40e-03,4.64e+00,
417,-6.40e-03,5.12e+00,
418,-6.40e-03,4.64e+00,
419,2.40e-03,5.04e+00,
420,-7.20e-03,4.64e+00,
421,1.60e-03,5.04e+00,
422,-6.40e-03,5.04e+00,
423,1.60e-03,4.64e+00,
424,-7.20e-03,4.64e+00,
425,1.60e-03,5.04e+00,
426,3.20e-03,5.04e+00,
427,-5.60e-03,4.64e+00,
428,-8.80e-03,4.64e+00,
429,3.20e-03,5.12e+00,
430,-6.40e-03,4.64e+00,
431,2.40e-03,5.04e+00,
432,-8.80e-03,4.64e+00,
433,2.40e-03,5.12e+00,
434,3.20e-03,4.64e+00,
435,-8.00e-03,5.12e+00,
436,-5.60e-03,4.64e+00,
437,2.40e-03,5.04e+00,
438,1.60e-03,4.64e+00,
439,-7.20e-03,5.04e+00,
440,3.20e-03,4.64e+00,
441,-7.20e-03,5.12e+00,
442,-5.60e-03,4.64e+00,
443,2.40e-03,5.12e+00,
444,-5.60e-03,5.04e+00,
445,2.40e-03,4.64e+00,
446,8.00e-04,4.64e+00,
447,-6.40e-03,5.04e+00,
448,-7.20e-03,4.64e+00,
449,1.60e-03,5.12e+00,
450,-6.40e-03,4.64e+00,
451,1.60e-03,5.12e+00,
452,0.00e+00,4.64e+00,
453,-9.60e-03,5.04e+00,
454,1.60e-03,4.64e+00,
455,-7.20e-03,5.04e+00,
456,-8.00e-03,4.64e+00,
457,8.00e-04,5.12e+00,
458,1.60e-03,5.04e+00,
459,-7.20e-03,4.64e+00,
460,-5.60e-03,4.64e+00,
461,2.40e-03,5.12e+00,
462,1.60e-03,5.04e+00,
463,-6.40e-03,4.64e+00,
464,1.60e-03,4.64e+00,
465,-8.00e-03,5.12e+00,
466,2.40e-03,4.64e+00,
467,-7.20e-03,5.12e+00,
468,1.60e-03,4.64e+00,
469,-6.40e-03,5.04e+00,
470,-5.60e-03,4.64e+00,
471,1.60e-03,5.12e+00,
472,-5.60e-03,4.64e+00,
473,3.20e-03,5.12e+00,
474,-6.40e-03,5.12e+00,
475,2.40e-03,4.64e+00,
476,2.40e-03,4.64e+00,
477,-7.20e-03,5.12e+00,
478,-6.40e-03,4.64e+00,
479,8.00e-04,5.04e+00,
480,-7.20e-03,4.64e+00,
481,1.60e-03,5.12e+00,
482,1.60e-03,4.64e+00,
483,-7.20e-03,5.12e+00,
484,8.00e-04,4.64e+00,
485,-6.40e-03,5.04e+00,
486,-7.20e-03,4.64e+00,
487,1.60e-03,5.12e+00,
488,1.60e-03,5.04e+00,
489,-6.40e-03,4.64e+00,
490,1.60e-03,4.64e+00,
491,-6.40e-03,5.12e+00,
492,0.00e+00,5.12e+00,
493,-8.00e-03,4.64e+00,
494,8.00e-04,5.12e+00,
495,-7.20e-03,4.56e+00,
496,8.00e-04,4.64e+00,
497,-6.40e-03,5.12e+00,
498,-7.20e-03,5.04e+00,
499,1.60e-03,4.56e+00,
500,-6.40e-03,4.64e+00,
501,1.60e-03,5.12e+00,
502,-8.00e-03,4.64e+00,
503,8.00e-04,5.12e+00,
504,-6.40e-03,4.64e+00,
505,8.00e-04,5.12e+00,
506,-7.20e-03,4.64e+00,
507,8.00e-04,5.12e+00,
508,1.60e-03,4.64e+00,
509,-8.00e-03,5.04e+00,
510,1.60e-03,4.64e+00,
511,-8.80e-03,5.04e+00,
512,1.60e-03,4.64e+00,
513,-8.80e-03,5.12e+00,
514,1.60e-03,4.64e+00,
515,-1.04e-02,5.12e+00,
516,-7.20e-03,4.64e+00,
517,1.60e-03,5.12e+00,
518,1.60e-03,4.64e+00,
519,-7.20e-03,5.12e+00,
520,-8.80e-03,4.64e+00,
521,8.00e-04,5.12e+00,
522,-5.60e-03,4.64e+00,
523,2.40e-03,5.12e+00,
524,-7.20e-03,5.12e+00,
525,8.00e-04,4.56e+00,
526,-6.40e-03,4.56e+00,
527,8.00e-04,5.12e+00,
528,-8.00e-04,4.64e+00,
529,-3.20e-03,5.12e+00,
530,-8.00e-04,4.24e+00,
531,-1.20e-02,5.28e+00,
532,-1.44e-02,5.20e+00,
533,-7.20e-03,4.48e+00,
534,-8.80e-03,4.56e+00,
535,-6.40e-03,5.12e+00,
536,-8.80e-03,5.12e+00,
537,-6.40e-03,4.64e+00,
538,-8.80e-03,4.64e+00,
539,-6.40e-03,5.12e+00,
540,-8.80e-03,4.64e+00,
541,-6.40e-03,5.12e+00,
542,-6.40e-03,5.12e+00,
543,-1.60e-02,4.56e+00,
544,-1.68e-02,5.12e+00,
545,-4.80e-03,-1.12e+00,
546,-9.60e-03,0.00e+00,
547,7.20e-03,-3.20e-01,
548,2.40e-03,0.00e+00,
549,1.28e-02,-2.40e-01,
550,1.28e-02,-1.60e-01,
551,2.40e-03,0.00e+00,
552,9.60e-03,0.00e+00,
553,-3.20e-03,-1.60e-01,
554,1.60e-03,-1.60e-01,
555,-1.20e-02,0.00e+00,
556,-4.80e-03,-1.60e-01,
557,-1.52e-02,0.00e+00,
558,-1.44e-02,-1.60e-01,
559,-4.00e-03,0.00e+00,
560,-9.60e-03,0.00e+00,
561,0.00e+00,-2.40e-01,
562,-4.80e-03,0.00e+00,
563,6.40e-03,-2.40e-01,
564,-1.60e-03,-1.60e-01,
565,6.40e-03,0.00e+00,
566,4.80e-03,-1.60e-01,
567,-4.80e-03,0.00e+00,
568,1.60e-03,-1.60e-01,
569,-8.80e-03,0.00e+00,
570,-1.60e-03,-1.60e-01,
571,-1.04e-02,0.00e+00,
572,-9.60e-03,-2.40e-01,
573,-2.40e-03,0.00e+00,
574,-8.80e-03,-1.60e-01,
575,8.00e-04,0.00e+00,
576,-4.80e-03,-1.60e-01,
577,3.20e-03,0.00e+00,
578,3.20e-03,-1.60e-01,
579,-4.80e-03,0.00e+00,
580,-4.80e-03,-1.60e-01,
581,3.20e-03,0.00e+00,
582,2.40e-03,-2.40e-01,
583,-6.40e-03,0.00e+00,
584,1.60e-03,-1.60e-01,
585,-7.20e-03,-1.60e-01,
586,8.00e-04,-1.60e-01,
587,-8.00e-03,0.00e+00,
588,1.60e-03,-1.60e-01,
589,-6.40e-03,-1.60e-01,
590,-6.40e-03,-1.60e-01,
591,2.40e-03,0.00e+00,
592,-5.60e-03,-1.60e-01,
593,2.40e-03,-2.40e-01,
594,1.60e-03,-1.60e-01,
595,-6.40e-03,0.00e+00,
596,0.00e+00,-1.60e-01,
597,-8.80e-03,-1.60e-01,
598,-8.00e-03,-1.60e-01,
599,-8.00e-04,0.00e+00,
600,-8.00e-03,-1.60e-01,
601,8.00e-04,0.00e+00,
602,-5.60e-03,0.00e+00,
603,3.20e-03,-2.40e-01,
604,3.20e-03,0.00e+00,
605,-5.60e-03,-2.40e-01,
606,-6.40e-03,-1.60e-01,
607,3.20e-03,0.00e+00,
608,-5.60e-03,-1.60e-01,
609,1.60e-03,0.00e+00,
610,8.00e-04,-1.60e-01,
611,-8.80e-03,0.00e+00,
612,-8.80e-03,-1.60e-01,
613,0.00e+00,0.00e+00,
614,-7.20e-03,-2.40e-01,
615,1.60e-03,0.00e+00,
616,-6.40e-03,-1.60e-01,
617,2.40e-03,0.00e+00,
618,-4.80e-03,-1.60e-01,
619,2.40e-03,0.00e+00,
620,4.00e-03,-1.60e-01,
621,-4.80e-03,0.00e+00,
622,3.20e-03,-1.60e-01,
623,-5.60e-03,0.00e+00,
624,-6.40e-03,-1.60e-01,
625,2.40e-03,-2.40e-01,
626,8.00e-04,-1.60e-01,
627,-8.80e-03,0.00e+00,
628,-7.20e-03,-1.60e-01,
629,1.60e-03,8.00e-02,
630,0.00e+00,-1.60e-01,
631,-7.20e-03,0.00e+00,
632,-8.80e-03,-1.60e-01,
633,2.40e-03,-1.60e-01,
634,2.40e-03,0.00e+00,
635,-7.20e-03,-2.40e-01,
636,1.60e-03,-1.60e-01,
637,-5.60e-03,0.00e+00,
638,8.00e-04,-1.60e-01,
639,-7.20e-03,0.00e+00,
640,0.00e+00,-1.60e-01,
641,-8.00e-03,8.00e-02,
642,-8.00e-03,-1.60e-01,
643,8.00e-04,0.00e+00,
644,-7.20e-03,0.00e+00,
645,1.60e-03,-2.40e-01,
646,1.60e-03,0.00e+00,
647,-6.40e-03,-2.40e-01,
648,1.60e-03,-1.60e-01,
649,-8.00e-03,8.00e-02,
650,-8.00e-03,-1.60e-01,
651,8.00e-04,0.00e+00,
652,8.00e-04,-1.60e-01,
653,-8.00e-03,8.00e-02,
654,3.20e-03,8.00e-02,
655,-7.20e-03,-2.40e-01,
656,8.00e-04,-1.60e-01,
657,-7.20e-03,8.00e-02,
658,8.00e-04,-1.60e-01,
659,-6.40e-03,8.00e-02,
660,-7.20e-03,-1.60e-01,
661,8.00e-04,8.00e-02,
662,-5.60e-03,-1.60e-01,
663,1.60e-03,8.00e-02,
664,-5.60e-03,-1.60e-01,
665,4.00e-03,8.00e-02,
666,-5.60e-03,-2.40e-01,
667,1.60e-03,8.00e-02,
668,2.40e-03,-1.60e-01,
669,-7.20e-03,8.00e-02,
670,-7.20e-03,8.00e-02,
671,1.60e-03,-1.60e-01,
672,-8.00e-03,-1.60e-01,
673,1.60e-03,8.00e-02,
674,-6.40e-03,-1.60e-01,
675,1.60e-03,8.00e-02,
676,2.40e-03,8.00e-02,
677,-5.60e-03,-2.40e-01,
678,1.60e-03,-1.60e-01,
679,-5.60e-03,8.00e-02,
680,1.60e-03,-1.60e-01,
681,-7.20e-03,8.00e-02,
682,8.00e-04,-1.60e-01,
683,-8.80e-03,8.00e-02,
684,-8.00e-03,-1.60e-01,
685,1.60e-03,8.00e-02,
686,-6.40e-03,8.00e-02,
687,1.60e-03,-2.40e-01,
688,2.40e-03,-1.60e-01,
689,-6.40e-03,8.00e-02,
690,-4.80e-03,8.00e-02,
691,3.20e-03,-1.60e-01,
692,2.40e-03,-1.60e-01,
693,-7.20e-03,8.00e-02,
694,-5.60e-03,-1.60e-01,
695,2.40e-03,8.00e-02,
696,-6.40e-03,8.00e-02,
697,2.40e-03,-2.40e-01,
698,8.00e-04,-1.60e-01,
699,-7.20e-03,8.00e-02,
700,-5.60e-03,-1.60e-01,
701,1.60e-03,8.00e-02,
702,1.60e-03,8.00e-02,
703,-6.40e-03,-1.60e-01,
704,-7.20e-03,-1.60e-01,
705,2.40e-03,8.00e-02,
706,2.40e-03,8.00e-02,
707,-5.60e-03,-1.60e-01,
708,8.00e-04,-2.40e-01,
709,-6.40e-03,8.00e-02,
710,-6.40e-03,-1.60e-01,
711,1.60e-03,8.00e-02,
712,1.60e-03,-1.60e-01,
713,-8.00e-03,8.00e-02,
714,-5.60e-03,-1.60e-01,
715,2.40e-03,8.00e-02,
716,-5.60e-03,-1.60e-01,
717,1.60e-03,8.00e-02,
718,1.60e-03,8.00e-02,
719,-5.60e-03,-2.40e-01,
720,1.60e-03,-1.60e-01,
721,-7.20e-03,8.00e-02,
722,-7.20e-03,-1.60e-01,
723,1.60e-03,8.00e-02,
724,8.00e-04,-1.60e-01,
725,-7.20e-03,8.00e-02,
726,8.00e-04,-1.60e-01,
727,-6.40e-03,8.00e-02,
728,-8.00e-03,8.00e-02,
729,8.00e-04,-2.40e-01,
730,1.60e-03,8.00e-02,
731,-6.40e-03,-1.60e-01,
732,-5.60e-03,-1.60e-01,
733,1.60e-03,8.00e-02,
734,-6.40e-03,-1.60e-01,
735,1.60e-03,8.00e-02,
736,2.40e-03,-1.60e-01,
737,-6.40e-03,8.00e-02,
738,1.60e-03,8.00e-02,
739,-7.20e-03,-2.40e-01,
740,8.00e-04,8.00e-02,
741,-7.20e-03,-2.40e-01,
742,-6.40e-03,-1.60e-01,
743,2.40e-03,8.00e-02,
744,1.60e-03,-1.60e-01,
745,-6.40e-03,8.00e-02,
746,-6.40e-03,-1.60e-01,
747,2.40e-03,8.00e-02,
748,-6.40e-03,8.00e-02,
749,1.60e-03,-2.40e-01,
750,1.60e-03,-1.60e-01,
751,-7.20e-03,8.00e-02,
752,-7.20e-03,-1.60e-01,
753,1.60e-03,8.00e-02,
754,-7.20e-03,-1.60e-01,
755,8.00e-04,8.00e-02,
756,1.60e-03,-1.60e-01,
757,-7.20e-03,8.00e-02,
758,-5.60e-03,-1.60e-01,
759,2.40e-03,8.00e-02,
760,1.60e-03,8.00e-02,
761,-6.40e-03,-1.60e-01,
762,-6.40e-03,-1.60e-01,
763,1.60e-03,8.00e-02,
764,-6.40e-03,-1.60e-01,
765,1.60e-03,8.00e-02,
766,-6.40e-03,8.00e-02,
767,8.00e-04,-1.60e-01,
768,8.00e-04,8.00e-02,
769,-8.00e-03,-1.60e-01,
770,-7.20e-03,-1.60e-01,
771,8.00e-04,8.00e-02,
772,1.60e-03,8.00e-02,
773,-6.40e-03,-1.60e-01,
774,-6.40e-03,-1.60e-01,
775,1.60e-03,8.00e-02,
776,-6.40e-03,8.00e-02,
777,1.60e-03,-1.60e-01,
778,-5.60e-03,-1.60e-01,
779,1.60e-03,8.00e-02,
780,1.60e-03,8.00e-02,
781,-6.40e-03,-1.60e-01,
782,8.00e-04,8.00e-02,
783,-7.20e-03,-1.60e-01,
784,8.00e-04,8.00e-02,
785,-7.20e-03,-1.60e-01,
786,-8.00e-03,8.00e-02,
787,1.60e-03,-1.60e-01,
788,1.60e-03,-1.60e-01,
789,-6.40e-03,8.00e-02,
790,-5.60e-03,8.00e-02,
791,1.60e-03,-1.60e-01,
792,-5.60e-03,-1.60e-01,
793,1.60e-03,8.00e-02,
794,1.60e-03,8.00e-02,
795,-6.40e-03,-1.60e-01,
796,-7.20e-03,-1.60e-01,
797,8.00e-04,8.00e-02,
798,-6.40e-03,8.00e-02,
799,8.00e-04,-1.60e-01,
800,1.60e-03,8.00e-02,
801,-8.00e-03,-1.60e-01,
802,1.60e-03,8.00e-02,
803,-7.20e-03,-1.60e-01,
804,-7.20e-03,-8.00e-02,
805,2.40e-03,8.00e-02,
806,2.40e-03,8.00e-02,
807,-4.80e-03,-1.60e-01,
808,1.60e-03,-8.00e-02,
809,-7.20e-03,8.00e-02,
810,-5.60e-03,-8.00e-02,
811,1.60e-03,8.00e-02,
812,8.00e-04,-8.00e-02,
813,-6.40e-03,8.00e-02,
814,8.00e-04,-8.00e-02,
815,-7.20e-03,8.00e-02,
816,-6.40e-03,8.00e-02,
817,1.60e-03,-1.60e-01,
818,-4.80e-03,8.00e-02,
819,2.40e-03,-1.60e-01,
820,2.40e-03,8.00e-02,
821,-6.40e-03,-1.60e-01,
822,-5.60e-03,8.00e-02,
823,4.00e-03,-8.00e-02,
824,-5.60e-03,-8.00e-02,
825,2.40e-03,8.00e-02,
826,8.00e-04,-8.00e-02,
827,-7.20e-03,8.00e-02,
828,-5.60e-03,-8.00e-02,
829,2.40e-03,8.00e-02,
830,-5.60e-03,8.00e-02,
831,3.20e-03,-8.00e-02,
832,1.60e-03,-8.00e-02,
833,-7.20e-03,8.00e-02,
834,-6.40e-03,-8.00e-02,
835,1.60e-03,8.00e-02,
836,1.60e-03,-8.00e-02,
837,-7.20e-03,8.00e-02,
838,-7.20e-03,8.00e-02,
839,1.60e-03,-8.00e-02,
840,-7.20e-03,8.00e-02,
841,8.00e-04,-8.00e-02,
842,-6.40e-03,-8.00e-02,
843,8.00e-04,8.00e-02,
