NMRdata/glyc1/95up/98t10.csv

X,CH3,CH4,Start,Increment,
Sequence,Volt,Volt,-4.800000e-04,2.000000e-05
0,1.60e-03,8.00e-02,
1,-8.80e-03,-1.60e-01,
2,-7.20e-03,-1.60e-01,
3,8.00e-04,8.00e-02,
4,-7.20e-03,8.00e-02,
5,8.00e-04,-1.60e-01,
6,2.40e-03,-1.60e-01,
7,-7.20e-03,8.00e-02,
8,-7.20e-03,8.00e-02,
9,3.20e-03,-1.60e-01,
10,-6.40e-03,8.00e-02,
11,1.60e-03,-1.60e-01,
12,1.60e-03,8.00e-02,
13,-6.40e-03,-1.60e-01,
14,-5.60e-03,8.00e-02,
15,3.20e-03,-1.60e-01,
16,-7.20e-03,8.00e-02,
17,2.40e-03,-1.60e-01,
18,1.60e-03,8.00e-02,
19,-6.40e-03,-1.60e-01,
20,8.00e-04,8.00e-02,
21,-6.40e-03,-2.40e-01,
22,-7.20e-03,8.00e-02,
23,1.60e-03,-1.60e-01,
24,4.00e-03,5.68e+00,
25,-6.40e-03,4.72e+00,
26,0.00e+00,4.72e+00,
27,-7.20e-03,5.28e+00,
28,-3.20e-03,5.20e+00,
29,-1.60e-03,4.72e+00,
30,-8.00e-04,5.44e+00,
31,-1.04e-02,4.64e+00,
32,-1.04e-02,5.20e+00,
33,-5.60e-03,4.64e+00,
34,-8.00e-03,5.20e+00,
35,-5.60e-03,4.64e+00,
36,-8.00e-03,5.20e+00,
37,-5.60e-03,4.72e+00,
38,-5.60e-03,4.72e+00,
39,-2.72e-02,5.20e+00,
40,-2.40e-02,4.64e+00,
41,-5.76e-02,5.20e+00,
42,-6.08e-02,5.20e+00,
43,-4.96e-02,4.64e+00,
44,-5.52e-02,4.72e+00,
45,-2.40e-02,5.12e+00,
46,-2.80e-02,4.72e+00,
47,1.36e-02,5.12e+00,
48,1.04e-02,5.12e+00,
49,3.92e-02,4.72e+00,
50,4.00e-02,5.12e+00,
51,3.04e-02,4.72e+00,
52,3.76e-02,4.72e+00,
53,8.80e-03,5.12e+00,
54,1.20e-02,5.12e+00,
55,-1.76e-02,4.72e+00,
56,-1.36e-02,5.12e+00,
57,-3.12e-02,4.72e+00,
58,-3.28e-02,5.12e+00,
59,-2.32e-02,4.72e+00,
60,-2.80e-02,5.12e+00,
61,-8.00e-03,4.72e+00,
62,-1.28e-02,5.12e+00,
63,1.12e-02,4.72e+00,
64,5.60e-03,5.12e+00,
65,1.84e-02,4.72e+00,
66,1.92e-02,5.12e+00,
67,7.20e-03,4.72e+00,
68,1.20e-02,4.72e+00,
69,-4.80e-03,5.12e+00,
70,0.00e+00,5.12e+00,
71,-1.52e-02,4.72e+00,
72,-9.60e-03,4.72e+00,
73,-1.84e-02,5.12e+00,
74,-1.76e-02,5.12e+00,
75,-6.40e-03,4.72e+00,
76,-1.20e-02,5.12e+00,
77,1.60e-03,4.64e+00,
78,-4.00e-03,5.12e+00,
79,7.20e-03,4.72e+00,
80,8.80e-03,5.12e+00,
81,0.00e+00,4.72e+00,
82,5.60e-03,5.12e+00,
83,-5.60e-03,4.72e+00,
84,8.00e-04,5.12e+00,
85,-9.60e-03,4.64e+00,
86,-9.60e-03,4.72e+00,
87,-1.60e-03,5.12e+00,
88,-2.40e-03,5.12e+00,
89,-1.12e-02,4.72e+00,
90,-8.80e-03,5.12e+00,
91,1.60e-03,4.72e+00,
92,-4.00e-03,5.12e+00,
93,4.00e-03,4.72e+00,
94,3.20e-03,5.12e+00,
95,-6.40e-03,4.72e+00,
96,8.00e-04,5.12e+00,
97,-7.20e-03,4.72e+00,
98,-8.00e-04,5.12e+00,
99,-9.60e-03,4.72e+00,
100,-9.60e-03,4.72e+00,
101,-8.00e-04,5.12e+00,
102,-8.00e-03,5.12e+00,
103,1.60e-03,4.72e+00,
104,-4.80e-03,4.72e+00,
105,4.80e-03,5.12e+00,
106,4.80e-03,5.12e+00,
107,-3.20e-03,4.72e+00,
108,4.00e-03,5.12e+00,
109,-8.00e-03,4.72e+00,
110,2.40e-03,5.12e+00,
111,-8.80e-03,4.80e+00,
112,-1.60e-03,5.12e+00,
113,-1.04e-02,4.72e+00,
114,-1.04e-02,5.12e+00,
115,-2.40e-03,4.72e+00,
116,-9.60e-03,5.12e+00,
117,8.00e-04,4.64e+00,
118,-5.60e-03,5.12e+00,
119,3.20e-03,4.64e+00,
120,4.80e-03,5.12e+00,
121,-4.00e-03,4.72e+00,
122,5.60e-03,5.12e+00,
123,-4.00e-03,4.72e+00,
124,2.40e-03,5.12e+00,
125,-7.20e-03,4.64e+00,
126,-8.00e-04,5.12e+00,
127,-1.04e-02,4.72e+00,
128,-1.04e-02,5.12e+00,
129,-8.00e-04,4.72e+00,
130,-8.00e-03,5.12e+00,
131,0.00e+00,4.72e+00,
132,-5.60e-03,5.12e+00,
133,3.20e-03,4.72e+00,
134,-4.00e-03,5.12e+00,
135,4.00e-03,4.64e+00,
136,2.40e-03,5.12e+00,
137,-4.80e-03,4.72e+00,
138,2.40e-03,4.72e+00,
139,-7.20e-03,5.12e+00,
140,8.00e-04,5.12e+00,
141,-8.00e-03,4.72e+00,
142,8.00e-04,5.12e+00,
143,-8.00e-03,4.72e+00,
144,0.00e+00,5.12e+00,
145,-8.80e-03,4.64e+00,
146,-8.00e-03,5.12e+00,
147,4.80e-03,4.64e+00,
148,2.40e-03,4.72e+00,
149,-6.40e-03,5.12e+00,
150,-4.80e-03,5.12e+00,
151,3.20e-03,4.64e+00,
152,3.20e-03,5.12e+00,
153,-7.20e-03,4.72e+00,
154,0.00e+00,5.12e+00,
155,-8.00e-03,4.72e+00,
156,0.00e+00,5.12e+00,
157,-9.60e-03,4.64e+00,
158,8.00e-04,5.12e+00,
159,-7.20e-03,4.72e+00,
160,-8.00e-03,5.12e+00,
161,1.60e-03,4.64e+00,
162,1.60e-03,5.12e+00,
163,-5.60e-03,4.64e+00,
164,2.40e-03,4.72e+00,
165,-5.60e-03,5.12e+00,
166,8.00e-04,5.12e+00,
167,-6.40e-03,4.72e+00,
168,0.00e+00,4.72e+00,
169,-8.80e-03,5.12e+00,
170,-7.20e-03,5.12e+00,
171,0.00e+00,4.64e+00,
172,1.60e-03,5.12e+00,
173,-6.40e-03,4.64e+00,
174,-5.60e-03,5.12e+00,
175,2.40e-03,4.64e+00,
176,-4.00e-03,5.12e+00,
177,3.20e-03,4.64e+00,
178,2.40e-03,5.12e+00,
179,-5.60e-03,4.64e+00,
180,1.60e-03,5.12e+00,
181,-8.00e-03,4.64e+00,
182,0.00e+00,5.12e+00,
183,-8.00e-03,4.64e+00,
184,-8.00e-03,5.12e+00,
185,8.00e-04,4.72e+00,
186,8.00e-04,5.12e+00,
187,-8.00e-03,4.64e+00,
188,-6.40e-03,5.12e+00,
189,2.40e-03,4.64e+00,
190,-5.60e-03,4.64e+00,
191,1.60e-03,5.12e+00,
192,-5.60e-03,5.12e+00,
193,2.40e-03,4.64e+00,
194,2.40e-03,4.72e+00,
195,-5.60e-03,5.12e+00,
196,8.00e-04,5.12e+00,
197,-7.20e-03,4.64e+00,
198,-8.00e-03,5.12e+00,
199,8.00e-04,4.64e+00,
200,-7.20e-03,5.12e+00,
201,1.60e-03,4.64e+00,
202,-7.20e-03,5.12e+00,
203,2.40e-03,4.64e+00,
204,1.60e-03,5.12e+00,
205,-5.60e-03,4.64e+00,
206,-5.60e-03,4.72e+00,
207,2.40e-03,5.12e+00,
208,1.60e-03,5.12e+00,
209,-5.60e-03,4.64e+00,
210,0.00e+00,5.12e+00,
211,-8.80e-03,4.64e+00,
212,-8.00e-04,4.64e+00,
213,-9.60e-03,5.12e+00,
214,-8.00e-03,4.64e+00,
215,8.00e-04,5.12e+00,
216,-5.60e-03,5.12e+00,
217,2.40e-03,4.64e+00,
218,-8.00e-03,5.12e+00,
219,8.00e-04,4.64e+00,
220,-7.20e-03,5.12e+00,
221,1.60e-03,4.64e+00,
222,1.60e-03,4.64e+00,
223,-6.40e-03,5.12e+00,
224,-8.00e-03,5.12e+00,
225,1.60e-03,4.64e+00,
226,1.60e-03,4.64e+00,
227,-8.00e-03,5.12e+00,
228,0.00e+00,5.12e+00,
229,-8.00e-03,4.64e+00,
230,-6.40e-03,5.12e+00,
231,8.00e-04,4.64e+00,
232,-6.40e-03,4.64e+00,
233,1.60e-03,5.12e+00,
234,1.60e-03,4.64e+00,
235,-7.20e-03,5.12e+00,
236,8.00e-04,5.12e+00,
237,-6.40e-03,4.64e+00,
238,1.60e-03,5.12e+00,
239,-9.60e-03,4.64e+00,
240,-8.00e-03,4.64e+00,
241,1.60e-03,5.12e+00,
242,-7.20e-03,4.64e+00,
243,2.40e-03,5.12e+00,
244,2.40e-03,4.64e+00,
245,-6.40e-03,5.12e+00,
246,-5.60e-03,4.64e+00,
247,1.60e-03,5.12e+00,
248,1.60e-03,4.64e+00,
249,-6.40e-03,5.12e+00,
250,8.00e-04,4.64e+00,
251,-6.40e-03,5.12e+00,
252,-7.20e-03,4.64e+00,
253,8.00e-04,5.12e+00,
254,-6.40e-03,4.64e+00,
255,2.40e-03,5.12e+00,
256,-7.20e-03,5.04e+00,
257,8.00e-04,4.64e+00,
258,-5.60e-03,4.64e+00,
259,3.20e-03,5.12e+00,
260,-5.60e-03,4.64e+00,
261,2.40e-03,5.12e+00,
262,-6.40e-03,4.64e+00,
263,3.20e-03,5.12e+00,
264,-7.20e-03,5.04e+00,
265,1.60e-03,4.64e+00,
266,8.00e-04,4.64e+00,
267,-8.00e-03,5.12e+00,
268,-7.20e-03,4.64e+00,
269,1.60e-03,5.12e+00,
270,8.00e-04,4.64e+00,
271,-7.20e-03,5.12e+00,
272,-6.40e-03,5.12e+00,
273,2.40e-03,4.64e+00,
274,-6.40e-03,4.64e+00,
275,2.40e-03,5.12e+00,
276,3.20e-03,4.64e+00,
277,-5.60e-03,5.04e+00,
278,1.60e-03,4.64e+00,
279,-7.20e-03,5.12e+00,
280,8.00e-04,5.04e+00,
281,-7.20e-03,4.64e+00,
282,-7.20e-03,4.64e+00,
283,1.60e-03,5.12e+00,
284,1.60e-03,4.64e+00,
285,-8.00e-03,5.12e+00,
286,-6.40e-03,4.64e+00,
287,2.40e-03,5.12e+00,
288,-5.60e-03,5.12e+00,
289,3.20e-03,4.64e+00,
290,1.60e-03,4.64e+00,
291,-7.20e-03,5.12e+00,
292,8.00e-04,4.64e+00,
293,-8.00e-03,5.04e+00,
294,8.00e-04,4.64e+00,
295,-8.00e-03,5.12e+00,
296,-7.20e-03,5.04e+00,
297,8.00e-04,4.64e+00,
298,2.40e-03,4.64e+00,
299,-8.00e-03,5.04e+00,
300,-6.40e-03,4.64e+00,
301,1.60e-03,5.12e+00,
302,-5.60e-03,4.64e+00,
303,2.40e-03,5.12e+00,
304,2.40e-03,4.64e+00,
305,-7.20e-03,5.04e+00,
306,-7.20e-03,5.04e+00,
307,8.00e-04,4.64e+00,
308,-6.40e-03,4.64e+00,
309,8.00e-04,5.04e+00,
310,1.60e-03,4.64e+00,
311,-8.00e-03,5.12e+00,
312,-8.00e-03,4.64e+00,
313,2.40e-03,5.12e+00,
314,1.60e-03,5.12e+00,
315,-8.00e-03,4.64e+00,
316,1.60e-03,4.64e+00,
317,-6.40e-03,5.04e+00,
318,8.00e-04,4.64e+00,
319,-6.40e-03,5.12e+00,
320,-8.00e-03,5.12e+00,
321,1.60e-03,4.64e+00,
322,8.00e-04,5.12e+00,
323,-7.20e-03,4.64e+00,
324,8.00e-04,4.64e+00,
325,-7.20e-03,5.04e+00,
326,8.00e-04,4.64e+00,
327,-6.40e-03,5.12e+00,
328,1.60e-03,5.12e+00,
329,-6.40e-03,4.64e+00,
330,2.40e-03,4.64e+00,
331,-5.60e-03,5.04e+00,
332,1.60e-03,4.64e+00,
333,-6.40e-03,5.12e+00,
334,-6.40e-03,4.64e+00,
335,2.40e-03,5.12e+00,
336,1.60e-03,4.64e+00,
337,-8.00e-03,5.04e+00,
338,-8.00e-03,4.64e+00,
339,1.60e-03,5.04e+00,
340,8.00e-04,4.64e+00,
341,-6.40e-03,5.04e+00,
342,-6.40e-03,5.12e+00,
343,2.40e-03,4.64e+00,
344,-6.40e-03,5.04e+00,
345,3.20e-03,4.64e+00,
346,1.60e-03,4.64e+00,
347,-5.60e-03,5.12e+00,
348,8.00e-04,4.64e+00,
349,-6.40e-03,5.12e+00,
350,0.00e+00,4.64e+00,
351,-8.00e-03,5.12e+00,
352,0.00e+00,4.64e+00,
353,-7.20e-03,5.12e+00,
354,8.00e-04,4.64e+00,
355,-6.40e-03,5.12e+00,
356,-7.20e-03,4.64e+00,
357,2.40e-03,5.12e+00,
358,-6.40e-03,4.64e+00,
359,1.60e-03,5.12e+00,
360,-5.60e-03,5.04e+00,
361,2.40e-03,4.64e+00,
362,1.60e-03,4.64e+00,
363,-6.40e-03,5.12e+00,
364,8.00e-04,4.64e+00,
365,-8.00e-03,5.12e+00,
366,-8.00e-03,4.64e+00,
367,8.00e-04,5.04e+00,
368,-6.40e-03,5.04e+00,
369,2.40e-03,4.64e+00,
370,1.60e-03,4.64e+00,
371,-5.60e-03,5.04e+00,
372,2.40e-03,4.64e+00,
373,-5.60e-03,5.04e+00,
374,1.60e-03,4.64e+00,
375,-7.20e-03,5.12e+00,
376,-8.00e-03,4.64e+00,
377,8.00e-04,5.04e+00,
378,8.00e-04,4.64e+00,
379,-8.80e-03,5.12e+00,
380,1.60e-03,4.64e+00,
381,-6.40e-03,5.04e+00,
382,-6.40e-03,4.64e+00,
383,8.00e-04,5.12e+00,
384,-6.40e-03,5.04e+00,
385,3.20e-03,4.64e+00,
386,-5.60e-03,4.64e+00,
387,2.40e-03,5.04e+00,
388,1.60e-03,4.64e+00,
389,-7.20e-03,4.96e+00,
390,-6.40e-03,4.64e+00,
391,8.00e-04,5.12e+00,
392,-6.40e-03,4.64e+00,
393,2.40e-03,5.04e+00,
394,8.00e-04,4.64e+00,
395,-8.00e-03,5.12e+00,
396,8.00e-04,4.64e+00,
397,-8.00e-03,5.12e+00,
398,-7.20e-03,4.64e+00,
399,1.60e-03,5.12e+00,
400,-4.80e-03,4.64e+00,
401,3.20e-03,5.04e+00,
402,-5.60e-03,4.64e+00,
403,4.00e-03,5.04e+00,
404,3.20e-03,4.64e+00,
405,-6.40e-03,5.12e+00,
406,8.00e-04,4.64e+00,
407,-7.20e-03,5.12e+00,
408,-7.20e-03,4.64e+00,
409,1.60e-03,5.04e+00,
410,-5.60e-03,4.64e+00,
411,2.40e-03,5.12e+00,
412,3.20e-03,5.04e+00,
413,-9.60e-03,4.64e+00,
414,-7.20e-03,4.64e+00,
415,1.60e-03,5.04e+00,
416,-5.60e-03,4.64e+00,
417,1.60e-03,5.04e+00,
418,-6.40e-03,4.64e+00,
419,1.60e-03,5.04e+00,
420,-7.20e-03,4.64e+00,
421,8.00e-04,5.04e+00,
422,2.40e-03,4.64e+00,
423,-8.00e-03,5.12e+00,
424,8.00e-04,4.64e+00,
425,-7.20e-03,5.04e+00,
426,8.00e-04,5.04e+00,
427,-7.20e-03,4.64e+00,
428,2.40e-03,4.64e+00,
429,-6.40e-03,5.04e+00,
430,8.00e-04,4.64e+00,
431,-7.20e-03,5.12e+00,
432,8.00e-04,4.64e+00,
433,-7.20e-03,5.04e+00,
434,-6.40e-03,4.64e+00,
435,1.60e-03,5.04e+00,
436,-7.20e-03,4.64e+00,
437,1.60e-03,5.04e+00,
438,-8.00e-03,4.64e+00,
439,8.00e-04,5.12e+00,
440,-6.40e-03,4.64e+00,
441,2.40e-03,5.04e+00,
442,1.60e-03,4.64e+00,
443,-6.40e-03,5.12e+00,
444,-7.20e-03,4.64e+00,
445,1.60e-03,5.12e+00,
446,-7.20e-03,4.64e+00,
447,1.60e-03,5.12e+00,
448,-6.40e-03,5.04e+00,
449,3.20e-03,4.64e+00,
450,1.60e-03,4.64e+00,
451,-6.40e-03,5.12e+00,
452,1.60e-03,5.04e+00,
453,-7.20e-03,4.64e+00,
454,-7.20e-03,4.64e+00,
455,2.40e-03,5.12e+00,
456,1.60e-03,4.64e+00,
457,-7.20e-03,5.04e+00,
458,-8.00e-03,4.64e+00,
459,1.60e-03,5.12e+00,
460,8.00e-04,4.64e+00,
461,-6.40e-03,5.12e+00,
462,1.60e-03,4.64e+00,
463,-6.40e-03,5.12e+00,
464,-7.20e-03,4.64e+00,
465,2.40e-03,5.12e+00,
466,1.60e-03,4.64e+00,
467,-7.20e-03,5.04e+00,
468,-6.40e-03,4.64e+00,
469,1.60e-03,5.04e+00,
470,-7.20e-03,4.64e+00,
471,1.60e-03,5.12e+00,
472,-8.00e-03,4.64e+00,
473,1.60e-03,5.12e+00,
474,-7.20e-03,4.64e+00,
475,2.40e-03,5.12e+00,
476,1.60e-03,4.64e+00,
477,-6.40e-03,5.12e+00,
478,1.60e-03,5.12e+00,
479,-7.20e-03,4.64e+00,
480,-8.00e-03,4.64e+00,
481,8.00e-04,5.12e+00,
482,-8.80e-03,4.64e+00,
483,2.40e-03,5.12e+00,
484,1.60e-03,4.64e+00,
485,-7.20e-03,5.12e+00,
486,0.00e+00,4.64e+00,
487,-6.40e-03,5.12e+00,
488,-6.40e-03,5.04e+00,
489,1.60e-03,4.64e+00,
490,-7.20e-03,5.12e+00,
491,1.60e-03,4.64e+00,
492,8.00e-04,4.64e+00,
493,-7.20e-03,5.12e+00,
494,-6.40e-03,5.12e+00,
495,3.20e-03,4.56e+00,
496,1.60e-03,5.04e+00,
497,-7.20e-03,4.56e+00,
498,-6.40e-03,4.64e+00,
499,1.60e-03,5.12e+00,
500,-6.40e-03,4.64e+00,
501,2.40e-03,5.12e+00,
502,8.00e-04,4.64e+00,
503,-8.00e-03,5.12e+00,
504,8.00e-04,4.64e+00,
505,-7.20e-03,5.12e+00,
506,-6.40e-03,4.64e+00,
507,8.00e-04,5.12e+00,
508,8.00e-04,4.64e+00,
509,-8.00e-03,5.12e+00,
510,-7.20e-03,4.64e+00,
511,1.60e-03,5.12e+00,
512,-7.20e-03,4.64e+00,
513,1.60e-03,5.12e+00,
514,-7.20e-03,4.64e+00,
515,8.00e-04,5.12e+00,
516,-7.20e-03,4.64e+00,
517,8.00e-04,5.12e+00,
518,8.00e-04,4.64e+00,
519,-6.40e-03,5.12e+00,
520,-6.40e-03,5.12e+00,
521,1.60e-03,4.64e+00,
522,8.00e-04,4.64e+00,
523,-7.20e-03,5.12e+00,
524,-5.60e-03,5.12e+00,
525,1.60e-03,4.56e+00,
526,8.00e-04,5.12e+00,
527,-7.20e-03,4.56e+00,
528,-3.20e-03,5.12e+00,
529,-8.00e-04,4.56e+00,
530,-8.00e-04,5.12e+00,
531,-1.28e-02,4.24e+00,
532,-1.36e-02,5.28e+00,
533,-7.20e-03,4.56e+00,
534,-7.20e-03,4.56e+00,
535,-9.60e-03,5.12e+00,
536,-8.80e-03,4.64e+00,
537,-6.40e-03,5.12e+00,
538,-7.20e-03,5.12e+00,
539,-8.80e-03,4.64e+00,
540,-8.80e-03,4.64e+00,
541,-6.40e-03,5.12e+00,
542,-6.40e-03,5.12e+00,
543,-1.84e-02,4.56e+00,
544,-1.84e-02,5.12e+00,
545,-4.00e-03,-1.36e+00,
546,-9.60e-03,0.00e+00,
547,7.20e-03,-2.40e-01,
548,1.60e-03,-2.40e-01,
549,1.28e-02,0.00e+00,
550,1.36e-02,-1.60e-01,
551,1.60e-03,0.00e+00,
552,8.00e-03,0.00e+00,
553,-4.80e-03,-2.40e-01,
554,8.00e-04,0.00e+00,
555,-1.20e-02,-2.40e-01,
556,-5.60e-03,0.00e+00,
557,-1.44e-02,-1.60e-01,
558,-1.28e-02,-1.60e-01,
559,-4.00e-03,0.00e+00,
560,-1.04e-02,-1.60e-01,
561,2.40e-03,0.00e+00,
562,-4.00e-03,-1.60e-01,
563,4.80e-03,0.00e+00,
564,-8.00e-04,0.00e+00,
565,6.40e-03,-2.40e-01,
566,5.60e-03,-1.60e-01,
567,-4.00e-03,0.00e+00,
568,2.40e-03,-1.60e-01,
569,-8.00e-03,0.00e+00,
570,-1.60e-03,-1.60e-01,
571,-1.04e-02,0.00e+00,
572,-1.04e-02,-1.60e-01,
573,-3.20e-03,0.00e+00,
574,-9.60e-03,0.00e+00,
575,8.00e-04,-2.40e-01,
576,-5.60e-03,-1.60e-01,
577,2.40e-03,0.00e+00,
578,2.40e-03,-1.60e-01,
579,-4.80e-03,0.00e+00,
580,3.20e-03,-1.60e-01,
581,-6.40e-03,0.00e+00,
582,8.00e-04,-1.60e-01,
583,-9.60e-03,0.00e+00,
584,-8.00e-04,0.00e+00,
585,-8.80e-03,-2.40e-01,
586,-8.00e-03,-2.40e-01,
587,0.00e+00,0.00e+00,
588,-5.60e-03,0.00e+00,
589,1.60e-03,-1.60e-01,
590,-4.80e-03,-1.60e-01,
591,3.20e-03,-8.00e-02,
592,3.20e-03,-1.60e-01,
593,-4.80e-03,0.00e+00,
594,1.60e-03,-1.60e-01,
595,-6.40e-03,-8.00e-02,
596,-8.00e-03,0.00e+00,
597,8.00e-04,-2.40e-01,
598,0.00e+00,-1.60e-01,
599,-8.00e-03,0.00e+00,
600,0.00e+00,-1.60e-01,
601,-7.20e-03,0.00e+00,
602,-5.60e-03,-1.60e-01,
603,3.20e-03,0.00e+00,
604,-4.80e-03,-1.60e-01,
605,3.20e-03,0.00e+00,
606,-5.60e-03,0.00e+00,
607,2.40e-03,-2.40e-01,
608,1.60e-03,-1.60e-01,
609,-7.20e-03,0.00e+00,
610,0.00e+00,-1.60e-01,
611,-8.80e-03,0.00e+00,
612,-8.00e-03,-1.60e-01,
613,8.00e-04,0.00e+00,
614,-7.20e-03,-1.60e-01,
615,0.00e+00,0.00e+00,
616,-7.20e-03,0.00e+00,
617,2.40e-03,-2.40e-01,
618,-4.80e-03,-1.60e-01,
619,4.00e-03,0.00e+00,
620,2.40e-03,-1.60e-01,
621,-4.80e-03,8.00e-02,
622,2.40e-03,-1.60e-01,
623,-6.40e-03,8.00e-02,
624,8.00e-04,-1.60e-01,
625,-7.20e-03,8.00e-02,
626,8.00e-04,8.00e-02,
627,-8.00e-03,-2.40e-01,
628,-8.00e-04,-1.60e-01,
629,-9.60e-03,8.00e-02,
630,8.00e-04,-1.60e-01,
631,-7.20e-03,8.00e-02,
632,-7.20e-03,0.00e+00,
633,1.60e-03,-1.60e-01,
634,-5.60e-03,-1.60e-01,
635,1.60e-03,8.00e-02,
636,1.60e-03,8.00e-02,
637,-7.20e-03,-2.40e-01,
638,-7.20e-03,8.00e-02,
639,8.00e-04,-2.40e-01,
640,-7.20e-03,-1.60e-01,
641,8.00e-04,8.00e-02,
642,-7.20e-03,-1.60e-01,
643,8.00e-04,8.00e-02,
644,-6.40e-03,-1.60e-01,
645,8.00e-04,8.00e-02,
646,-8.00e-03,-1.60e-01,
647,1.60e-03,8.00e-02,
648,-6.40e-03,8.00e-02,
649,1.60e-03,-2.40e-01,
650,-5.60e-03,-1.60e-01,
651,1.60e-03,8.00e-02,
652,-6.40e-03,-1.60e-01,
653,4.00e-03,8.00e-02,
654,1.60e-03,-1.60e-01,
655,-7.20e-03,8.00e-02,
656,1.60e-03,-1.60e-01,
657,-6.40e-03,8.00e-02,
658,8.00e-04,8.00e-02,
659,-6.40e-03,-2.40e-01,
660,1.60e-03,-1.60e-01,
661,-6.40e-03,8.00e-02,
662,-6.40e-03,-1.60e-01,
663,1.60e-03,8.00e-02,
664,-7.20e-03,-1.60e-01,
665,1.60e-03,8.00e-02,
666,-7.20e-03,8.00e-02,
667,4.00e-03,-1.60e-01,
668,1.60e-03,8.00e-02,
669,-8.80e-03,-2.40e-01,
670,-7.20e-03,-1.60e-01,
671,1.60e-03,8.00e-02,
672,-8.00e-03,8.00e-02,
673,1.60e-03,-1.60e-01,
674,-7.20e-03,-1.60e-01,
675,1.60e-03,8.00e-02,
676,-5.60e-03,8.00e-02,
677,2.40e-03,-1.60e-01,
678,1.60e-03,8.00e-02,
679,-6.40e-03,-1.60e-01,
680,-5.60e-03,8.00e-02,
681,1.60e-03,-2.40e-01,
682,1.60e-03,-1.60e-01,
683,-8.00e-03,8.00e-02,
684,-7.20e-03,-1.60e-01,
685,8.00e-04,8.00e-02,
686,8.00e-04,-1.60e-01,
687,-7.20e-03,8.00e-02,
688,1.60e-03,-1.60e-01,
689,-7.20e-03,8.00e-02,
690,1.60e-03,8.00e-02,
691,-5.60e-03,-2.40e-01,
692,4.80e-03,-1.60e-01,
693,-6.40e-03,8.00e-02,
694,2.40e-03,-1.60e-01,
695,-5.60e-03,8.00e-02,
696,8.00e-04,8.00e-02,
697,-6.40e-03,-1.60e-01,
698,-7.20e-03,-1.60e-01,
699,8.00e-04,8.00e-02,
700,-7.20e-03,8.00e-02,
701,8.00e-04,-2.40e-01,
702,-7.20e-03,8.00e-02,
703,2.40e-03,-1.60e-01,
704,2.40e-03,-1.60e-01,
705,-4.80e-03,8.00e-02,
706,1.60e-03,-1.60e-01,
707,-6.40e-03,8.00e-02,
708,8.00e-04,-1.60e-01,
709,-6.40e-03,8.00e-02,
710,1.60e-03,8.00e-02,
711,-7.20e-03,-2.40e-01,
712,1.60e-03,-1.60e-01,
713,-6.40e-03,8.00e-02,
714,-6.40e-03,-1.60e-01,
715,1.60e-03,8.00e-02,
716,8.00e-04,-1.60e-01,
717,-7.20e-03,8.00e-02,
718,-5.60e-03,8.00e-02,
719,3.20e-03,-1.60e-01,
720,2.40e-03,-1.60e-01,
721,-6.40e-03,8.00e-02,
722,8.00e-04,8.00e-02,
723,-6.40e-03,-2.40e-01,
724,1.60e-03,8.00e-02,
725,-8.80e-03,-1.60e-01,
726,-7.20e-03,-1.60e-01,
727,1.60e-03,8.00e-02,
728,-5.60e-03,-1.60e-01,
729,1.60e-03,8.00e-02,
730,1.60e-03,-1.60e-01,
731,-5.60e-03,8.00e-02,
732,-5.60e-03,-1.60e-01,
733,1.60e-03,8.00e-02,
734,-6.40e-03,-1.60e-01,
735,8.00e-04,8.00e-02,
736,-7.20e-03,-1.60e-01,
737,1.60e-03,8.00e-02,
738,8.00e-04,-1.60e-01,
739,-6.40e-03,8.00e-02,
740,0.00e+00,8.00e-02,
741,-6.40e-03,-1.60e-01,
742,-6.40e-03,-2.40e-01,
743,8.00e-04,8.00e-02,
744,8.00e-04,-1.60e-01,
745,-7.20e-03,8.00e-02,
746,-6.40e-03,-1.60e-01,
747,2.40e-03,8.00e-02,
748,1.60e-03,-1.60e-01,
749,-6.40e-03,8.00e-02,
750,1.60e-03,-1.60e-01,
751,-6.40e-03,8.00e-02,
752,1.60e-03,-1.60e-01,
753,-9.60e-03,8.00e-02,
754,-6.40e-03,-1.60e-01,
755,8.00e-04,8.00e-02,
756,-6.40e-03,-1.60e-01,
757,1.60e-03,8.00e-02,
758,2.40e-03,-1.60e-01,
759,-5.60e-03,8.00e-02,
760,-6.40e-03,-1.60e-01,
761,1.60e-03,8.00e-02,
762,1.60e-03,-1.60e-01,
763,-7.20e-03,8.00e-02,
764,1.60e-03,-1.60e-01,
765,-8.00e-03,8.00e-02,
766,-6.40e-03,-1.60e-01,
767,2.40e-03,8.00e-02,
768,1.60e-03,-1.60e-01,
769,-6.40e-03,8.00e-02,
770,1.60e-03,8.00e-02,
771,-6.40e-03,-1.60e-01,
772,1.60e-03,8.00e-02,
773,-6.40e-03,-1.60e-01,
774,-5.60e-03,-1.60e-01,
775,3.20e-03,8.00e-02,
776,1.60e-03,8.00e-02,
777,-5.60e-03,-1.60e-01,
778,1.60e-03,8.00e-02,
779,-5.60e-03,-1.60e-01,
780,-7.20e-03,8.00e-02,
781,2.40e-03,-1.60e-01,
782,-5.60e-03,8.00e-02,
783,2.40e-03,-1.60e-01,
784,-7.20e-03,8.00e-02,
785,1.60e-03,-1.60e-01,
786,-8.80e-03,8.00e-02,
787,1.60e-03,-1.60e-01,
788,2.40e-03,-1.60e-01,
789,-4.80e-03,8.00e-02,
790,-5.60e-03,8.00e-02,
791,3.20e-03,-1.60e-01,
792,-4.80e-03,8.00e-02,
793,2.40e-03,-1.60e-01,
794,-6.40e-03,8.00e-02,
795,3.20e-03,-1.60e-01,
796,8.00e-04,-1.60e-01,
797,-7.20e-03,8.00e-02,
798,-7.20e-03,-1.60e-01,
799,1.60e-03,8.00e-02,
800,-8.80e-03,8.00e-02,
801,1.60e-03,-1.60e-01,
802,-8.00e-03,8.00e-02,
803,2.40e-03,-1.60e-01,
804,-7.20e-03,8.00e-02,
805,3.20e-03,-1.60e-01,
806,1.60e-03,-2.40e-01,
807,-7.20e-03,8.00e-02,
808,1.60e-03,8.00e-02,
809,-7.20e-03,-1.60e-01,
810,8.00e-04,8.00e-02,
811,-7.20e-03,-1.60e-01,
812,-6.40e-03,8.00e-02,
813,8.00e-04,-1.60e-01,
814,1.60e-03,8.00e-02,
815,-7.20e-03,-1.60e-01,
816,2.40e-03,8.00e-02,
817,-5.60e-03,-1.60e-01,
818,1.60e-03,8.00e-02,
819,-5.60e-03,-1.60e-01,
820,2.40e-03,8.00e-02,
821,-7.20e-03,-1.60e-01,
822,-6.40e-03,-1.60e-01,
823,2.40e-03,8.00e-02,
824,-6.40e-03,8.00e-02,
825,2.40e-03,-8.00e-02,
826,-7.20e-03,-8.00e-02,
827,8.00e-04,8.00e-02,
828,-7.20e-03,8.00e-02,
829,3.20e-03,-1.60e-01,
830,3.20e-03,-8.00e-02,
831,-6.40e-03,8.00e-02,
832,-6.40e-03,8.00e-02,
833,1.60e-03,-8.00e-02,
834,-6.40e-03,-1.60e-01,
835,2.40e-03,8.00e-02,
836,1.60e-03,8.00e-02,
837,-9.60e-03,-1.60e-01,
838,8.00e-04,-1.60e-01,
839,-8.00e-03,8.00e-02,
840,-7.20e-03,8.00e-02,
841,2.40e-03,-8.00e-02,
842,1.60e-03,8.00e-02,
843,-8.80e-03,-1.60e-01,
