NMRdata/glyc1/95up/98t41.csv

X,CH3,CH4,Start,Increment,
Sequence,Volt,Volt,-4.800000e-04,2.000000e-05
0,-7.20e-03,8.00e-02,
1,0.00e+00,-1.60e-01,
2,-5.60e-03,-1.60e-01,
3,1.60e-03,8.00e-02,
4,-6.40e-03,8.00e-02,
5,8.00e-04,-2.40e-01,
6,-7.20e-03,-1.60e-01,
7,1.60e-03,8.00e-02,
8,-6.40e-03,8.00e-02,
9,8.00e-04,-1.60e-01,
10,-4.80e-03,-1.60e-01,
11,1.60e-03,8.00e-02,
12,-5.60e-03,-1.60e-01,
13,1.60e-03,8.00e-02,
14,-5.60e-03,8.00e-02,
15,1.60e-03,-1.60e-01,
16,1.60e-03,-1.60e-01,
17,-6.40e-03,8.00e-02,
18,2.40e-03,-1.60e-01,
19,-5.60e-03,8.00e-02,
20,-5.60e-03,8.00e-02,
21,1.60e-03,-1.60e-01,
22,1.60e-03,8.00e-02,
23,-6.40e-03,-1.60e-01,
24,2.40e-03,5.84e+00,
25,-5.60e-03,4.64e+00,
26,1.60e-03,5.12e+00,
27,-5.60e-03,4.72e+00,
28,-8.00e-04,4.64e+00,
29,-3.20e-03,5.20e+00,
30,-8.00e-04,5.36e+00,
31,-1.04e-02,4.64e+00,
32,-9.60e-03,5.20e+00,
33,-5.60e-03,4.64e+00,
34,-8.00e-03,4.72e+00,
35,-5.60e-03,5.20e+00,
36,-5.60e-03,4.64e+00,
37,-8.00e-03,5.20e+00,
38,-5.60e-03,5.12e+00,
39,-2.80e-02,4.64e+00,
40,-2.32e-02,5.12e+00,
41,-5.84e-02,4.64e+00,
42,-6.00e-02,5.12e+00,
43,-4.88e-02,4.72e+00,
44,-5.36e-02,5.12e+00,
45,-2.16e-02,4.72e+00,
46,-2.56e-02,5.12e+00,
47,1.44e-02,4.72e+00,
48,1.12e-02,4.72e+00,
49,3.76e-02,5.12e+00,
50,4.16e-02,5.12e+00,
51,3.12e-02,4.72e+00,
52,3.60e-02,5.12e+00,
53,6.40e-03,4.72e+00,
54,9.60e-03,5.12e+00,
55,-1.84e-02,4.72e+00,
56,-1.44e-02,5.12e+00,
57,-3.28e-02,4.72e+00,
58,-3.28e-02,4.72e+00,
59,-2.32e-02,5.12e+00,
60,-2.72e-02,5.12e+00,
61,-5.60e-03,4.72e+00,
62,-1.12e-02,5.12e+00,
63,1.28e-02,4.72e+00,
64,8.00e-03,4.72e+00,
65,1.84e-02,5.12e+00,
66,1.92e-02,5.12e+00,
67,8.00e-03,4.72e+00,
68,1.36e-02,4.64e+00,
69,-4.80e-03,5.12e+00,
70,8.00e-04,5.12e+00,
71,-1.52e-02,4.72e+00,
72,-1.04e-02,5.12e+00,
73,-1.84e-02,4.80e+00,
74,-1.84e-02,5.12e+00,
75,-5.60e-03,4.72e+00,
76,-9.60e-03,5.12e+00,
77,4.00e-03,4.64e+00,
78,-1.60e-03,5.12e+00,
79,7.20e-03,4.72e+00,
80,8.00e-04,4.72e+00,
81,8.00e-03,5.12e+00,
82,7.20e-03,4.72e+00,
83,-4.00e-03,5.12e+00,
84,2.40e-03,5.12e+00,
85,-8.80e-03,4.64e+00,
86,-9.60e-03,5.12e+00,
87,-3.20e-03,4.72e+00,
88,-1.04e-02,5.12e+00,
89,-2.40e-03,4.72e+00,
90,-7.20e-03,4.72e+00,
91,1.60e-03,5.12e+00,
92,-3.20e-03,5.12e+00,
93,4.00e-03,4.64e+00,
94,4.00e-03,5.12e+00,
95,-4.00e-03,4.72e+00,
96,8.00e-04,5.12e+00,
97,-6.40e-03,4.72e+00,
98,-1.60e-03,5.12e+00,
99,-9.60e-03,4.72e+00,
100,-8.80e-03,5.12e+00,
101,-1.60e-03,4.64e+00,
102,-7.20e-03,4.72e+00,
103,2.40e-03,5.12e+00,
104,-4.00e-03,5.12e+00,
105,4.00e-03,4.64e+00,
106,4.00e-03,5.12e+00,
107,-2.40e-03,4.72e+00,
108,3.20e-03,5.12e+00,
109,-8.00e-03,4.64e+00,
110,0.00e+00,5.12e+00,
111,-7.20e-03,4.80e+00,
112,-1.60e-03,5.12e+00,
113,-9.60e-03,4.72e+00,
114,-9.60e-03,5.12e+00,
115,-1.60e-03,4.72e+00,
116,-7.20e-03,5.12e+00,
117,1.60e-03,4.64e+00,
118,-4.00e-03,5.12e+00,
119,4.00e-03,4.80e+00,
120,4.00e-03,5.12e+00,
121,-4.00e-03,4.72e+00,
122,4.00e-03,4.72e+00,
123,-4.80e-03,5.12e+00,
124,1.60e-03,5.12e+00,
125,-7.20e-03,4.64e+00,
126,-8.00e-04,5.12e+00,
127,-9.60e-03,4.64e+00,
128,-1.04e-02,5.12e+00,
129,-3.20e-03,4.72e+00,
130,-8.80e-03,5.12e+00,
131,0.00e+00,4.64e+00,
132,-5.60e-03,5.12e+00,
133,2.40e-03,4.64e+00,
134,-4.00e-03,5.12e+00,
135,4.00e-03,4.72e+00,
136,4.00e-03,5.12e+00,
137,-5.60e-03,4.64e+00,
138,2.40e-03,4.72e+00,
139,-6.40e-03,5.12e+00,
140,0.00e+00,5.12e+00,
141,-8.00e-03,4.72e+00,
142,-8.00e-04,4.72e+00,
143,-8.80e-03,5.12e+00,
144,-8.00e-03,5.12e+00,
145,0.00e+00,4.64e+00,
146,-6.40e-03,5.12e+00,
147,1.60e-03,4.64e+00,
148,-4.00e-03,5.12e+00,
149,3.20e-03,4.64e+00,
150,-4.00e-03,5.12e+00,
151,3.20e-03,4.64e+00,
152,2.40e-03,4.64e+00,
153,-5.60e-03,5.12e+00,
154,8.00e-04,5.12e+00,
155,-7.20e-03,4.72e+00,
156,-7.20e-03,5.12e+00,
157,-8.00e-04,4.64e+00,
158,-7.20e-03,4.72e+00,
159,8.00e-04,5.12e+00,
160,-5.60e-03,5.12e+00,
161,1.60e-03,4.64e+00,
162,1.60e-03,5.12e+00,
163,-4.80e-03,4.64e+00,
164,-4.80e-03,5.12e+00,
165,1.60e-03,4.64e+00,
166,8.00e-04,5.12e+00,
167,-6.40e-03,4.72e+00,
168,0.00e+00,4.64e+00,
169,-8.00e-03,5.12e+00,
170,-7.20e-03,5.12e+00,
171,0.00e+00,4.72e+00,
172,-6.40e-03,4.64e+00,
173,1.60e-03,5.12e+00,
174,-5.60e-03,4.64e+00,
175,1.60e-03,5.12e+00,
176,2.40e-03,4.64e+00,
177,-4.80e-03,5.12e+00,
178,2.40e-03,5.12e+00,
179,-6.40e-03,4.64e+00,
180,-6.40e-03,4.64e+00,
181,1.60e-03,5.12e+00,
182,0.00e+00,5.12e+00,
183,-7.20e-03,4.64e+00,
184,-8.00e-03,4.64e+00,
185,0.00e+00,5.12e+00,
186,8.00e-04,4.64e+00,
187,-6.40e-03,5.12e+00,
188,-4.80e-03,4.64e+00,
189,3.20e-03,5.12e+00,
190,4.00e-03,5.12e+00,
191,-4.80e-03,4.64e+00,
192,-4.80e-03,4.64e+00,
193,1.60e-03,5.12e+00,
194,1.60e-03,4.64e+00,
195,-5.60e-03,5.12e+00,
196,-7.20e-03,4.64e+00,
197,8.00e-04,5.12e+00,
198,1.60e-03,5.12e+00,
199,-8.00e-03,4.64e+00,
200,-7.20e-03,5.04e+00,
201,0.00e+00,4.64e+00,
202,1.60e-03,5.12e+00,
203,-5.60e-03,4.64e+00,
204,-5.60e-03,4.64e+00,
205,2.40e-03,5.12e+00,
206,2.40e-03,5.04e+00,
207,-4.80e-03,4.64e+00,
208,8.00e-04,4.64e+00,
209,-6.40e-03,5.04e+00,
210,-7.20e-03,4.64e+00,
211,8.00e-04,5.04e+00,
212,8.00e-04,4.64e+00,
213,-6.40e-03,5.12e+00,
214,-5.60e-03,5.12e+00,
215,1.60e-03,4.64e+00,
216,1.60e-03,4.64e+00,
217,-4.80e-03,5.04e+00,
218,-4.00e-03,5.04e+00,
219,2.40e-03,4.64e+00,
220,1.60e-03,5.04e+00,
221,-4.80e-03,4.64e+00,
222,2.40e-03,5.12e+00,
223,-6.40e-03,4.64e+00,
224,8.00e-04,4.64e+00,
225,-6.40e-03,5.12e+00,
226,-8.00e-04,4.64e+00,
227,-7.20e-03,5.12e+00,
228,-3.20e-03,5.12e+00,
229,-1.60e-03,4.64e+00,
230,-1.60e-03,4.64e+00,
231,-1.12e-02,5.28e+00,
232,-1.36e-02,5.12e+00,
233,-7.20e-03,4.48e+00,
234,-8.80e-03,5.12e+00,
235,-6.40e-03,4.64e+00,
236,-8.80e-03,4.64e+00,
237,-6.40e-03,5.12e+00,
238,-8.80e-03,5.12e+00,
239,-6.40e-03,4.64e+00,
240,-8.80e-03,4.64e+00,
241,-6.40e-03,5.12e+00,
242,-6.40e-03,4.64e+00,
243,-1.52e-02,5.12e+00,
244,-1.60e-02,4.64e+00,
245,-6.40e-03,5.12e+00,
246,-1.12e-02,5.04e+00,
247,4.00e-03,-1.28e+00,
248,0.00e+00,0.00e+00,
249,1.04e-02,-2.40e-01,
250,1.12e-02,-1.60e-01,
251,3.20e-03,0.00e+00,
252,8.80e-03,-1.60e-01,
253,-3.20e-03,0.00e+00,
254,1.60e-03,-1.60e-01,
255,-8.00e-03,0.00e+00,
256,-2.40e-03,0.00e+00,
257,-1.12e-02,-2.40e-01,
258,-1.12e-02,-1.60e-01,
259,-3.20e-03,0.00e+00,
260,-9.60e-03,-1.60e-01,
261,8.00e-04,0.00e+00,
262,-4.80e-03,-1.60e-01,
263,4.00e-03,0.00e+00,
264,-2.40e-03,-8.00e-02,
265,5.60e-03,-1.60e-01,
266,4.80e-03,-1.60e-01,
267,-4.00e-03,0.00e+00,
268,1.60e-03,-1.60e-01,
269,-7.20e-03,0.00e+00,
270,0.00e+00,-1.60e-01,
271,-8.00e-03,0.00e+00,
272,-7.20e-03,-8.00e-02,
273,8.00e-04,-1.60e-01,
274,-5.60e-03,-1.60e-01,
275,1.60e-03,0.00e+00,
276,-5.60e-03,0.00e+00,
277,2.40e-03,-2.40e-01,
278,-3.20e-03,-2.40e-01,
279,2.40e-03,0.00e+00,
280,2.40e-03,-1.60e-01,
281,-6.40e-03,0.00e+00,
282,8.00e-04,-1.60e-01,
283,-7.20e-03,0.00e+00,
284,-6.40e-03,-1.60e-01,
285,2.40e-03,0.00e+00,
286,1.60e-03,-1.60e-01,
287,-6.40e-03,0.00e+00,
288,-5.60e-03,0.00e+00,
289,2.40e-03,-2.40e-01,
290,4.00e-03,-1.60e-01,
291,-4.80e-03,0.00e+00,
292,4.00e-03,-1.60e-01,
293,-4.80e-03,0.00e+00,
294,1.60e-03,-1.60e-01,
295,-6.40e-03,0.00e+00,
296,-8.00e-03,-1.60e-01,
297,0.00e+00,0.00e+00,
298,-7.20e-03,0.00e+00,
299,0.00e+00,-2.40e-01,
300,-7.20e-03,-1.60e-01,
301,1.60e-03,0.00e+00,
302,-4.00e-03,-1.60e-01,
303,3.20e-03,0.00e+00,
304,-4.00e-03,-1.60e-01,
305,3.20e-03,-8.00e-02,
306,3.20e-03,-1.60e-01,
307,-5.60e-03,0.00e+00,
308,1.60e-03,-1.60e-01,
309,-8.00e-03,-2.40e-01,
310,0.00e+00,-1.60e-01,
311,-7.20e-03,0.00e+00,
312,-7.20e-03,-1.60e-01,
313,8.00e-04,-1.60e-01,
314,-5.60e-03,-1.60e-01,
315,1.60e-03,0.00e+00,
316,1.60e-03,-1.60e-01,
317,-5.60e-03,0.00e+00,
318,3.20e-03,-1.60e-01,
319,-4.80e-03,0.00e+00,
320,2.40e-03,0.00e+00,
321,-5.60e-03,-2.40e-01,
322,-8.00e-03,-1.60e-01,
323,8.00e-04,0.00e+00,
324,-6.40e-03,-1.60e-01,
325,0.00e+00,0.00e+00,
326,-7.20e-03,-1.60e-01,
327,8.00e-04,0.00e+00,
328,1.60e-03,-1.60e-01,
329,-7.20e-03,0.00e+00,
330,-4.00e-03,0.00e+00,
331,3.20e-03,-2.40e-01,
332,3.20e-03,-1.60e-01,
333,-4.00e-03,0.00e+00,
334,-6.40e-03,-1.60e-01,
335,2.40e-03,0.00e+00,
336,0.00e+00,-1.60e-01,
337,-8.00e-03,0.00e+00,
338,-8.00e-03,-1.60e-01,
339,0.00e+00,0.00e+00,
340,-7.20e-03,0.00e+00,
341,2.40e-03,-2.40e-01,
342,-5.60e-03,-1.60e-01,
343,3.20e-03,0.00e+00,
344,4.00e-03,-1.60e-01,
345,-4.00e-03,-1.60e-01,
346,-3.20e-03,-1.60e-01,
347,4.80e-03,0.00e+00,
348,-4.80e-03,-1.60e-01,
349,3.20e-03,-1.60e-01,
350,8.00e-04,-2.40e-01,
351,-7.20e-03,0.00e+00,
352,0.00e+00,-1.60e-01,
353,-7.20e-03,0.00e+00,
354,-7.20e-03,-1.60e-01,
355,8.00e-04,0.00e+00,
356,-4.80e-03,-1.60e-01,
357,2.40e-03,-1.60e-01,
358,-4.00e-03,-1.60e-01,
359,4.00e-03,0.00e+00,
360,3.20e-03,-1.60e-01,
361,-4.80e-03,0.00e+00,
362,-6.40e-03,-2.40e-01,
363,1.60e-03,0.00e+00,
364,-8.00e-04,-1.60e-01,
365,-8.00e-03,0.00e+00,
366,-8.00e-03,-1.60e-01,
367,0.00e+00,0.00e+00,
368,-7.20e-03,-1.60e-01,
369,8.00e-04,0.00e+00,
370,-4.80e-03,-1.60e-01,
371,2.40e-03,0.00e+00,
372,-3.20e-03,0.00e+00,
373,2.40e-03,-2.40e-01,
374,3.20e-03,-1.60e-01,
375,-4.80e-03,8.00e-02,
376,0.00e+00,-1.60e-01,
377,-7.20e-03,0.00e+00,
378,-9.60e-03,-1.60e-01,
379,-1.60e-03,0.00e+00,
380,-8.80e-03,-1.60e-01,
381,0.00e+00,8.00e-02,
382,-4.80e-03,8.00e-02,
383,3.20e-03,-2.40e-01,
384,-2.40e-03,-1.60e-01,
385,6.40e-03,8.00e-02,
386,6.40e-03,-1.60e-01,
387,-8.00e-04,8.00e-02,
388,4.80e-03,-1.60e-01,
389,-6.40e-03,8.00e-02,
390,-1.60e-03,-1.60e-01,
391,-1.28e-02,8.00e-02,
392,-6.40e-03,8.00e-02,
393,-1.44e-02,-2.40e-01,
394,-1.28e-02,-1.60e-01,
395,-2.40e-03,8.00e-02,
396,-8.00e-03,-1.60e-01,
397,4.80e-03,8.00e-02,
398,8.00e-04,-1.60e-01,
399,1.28e-02,8.00e-02,
400,1.36e-02,-1.60e-01,
401,5.60e-03,8.00e-02,
402,1.12e-02,-1.60e-01,
403,-2.40e-03,8.00e-02,
404,2.40e-03,-2.40e-01,
405,-1.52e-02,8.00e-02,
406,-1.04e-02,-1.60e-01,
407,-2.32e-02,8.00e-02,
408,-2.48e-02,-1.60e-01,
409,-1.44e-02,8.00e-02,
410,-1.92e-02,-1.60e-01,
411,-1.60e-03,8.00e-02,
412,-5.60e-03,-1.60e-01,
413,1.44e-02,8.00e-02,
414,1.20e-02,8.00e-02,
415,2.56e-02,-2.40e-01,
416,2.64e-02,-1.60e-01,
417,1.36e-02,8.00e-02,
418,1.84e-02,-1.60e-01,
419,-7.20e-03,8.00e-02,
420,-2.40e-03,-1.60e-01,
421,-2.88e-02,8.00e-02,
422,-2.56e-02,-1.60e-01,
423,-4.16e-02,8.00e-02,
424,-4.32e-02,8.00e-02,
425,-2.72e-02,-2.40e-01,
426,-3.28e-02,-1.60e-01,
427,1.04e-02,8.00e-02,
428,8.00e-03,-1.60e-01,
429,5.12e-02,8.00e-02,
430,6.00e-02,8.00e-02,
431,4.64e-02,-1.60e-01,
432,5.12e-02,-1.60e-01,
433,-2.40e-03,8.00e-02,
434,8.00e-04,8.00e-02,
435,-5.36e-02,-2.40e-01,
436,-6.08e-02,-1.60e-01,
437,-4.80e-02,8.00e-02,
438,-5.36e-02,-1.60e-01,
439,-1.52e-02,8.00e-02,
440,-1.76e-02,-1.60e-01,
441,1.92e-02,8.00e-02,
442,1.52e-02,-1.60e-01,
443,3.28e-02,8.00e-02,
444,3.28e-02,8.00e-02,
445,2.16e-02,-2.40e-01,
446,2.64e-02,-2.40e-01,
447,1.60e-03,8.00e-02,
448,5.60e-03,-1.60e-01,
449,-1.84e-02,8.00e-02,
450,-1.52e-02,-1.60e-01,
451,-2.88e-02,8.00e-02,
452,-2.88e-02,-1.60e-01,
453,-1.76e-02,8.00e-02,
454,-2.16e-02,-1.60e-01,
455,-2.40e-03,8.00e-02,
456,-6.40e-03,-1.60e-01,
457,1.04e-02,8.00e-02,
458,4.80e-03,8.00e-02,
459,1.68e-02,-1.60e-01,
460,1.76e-02,-1.60e-01,
461,6.40e-03,8.00e-02,
462,1.20e-02,8.00e-02,
463,-4.80e-03,-1.60e-01,
464,0.00e+00,8.00e-02,
465,-1.44e-02,-1.60e-01,
466,-8.80e-03,8.00e-02,
467,-1.68e-02,-2.40e-01,
468,-1.68e-02,-1.60e-01,
469,-5.60e-03,8.00e-02,
470,-1.12e-02,8.00e-02,
471,1.60e-03,-1.60e-01,
472,-3.20e-03,-1.60e-01,
473,6.40e-03,8.00e-02,
474,8.00e-04,-1.60e-01,
475,8.00e-03,8.00e-02,
476,7.20e-03,8.00e-02,
477,-2.40e-03,-2.40e-01,
478,2.40e-03,8.00e-02,
479,-8.00e-03,-1.60e-01,
480,-8.00e-04,8.00e-02,
481,-9.60e-03,-1.60e-01,
482,-1.12e-02,8.00e-02,
483,-3.20e-03,-1.60e-01,
484,-8.80e-03,-1.60e-01,
485,8.00e-04,8.00e-02,
486,-4.80e-03,-1.60e-01,
487,2.40e-03,8.00e-02,
488,-4.00e-03,-1.60e-01,
489,3.20e-03,8.00e-02,
490,4.00e-03,-1.60e-01,
491,-4.80e-03,8.00e-02,
492,1.60e-03,8.00e-02,
493,-6.40e-03,-1.60e-01,
494,-8.00e-04,-1.60e-01,
495,-8.00e-03,8.00e-02,
496,-8.00e-03,-1.60e-01,
497,8.00e-04,8.00e-02,
498,-4.80e-03,-1.60e-01,
499,2.40e-03,8.00e-02,
500,-4.80e-03,8.00e-02,
501,2.40e-03,-1.60e-01,
502,-4.80e-03,8.00e-02,
503,3.20e-03,-1.60e-01,
504,-5.60e-03,8.00e-02,
505,1.60e-03,-1.60e-01,
506,8.00e-04,8.00e-02,
507,-8.00e-03,-1.60e-01,
508,-7.20e-03,-1.60e-01,
509,0.00e+00,8.00e-02,
510,-6.40e-03,-8.00e-02,
511,2.40e-03,8.00e-02,
512,-4.00e-03,-1.60e-01,
513,4.00e-03,8.00e-02,
514,4.00e-03,8.00e-02,
515,-4.00e-03,-1.60e-01,
516,3.20e-03,-1.60e-01,
517,-4.80e-03,8.00e-02,
518,8.00e-04,8.00e-02,
519,-7.20e-03,-1.60e-01,
520,0.00e+00,8.00e-02,
521,-8.80e-03,-1.60e-01,
522,-8.80e-03,8.00e-02,
523,0.00e+00,-1.60e-01,
524,-8.00e-03,8.00e-02,
525,8.00e-04,-1.60e-01,
526,-6.40e-03,-8.00e-02,
527,2.40e-03,8.00e-02,
528,-2.40e-03,8.00e-02,
529,4.00e-03,-1.60e-01,
530,3.20e-03,8.00e-02,
531,-4.80e-03,-1.60e-01,
532,1.60e-03,-8.00e-02,
533,-6.40e-03,8.00e-02,
534,0.00e+00,8.00e-02,
535,-8.00e-03,-1.60e-01,
536,-8.00e-04,8.00e-02,
537,-8.00e-03,-1.60e-01,
538,0.00e+00,8.00e-02,
539,-7.20e-03,-8.00e-02,
540,8.00e-04,-1.60e-01,
541,-8.00e-03,8.00e-02,
542,2.40e-03,8.00e-02,
543,-5.60e-03,-8.00e-02,
544,-4.00e-03,-8.00e-02,
545,2.40e-03,8.00e-02,
546,1.60e-03,-8.00e-02,
547,-6.40e-03,8.00e-02,
548,0.00e+00,-8.00e-02,
549,-7.20e-03,8.00e-02,
550,-7.20e-03,8.00e-02,
551,0.00e+00,-8.00e-02,
552,-8.00e-03,-1.60e-01,
553,8.00e-04,8.00e-02,
554,-5.60e-03,-8.00e-02,
555,2.40e-03,8.00e-02,
556,-4.80e-03,-8.00e-02,
557,4.00e-03,8.00e-02,
558,3.20e-03,8.00e-02,
559,-5.60e-03,-8.00e-02,
560,1.60e-03,-8.00e-02,
561,-6.40e-03,8.00e-02,
562,8.00e-04,-8.00e-02,
563,-7.20e-03,8.00e-02,
564,0.00e+00,8.00e-02,
565,-8.00e-03,-1.60e-01,
566,-6.40e-03,8.00e-02,
567,8.00e-04,-1.60e-01,
568,-5.60e-03,8.00e-02,
569,1.60e-03,-1.60e-01,
570,1.60e-03,-8.00e-02,
571,-6.40e-03,8.00e-02,
572,-4.80e-03,-1.60e-01,
573,1.60e-03,8.00e-02,
574,8.00e-04,8.00e-02,
575,-7.20e-03,-1.60e-01,
576,-5.60e-03,8.00e-02,
577,8.00e-04,-8.00e-02,
578,8.00e-04,8.00e-02,
579,-7.20e-03,-1.60e-01,
580,-5.60e-03,8.00e-02,
581,1.60e-03,-1.60e-01,
582,1.60e-03,-8.00e-02,
583,-6.40e-03,8.00e-02,
584,-5.60e-03,-8.00e-02,
585,3.20e-03,8.00e-02,
586,2.40e-03,8.00e-02,
587,-4.80e-03,-8.00e-02,
588,1.60e-03,-8.00e-02,
589,-5.60e-03,8.00e-02,
590,-5.60e-03,8.00e-02,
591,8.00e-04,-8.00e-02,
592,0.00e+00,-8.00e-02,
593,-7.20e-03,8.00e-02,
594,-7.20e-03,-8.00e-02,
595,8.00e-04,8.00e-02,
596,-5.60e-03,-8.00e-02,
597,2.40e-03,8.00e-02,
598,-5.60e-03,8.00e-02,
599,2.40e-03,-8.00e-02,
600,-4.80e-03,8.00e-02,
601,2.40e-03,-1.60e-01,
602,1.60e-03,8.00e-02,
603,-6.40e-03,-1.60e-01,
604,0.00e+00,-8.00e-02,
605,-8.00e-03,8.00e-02,
606,-7.20e-03,-8.00e-02,
607,8.00e-04,8.00e-02,
608,-7.20e-03,-8.00e-02,
609,8.00e-04,8.00e-02,
610,-5.60e-03,-8.00e-02,
611,2.40e-03,8.00e-02,
612,-4.00e-03,-8.00e-02,
613,2.40e-03,8.00e-02,
614,1.60e-03,8.00e-02,
615,-5.60e-03,-1.60e-01,
616,-5.60e-03,-8.00e-02,
617,8.00e-04,8.00e-02,
618,8.00e-04,8.00e-02,
619,-7.20e-03,-1.60e-01,
620,8.00e-04,8.00e-02,
621,-6.40e-03,-1.60e-01,
622,8.00e-04,8.00e-02,
623,-7.20e-03,-8.00e-02,
624,-7.20e-03,-8.00e-02,
625,1.60e-03,8.00e-02,
626,-4.80e-03,8.00e-02,
627,1.60e-03,-1.60e-01,
628,2.40e-03,-8.00e-02,
629,-6.40e-03,8.00e-02,
630,8.00e-04,8.00e-02,
631,-5.60e-03,-8.00e-02,
632,-6.40e-03,-8.00e-02,
633,1.60e-03,8.00e-02,
634,-7.20e-03,8.00e-02,
635,8.00e-04,-8.00e-02,
636,1.60e-03,-8.00e-02,
637,-6.40e-03,8.00e-02,
638,-5.60e-03,8.00e-02,
639,1.60e-03,-8.00e-02,
640,-4.80e-03,-8.00e-02,
641,2.40e-03,8.00e-02,
642,-5.60e-03,-8.00e-02,
643,1.60e-03,8.00e-02,
644,8.00e-04,-8.00e-02,
645,-6.40e-03,8.00e-02,
646,8.00e-04,-8.00e-02,
647,-6.40e-03,8.00e-02,
648,-6.40e-03,8.00e-02,
649,8.00e-04,-1.60e-01,
650,-6.40e-03,8.00e-02,
651,8.00e-04,-1.60e-01,
652,-6.40e-03,8.00e-02,
653,1.60e-03,-1.60e-01,
654,-5.60e-03,8.00e-02,
655,1.60e-03,-1.60e-01,
656,-5.60e-03,8.00e-02,
657,1.60e-03,-1.60e-01,
658,-4.80e-03,-8.00e-02,
659,1.60e-03,8.00e-02,
660,-6.40e-03,-8.00e-02,
661,1.60e-03,8.00e-02,
662,-4.80e-03,8.00e-02,
663,1.60e-03,-8.00e-02,
664,-5.60e-03,8.00e-02,
665,2.40e-03,-1.60e-01,
666,2.40e-03,8.00e-02,
667,-5.60e-03,-1.60e-01,
668,2.40e-03,-1.60e-01,
669,-6.40e-03,8.00e-02,
670,1.60e-03,8.00e-02,
671,-5.60e-03,-8.00e-02,
672,2.40e-03,-8.00e-02,
673,-5.60e-03,8.00e-02,
674,8.00e-04,8.00e-02,
675,-6.40e-03,-1.60e-01,
676,0.00e+00,-8.00e-02,
677,-6.40e-03,8.00e-02,
678,1.60e-03,8.00e-02,
679,-5.60e-03,-1.60e-01,
680,-6.40e-03,8.00e-02,
681,1.60e-03,-1.60e-01,
682,-5.60e-03,-8.00e-02,
683,1.60e-03,8.00e-02,
684,8.00e-04,8.00e-02,
685,-6.40e-03,-1.60e-01,
686,8.00e-04,-1.60e-01,
687,-6.40e-03,8.00e-02,
688,-5.60e-03,-8.00e-02,
689,2.40e-03,8.00e-02,
690,-7.20e-03,-8.00e-02,
691,8.00e-04,8.00e-02,
692,-6.40e-03,8.00e-02,
693,2.40e-03,-8.00e-02,
694,1.60e-03,-8.00e-02,
695,-4.80e-03,8.00e-02,
696,1.60e-03,-8.00e-02,
697,-5.60e-03,8.00e-02,
698,1.60e-03,-8.00e-02,
699,-6.40e-03,8.00e-02,
700,-5.60e-03,8.00e-02,
701,1.60e-03,-1.60e-01,
702,-4.80e-03,-1.60e-01,
703,1.60e-03,8.00e-02,
704,-5.60e-03,8.00e-02,
705,1.60e-03,-1.60e-01,
706,1.60e-03,8.00e-02,
707,-5.60e-03,-8.00e-02,
708,8.00e-04,8.00e-02,
709,-7.20e-03,-1.60e-01,
710,-5.60e-03,8.00e-02,
711,2.40e-03,-1.60e-01,
712,2.40e-03,-8.00e-02,
713,-7.20e-03,8.00e-02,
714,0.00e+00,8.00e-02,
715,-7.20e-03,-1.60e-01,
716,-7.20e-03,8.00e-02,
717,0.00e+00,-1.60e-01,
718,-6.40e-03,8.00e-02,
719,8.00e-04,-1.60e-01,
720,1.60e-03,8.00e-02,
721,-5.60e-03,-1.60e-01,
722,-5.60e-03,8.00e-02,
723,8.00e-04,-1.60e-01,
724,8.00e-04,8.00e-02,
725,-6.40e-03,-1.60e-01,
726,1.60e-03,8.00e-02,
727,-5.60e-03,-1.60e-01,
728,1.60e-03,8.00e-02,
729,-6.40e-03,-1.60e-01,
730,-6.40e-03,8.00e-02,
731,2.40e-03,-1.60e-01,
732,8.00e-04,8.00e-02,
733,-6.40e-03,-1.60e-01,
734,-6.40e-03,-1.60e-01,
735,1.60e-03,8.00e-02,
736,1.60e-03,8.00e-02,
737,-5.60e-03,-1.60e-01,
738,-4.80e-03,8.00e-02,
739,1.60e-03,-1.60e-01,
740,2.40e-03,8.00e-02,
741,-6.40e-03,-1.60e-01,
742,1.60e-03,8.00e-02,
743,-7.20e-03,-1.60e-01,
744,-7.20e-03,8.00e-02,
745,8.00e-04,-1.60e-01,
746,-6.40e-03,8.00e-02,
747,8.00e-04,-1.60e-01,
748,1.60e-03,8.00e-02,
749,-6.40e-03,-1.60e-01,
750,1.60e-03,8.00e-02,
751,-5.60e-03,-1.60e-01,
752,-7.20e-03,8.00e-02,
753,8.00e-04,-1.60e-01,
754,-5.60e-03,8.00e-02,
755,1.60e-03,-1.60e-01,
756,1.60e-03,-1.60e-01,
757,-5.60e-03,8.00e-02,
758,8.00e-04,8.00e-02,
759,-7.20e-03,-1.60e-01,
760,-7.20e-03,8.00e-02,
761,1.60e-03,-1.60e-01,
762,-6.40e-03,-1.60e-01,
763,1.60e-03,8.00e-02,
764,-5.60e-03,8.00e-02,
765,1.60e-03,-1.60e-01,
766,-6.40e-03,8.00e-02,
767,1.60e-03,-1.60e-01,
768,8.00e-04,-1.60e-01,
769,-5.60e-03,8.00e-02,
770,1.60e-03,8.00e-02,
771,-6.40e-03,-1.60e-01,
772,-6.40e-03,8.00e-02,
773,8.00e-04,-1.60e-01,
774,8.00e-04,8.00e-02,
775,-7.20e-03,-1.60e-01,
776,-7.20e-03,8.00e-02,
777,1.60e-03,-1.60e-01,
778,-7.20e-03,8.00e-02,
779,1.60e-03,-1.60e-01,
780,-6.40e-03,8.00e-02,
781,1.60e-03,-1.60e-01,
782,-5.60e-03,-1.60e-01,
783,2.40e-03,8.00e-02,
784,1.60e-03,8.00e-02,
785,-6.40e-03,-1.60e-01,
786,-6.40e-03,8.00e-02,
787,1.60e-03,-1.60e-01,
788,-7.20e-03,8.00e-02,
789,2.40e-03,-1.60e-01,
790,-6.40e-03,8.00e-02,
791,8.00e-04,-1.60e-01,
792,2.40e-03,-8.00e-02,
793,-6.40e-03,8.00e-02,
794,-7.20e-03,8.00e-02,
795,1.60e-03,-1.60e-01,
796,-5.60e-03,8.00e-02,
797,2.40e-03,-1.60e-01,
798,1.60e-03,8.00e-02,
799,-6.40e-03,-1.60e-01,
800,-7.20e-03,8.00e-02,
801,1.60e-03,-1.60e-01,
802,1.60e-03,8.00e-02,
803,-5.60e-03,-1.60e-01,
804,-7.20e-03,8.00e-02,
805,3.20e-03,-1.60e-01,
806,8.00e-04,-1.60e-01,
807,-6.40e-03,8.00e-02,
808,8.00e-04,8.00e-02,
809,-6.40e-03,-1.60e-01,
810,-6.40e-03,-1.60e-01,
811,8.00e-04,8.00e-02,
812,-7.20e-03,8.00e-02,
813,0.00e+00,-2.40e-01,
814,0.00e+00,8.00e-02,
815,-8.00e-03,-1.60e-01,
816,8.00e-04,8.00e-02,
817,-6.40e-03,-1.60e-01,
818,-6.40e-03,8.00e-02,
819,1.60e-03,-1.60e-01,
820,-5.60e-03,8.00e-02,
821,1.60e-03,-1.60e-01,
822,1.60e-03,8.00e-02,
823,-7.20e-03,-2.40e-01,
824,-5.60e-03,8.00e-02,
825,1.60e-03,-1.60e-01,
826,-5.60e-03,8.00e-02,
827,1.60e-03,-1.60e-01,
828,1.60e-03,-1.60e-01,
829,-7.20e-03,8.00e-02,
830,8.00e-04,-1.60e-01,
831,-6.40e-03,8.00e-02,
832,-6.40e-03,8.00e-02,
833,8.00e-04,-1.60e-01,
834,-6.40e-03,8.00e-02,
835,1.60e-03,-1.60e-01,
836,1.60e-03,-1.60e-01,
