NMRdata/glyc1/95up/98t4.csv

X,CH3,CH4,Start,Increment,
Sequence,Volt,Volt,-4.800000e-04,2.000000e-05
0,-7.20e-03,8.00e-02,
1,1.60e-03,-1.60e-01,
2,1.60e-03,8.00e-02,
3,-8.00e-03,-1.60e-01,
4,-6.40e-03,-1.60e-01,
5,2.40e-03,8.00e-02,
6,-5.60e-03,8.00e-02,
7,1.60e-03,-1.60e-01,
8,1.60e-03,8.00e-02,
9,-5.60e-03,-1.60e-01,
10,1.60e-03,-1.60e-01,
11,-5.60e-03,8.00e-02,
12,-5.60e-03,8.00e-02,
13,1.60e-03,-1.60e-01,
14,-7.20e-03,8.00e-02,
15,8.00e-04,-1.60e-01,
16,-6.40e-03,-1.60e-01,
17,2.40e-03,8.00e-02,
18,8.00e-04,8.00e-02,
19,-6.40e-03,-1.60e-01,
20,1.60e-03,8.00e-02,
21,-6.40e-03,-1.60e-01,
22,-5.60e-03,8.00e-02,
23,1.60e-03,-1.60e-01,
24,8.00e-04,5.84e+00,
25,-7.20e-03,4.64e+00,
26,1.60e-03,4.72e+00,
27,-5.60e-03,5.20e+00,
28,-2.40e-03,5.20e+00,
29,-8.00e-04,4.72e+00,
30,0.00e+00,5.36e+00,
31,-1.20e-02,4.56e+00,
32,-9.60e-03,4.72e+00,
33,-5.60e-03,5.20e+00,
34,-8.00e-03,5.12e+00,
35,-5.60e-03,4.64e+00,
36,-5.60e-03,4.72e+00,
37,-8.00e-03,5.20e+00,
38,-5.60e-03,5.12e+00,
39,-2.80e-02,4.64e+00,
40,-2.48e-02,5.12e+00,
41,-5.76e-02,4.64e+00,
42,-6.16e-02,5.12e+00,
43,-5.04e-02,4.64e+00,
44,-5.36e-02,5.12e+00,
45,-2.24e-02,4.72e+00,
46,-2.72e-02,5.12e+00,
47,1.44e-02,4.72e+00,
48,1.12e-02,5.12e+00,
49,3.76e-02,4.72e+00,
50,4.32e-02,5.12e+00,
51,2.88e-02,4.72e+00,
52,3.68e-02,5.12e+00,
53,6.40e-03,4.72e+00,
54,1.12e-02,5.12e+00,
55,-1.92e-02,4.72e+00,
56,-1.52e-02,5.12e+00,
57,-3.12e-02,4.72e+00,
58,-3.28e-02,5.12e+00,
59,-2.24e-02,4.72e+00,
60,-2.72e-02,5.12e+00,
61,-5.60e-03,4.72e+00,
62,-1.04e-02,5.12e+00,
63,1.28e-02,4.64e+00,
64,8.00e-03,5.12e+00,
65,2.08e-02,4.72e+00,
66,2.00e-02,5.12e+00,
67,8.00e-03,4.72e+00,
68,1.28e-02,5.12e+00,
69,-4.80e-03,4.72e+00,
70,-8.00e-04,5.12e+00,
71,-1.52e-02,4.64e+00,
72,-2.00e-02,5.12e+00,
73,-9.60e-03,4.72e+00,
74,-1.76e-02,5.12e+00,
75,-4.80e-03,4.72e+00,
76,-1.04e-02,5.12e+00,
77,3.20e-03,4.72e+00,
78,-3.20e-03,5.12e+00,
79,8.00e-03,4.64e+00,
80,8.80e-03,5.12e+00,
81,0.00e+00,4.72e+00,
82,6.40e-03,4.72e+00,
83,-4.00e-03,5.12e+00,
84,1.60e-03,5.12e+00,
85,-8.80e-03,4.72e+00,
86,-4.00e-03,4.72e+00,
87,-1.12e-02,5.12e+00,
88,-1.04e-02,5.12e+00,
89,-8.00e-04,4.72e+00,
90,-6.40e-03,5.12e+00,
91,1.60e-03,4.72e+00,
92,-3.20e-03,4.72e+00,
93,4.00e-03,5.12e+00,
94,3.20e-03,5.12e+00,
95,-4.80e-03,4.64e+00,
96,8.00e-04,4.72e+00,
97,-7.20e-03,5.12e+00,
98,-1.60e-03,5.12e+00,
99,-8.80e-03,4.72e+00,
100,-8.80e-03,5.12e+00,
101,-8.00e-04,4.72e+00,
102,-8.00e-03,5.12e+00,
103,8.00e-04,4.64e+00,
104,-6.40e-03,4.72e+00,
105,4.80e-03,5.12e+00,
106,4.00e-03,5.12e+00,
107,-4.00e-03,4.72e+00,
108,3.20e-03,5.12e+00,
109,-5.60e-03,4.80e+00,
110,8.00e-04,5.12e+00,
111,-8.80e-03,4.64e+00,
112,-2.40e-03,5.12e+00,
113,-1.04e-02,4.64e+00,
114,-8.80e-03,5.12e+00,
115,-2.40e-03,4.72e+00,
116,-8.00e-03,4.80e+00,
117,8.00e-04,5.12e+00,
118,-5.60e-03,5.12e+00,
119,6.40e-03,4.64e+00,
120,4.80e-03,5.12e+00,
121,-3.20e-03,4.72e+00,
122,4.00e-03,5.12e+00,
123,-5.60e-03,4.72e+00,
124,8.00e-04,4.72e+00,
125,-8.00e-03,5.12e+00,
126,-9.60e-03,5.12e+00,
127,-1.60e-03,4.72e+00,
128,-9.60e-03,5.12e+00,
129,-1.60e-03,4.64e+00,
130,-7.20e-03,4.72e+00,
131,8.00e-04,5.12e+00,
132,-4.80e-03,5.12e+00,
133,2.40e-03,4.64e+00,
134,-3.20e-03,5.12e+00,
135,3.20e-03,4.64e+00,
136,4.00e-03,5.12e+00,
137,-4.80e-03,4.72e+00,
138,2.40e-03,5.12e+00,
139,-6.40e-03,4.72e+00,
140,0.00e+00,5.12e+00,
141,-8.80e-03,4.64e+00,
142,-8.80e-03,4.72e+00,
143,-8.00e-04,5.12e+00,
144,-8.80e-03,4.72e+00,
145,0.00e+00,5.12e+00,
146,2.40e-03,4.64e+00,
147,-7.20e-03,5.12e+00,
148,-4.80e-03,5.12e+00,
149,2.40e-03,4.64e+00,
150,-4.80e-03,5.12e+00,
151,2.40e-03,4.64e+00,
152,1.60e-03,5.12e+00,
153,-7.20e-03,4.64e+00,
154,-9.60e-03,5.12e+00,
155,0.00e+00,4.64e+00,
156,-8.00e-03,5.12e+00,
157,8.00e-04,4.64e+00,
158,-7.20e-03,5.12e+00,
159,1.60e-03,4.64e+00,
160,-5.60e-03,5.12e+00,
161,2.40e-03,4.72e+00,
162,2.40e-03,4.72e+00,
163,-4.80e-03,5.12e+00,
164,2.40e-03,4.72e+00,
165,-5.60e-03,5.12e+00,
166,1.60e-03,5.12e+00,
167,-7.20e-03,4.64e+00,
168,8.00e-04,5.12e+00,
169,-7.20e-03,4.64e+00,
170,8.00e-04,5.12e+00,
171,-7.20e-03,4.64e+00,
172,-7.20e-03,5.12e+00,
173,1.60e-03,4.64e+00,
174,-4.80e-03,5.12e+00,
175,3.20e-03,4.64e+00,
176,3.20e-03,4.64e+00,
177,-4.00e-03,5.12e+00,
178,1.60e-03,5.12e+00,
179,-4.80e-03,4.64e+00,
180,1.60e-03,4.64e+00,
181,-7.20e-03,5.12e+00,
182,-7.20e-03,4.64e+00,
183,8.00e-04,5.12e+00,
184,-7.20e-03,4.64e+00,
185,8.00e-04,5.12e+00,
186,-8.00e-03,5.04e+00,
187,8.00e-04,4.64e+00,
188,-4.80e-03,4.64e+00,
189,1.60e-03,5.12e+00,
190,2.40e-03,4.64e+00,
191,-4.80e-03,5.12e+00,
192,2.40e-03,4.64e+00,
193,-5.60e-03,5.12e+00,
194,8.00e-04,5.12e+00,
195,-6.40e-03,4.64e+00,
196,8.00e-04,4.64e+00,
197,-7.20e-03,5.12e+00,
198,-8.00e-03,4.64e+00,
199,8.00e-04,5.04e+00,
200,-8.00e-03,4.64e+00,
201,8.00e-04,5.12e+00,
202,-5.60e-03,5.12e+00,
203,2.40e-03,4.64e+00,
204,-4.80e-03,4.64e+00,
205,2.40e-03,5.12e+00,
206,-4.80e-03,4.64e+00,
207,1.60e-03,5.04e+00,
208,8.00e-04,5.04e+00,
209,-6.40e-03,4.64e+00,
210,0.00e+00,5.04e+00,
211,-7.20e-03,4.64e+00,
212,-8.00e-04,4.64e+00,
213,-8.00e-03,5.04e+00,
214,-6.40e-03,4.64e+00,
215,2.40e-03,5.12e+00,
216,-4.80e-03,4.64e+00,
217,1.60e-03,5.04e+00,
218,-5.60e-03,4.64e+00,
219,2.40e-03,5.04e+00,
220,-5.60e-03,4.64e+00,
221,2.40e-03,5.12e+00,
222,1.60e-03,4.64e+00,
223,-6.40e-03,5.04e+00,
224,0.00e+00,4.64e+00,
225,-8.00e-03,5.12e+00,
226,0.00e+00,4.64e+00,
227,-8.80e-03,5.12e+00,
228,-4.00e-03,4.56e+00,
229,-2.40e-03,5.12e+00,
230,-1.60e-03,4.64e+00,
231,-1.20e-02,5.28e+00,
232,-1.36e-02,5.12e+00,
233,-7.20e-03,4.40e+00,
234,-7.20e-03,4.64e+00,
235,-8.80e-03,5.12e+00,
236,-8.80e-03,5.12e+00,
237,-6.40e-03,4.64e+00,
238,-7.20e-03,5.04e+00,
239,-8.80e-03,4.64e+00,
240,-8.80e-03,4.64e+00,
241,-6.40e-03,5.12e+00,
242,-6.40e-03,4.64e+00,
243,-1.68e-02,5.12e+00,
244,-1.68e-02,5.12e+00,
245,-6.40e-03,4.56e+00,
246,-1.04e-02,4.96e+00,
247,3.20e-03,-1.36e+00,
248,-8.00e-04,0.00e+00,
249,9.60e-03,-2.40e-01,
250,1.12e-02,-2.40e-01,
251,3.20e-03,0.00e+00,
252,8.00e-03,0.00e+00,
253,-2.40e-03,-1.60e-01,
254,2.40e-03,-1.60e-01,
255,-8.80e-03,0.00e+00,
256,-2.40e-03,-1.60e-01,
257,-1.28e-02,0.00e+00,
258,-1.12e-02,0.00e+00,
259,-3.20e-03,-2.40e-01,
260,-9.60e-03,0.00e+00,
261,0.00e+00,-2.40e-01,
262,-4.80e-03,-1.60e-01,
263,3.20e-03,0.00e+00,
264,-3.20e-03,-1.60e-01,
265,4.80e-03,0.00e+00,
266,4.80e-03,-1.60e-01,
267,-4.80e-03,0.00e+00,
268,2.40e-03,0.00e+00,
269,-6.40e-03,-1.60e-01,
270,-8.00e-04,-2.40e-01,
271,-8.80e-03,0.00e+00,
272,-8.80e-03,-8.00e-02,
273,-8.00e-04,-1.60e-01,
274,-6.40e-03,-1.60e-01,
275,8.00e-04,0.00e+00,
276,-4.80e-03,0.00e+00,
277,3.20e-03,-1.60e-01,
278,-4.00e-03,-1.60e-01,
279,3.20e-03,0.00e+00,
280,1.60e-03,0.00e+00,
281,-6.40e-03,-2.40e-01,
282,0.00e+00,-1.60e-01,
283,-7.20e-03,0.00e+00,
284,0.00e+00,-1.60e-01,
285,-7.20e-03,0.00e+00,
286,-6.40e-03,-1.60e-01,
287,8.00e-04,0.00e+00,
288,-4.80e-03,-1.60e-01,
289,3.20e-03,0.00e+00,
290,3.20e-03,0.00e+00,
291,-5.60e-03,-2.40e-01,
292,3.20e-03,-2.40e-01,
293,-4.80e-03,0.00e+00,
294,2.40e-03,-1.60e-01,
295,-7.20e-03,0.00e+00,
296,-8.00e-04,-1.60e-01,
297,-8.00e-03,0.00e+00,
298,0.00e+00,-1.60e-01,
299,-8.80e-03,0.00e+00,
300,-6.40e-03,0.00e+00,
301,1.60e-03,-2.40e-01,
302,-4.80e-03,-2.40e-01,
303,3.20e-03,0.00e+00,
304,3.20e-03,-1.60e-01,
305,-4.80e-03,-1.60e-01,
306,3.20e-03,-1.60e-01,
307,-5.60e-03,0.00e+00,
308,3.20e-03,-8.00e-02,
309,-5.60e-03,-1.60e-01,
310,8.00e-04,-1.60e-01,
311,-8.00e-03,0.00e+00,
312,0.00e+00,-8.00e-02,
313,-8.00e-03,-2.40e-01,
314,-6.40e-03,-1.60e-01,
315,2.40e-03,0.00e+00,
316,-4.00e-03,-1.60e-01,
317,4.00e-03,-1.60e-01,
318,-4.00e-03,-1.60e-01,
319,4.00e-03,0.00e+00,
320,2.40e-03,-1.60e-01,
321,-6.40e-03,0.00e+00,
322,8.00e-04,0.00e+00,
323,-7.20e-03,-2.40e-01,
324,-7.20e-03,-1.60e-01,
325,0.00e+00,0.00e+00,
326,1.60e-03,-1.60e-01,
327,-7.20e-03,0.00e+00,
328,-5.60e-03,-1.60e-01,
329,2.40e-03,0.00e+00,
330,3.20e-03,-1.60e-01,
331,-4.00e-03,0.00e+00,
332,3.20e-03,0.00e+00,
333,-4.80e-03,-2.40e-01,
334,2.40e-03,-2.40e-01,
335,-7.20e-03,0.00e+00,
336,-7.20e-03,-1.60e-01,
337,0.00e+00,0.00e+00,
338,-8.00e-04,-1.60e-01,
339,-8.00e-03,0.00e+00,
340,-9.60e-03,-1.60e-01,
341,1.60e-03,0.00e+00,
342,-6.40e-03,-1.60e-01,
343,2.40e-03,0.00e+00,
344,-4.00e-03,-1.60e-01,
345,3.20e-03,-2.40e-01,
346,4.80e-03,-1.60e-01,
347,-3.20e-03,0.00e+00,
348,3.20e-03,-1.60e-01,
349,-6.40e-03,-8.00e-02,
350,8.00e-04,-1.60e-01,
351,-8.00e-03,0.00e+00,
352,-9.60e-03,-1.60e-01,
353,-8.00e-04,-2.40e-01,
354,-8.00e-03,-2.40e-01,
355,8.00e-04,0.00e+00,
356,-6.40e-03,-1.60e-01,
357,1.60e-03,-1.60e-01,
358,-4.00e-03,-1.60e-01,
359,4.00e-03,8.00e-02,
360,-4.80e-03,-1.60e-01,
361,4.80e-03,0.00e+00,
362,3.20e-03,-1.60e-01,
363,-6.40e-03,0.00e+00,
364,-7.20e-03,0.00e+00,
365,8.00e-04,-2.40e-01,
366,-7.20e-03,-1.60e-01,
367,8.00e-04,0.00e+00,
368,-5.60e-03,-1.60e-01,
369,1.60e-03,0.00e+00,
370,2.40e-03,-1.60e-01,
371,-5.60e-03,8.00e-02,
372,-4.00e-03,-1.60e-01,
373,4.00e-03,0.00e+00,
374,3.20e-03,0.00e+00,
375,-4.80e-03,-2.40e-01,
376,-6.40e-03,-1.60e-01,
377,8.00e-04,8.00e-02,
378,-1.60e-03,-1.60e-01,
379,-8.00e-03,0.00e+00,
380,-8.00e-03,-1.60e-01,
381,0.00e+00,8.00e-02,
382,-5.60e-03,-1.60e-01,
383,4.00e-03,8.00e-02,
384,-2.40e-03,8.00e-02,
385,5.60e-03,-2.40e-01,
386,6.40e-03,-2.40e-01,
387,-1.60e-03,8.00e-02,
388,4.00e-03,-1.60e-01,
389,-8.00e-03,8.00e-02,
390,-8.00e-04,-1.60e-01,
391,-1.20e-02,8.00e-02,
392,-6.40e-03,-1.60e-01,
393,-1.52e-02,8.00e-02,
394,-1.36e-02,-1.60e-01,
395,-8.00e-04,8.00e-02,
396,-8.00e-03,8.00e-02,
397,6.40e-03,-2.40e-01,
398,1.60e-03,-1.60e-01,
399,1.20e-02,8.00e-02,
400,1.44e-02,-1.60e-01,
401,5.60e-03,8.00e-02,
402,1.20e-02,8.00e-02,
403,-3.20e-03,-1.60e-01,
404,2.40e-03,8.00e-02,
405,-1.52e-02,-1.60e-01,
406,-9.60e-03,8.00e-02,
407,-2.48e-02,-2.40e-01,
408,-2.40e-02,-1.60e-01,
409,-1.28e-02,8.00e-02,
410,-1.84e-02,-1.60e-01,
411,-8.00e-04,8.00e-02,
412,-5.60e-03,-1.60e-01,
413,1.76e-02,8.00e-02,
414,1.20e-02,-1.60e-01,
415,2.64e-02,8.00e-02,
416,2.80e-02,8.00e-02,
417,1.44e-02,-2.40e-01,
418,1.92e-02,-1.60e-01,
419,-4.80e-03,8.00e-02,
420,-8.00e-04,-1.60e-01,
421,-3.04e-02,8.00e-02,
422,-2.48e-02,-1.60e-01,
423,-4.24e-02,8.00e-02,
424,-4.32e-02,-1.60e-01,
425,-2.64e-02,8.00e-02,
426,-3.12e-02,8.00e-02,
427,1.12e-02,-2.40e-01,
428,7.20e-03,-2.40e-01,
429,5.28e-02,8.00e-02,
430,6.00e-02,-1.60e-01,
431,4.64e-02,8.00e-02,
432,4.96e-02,8.00e-02,
433,-4.00e-03,-1.60e-01,
434,-1.60e-03,-1.60e-01,
435,-5.36e-02,8.00e-02,
436,-4.88e-02,8.00e-02,
437,-6.16e-02,-2.40e-01,
438,-5.44e-02,-1.60e-01,
439,-1.28e-02,8.00e-02,
440,-1.60e-02,-1.60e-01,
441,2.00e-02,8.00e-02,
442,1.60e-02,-1.60e-01,
443,3.36e-02,8.00e-02,
444,3.44e-02,-1.60e-01,
445,2.00e-02,8.00e-02,
446,2.48e-02,-1.60e-01,
447,2.40e-03,8.00e-02,
448,6.40e-03,8.00e-02,
449,-1.76e-02,-1.60e-01,
450,-1.44e-02,-1.60e-01,
451,-2.80e-02,8.00e-02,
452,-2.88e-02,-1.60e-01,
453,-1.60e-02,8.00e-02,
454,-2.00e-02,8.00e-02,
455,-8.00e-04,-1.60e-01,
456,-6.40e-03,8.00e-02,
457,1.28e-02,-1.60e-01,
458,6.40e-03,-1.60e-01,
459,1.68e-02,8.00e-02,
460,1.68e-02,-1.60e-01,
461,4.00e-03,8.00e-02,
462,1.04e-02,-1.60e-01,
463,-4.00e-03,8.00e-02,
464,8.00e-04,-1.60e-01,
465,-1.44e-02,8.00e-02,
466,-9.60e-03,-1.60e-01,
467,-1.68e-02,8.00e-02,
468,-1.60e-02,8.00e-02,
469,-5.60e-03,-1.60e-01,
470,-1.12e-02,-1.60e-01,
471,2.40e-03,8.00e-02,
472,-3.20e-03,8.00e-02,
473,7.20e-03,-1.60e-01,
474,8.00e-04,8.00e-02,
475,9.60e-03,-1.60e-01,
476,8.80e-03,8.00e-02,
477,-3.20e-03,-1.60e-01,
478,2.40e-03,-1.60e-01,
479,-8.80e-03,8.00e-02,
480,-8.00e-04,8.00e-02,
481,-1.04e-02,-1.60e-01,
482,-1.04e-02,8.00e-02,
483,-1.60e-03,-1.60e-01,
484,-8.80e-03,8.00e-02,
485,1.60e-03,-1.60e-01,
486,-4.00e-03,8.00e-02,
487,4.80e-03,-1.60e-01,
488,4.00e-03,8.00e-02,
489,-3.20e-03,-1.60e-01,
490,-4.80e-03,8.00e-02,
491,2.40e-03,-1.60e-01,
492,-6.40e-03,-8.00e-02,
493,1.60e-03,8.00e-02,
494,0.00e+00,8.00e-02,
495,-8.00e-03,-1.60e-01,
496,-7.20e-03,8.00e-02,
497,-8.00e-04,-8.00e-02,
498,-6.40e-03,8.00e-02,
499,2.40e-03,-1.60e-01,
500,-4.00e-03,8.00e-02,
501,3.20e-03,-1.60e-01,
502,4.00e-03,-8.00e-02,
503,-6.40e-03,8.00e-02,
504,-7.20e-03,-8.00e-02,
505,8.00e-04,8.00e-02,
506,-8.00e-03,-8.00e-02,
507,0.00e+00,8.00e-02,
508,0.00e+00,8.00e-02,
509,-8.00e-03,-1.60e-01,
510,-8.00e-03,-8.00e-02,
511,0.00e+00,8.00e-02,
512,-6.40e-03,-8.00e-02,
513,2.40e-03,8.00e-02,
514,-4.80e-03,8.00e-02,
515,4.00e-03,-1.60e-01,
516,-6.40e-03,-8.00e-02,
517,4.00e-03,8.00e-02,
518,1.60e-03,-8.00e-02,
519,-7.20e-03,8.00e-02,
520,0.00e+00,-8.00e-02,
521,-9.60e-03,8.00e-02,
522,-8.80e-03,-8.00e-02,
523,-1.60e-03,8.00e-02,
524,-7.20e-03,-8.00e-02,
525,1.60e-03,8.00e-02,
526,-5.60e-03,-8.00e-02,
527,2.40e-03,8.00e-02,
528,-4.00e-03,-8.00e-02,
529,4.00e-03,8.00e-02,
530,3.20e-03,-8.00e-02,
531,-5.60e-03,8.00e-02,
532,2.40e-03,-8.00e-02,
533,-6.40e-03,8.00e-02,
534,-8.00e-03,-8.00e-02,
535,0.00e+00,8.00e-02,
536,-8.00e-03,-8.00e-02,
537,0.00e+00,8.00e-02,
538,-1.04e-02,8.00e-02,
539,0.00e+00,-1.60e-01,
540,-7.20e-03,-1.60e-01,
541,2.40e-03,8.00e-02,
542,2.40e-03,-8.00e-02,
543,-4.80e-03,8.00e-02,
544,-4.80e-03,-1.60e-01,
545,3.20e-03,8.00e-02,
546,2.40e-03,-8.00e-02,
547,-4.80e-03,8.00e-02,
548,-6.40e-03,8.00e-02,
549,2.40e-03,-1.60e-01,
550,-6.40e-03,-8.00e-02,
551,1.60e-03,8.00e-02,
552,-7.20e-03,-8.00e-02,
553,2.40e-03,0.00e+00,
554,2.40e-03,-8.00e-02,
555,-5.60e-03,8.00e-02,
556,-5.60e-03,-8.00e-02,
557,3.20e-03,8.00e-02,
558,1.60e-03,-8.00e-02,
559,-6.40e-03,8.00e-02,
560,-7.20e-03,-8.00e-02,
561,1.60e-03,8.00e-02,
562,8.00e-04,8.00e-02,
563,-7.20e-03,-1.60e-01,
564,8.00e-04,8.00e-02,
565,-8.00e-03,-1.60e-01,
566,-6.40e-03,-8.00e-02,
567,8.00e-04,8.00e-02,
568,1.60e-03,-8.00e-02,
569,-7.20e-03,8.00e-02,
570,-5.60e-03,-8.00e-02,
571,2.40e-03,8.00e-02,
572,1.60e-03,-8.00e-02,
573,-5.60e-03,8.00e-02,
574,8.00e-04,-8.00e-02,
575,-8.00e-03,8.00e-02,
576,-6.40e-03,-8.00e-02,
577,8.00e-04,8.00e-02,
578,-8.00e-03,8.00e-02,
579,8.00e-04,-1.60e-01,
580,-7.20e-03,-8.00e-02,
581,1.60e-03,8.00e-02,
582,-5.60e-03,8.00e-02,
583,2.40e-03,-1.60e-01,
584,-4.80e-03,-1.60e-01,
585,3.20e-03,8.00e-02,
586,2.40e-03,8.00e-02,
587,-5.60e-03,-1.60e-01,
588,1.60e-03,-1.60e-01,
589,-7.20e-03,8.00e-02,
590,1.60e-03,-8.00e-02,
591,-7.20e-03,8.00e-02,
592,1.60e-03,0.00e+00,
593,-6.40e-03,-8.00e-02,
594,-7.20e-03,-8.00e-02,
595,1.60e-03,8.00e-02,
596,1.60e-03,-8.00e-02,
597,-7.20e-03,8.00e-02,
598,-5.60e-03,-8.00e-02,
599,2.40e-03,8.00e-02,
600,-5.60e-03,8.00e-02,
601,2.40e-03,-1.60e-01,
602,-6.40e-03,-8.00e-02,
603,4.00e-03,8.00e-02,
604,1.60e-03,-8.00e-02,
605,-6.40e-03,8.00e-02,
606,3.20e-03,-8.00e-02,
607,-6.40e-03,8.00e-02,
608,-7.20e-03,8.00e-02,
609,8.00e-04,-1.60e-01,
610,-6.40e-03,-8.00e-02,
611,8.00e-04,8.00e-02,
612,1.60e-03,8.00e-02,
613,-6.40e-03,-8.00e-02,
614,-4.80e-03,-8.00e-02,
615,1.60e-03,8.00e-02,
616,1.60e-03,8.00e-02,
617,-6.40e-03,-1.60e-01,
618,8.00e-04,-8.00e-02,
619,-6.40e-03,8.00e-02,
620,8.00e-04,8.00e-02,
621,-6.40e-03,-1.60e-01,
622,-6.40e-03,8.00e-02,
623,8.00e-04,-8.00e-02,
624,-6.40e-03,-8.00e-02,
625,2.40e-03,8.00e-02,
626,-4.80e-03,-8.00e-02,
627,2.40e-03,8.00e-02,
628,1.60e-03,-8.00e-02,
629,-6.40e-03,8.00e-02,
630,8.00e-04,8.00e-02,
631,-8.00e-03,-1.60e-01,
632,-9.60e-03,-8.00e-02,
633,8.00e-04,8.00e-02,
634,8.00e-04,-8.00e-02,
635,-8.00e-03,8.00e-02,
636,-7.20e-03,-8.00e-02,
637,2.40e-03,8.00e-02,
638,-4.80e-03,8.00e-02,
639,2.40e-03,-8.00e-02,
640,1.60e-03,-8.00e-02,
641,-5.60e-03,8.00e-02,
642,-5.60e-03,-8.00e-02,
643,2.40e-03,8.00e-02,
644,-5.60e-03,-8.00e-02,
645,1.60e-03,8.00e-02,
646,8.00e-04,8.00e-02,
647,-8.00e-03,-1.60e-01,
648,0.00e+00,-8.00e-02,
649,-7.20e-03,8.00e-02,
650,-6.40e-03,-8.00e-02,
651,8.00e-04,8.00e-02,
652,-7.20e-03,-8.00e-02,
653,1.60e-03,8.00e-02,
654,-6.40e-03,-8.00e-02,
655,2.40e-03,8.00e-02,
656,2.40e-03,8.00e-02,
657,-5.60e-03,-1.60e-01,
658,8.00e-04,8.00e-02,
659,-8.00e-03,-1.60e-01,
660,1.60e-03,8.00e-02,
661,-7.20e-03,-1.60e-01,
662,8.00e-04,8.00e-02,
663,-8.00e-03,-8.00e-02,
664,0.00e+00,-8.00e-02,
665,-6.40e-03,8.00e-02,
666,-5.60e-03,8.00e-02,
667,2.40e-03,-1.60e-01,
668,1.60e-03,-1.60e-01,
669,-6.40e-03,8.00e-02,
670,8.00e-04,8.00e-02,
671,-6.40e-03,-1.60e-01,
672,-6.40e-03,8.00e-02,
673,2.40e-03,-1.60e-01,
674,1.60e-03,8.00e-02,
675,-8.80e-03,-1.60e-01,
676,-8.00e-03,-1.60e-01,
677,8.00e-04,8.00e-02,
678,-6.40e-03,8.00e-02,
679,8.00e-04,-1.60e-01,
680,8.00e-04,8.00e-02,
681,-6.40e-03,-1.60e-01,
682,8.00e-04,8.00e-02,
683,-7.20e-03,-1.60e-01,
684,1.60e-03,8.00e-02,
685,-6.40e-03,-1.60e-01,
686,1.60e-03,-8.00e-02,
687,-6.40e-03,8.00e-02,
688,8.00e-04,8.00e-02,
689,-7.20e-03,-1.60e-01,
690,-6.40e-03,-8.00e-02,
691,8.00e-04,8.00e-02,
692,-5.60e-03,8.00e-02,
693,1.60e-03,-1.60e-01,
694,1.60e-03,-8.00e-02,
695,-5.60e-03,8.00e-02,
696,-6.40e-03,-8.00e-02,
697,1.60e-03,8.00e-02,
698,-4.80e-03,8.00e-02,
699,3.20e-03,-1.60e-01,
700,4.00e-03,8.00e-02,
701,-5.60e-03,-1.60e-01,
702,-5.60e-03,-1.60e-01,
703,3.20e-03,8.00e-02,
704,-5.60e-03,8.00e-02,
705,2.40e-03,-1.60e-01,
706,1.60e-03,8.00e-02,
707,-6.40e-03,-1.60e-01,
708,-5.60e-03,8.00e-02,
709,1.60e-03,-1.60e-01,
710,-5.60e-03,8.00e-02,
711,2.40e-03,-8.00e-02,
712,2.40e-03,-8.00e-02,
713,-4.80e-03,8.00e-02,
714,1.60e-03,8.00e-02,
715,-5.60e-03,-8.00e-02,
716,-6.40e-03,-8.00e-02,
717,1.60e-03,8.00e-02,
718,8.00e-04,8.00e-02,
719,-7.20e-03,-1.60e-01,
720,-7.20e-03,-8.00e-02,
721,8.00e-04,8.00e-02,
722,8.00e-04,8.00e-02,
723,-6.40e-03,-1.60e-01,
724,-5.60e-03,8.00e-02,
725,2.40e-03,-1.60e-01,
726,-4.80e-03,-1.60e-01,
727,2.40e-03,8.00e-02,
728,8.00e-04,8.00e-02,
729,-6.40e-03,-1.60e-01,
730,-6.40e-03,8.00e-02,
731,8.00e-04,-1.60e-01,
732,-7.20e-03,-8.00e-02,
733,1.60e-03,8.00e-02,
734,1.60e-03,8.00e-02,
735,-6.40e-03,-1.60e-01,
736,-4.80e-03,8.00e-02,
737,2.40e-03,-1.60e-01,
738,2.40e-03,-1.60e-01,
739,-7.20e-03,8.00e-02,
740,-7.20e-03,-8.00e-02,
741,3.20e-03,8.00e-02,
742,2.40e-03,8.00e-02,
743,-5.60e-03,-1.60e-01,
744,2.40e-03,8.00e-02,
745,-6.40e-03,-1.60e-01,
746,-4.80e-03,8.00e-02,
747,2.40e-03,-1.60e-01,
748,-5.60e-03,-1.60e-01,
749,1.60e-03,8.00e-02,
750,-5.60e-03,-1.60e-01,
751,1.60e-03,8.00e-02,
752,-6.40e-03,8.00e-02,
753,2.40e-03,-1.60e-01,
754,-6.40e-03,-1.60e-01,
755,1.60e-03,8.00e-02,
756,8.00e-04,8.00e-02,
757,-6.40e-03,-1.60e-01,
758,8.00e-04,8.00e-02,
759,-6.40e-03,-1.60e-01,
760,8.00e-04,-8.00e-02,
761,-7.20e-03,8.00e-02,
762,-4.80e-03,8.00e-02,
763,1.60e-03,-1.60e-01,
764,3.20e-03,8.00e-02,
765,-6.40e-03,-1.60e-01,
766,3.20e-03,8.00e-02,
767,-4.80e-03,-1.60e-01,
768,8.00e-04,8.00e-02,
769,-5.60e-03,-1.60e-01,
770,-4.80e-03,8.00e-02,
771,2.40e-03,-1.60e-01,
772,-6.40e-03,8.00e-02,
773,1.60e-03,-1.60e-01,
774,8.00e-04,8.00e-02,
775,-6.40e-03,-1.60e-01,
776,-5.60e-03,8.00e-02,
777,1.60e-03,-1.60e-01,
778,2.40e-03,-1.60e-01,
779,-6.40e-03,8.00e-02,
780,-5.60e-03,-1.60e-01,
781,1.60e-03,8.00e-02,
782,2.40e-03,8.00e-02,
783,-6.40e-03,-1.60e-01,
784,8.00e-04,-1.60e-01,
785,-7.20e-03,8.00e-02,
786,1.60e-03,8.00e-02,
787,-7.20e-03,-1.60e-01,
788,8.00e-04,-1.60e-01,
789,-7.20e-03,8.00e-02,
790,-7.20e-03,8.00e-02,
791,2.40e-03,-1.60e-01,
792,1.60e-03,8.00e-02,
793,-6.40e-03,-1.60e-01,
794,-5.60e-03,-1.60e-01,
795,1.60e-03,8.00e-02,
796,-5.60e-03,8.00e-02,
797,2.40e-03,-1.60e-01,
798,1.60e-03,8.00e-02,
799,-6.40e-03,-1.60e-01,
800,1.60e-03,8.00e-02,
801,-8.00e-03,-1.60e-01,
802,1.60e-03,8.00e-02,
803,-6.40e-03,-1.60e-01,
804,-7.20e-03,8.00e-02,
805,2.40e-03,-1.60e-01,
806,2.40e-03,8.00e-02,
807,-4.80e-03,-1.60e-01,
808,1.60e-03,8.00e-02,
809,-4.80e-03,-1.60e-01,
810,1.60e-03,8.00e-02,
811,-6.40e-03,-1.60e-01,
812,2.40e-03,8.00e-02,
813,-5.60e-03,-1.60e-01,
814,-6.40e-03,8.00e-02,
815,3.20e-03,-1.60e-01,
816,-5.60e-03,-1.60e-01,
817,2.40e-03,8.00e-02,
818,8.00e-04,-1.60e-01,
819,-6.40e-03,8.00e-02,
820,2.40e-03,8.00e-02,
821,-6.40e-03,-1.60e-01,
822,-5.60e-03,8.00e-02,
823,1.60e-03,-1.60e-01,
824,-6.40e-03,8.00e-02,
825,2.40e-03,-1.60e-01,
826,1.60e-03,8.00e-02,
827,-5.60e-03,-1.60e-01,
828,1.60e-03,8.00e-02,
829,-6.40e-03,-1.60e-01,
830,1.60e-03,8.00e-02,
831,-5.60e-03,-1.60e-01,
832,-6.40e-03,8.00e-02,
833,1.60e-03,-1.60e-01,
834,-5.60e-03,8.00e-02,
835,1.60e-03,-1.60e-01,
836,1.60e-03,8.00e-02,
