NMRdata/glyc1/95up/98t5.csv

X,CH3,CH4,Start,Increment,
Sequence,Volt,Volt,-4.800000e-04,2.000000e-05
0,-6.40e-03,8.00e-02,
1,8.00e-04,-1.60e-01,
2,0.00e+00,-1.60e-01,
3,-7.20e-03,8.00e-02,
4,-5.60e-03,-1.60e-01,
5,8.00e-04,8.00e-02,
6,8.00e-04,-1.60e-01,
7,-7.20e-03,8.00e-02,
8,1.60e-03,8.00e-02,
9,-7.20e-03,-1.60e-01,
10,1.60e-03,8.00e-02,
11,-6.40e-03,-1.60e-01,
12,-5.60e-03,8.00e-02,
13,8.00e-04,-1.60e-01,
14,-7.20e-03,8.00e-02,
15,0.00e+00,-1.60e-01,
16,-6.40e-03,8.00e-02,
17,1.60e-03,-1.60e-01,
18,8.00e-04,8.00e-02,
19,-5.60e-03,-1.60e-01,
20,-5.60e-03,-1.60e-01,
21,8.00e-04,8.00e-02,
22,-5.60e-03,8.00e-02,
23,2.40e-03,-1.60e-01,
24,-4.80e-03,5.84e+00,
25,1.60e-03,4.64e+00,
26,1.60e-03,5.20e+00,
27,-5.60e-03,4.64e+00,
28,-2.40e-03,4.72e+00,
29,-8.00e-04,5.20e+00,
30,0.00e+00,4.72e+00,
31,-1.04e-02,5.28e+00,
32,-9.60e-03,4.72e+00,
33,-5.60e-03,5.20e+00,
34,-5.60e-03,5.12e+00,
35,-8.00e-03,4.64e+00,
36,-5.60e-03,4.64e+00,
37,-8.00e-03,5.20e+00,
38,-5.60e-03,4.72e+00,
39,-2.56e-02,5.12e+00,
40,-2.32e-02,4.72e+00,
41,-5.76e-02,5.20e+00,
42,-6.08e-02,4.72e+00,
43,-5.04e-02,5.12e+00,
44,-5.44e-02,5.12e+00,
45,-2.40e-02,4.72e+00,
46,-2.48e-02,5.12e+00,
47,1.28e-02,4.72e+00,
48,1.04e-02,5.12e+00,
49,3.84e-02,4.72e+00,
50,4.08e-02,5.12e+00,
51,2.96e-02,4.72e+00,
52,3.36e-02,5.12e+00,
53,6.40e-03,4.72e+00,
54,1.04e-02,5.12e+00,
55,-1.84e-02,4.72e+00,
56,-1.36e-02,5.12e+00,
57,-3.20e-02,4.72e+00,
58,-3.28e-02,5.12e+00,
59,-2.32e-02,4.72e+00,
60,-2.80e-02,5.12e+00,
61,-6.40e-03,4.72e+00,
62,-1.04e-02,5.12e+00,
63,1.28e-02,4.72e+00,
64,7.20e-03,4.80e+00,
65,1.92e-02,5.12e+00,
66,1.92e-02,5.12e+00,
67,7.20e-03,4.72e+00,
68,1.20e-02,5.12e+00,
69,-4.00e-03,4.72e+00,
70,8.00e-04,5.12e+00,
71,-1.52e-02,4.72e+00,
72,-1.76e-02,5.12e+00,
73,-8.80e-03,4.80e+00,
74,-1.76e-02,5.12e+00,
75,-7.20e-03,4.72e+00,
76,-1.12e-02,5.12e+00,
77,4.00e-03,4.72e+00,
78,-3.20e-03,5.12e+00,
79,7.20e-03,4.64e+00,
80,8.00e-03,4.64e+00,
81,8.00e-04,5.12e+00,
82,5.60e-03,5.12e+00,
83,-4.80e-03,4.72e+00,
84,1.60e-03,4.72e+00,
85,-9.60e-03,5.12e+00,
86,-1.60e-03,5.12e+00,
87,-1.12e-02,4.72e+00,
88,-9.60e-03,4.72e+00,
89,-1.60e-03,5.12e+00,
90,-6.40e-03,5.12e+00,
91,2.40e-03,4.72e+00,
92,4.00e-03,4.72e+00,
93,-3.20e-03,5.12e+00,
94,2.40e-03,5.12e+00,
95,-4.00e-03,4.72e+00,
96,8.00e-04,4.72e+00,
97,-8.00e-03,5.12e+00,
98,-8.80e-03,5.12e+00,
99,-1.60e-03,4.72e+00,
100,-9.60e-03,5.12e+00,
101,-8.00e-04,4.72e+00,
102,-8.80e-03,5.12e+00,
103,2.40e-03,4.72e+00,
104,-4.00e-03,5.12e+00,
105,4.00e-03,4.72e+00,
106,-2.40e-03,5.12e+00,
107,4.00e-03,4.72e+00,
108,3.20e-03,5.12e+00,
109,-4.80e-03,4.72e+00,
110,1.60e-03,5.12e+00,
111,-7.20e-03,4.72e+00,
112,-8.80e-03,4.72e+00,
113,8.00e-04,5.12e+00,
114,-8.80e-03,5.12e+00,
115,-8.00e-04,4.72e+00,
116,-7.20e-03,5.12e+00,
117,1.60e-03,4.80e+00,
118,-4.00e-03,5.12e+00,
119,4.00e-03,4.64e+00,
120,-2.40e-03,4.72e+00,
121,4.80e-03,5.12e+00,
122,4.00e-03,5.12e+00,
123,-3.20e-03,4.64e+00,
124,1.60e-03,5.12e+00,
125,-6.40e-03,4.72e+00,
126,-8.00e-04,5.12e+00,
127,-8.80e-03,4.72e+00,
128,-8.80e-03,4.72e+00,
129,-1.60e-03,5.12e+00,
130,-8.00e-03,4.64e+00,
131,8.00e-04,5.12e+00,
132,-6.40e-03,5.12e+00,
133,2.40e-03,4.72e+00,
134,-4.00e-03,5.12e+00,
135,3.20e-03,4.64e+00,
136,-3.20e-03,4.72e+00,
137,4.00e-03,5.12e+00,
138,3.20e-03,5.12e+00,
139,-6.40e-03,4.64e+00,
140,8.00e-04,4.72e+00,
141,-8.00e-03,5.12e+00,
142,-8.00e-04,5.12e+00,
143,-7.20e-03,4.64e+00,
144,0.00e+00,4.64e+00,
145,-8.80e-03,5.12e+00,
146,-6.40e-03,5.12e+00,
147,2.40e-03,4.64e+00,
148,2.40e-03,4.72e+00,
149,-6.40e-03,5.12e+00,
150,2.40e-03,5.12e+00,
151,-5.60e-03,4.64e+00,
152,2.40e-03,4.64e+00,
153,-5.60e-03,5.12e+00,
154,0.00e+00,5.12e+00,
155,-7.20e-03,4.64e+00,
156,-7.20e-03,4.72e+00,
157,8.00e-04,5.12e+00,
158,0.00e+00,5.12e+00,
159,-7.20e-03,4.64e+00,
160,-5.60e-03,4.72e+00,
161,1.60e-03,5.12e+00,
162,-4.80e-03,5.12e+00,
163,2.40e-03,4.64e+00,
164,1.60e-03,5.12e+00,
165,-6.40e-03,4.64e+00,
166,1.60e-03,5.12e+00,
167,-6.40e-03,4.64e+00,
168,0.00e+00,4.72e+00,
169,-7.20e-03,5.12e+00,
170,-8.00e-03,4.64e+00,
171,8.00e-04,5.12e+00,
172,8.00e-04,4.64e+00,
173,-8.00e-03,5.12e+00,
174,-5.60e-03,5.12e+00,
175,1.60e-03,4.64e+00,
176,1.60e-03,4.72e+00,
177,-6.40e-03,5.12e+00,
178,8.00e-04,5.12e+00,
179,-6.40e-03,4.64e+00,
180,8.00e-04,4.64e+00,
181,-8.00e-03,5.12e+00,
182,0.00e+00,4.64e+00,
183,-9.60e-03,5.12e+00,
184,-8.00e-03,4.64e+00,
185,-8.00e-04,5.12e+00,
186,-7.20e-03,4.64e+00,
187,0.00e+00,5.12e+00,
188,-5.60e-03,5.12e+00,
189,2.40e-03,4.64e+00,
190,2.40e-03,4.64e+00,
191,-4.80e-03,5.12e+00,
192,-4.80e-03,4.64e+00,
193,2.40e-03,5.12e+00,
194,1.60e-03,5.04e+00,
195,-6.40e-03,4.64e+00,
196,0.00e+00,4.64e+00,
197,-8.00e-03,5.12e+00,
198,-8.00e-04,4.64e+00,
199,-8.80e-03,5.12e+00,
200,-6.40e-03,4.64e+00,
201,8.00e-04,5.12e+00,
202,-5.60e-03,4.64e+00,
203,1.60e-03,5.12e+00,
204,-4.80e-03,4.64e+00,
205,2.40e-03,5.12e+00,
206,1.60e-03,4.64e+00,
207,-6.40e-03,5.04e+00,
208,8.00e-04,4.64e+00,
209,-6.40e-03,5.12e+00,
210,0.00e+00,5.04e+00,
211,-6.40e-03,4.64e+00,
212,8.00e-04,4.64e+00,
213,-7.20e-03,5.12e+00,
214,0.00e+00,4.64e+00,
215,-7.20e-03,5.04e+00,
216,-5.60e-03,5.04e+00,
217,1.60e-03,4.64e+00,
218,-4.80e-03,5.04e+00,
219,1.60e-03,4.64e+00,
220,-5.60e-03,5.04e+00,
221,1.60e-03,4.64e+00,
222,8.00e-04,4.64e+00,
223,-6.40e-03,5.04e+00,
224,1.60e-03,4.64e+00,
225,-8.00e-03,5.12e+00,
226,-8.00e-03,4.64e+00,
227,8.00e-04,5.04e+00,
228,-5.60e-03,4.64e+00,
229,1.60e-03,5.04e+00,
230,-7.20e-03,4.96e+00,
231,1.60e-03,4.64e+00,
232,1.60e-03,4.64e+00,
233,-6.40e-03,5.12e+00,
234,-6.40e-03,4.64e+00,
235,8.00e-04,4.96e+00,
236,2.40e-03,4.64e+00,
237,-7.20e-03,5.04e+00,
238,8.00e-04,4.64e+00,
239,-6.40e-03,5.04e+00,
240,-6.40e-03,4.64e+00,
241,8.00e-04,5.12e+00,
242,1.60e-03,4.64e+00,
243,-8.80e-03,5.12e+00,
244,-6.40e-03,5.12e+00,
245,2.40e-03,4.56e+00,
246,-4.80e-03,4.64e+00,
247,2.40e-03,5.12e+00,
248,-5.60e-03,4.64e+00,
249,1.60e-03,5.12e+00,
250,-6.40e-03,5.04e+00,
251,8.00e-04,4.64e+00,
252,0.00e+00,4.64e+00,
253,-7.20e-03,5.04e+00,
254,-7.20e-03,5.04e+00,
255,8.00e-04,4.64e+00,
256,1.60e-03,4.64e+00,
257,-5.60e-03,5.04e+00,
258,8.00e-04,5.04e+00,
259,-7.20e-03,4.64e+00,
260,-7.20e-03,5.04e+00,
261,1.60e-03,4.64e+00,
262,8.00e-04,4.64e+00,
263,-6.40e-03,5.04e+00,
264,-7.20e-03,4.64e+00,
265,8.00e-04,5.04e+00,
266,8.00e-04,4.64e+00,
267,-7.20e-03,5.04e+00,
268,-7.20e-03,4.64e+00,
269,1.60e-03,4.96e+00,
270,1.60e-03,4.64e+00,
271,-6.40e-03,5.04e+00,
272,8.00e-04,4.64e+00,
273,-6.40e-03,5.04e+00,
274,8.00e-04,5.12e+00,
275,-6.40e-03,4.56e+00,
276,1.60e-03,4.64e+00,
277,-6.40e-03,5.12e+00,
278,-4.00e-03,4.56e+00,
279,-1.60e-03,5.12e+00,
280,-1.60e-03,4.32e+00,
281,-1.20e-02,5.28e+00,
282,-1.44e-02,5.36e+00,
283,-7.20e-03,4.56e+00,
284,-7.20e-03,4.64e+00,
285,-9.60e-03,5.12e+00,
286,-7.20e-03,5.04e+00,
287,-9.60e-03,4.64e+00,
288,-9.60e-03,4.64e+00,
289,-7.20e-03,5.04e+00,
290,-9.60e-03,5.12e+00,
291,-7.20e-03,4.56e+00,
292,-7.20e-03,5.12e+00,
293,-1.60e-02,4.56e+00,
294,-1.68e-02,5.12e+00,
295,-6.40e-03,-1.28e+00,
296,-1.12e-02,0.00e+00,
297,2.40e-03,-3.20e-01,
298,-1.60e-03,0.00e+00,
299,9.60e-03,-2.40e-01,
300,1.04e-02,0.00e+00,
301,2.40e-03,-2.40e-01,
302,8.80e-03,0.00e+00,
303,-3.20e-03,-1.60e-01,
304,2.40e-03,0.00e+00,
305,-8.80e-03,-2.40e-01,
306,-3.20e-03,-1.60e-01,
307,-1.20e-02,0.00e+00,
308,-5.60e-03,0.00e+00,
309,-1.28e-02,-2.40e-01,
310,-1.12e-02,-1.60e-01,
311,-8.00e-04,0.00e+00,
312,-6.40e-03,0.00e+00,
313,3.20e-03,-2.40e-01,
314,-3.20e-03,-2.40e-01,
315,4.80e-03,0.00e+00,
316,-3.20e-03,0.00e+00,
317,4.80e-03,-2.40e-01,
318,2.40e-03,0.00e+00,
319,-6.40e-03,-2.40e-01,
320,-8.00e-04,0.00e+00,
321,-9.60e-03,-1.60e-01,
322,-8.80e-03,-1.60e-01,
323,-8.00e-04,0.00e+00,
324,-8.80e-03,-1.60e-01,
325,-8.00e-04,0.00e+00,
326,-6.40e-03,-1.60e-01,
327,8.00e-04,0.00e+00,
328,-5.60e-03,0.00e+00,
329,2.40e-03,-2.40e-01,
330,-4.80e-03,-1.60e-01,
331,2.40e-03,0.00e+00,
332,1.60e-03,-1.60e-01,
333,-6.40e-03,0.00e+00,
334,0.00e+00,-1.60e-01,
335,-6.40e-03,0.00e+00,
336,8.00e-04,-1.60e-01,
337,-7.20e-03,0.00e+00,
338,-6.40e-03,0.00e+00,
339,8.00e-04,-2.40e-01,
340,-6.40e-03,-2.40e-01,
341,2.40e-03,0.00e+00,
342,-5.60e-03,-1.60e-01,
343,1.60e-03,0.00e+00,
344,1.60e-03,-1.60e-01,
345,-5.60e-03,-1.60e-01,
346,-7.20e-03,-1.60e-01,
347,8.00e-04,0.00e+00,
348,-7.20e-03,-8.00e-02,
349,8.00e-04,-2.40e-01,
350,0.00e+00,-2.40e-01,
351,-7.20e-03,0.00e+00,
352,8.00e-04,-1.60e-01,
353,-6.40e-03,-1.60e-01,
354,-6.40e-03,-1.60e-01,
355,1.60e-03,0.00e+00,
356,1.60e-03,-1.60e-01,
357,-5.60e-03,-1.60e-01,
358,1.60e-03,-1.60e-01,
359,-5.60e-03,0.00e+00,
360,8.00e-04,0.00e+00,
361,-6.40e-03,-2.40e-01,
362,-7.20e-03,-1.60e-01,
363,0.00e+00,0.00e+00,
364,-8.00e-04,-1.60e-01,
365,-7.20e-03,0.00e+00,
366,-8.00e-03,-1.60e-01,
367,0.00e+00,0.00e+00,
368,-7.20e-03,-1.60e-01,
369,1.60e-03,0.00e+00,
370,-4.80e-03,0.00e+00,
371,2.40e-03,-2.40e-01,
372,2.40e-03,-1.60e-01,
373,-6.40e-03,0.00e+00,
374,1.60e-03,-1.60e-01,
375,-4.80e-03,0.00e+00,
376,8.00e-04,-1.60e-01,
377,-7.20e-03,0.00e+00,
378,-5.60e-03,-1.60e-01,
379,8.00e-04,0.00e+00,
380,0.00e+00,0.00e+00,
381,-8.00e-03,-2.40e-01,
382,-7.20e-03,-2.40e-01,
383,8.00e-04,0.00e+00,
384,8.00e-04,-1.60e-01,
385,-5.60e-03,-1.60e-01,
386,-5.60e-03,-1.60e-01,
387,1.60e-03,0.00e+00,
388,-4.80e-03,-1.60e-01,
389,3.20e-03,-1.60e-01,
390,8.00e-04,-1.60e-01,
391,-5.60e-03,0.00e+00,
392,-5.60e-03,-1.60e-01,
393,1.60e-03,-2.40e-01,
394,1.60e-03,-1.60e-01,
395,-8.80e-03,0.00e+00,
396,-7.20e-03,-1.60e-01,
397,8.00e-04,-1.60e-01,
398,-7.20e-03,-1.60e-01,
399,0.00e+00,0.00e+00,
400,-5.60e-03,-1.60e-01,
401,2.40e-03,0.00e+00,
402,-7.20e-03,0.00e+00,
403,2.40e-03,-2.40e-01,
404,-4.80e-03,-1.60e-01,
405,2.40e-03,0.00e+00,
406,-6.40e-03,-1.60e-01,
407,1.60e-03,0.00e+00,
408,-6.40e-03,-1.60e-01,
409,0.00e+00,0.00e+00,
410,-7.20e-03,-1.60e-01,
411,8.00e-04,0.00e+00,
412,-7.20e-03,0.00e+00,
413,8.00e-04,-2.40e-01,
414,-4.80e-03,-1.60e-01,
415,1.60e-03,0.00e+00,
416,-4.80e-03,-1.60e-01,
417,2.40e-03,0.00e+00,
418,1.60e-03,-1.60e-01,
419,-5.60e-03,0.00e+00,
420,1.60e-03,-1.60e-01,
421,-6.40e-03,0.00e+00,
422,0.00e+00,8.00e-02,
423,-7.20e-03,-2.40e-01,
424,-7.20e-03,-1.60e-01,
425,0.00e+00,0.00e+00,
426,-6.40e-03,-1.60e-01,
427,1.60e-03,0.00e+00,
428,1.60e-03,-1.60e-01,
429,-5.60e-03,8.00e-02,
430,-4.80e-03,-1.60e-01,
431,4.00e-03,8.00e-02,
432,3.20e-03,-2.40e-01,
433,-7.20e-03,8.00e-02,
434,0.00e+00,-2.40e-01,
435,-8.00e-03,8.00e-02,
436,-2.40e-03,-1.60e-01,
437,-8.80e-03,8.00e-02,
438,-8.00e-03,-1.60e-01,
439,-8.00e-04,8.00e-02,
440,-7.20e-03,-1.60e-01,
441,1.60e-03,8.00e-02,
442,-4.80e-03,-1.60e-01,
443,2.40e-03,8.00e-02,
444,-4.80e-03,8.00e-02,
445,2.40e-03,-2.40e-01,
446,2.40e-03,-1.60e-01,
447,-4.80e-03,8.00e-02,
448,8.00e-04,-1.60e-01,
449,-7.20e-03,8.00e-02,
450,-8.00e-03,-1.60e-01,
451,0.00e+00,8.00e-02,
452,-8.80e-03,-1.60e-01,
453,0.00e+00,8.00e-02,
454,-7.20e-03,8.00e-02,
455,-8.00e-04,-2.40e-01,
456,-6.40e-03,-1.60e-01,
457,2.40e-03,8.00e-02,
458,-5.60e-03,-1.60e-01,
459,2.40e-03,8.00e-02,
460,2.40e-03,-1.60e-01,
461,-4.80e-03,8.00e-02,
462,1.60e-03,-1.60e-01,
463,-6.40e-03,8.00e-02,
464,0.00e+00,8.00e-02,
465,-7.20e-03,-2.40e-01,
466,0.00e+00,8.00e-02,
467,-8.80e-03,-1.60e-01,
468,-8.00e-03,-1.60e-01,
469,1.60e-03,8.00e-02,
470,-4.80e-03,8.00e-02,
471,3.20e-03,-1.60e-01,
472,2.40e-03,-1.60e-01,
473,-5.60e-03,8.00e-02,
474,1.60e-03,-1.60e-01,
475,-8.00e-03,8.00e-02,
476,0.00e+00,-1.60e-01,
477,-8.00e-03,8.00e-02,
478,-8.00e-04,-1.60e-01,
479,-9.60e-03,8.00e-02,
480,-8.00e-03,-1.60e-01,
481,1.60e-03,8.00e-02,
482,-4.80e-03,-1.60e-01,
483,3.20e-03,8.00e-02,
484,-2.40e-03,-1.60e-01,
485,5.60e-03,8.00e-02,
486,4.80e-03,8.00e-02,
487,-3.20e-03,-2.40e-01,
488,3.20e-03,-1.60e-01,
489,-8.80e-03,8.00e-02,
490,-2.40e-03,-1.60e-01,
491,-1.28e-02,8.00e-02,
492,-5.60e-03,-1.60e-01,
493,-1.44e-02,8.00e-02,
494,-1.28e-02,-1.60e-01,
495,-2.40e-03,8.00e-02,
496,-8.80e-03,8.00e-02,
497,5.60e-03,-1.60e-01,
498,0.00e+00,-1.60e-01,
499,1.12e-02,8.00e-02,
500,1.36e-02,8.00e-02,
501,4.00e-03,-1.60e-01,
502,1.12e-02,-1.60e-01,
503,-4.00e-03,8.00e-02,
504,8.00e-04,8.00e-02,
505,-1.60e-02,-1.60e-01,
506,-1.04e-02,8.00e-02,
507,-2.24e-02,-2.40e-01,
508,-2.32e-02,-1.60e-01,
509,-1.28e-02,8.00e-02,
510,-1.84e-02,-1.60e-01,
511,8.00e-04,8.00e-02,
512,-4.00e-03,-1.60e-01,
513,1.76e-02,8.00e-02,
514,1.12e-02,8.00e-02,
515,2.48e-02,-1.60e-01,
516,2.32e-02,8.00e-02,
517,1.04e-02,-1.60e-01,
518,1.52e-02,8.00e-02,
519,-9.60e-03,-1.60e-01,
520,-4.80e-03,-1.60e-01,
521,-2.96e-02,8.00e-02,
522,-2.40e-02,-1.60e-01,
523,-3.92e-02,8.00e-02,
524,-3.92e-02,8.00e-02,
525,-2.32e-02,-1.60e-01,
526,-2.80e-02,8.00e-02,
527,1.20e-02,-1.60e-01,
528,6.40e-03,8.00e-02,
529,4.88e-02,-2.40e-01,
530,5.36e-02,8.00e-02,
531,3.92e-02,-1.60e-01,
532,4.32e-02,8.00e-02,
533,-8.80e-03,-1.60e-01,
534,-4.80e-03,8.00e-02,
535,-5.04e-02,-1.60e-01,
536,-5.68e-02,-1.60e-01,
537,-4.48e-02,8.00e-02,
538,-4.88e-02,8.00e-02,
539,-1.12e-02,-2.40e-01,
540,-1.44e-02,-1.60e-01,
541,2.00e-02,8.00e-02,
542,1.52e-02,8.00e-02,
543,3.04e-02,-1.60e-01,
544,2.96e-02,8.00e-02,
545,1.60e-02,-1.60e-01,
546,2.16e-02,-8.00e-02,
547,-8.00e-04,8.00e-02,
548,4.00e-03,8.00e-02,
549,-1.84e-02,-1.60e-01,
550,-1.28e-02,8.00e-02,
551,-2.64e-02,-1.60e-01,
552,-2.72e-02,8.00e-02,
553,-1.36e-02,-1.60e-01,
554,-1.92e-02,-1.60e-01,
555,-1.60e-03,8.00e-02,
556,-7.20e-03,-1.60e-01,
557,9.60e-03,8.00e-02,
558,4.00e-03,8.00e-02,
559,1.52e-02,-1.60e-01,
560,1.52e-02,8.00e-02,
561,3.20e-03,-1.60e-01,
562,8.80e-03,8.00e-02,
563,-6.40e-03,-1.60e-01,
564,-1.60e-03,-8.00e-02,
565,-1.52e-02,8.00e-02,
566,-8.80e-03,-8.00e-02,
567,-1.68e-02,8.00e-02,
568,-1.44e-02,8.00e-02,
569,-5.60e-03,-1.60e-01,
570,-1.12e-02,-8.00e-02,
571,2.40e-03,8.00e-02,
572,-4.00e-03,8.00e-02,
573,5.60e-03,-1.60e-01,
574,-8.00e-04,-8.00e-02,
575,8.00e-03,8.00e-02,
576,6.40e-03,8.00e-02,
577,-4.00e-03,-1.60e-01,
578,8.00e-04,-1.60e-01,
579,-8.00e-03,8.00e-02,
580,-1.60e-03,-8.00e-02,
581,-1.04e-02,8.00e-02,
582,-1.04e-02,8.00e-02,
583,-2.40e-03,-1.60e-01,
584,-9.60e-03,-1.60e-01,
585,0.00e+00,8.00e-02,
586,-5.60e-03,8.00e-02,
587,2.40e-03,-1.60e-01,
588,-4.80e-03,-1.60e-01,
589,3.20e-03,8.00e-02,
590,2.40e-03,8.00e-02,
591,-6.40e-03,-1.60e-01,
592,1.60e-03,-8.00e-02,
593,-8.00e-03,8.00e-02,
594,8.00e-04,-8.00e-02,
595,-9.60e-03,8.00e-02,
596,-9.60e-03,-1.60e-01,
597,8.00e-04,8.00e-02,
598,-6.40e-03,8.00e-02,
599,1.60e-03,-8.00e-02,
600,-4.80e-03,8.00e-02,
601,2.40e-03,-1.60e-01,
602,1.60e-03,-8.00e-02,
603,-6.40e-03,8.00e-02,
604,-7.20e-03,-8.00e-02,
605,2.40e-03,8.00e-02,
606,0.00e+00,-8.00e-02,
607,-8.80e-03,8.00e-02,
608,-8.00e-03,8.00e-02,
609,0.00e+00,-1.60e-01,
610,-6.40e-03,8.00e-02,
611,8.00e-04,-1.60e-01,
612,-5.60e-03,-8.00e-02,
613,2.40e-03,8.00e-02,
614,3.20e-03,8.00e-02,
615,-5.60e-03,-1.60e-01,
616,-5.60e-03,8.00e-02,
617,3.20e-03,-1.60e-01,
618,2.40e-03,8.00e-02,
619,-6.40e-03,-8.00e-02,
620,-8.00e-04,8.00e-02,
621,-8.80e-03,-1.60e-01,
622,-8.00e-04,8.00e-02,
623,-8.80e-03,-8.00e-02,
624,-8.00e-03,8.00e-02,
625,8.00e-04,-1.60e-01,
626,-5.60e-03,8.00e-02,
627,1.60e-03,-1.60e-01,
628,-4.80e-03,-1.60e-01,
629,2.40e-03,8.00e-02,
630,3.20e-03,8.00e-02,
631,-4.80e-03,-1.60e-01,
632,2.40e-03,-8.00e-02,
633,-6.40e-03,8.00e-02,
634,8.00e-04,8.00e-02,
635,-7.20e-03,-8.00e-02,
636,-8.00e-04,-8.00e-02,
637,-8.00e-03,8.00e-02,
638,-7.20e-03,8.00e-02,
639,8.00e-04,-1.60e-01,
640,-8.80e-03,8.00e-02,
641,1.60e-03,-1.60e-01,
642,3.20e-03,8.00e-02,
643,-5.60e-03,-1.60e-01,
644,2.40e-03,-8.00e-02,
645,-4.80e-03,8.00e-02,
646,-4.80e-03,-8.00e-02,
647,1.60e-03,8.00e-02,
648,1.60e-03,-8.00e-02,
649,-7.20e-03,8.00e-02,
650,-8.80e-03,-8.00e-02,
651,8.00e-04,8.00e-02,
652,-6.40e-03,-8.00e-02,
653,8.00e-04,8.00e-02,
654,-5.60e-03,8.00e-02,
655,1.60e-03,-1.60e-01,
656,-5.60e-03,8.00e-02,
657,1.60e-03,-1.60e-01,
658,2.40e-03,-8.00e-02,
659,-6.40e-03,8.00e-02,
660,1.60e-03,8.00e-02,
661,-5.60e-03,-1.60e-01,
662,-6.40e-03,8.00e-02,
663,8.00e-04,-1.60e-01,
664,8.00e-04,-1.60e-01,
665,-7.20e-03,8.00e-02,
666,-6.40e-03,8.00e-02,
667,1.60e-03,-1.60e-01,
668,-5.60e-03,-1.60e-01,
669,2.40e-03,8.00e-02,
670,-5.60e-03,8.00e-02,
671,1.60e-03,-1.60e-01,
672,-5.60e-03,-1.60e-01,
673,1.60e-03,8.00e-02,
674,1.60e-03,8.00e-02,
675,-5.60e-03,-8.00e-02,
676,8.00e-04,-1.60e-01,
677,-7.20e-03,8.00e-02,
678,-6.40e-03,8.00e-02,
679,1.60e-03,-1.60e-01,
680,8.00e-04,8.00e-02,
681,-7.20e-03,-1.60e-01,
682,-5.60e-03,-1.60e-01,
683,2.40e-03,8.00e-02,
684,2.40e-03,8.00e-02,
685,-7.20e-03,-1.60e-01,
686,8.00e-04,-8.00e-02,
687,-7.20e-03,8.00e-02,
688,-7.20e-03,8.00e-02,
689,8.00e-04,-1.60e-01,
690,0.00e+00,8.00e-02,
691,-8.00e-03,-1.60e-01,
692,-8.00e-04,-1.60e-01,
693,-8.00e-03,8.00e-02,
694,8.00e-04,-1.60e-01,
695,-7.20e-03,8.00e-02,
696,8.00e-04,8.00e-02,
697,-8.00e-03,-1.60e-01,
698,-7.20e-03,8.00e-02,
699,1.60e-03,-1.60e-01,
700,-6.40e-03,8.00e-02,
701,1.60e-03,-1.60e-01,
702,8.00e-04,-1.60e-01,
703,-6.40e-03,8.00e-02,
704,8.00e-04,-1.60e-01,
705,-6.40e-03,8.00e-02,
706,0.00e+00,8.00e-02,
707,-7.20e-03,-8.00e-02,
708,8.00e-04,-1.60e-01,
709,-7.20e-03,8.00e-02,
710,-7.20e-03,8.00e-02,
711,8.00e-04,-1.60e-01,
712,1.60e-03,-8.00e-02,
713,-7.20e-03,8.00e-02,
714,-7.20e-03,8.00e-02,
715,1.60e-03,-1.60e-01,
716,-7.20e-03,-1.60e-01,
717,1.60e-03,8.00e-02,
718,8.00e-04,8.00e-02,
719,-5.60e-03,-1.60e-01,
720,0.00e+00,8.00e-02,
721,-6.40e-03,-1.60e-01,
722,-6.40e-03,-8.00e-02,
723,8.00e-04,8.00e-02,
724,-8.00e-03,8.00e-02,
725,1.60e-03,-1.60e-01,
726,-6.40e-03,8.00e-02,
727,1.60e-03,-8.00e-02,
728,1.60e-03,8.00e-02,
729,-6.40e-03,-1.60e-01,
730,8.00e-04,8.00e-02,
731,-6.40e-03,-1.60e-01,
732,-7.20e-03,-1.60e-01,
733,8.00e-04,8.00e-02,
734,8.00e-04,8.00e-02,
735,-6.40e-03,-1.60e-01,
736,-7.20e-03,8.00e-02,
737,8.00e-04,-1.60e-01,
738,-6.40e-03,8.00e-02,
739,1.60e-03,-1.60e-01,
740,-5.60e-03,8.00e-02,
741,2.40e-03,-1.60e-01,
742,1.60e-03,8.00e-02,
743,-6.40e-03,-1.60e-01,
744,8.00e-04,-1.60e-01,
745,-6.40e-03,8.00e-02,
746,1.60e-03,8.00e-02,
747,-8.00e-03,-1.60e-01,
748,8.00e-04,-1.60e-01,
749,-7.20e-03,8.00e-02,
750,-6.40e-03,8.00e-02,
751,1.60e-03,-1.60e-01,
752,-6.40e-03,8.00e-02,
753,2.40e-03,-1.60e-01,
754,-6.40e-03,8.00e-02,
755,1.60e-03,-1.60e-01,
756,8.00e-04,8.00e-02,
757,-7.20e-03,-1.60e-01,
758,8.00e-04,-2.40e-01,
759,-6.40e-03,8.00e-02,
760,8.00e-04,-1.60e-01,
761,-6.40e-03,8.00e-02,
762,1.60e-03,8.00e-02,
763,-5.60e-03,-1.60e-01,
764,-5.60e-03,8.00e-02,
765,1.60e-03,-1.60e-01,
766,-6.40e-03,8.00e-02,
767,1.60e-03,-1.60e-01,
768,8.00e-04,8.00e-02,
769,-5.60e-03,-1.60e-01,
770,1.60e-03,-8.00e-02,
771,-6.40e-03,8.00e-02,
772,0.00e+00,-1.60e-01,
773,-8.00e-03,8.00e-02,
774,-7.20e-03,8.00e-02,
775,8.00e-04,-1.60e-01,
776,8.00e-04,8.00e-02,
777,-7.20e-03,-1.60e-01,
778,2.40e-03,8.00e-02,
779,-7.20e-03,-1.60e-01,
780,-6.40e-03,8.00e-02,
781,2.40e-03,-1.60e-01,
782,-6.40e-03,8.00e-02,
783,8.00e-04,-1.60e-01,
784,1.60e-03,8.00e-02,
785,-6.40e-03,-1.60e-01,
786,-8.80e-03,-1.60e-01,
787,1.60e-03,8.00e-02,
788,2.40e-03,8.00e-02,
789,-6.40e-03,-1.60e-01,
790,2.40e-03,-1.60e-01,
791,-6.40e-03,8.00e-02,
792,8.00e-04,-1.60e-01,
793,-6.40e-03,8.00e-02,
794,1.60e-03,8.00e-02,
795,-5.60e-03,-1.60e-01,
796,1.60e-03,8.00e-02,
797,-8.00e-03,-1.60e-01,
798,-5.60e-03,8.00e-02,
799,1.60e-03,-1.60e-01,
800,1.60e-03,8.00e-02,
801,-7.20e-03,-2.40e-01,
802,-5.60e-03,8.00e-02,
803,1.60e-03,-1.60e-01,
804,-5.60e-03,8.00e-02,
805,1.60e-03,-1.60e-01,
806,-5.60e-03,8.00e-02,
807,1.60e-03,-1.60e-01,
808,1.60e-03,8.00e-02,
809,-6.40e-03,-1.60e-01,
810,-6.40e-03,8.00e-02,
811,8.00e-04,-1.60e-01,
812,1.60e-03,8.00e-02,
813,-7.20e-03,-1.60e-01,
814,1.60e-03,8.00e-02,
815,-6.40e-03,-1.60e-01,
816,-6.40e-03,8.00e-02,
817,1.60e-03,-1.60e-01,
818,8.00e-04,8.00e-02,
819,-6.40e-03,-1.60e-01,
820,1.60e-03,8.00e-02,
821,-7.20e-03,-1.60e-01,
822,-6.40e-03,8.00e-02,
823,1.60e-03,-1.60e-01,
824,8.00e-04,8.00e-02,
825,-5.60e-03,-1.60e-01,
826,1.60e-03,8.00e-02,
827,-6.40e-03,-1.60e-01,
828,1.60e-03,8.00e-02,
829,-6.40e-03,-1.60e-01,
830,8.00e-04,8.00e-02,
831,-6.40e-03,-1.60e-01,
832,1.60e-03,-1.60e-01,
833,-6.40e-03,8.00e-02,
834,1.60e-03,8.00e-02,
835,-7.20e-03,-1.60e-01,
836,1.60e-03,8.00e-02,
837,-6.40e-03,-1.60e-01,
