NMRdata/glyc1/95up/98t6.csv

X,CH3,CH4,Start,Increment,
Sequence,Volt,Volt,-4.800000e-04,2.000000e-05
0,8.00e-04,-1.60e-01,
1,-7.20e-03,8.00e-02,
2,8.00e-04,8.00e-02,
3,-6.40e-03,-1.60e-01,
4,8.00e-04,-1.60e-01,
5,-6.40e-03,8.00e-02,
6,-6.40e-03,8.00e-02,
7,1.60e-03,-1.60e-01,
8,-5.60e-03,-1.60e-01,
9,1.60e-03,8.00e-02,
10,1.60e-03,-1.60e-01,
11,-7.20e-03,8.00e-02,
12,1.60e-03,8.00e-02,
13,-6.40e-03,-1.60e-01,
14,-6.40e-03,8.00e-02,
15,2.40e-03,-1.60e-01,
16,1.60e-03,8.00e-02,
17,-5.60e-03,-1.60e-01,
18,8.00e-04,8.00e-02,
19,-6.40e-03,-1.60e-01,
20,-6.40e-03,8.00e-02,
21,8.00e-04,-1.60e-01,
22,-6.40e-03,8.00e-02,
23,8.00e-04,-1.60e-01,
24,-6.40e-03,5.76e+00,
25,3.20e-03,4.72e+00,
26,1.60e-03,4.72e+00,
27,-5.60e-03,5.20e+00,
28,-8.00e-04,4.64e+00,
29,-3.20e-03,5.20e+00,
30,-8.00e-04,5.28e+00,
31,-1.12e-02,4.48e+00,
32,-9.60e-03,4.72e+00,
33,-5.60e-03,5.20e+00,
34,-5.60e-03,4.72e+00,
35,-8.00e-03,5.20e+00,
36,-5.60e-03,4.72e+00,
37,-8.00e-03,5.20e+00,
38,-5.60e-03,4.72e+00,
39,-2.64e-02,5.20e+00,
40,-2.32e-02,4.72e+00,
41,-6.00e-02,5.20e+00,
42,-6.08e-02,5.12e+00,
43,-5.04e-02,4.64e+00,
44,-5.44e-02,5.12e+00,
45,-2.32e-02,4.72e+00,
46,-2.56e-02,4.72e+00,
47,1.36e-02,5.12e+00,
48,9.60e-03,4.72e+00,
49,3.68e-02,5.12e+00,
50,4.08e-02,5.12e+00,
51,3.12e-02,4.72e+00,
52,3.36e-02,5.12e+00,
53,5.60e-03,4.72e+00,
54,1.04e-02,4.72e+00,
55,-1.92e-02,5.12e+00,
56,-1.60e-02,5.12e+00,
57,-3.04e-02,4.72e+00,
58,-3.28e-02,5.12e+00,
59,-2.16e-02,4.72e+00,
60,-2.80e-02,5.12e+00,
61,-5.60e-03,4.72e+00,
62,-1.12e-02,5.12e+00,
63,1.12e-02,4.64e+00,
64,5.60e-03,5.12e+00,
65,2.00e-02,4.72e+00,
66,2.00e-02,5.12e+00,
67,6.40e-03,4.72e+00,
68,1.12e-02,4.72e+00,
69,-4.00e-03,5.12e+00,
70,0.00e+00,5.12e+00,
71,-1.52e-02,4.64e+00,
72,-9.60e-03,5.12e+00,
73,-1.84e-02,4.64e+00,
74,-1.76e-02,4.72e+00,
75,-4.00e-03,5.12e+00,
76,-1.04e-02,4.72e+00,
77,2.40e-03,5.12e+00,
78,-3.20e-03,5.12e+00,
79,7.20e-03,4.72e+00,
80,8.00e-03,5.12e+00,
81,0.00e+00,4.72e+00,
82,5.60e-03,5.12e+00,
83,-3.20e-03,4.72e+00,
84,4.00e-03,5.12e+00,
85,-9.60e-03,4.72e+00,
86,-3.20e-03,5.12e+00,
87,-1.12e-02,4.72e+00,
88,-1.04e-02,4.72e+00,
89,0.00e+00,5.12e+00,
90,-7.20e-03,5.12e+00,
91,1.60e-03,4.64e+00,
92,-6.40e-03,5.12e+00,
93,3.20e-03,4.72e+00,
94,-5.60e-03,5.12e+00,
95,2.40e-03,4.64e+00,
96,0.00e+00,5.12e+00,
97,-8.00e-03,4.64e+00,
98,-1.60e-03,5.12e+00,
99,-9.60e-03,4.72e+00,
100,-1.60e-03,5.12e+00,
101,-9.60e-03,4.72e+00,
102,-7.20e-03,5.12e+00,
103,1.60e-03,4.64e+00,
104,-4.80e-03,5.12e+00,
105,4.00e-03,4.72e+00,
106,-3.20e-03,4.72e+00,
107,4.00e-03,5.12e+00,
108,3.20e-03,4.72e+00,
109,-4.80e-03,5.12e+00,
110,8.00e-04,5.12e+00,
111,-8.80e-03,4.64e+00,
112,-3.20e-03,4.72e+00,
113,-1.04e-02,5.12e+00,
114,-1.20e-02,5.12e+00,
115,-2.40e-03,4.72e+00,
116,-8.80e-03,5.12e+00,
117,0.00e+00,4.64e+00,
118,-5.60e-03,5.12e+00,
119,3.20e-03,4.64e+00,
120,-2.40e-03,5.12e+00,
121,5.60e-03,4.72e+00,
122,4.00e-03,5.12e+00,
123,-4.00e-03,4.72e+00,
124,1.60e-03,5.12e+00,
125,-8.00e-03,4.72e+00,
126,-1.60e-03,5.12e+00,
127,-9.60e-03,4.64e+00,
128,-1.04e-02,5.12e+00,
129,-8.00e-04,4.72e+00,
130,-8.00e-03,5.12e+00,
131,-8.00e-04,4.72e+00,
132,-5.60e-03,5.12e+00,
133,2.40e-03,4.72e+00,
134,-4.00e-03,5.12e+00,
135,3.20e-03,4.64e+00,
136,-4.00e-03,5.12e+00,
137,4.00e-03,4.72e+00,
138,1.60e-03,5.12e+00,
139,-6.40e-03,4.72e+00,
140,-7.20e-03,4.72e+00,
141,8.00e-04,5.12e+00,
142,-8.00e-03,5.12e+00,
143,-8.00e-04,4.64e+00,
144,-7.20e-03,5.12e+00,
145,8.00e-04,4.64e+00,
146,-6.40e-03,5.12e+00,
147,1.60e-03,4.72e+00,
148,-6.40e-03,4.72e+00,
149,2.40e-03,5.12e+00,
150,-4.80e-03,5.12e+00,
151,3.20e-03,4.64e+00,
152,1.60e-03,5.12e+00,
153,-6.40e-03,4.72e+00,
154,0.00e+00,5.12e+00,
155,-7.20e-03,4.64e+00,
156,-8.00e-03,5.12e+00,
157,8.00e-04,4.64e+00,
158,-8.00e-03,5.12e+00,
159,8.00e-04,4.64e+00,
160,-4.80e-03,5.12e+00,
161,3.20e-03,4.64e+00,
162,-4.80e-03,5.12e+00,
163,4.00e-03,4.64e+00,
164,2.40e-03,5.12e+00,
165,-4.80e-03,4.64e+00,
166,-6.40e-03,5.12e+00,
167,1.60e-03,4.64e+00,
168,-7.20e-03,4.72e+00,
169,0.00e+00,5.12e+00,
170,-7.20e-03,4.64e+00,
171,8.00e-04,5.12e+00,
172,8.00e-04,5.12e+00,
173,-7.20e-03,4.64e+00,
174,-5.60e-03,4.64e+00,
175,2.40e-03,5.12e+00,
176,3.20e-03,4.72e+00,
177,-4.80e-03,5.12e+00,
178,1.60e-03,5.12e+00,
179,-6.40e-03,4.64e+00,
180,8.00e-04,5.12e+00,
181,-7.20e-03,4.64e+00,
182,0.00e+00,5.12e+00,
183,-8.80e-03,4.64e+00,
184,-8.00e-03,5.12e+00,
185,0.00e+00,4.64e+00,
186,-6.40e-03,5.12e+00,
187,1.60e-03,4.64e+00,
188,1.60e-03,5.12e+00,
189,-4.80e-03,4.64e+00,
190,-4.80e-03,5.12e+00,
191,3.20e-03,4.64e+00,
192,2.40e-03,4.64e+00,
193,-4.80e-03,5.12e+00,
194,1.60e-03,4.64e+00,
195,-6.40e-03,5.12e+00,
196,0.00e+00,5.12e+00,
197,-7.20e-03,4.64e+00,
198,0.00e+00,4.64e+00,
199,-7.20e-03,5.12e+00,
200,8.00e-04,4.64e+00,
201,-7.20e-03,5.12e+00,
202,-6.40e-03,4.64e+00,
203,2.40e-03,5.12e+00,
204,2.40e-03,5.12e+00,
205,-6.40e-03,4.64e+00,
206,1.60e-03,5.12e+00,
207,-5.60e-03,4.64e+00,
208,-6.40e-03,5.12e+00,
209,1.60e-03,4.64e+00,
210,-6.40e-03,5.04e+00,
211,0.00e+00,4.64e+00,
212,8.00e-04,4.64e+00,
213,-7.20e-03,5.12e+00,
214,-7.20e-03,4.64e+00,
215,8.00e-04,5.12e+00,
216,-6.40e-03,4.64e+00,
217,1.60e-03,5.12e+00,
218,-5.60e-03,5.12e+00,
219,2.40e-03,4.64e+00,
220,3.20e-03,4.64e+00,
221,-6.40e-03,5.12e+00,
222,8.00e-04,4.64e+00,
223,-8.00e-03,5.12e+00,
224,-7.20e-03,5.12e+00,
225,8.00e-04,4.64e+00,
226,-7.20e-03,4.64e+00,
227,8.00e-04,5.12e+00,
228,8.00e-04,5.12e+00,
229,-8.00e-03,4.64e+00,
230,-7.20e-03,4.64e+00,
231,2.40e-03,5.12e+00,
232,2.40e-03,4.64e+00,
233,-6.40e-03,5.12e+00,
234,8.00e-04,4.64e+00,
235,-7.20e-03,5.04e+00,
236,-6.40e-03,4.64e+00,
237,1.60e-03,5.04e+00,
238,8.00e-04,4.64e+00,
239,-8.00e-03,5.04e+00,
240,1.60e-03,4.64e+00,
241,-7.20e-03,5.12e+00,
242,-7.20e-03,4.64e+00,
243,2.40e-03,5.12e+00,
244,-7.20e-03,4.64e+00,
245,2.40e-03,5.04e+00,
246,1.60e-03,4.64e+00,
247,-6.40e-03,5.12e+00,
248,8.00e-04,4.64e+00,
249,-6.40e-03,5.12e+00,
250,-5.60e-03,5.04e+00,
251,1.60e-03,4.64e+00,
252,8.00e-04,5.04e+00,
253,-7.20e-03,4.64e+00,
254,-7.20e-03,5.04e+00,
255,8.00e-04,4.64e+00,
256,-6.40e-03,4.64e+00,
257,8.00e-04,5.12e+00,
258,-5.60e-03,5.04e+00,
259,1.60e-03,4.64e+00,
260,2.40e-03,4.64e+00,
261,-5.60e-03,5.04e+00,
262,2.40e-03,5.04e+00,
263,-7.20e-03,4.64e+00,
264,8.00e-04,4.64e+00,
265,-6.40e-03,5.12e+00,
266,8.00e-04,4.64e+00,
267,-6.40e-03,5.12e+00,
268,-7.20e-03,4.64e+00,
269,0.00e+00,4.80e+00,
270,8.00e-04,4.64e+00,
271,-8.00e-03,4.96e+00,
272,1.60e-03,4.64e+00,
273,-6.40e-03,5.12e+00,
274,1.60e-03,4.64e+00,
275,-6.40e-03,5.04e+00,
276,-5.60e-03,4.64e+00,
277,2.40e-03,5.04e+00,
278,3.20e-03,4.64e+00,
279,-6.40e-03,5.04e+00,
280,0.00e+00,4.64e+00,
281,-7.20e-03,5.04e+00,
282,8.00e-04,5.04e+00,
283,-8.00e-03,4.64e+00,
284,-6.40e-03,4.64e+00,
285,8.00e-04,5.04e+00,
286,-6.40e-03,4.64e+00,
287,1.60e-03,5.04e+00,
288,-4.80e-03,4.64e+00,
289,2.40e-03,5.12e+00,
290,-4.80e-03,4.64e+00,
291,1.60e-03,5.12e+00,
292,1.60e-03,5.04e+00,
293,-6.40e-03,4.64e+00,
294,0.00e+00,5.04e+00,
295,-8.00e-03,4.56e+00,
296,-7.20e-03,4.64e+00,
297,8.00e-04,5.12e+00,
298,8.00e-04,4.64e+00,
299,-7.20e-03,5.04e+00,
300,-5.60e-03,5.04e+00,
301,2.40e-03,4.64e+00,
302,2.40e-03,5.04e+00,
303,-6.40e-03,4.64e+00,
304,1.60e-03,4.64e+00,
305,-6.40e-03,5.12e+00,
306,-6.40e-03,4.64e+00,
307,2.40e-03,5.04e+00,
308,0.00e+00,4.64e+00,
309,-8.00e-03,5.12e+00,
310,-7.20e-03,4.64e+00,
311,2.40e-03,5.04e+00,
312,3.20e-03,4.64e+00,
313,-5.60e-03,5.12e+00,
314,1.60e-03,4.64e+00,
315,-6.40e-03,5.04e+00,
316,1.60e-03,4.64e+00,
317,-5.60e-03,5.12e+00,
318,1.60e-03,4.64e+00,
319,-6.40e-03,5.04e+00,
320,1.60e-03,5.04e+00,
321,-7.20e-03,4.64e+00,
322,8.00e-04,4.64e+00,
323,-7.20e-03,5.04e+00,
324,0.00e+00,5.12e+00,
325,-8.00e-03,4.56e+00,
326,-7.20e-03,5.04e+00,
327,1.60e-03,4.56e+00,
328,-3.20e-03,5.12e+00,
329,-8.00e-04,4.56e+00,
330,-8.00e-04,4.40e+00,
331,-1.20e-02,5.28e+00,
332,-1.44e-02,5.36e+00,
333,-7.20e-03,4.56e+00,
334,-7.20e-03,5.12e+00,
335,-9.60e-03,4.56e+00,
336,-7.20e-03,4.56e+00,
337,-9.60e-03,5.04e+00,
338,-7.20e-03,4.64e+00,
339,-9.60e-03,5.04e+00,
340,-7.20e-03,4.64e+00,
341,-9.60e-03,5.12e+00,
342,-6.40e-03,5.12e+00,
343,-1.76e-02,4.56e+00,
344,-1.84e-02,5.12e+00,
345,-5.60e-03,-1.28e+00,
346,-1.12e-02,0.00e+00,
347,4.00e-03,-3.20e-01,
348,-1.60e-03,0.00e+00,
349,1.20e-02,-2.40e-01,
350,1.28e-02,-1.60e-01,
351,3.20e-03,0.00e+00,
352,8.80e-03,0.00e+00,
353,-3.20e-03,-2.40e-01,
354,1.60e-03,-1.60e-01,
355,-1.12e-02,0.00e+00,
356,-4.80e-03,0.00e+00,
357,-1.28e-02,-2.40e-01,
358,-1.28e-02,-1.60e-01,
359,-4.00e-03,0.00e+00,
360,-1.12e-02,-1.60e-01,
361,8.00e-04,0.00e+00,
362,-5.60e-03,-1.60e-01,
363,3.20e-03,0.00e+00,
364,-1.60e-03,-1.60e-01,
365,6.40e-03,0.00e+00,
366,4.80e-03,0.00e+00,
367,-4.00e-03,-2.40e-01,
368,1.60e-03,-2.40e-01,
369,-8.00e-03,0.00e+00,
370,-8.80e-03,-1.60e-01,
371,-8.00e-04,0.00e+00,
372,-8.80e-03,-1.60e-01,
373,-8.00e-04,0.00e+00,
374,-7.20e-03,-1.60e-01,
375,0.00e+00,0.00e+00,
376,-6.40e-03,0.00e+00,
377,1.60e-03,-2.40e-01,
378,-5.60e-03,-1.60e-01,
379,2.40e-03,0.00e+00,
380,2.40e-03,-1.60e-01,
381,-5.60e-03,0.00e+00,
382,0.00e+00,-1.60e-01,
383,-8.00e-03,0.00e+00,
384,0.00e+00,-8.00e-02,
385,-1.04e-02,-1.60e-01,
386,-8.00e-03,-1.60e-01,
387,8.00e-04,0.00e+00,
388,-7.20e-03,-8.00e-02,
389,8.00e-04,-2.40e-01,
390,-6.40e-03,-1.60e-01,
391,2.40e-03,0.00e+00,
392,2.40e-03,0.00e+00,
393,-5.60e-03,-1.60e-01,
394,1.60e-03,-1.60e-01,
395,-6.40e-03,0.00e+00,
396,8.00e-04,0.00e+00,
397,-8.00e-03,-1.60e-01,
398,-8.80e-03,-2.40e-01,
399,-8.00e-04,0.00e+00,
400,-7.20e-03,-2.40e-01,
401,0.00e+00,0.00e+00,
402,-5.60e-03,-1.60e-01,
403,2.40e-03,0.00e+00,
404,-4.00e-03,-1.60e-01,
405,4.00e-03,0.00e+00,
406,-4.00e-03,-1.60e-01,
407,3.20e-03,0.00e+00,
408,2.40e-03,0.00e+00,
409,-6.40e-03,-2.40e-01,
410,0.00e+00,0.00e+00,
411,-9.60e-03,-2.40e-01,
412,-9.60e-03,-1.60e-01,
413,-8.00e-04,0.00e+00,
414,0.00e+00,-1.60e-01,
415,-8.00e-03,0.00e+00,
416,-5.60e-03,-1.60e-01,
417,2.40e-03,0.00e+00,
418,1.60e-03,0.00e+00,
419,-5.60e-03,-2.40e-01,
420,2.40e-03,-1.60e-01,
421,-5.60e-03,0.00e+00,
422,2.40e-03,-1.60e-01,
423,-5.60e-03,0.00e+00,
424,0.00e+00,0.00e+00,
425,-8.00e-03,-1.60e-01,
426,0.00e+00,-1.60e-01,
427,-8.80e-03,0.00e+00,
428,-7.20e-03,0.00e+00,
429,2.40e-03,-1.60e-01,
430,-6.40e-03,-2.40e-01,
431,1.60e-03,0.00e+00,
432,-6.40e-03,-8.00e-02,
433,4.00e-03,-1.60e-01,
434,2.40e-03,-1.60e-01,
435,-7.20e-03,0.00e+00,
436,-7.20e-03,0.00e+00,
437,8.00e-04,-1.60e-01,
438,1.60e-03,-1.60e-01,
439,-7.20e-03,0.00e+00,
440,0.00e+00,0.00e+00,
441,-8.00e-03,-2.40e-01,
442,8.00e-04,-1.60e-01,
443,-8.00e-03,0.00e+00,
444,-8.00e-03,-1.60e-01,
445,0.00e+00,0.00e+00,
446,1.60e-03,-1.60e-01,
447,-6.40e-03,0.00e+00,
448,8.00e-04,-1.60e-01,
449,-6.40e-03,0.00e+00,
450,-7.20e-03,0.00e+00,
451,1.60e-03,-2.40e-01,
452,0.00e+00,-2.40e-01,
453,-7.20e-03,8.00e-02,
454,0.00e+00,-1.60e-01,
455,-7.20e-03,0.00e+00,
456,-6.40e-03,-1.60e-01,
457,1.60e-03,8.00e-02,
458,-5.60e-03,-1.60e-01,
459,1.60e-03,8.00e-02,
460,2.40e-03,0.00e+00,
461,-6.40e-03,-2.40e-01,
462,2.40e-03,8.00e-02,
463,-6.40e-03,-2.40e-01,
464,8.00e-04,-1.60e-01,
465,-8.00e-03,8.00e-02,
466,-8.00e-03,-1.60e-01,
467,8.00e-04,8.00e-02,
468,8.00e-04,-1.60e-01,
469,-7.20e-03,8.00e-02,
470,-8.00e-03,8.00e-02,
471,2.40e-03,-1.60e-01,
472,2.40e-03,-1.60e-01,
473,-6.40e-03,8.00e-02,
474,-4.00e-03,-1.60e-01,
475,3.20e-03,8.00e-02,
476,4.00e-03,-1.60e-01,
477,-4.80e-03,8.00e-02,
478,2.40e-03,-1.60e-01,
479,-6.40e-03,8.00e-02,
480,8.00e-04,-1.60e-01,
481,-8.00e-03,8.00e-02,
482,-1.60e-03,8.00e-02,
483,-8.80e-03,-2.40e-01,
484,-8.00e-03,-1.60e-01,
485,8.00e-04,8.00e-02,
486,-5.60e-03,-1.60e-01,
487,1.60e-03,8.00e-02,
488,-4.80e-03,-1.60e-01,
489,3.20e-03,8.00e-02,
490,1.60e-03,-1.60e-01,
491,-4.80e-03,8.00e-02,
492,1.60e-03,8.00e-02,
493,-6.40e-03,-2.40e-01,
494,8.00e-04,-1.60e-01,
495,-7.20e-03,8.00e-02,
496,-8.00e-03,-1.60e-01,
497,0.00e+00,8.00e-02,
498,-8.00e-03,-1.60e-01,
499,8.00e-04,8.00e-02,
500,-7.20e-03,-1.60e-01,
501,8.00e-04,8.00e-02,
502,-5.60e-03,8.00e-02,
503,3.20e-03,-1.60e-01,
504,1.60e-03,8.00e-02,
505,-6.40e-03,-2.40e-01,
506,8.00e-04,-1.60e-01,
507,-8.00e-03,8.00e-02,
508,1.60e-03,8.00e-02,
509,-7.20e-03,-1.60e-01,
510,1.60e-03,-1.60e-01,
511,-7.20e-03,8.00e-02,
512,-6.40e-03,8.00e-02,
513,8.00e-04,-2.40e-01,
514,-6.40e-03,8.00e-02,
515,2.40e-03,-2.40e-01,
516,2.40e-03,-1.60e-01,
517,-4.80e-03,8.00e-02,
518,1.60e-03,-1.60e-01,
519,-6.40e-03,8.00e-02,
520,-7.20e-03,-1.60e-01,
521,8.00e-04,8.00e-02,
522,-8.00e-04,-1.60e-01,
523,-8.00e-03,8.00e-02,
524,-8.00e-03,8.00e-02,
525,8.00e-04,-2.40e-01,
526,-6.40e-03,-1.60e-01,
527,1.60e-03,8.00e-02,
528,-4.80e-03,-1.60e-01,
529,2.40e-03,8.00e-02,
530,3.20e-03,-1.60e-01,
531,-4.80e-03,8.00e-02,
532,3.20e-03,8.00e-02,
533,-5.60e-03,-1.60e-01,
534,8.00e-04,-1.60e-01,
535,-7.20e-03,8.00e-02,
536,-8.00e-04,-2.40e-01,
537,-8.80e-03,8.00e-02,
538,-8.80e-03,-1.60e-01,
539,-8.00e-04,8.00e-02,
540,-8.00e-04,-1.60e-01,
541,-8.80e-03,8.00e-02,
542,-8.80e-03,-1.60e-01,
543,2.40e-03,8.00e-02,
544,3.20e-03,-1.60e-01,
545,-4.80e-03,8.00e-02,
546,2.40e-03,-1.60e-01,
547,-4.80e-03,8.00e-02,
548,1.60e-03,-1.60e-01,
549,-7.20e-03,8.00e-02,
550,-8.80e-03,8.00e-02,
551,1.60e-03,-1.60e-01,
552,-8.00e-04,-1.60e-01,
553,-9.60e-03,8.00e-02,
554,-8.00e-03,8.00e-02,
555,0.00e+00,-1.60e-01,
556,-8.00e-03,-1.60e-01,
557,2.40e-03,8.00e-02,
558,3.20e-03,8.00e-02,
559,-4.80e-03,-1.60e-01,
560,-5.60e-03,-1.60e-01,
561,3.20e-03,8.00e-02,
562,1.60e-03,8.00e-02,
563,-6.40e-03,-1.60e-01,
564,0.00e+00,8.00e-02,
565,-8.80e-03,-1.60e-01,
566,-8.00e-04,8.00e-02,
567,-8.80e-03,-1.60e-01,
568,-8.00e-03,8.00e-02,
569,8.00e-04,-1.60e-01,
570,-6.40e-03,-1.60e-01,
571,1.60e-03,8.00e-02,
572,-4.80e-03,-8.00e-02,
573,2.40e-03,8.00e-02,
574,1.60e-03,-8.00e-02,
575,-6.40e-03,8.00e-02,
576,0.00e+00,8.00e-02,
577,-8.80e-03,-1.60e-01,
578,-9.60e-03,-1.60e-01,
579,-1.60e-03,8.00e-02,
580,0.00e+00,8.00e-02,
581,-8.00e-03,-1.60e-01,
582,-5.60e-03,8.00e-02,
583,3.20e-03,-1.60e-01,
584,-2.40e-03,8.00e-02,
585,5.60e-03,-1.60e-01,
586,4.80e-03,-8.00e-02,
587,-4.00e-03,8.00e-02,
588,3.20e-03,8.00e-02,
589,-7.20e-03,-8.00e-02,
590,-3.20e-03,8.00e-02,
591,-1.28e-02,-1.60e-01,
592,-1.36e-02,8.00e-02,
593,-5.60e-03,-1.60e-01,
594,-1.20e-02,-8.00e-02,
595,0.00e+00,8.00e-02,
596,-7.20e-03,8.00e-02,
597,6.40e-03,-1.60e-01,
598,0.00e+00,-8.00e-02,
599,1.12e-02,8.00e-02,
600,1.20e-02,8.00e-02,
601,3.20e-03,-1.60e-01,
602,8.80e-03,-8.00e-02,
603,-4.80e-03,8.00e-02,
604,8.00e-04,8.00e-02,
605,-1.60e-02,-8.00e-02,
606,-1.04e-02,-8.00e-02,
607,-2.16e-02,8.00e-02,
608,-2.16e-02,8.00e-02,
609,-1.04e-02,-2.40e-01,
610,-1.52e-02,8.00e-02,
611,2.40e-03,-8.00e-02,
612,-3.20e-03,8.00e-02,
613,1.68e-02,-1.60e-01,
614,1.20e-02,-8.00e-02,
615,2.16e-02,8.00e-02,
616,2.08e-02,-8.00e-02,
617,8.80e-03,8.00e-02,
618,1.28e-02,8.00e-02,
619,-8.80e-03,-2.40e-01,
620,-5.60e-03,-8.00e-02,
621,-2.72e-02,8.00e-02,
622,-2.24e-02,-8.00e-02,
623,-3.68e-02,8.00e-02,
624,-3.68e-02,-8.00e-02,
625,-2.08e-02,8.00e-02,
626,-2.48e-02,-8.00e-02,
627,1.44e-02,8.00e-02,
628,9.60e-03,8.00e-02,
629,4.56e-02,-8.00e-02,
630,4.96e-02,8.00e-02,
631,3.44e-02,-1.60e-01,
632,3.76e-02,-8.00e-02,
633,-1.12e-02,8.00e-02,
634,-6.40e-03,8.00e-02,
635,-4.80e-02,-1.60e-01,
636,-5.20e-02,8.00e-02,
637,-3.84e-02,-8.00e-02,
638,-4.32e-02,-8.00e-02,
639,-8.00e-03,8.00e-02,
640,-1.36e-02,-8.00e-02,
641,1.84e-02,8.00e-02,
642,1.44e-02,8.00e-02,
643,2.80e-02,-1.60e-01,
644,2.72e-02,8.00e-02,
645,1.52e-02,-8.00e-02,
646,2.00e-02,-8.00e-02,
647,-1.60e-03,8.00e-02,
648,2.40e-03,-8.00e-02,
649,-2.00e-02,8.00e-02,
650,-1.44e-02,-8.00e-02,
651,-2.64e-02,8.00e-02,
652,-2.64e-02,8.00e-02,
653,-1.36e-02,-1.60e-01,
654,-1.84e-02,-8.00e-02,
655,8.00e-04,8.00e-02,
656,-7.20e-03,-8.00e-02,
657,9.60e-03,8.00e-02,
658,3.20e-03,-8.00e-02,
659,1.68e-02,8.00e-02,
660,1.60e-02,-8.00e-02,
661,3.20e-03,8.00e-02,
662,7.20e-03,-8.00e-02,
663,-7.20e-03,8.00e-02,
664,-8.00e-04,-1.60e-01,
665,-1.44e-02,8.00e-02,
666,-7.20e-03,-8.00e-02,
667,-1.68e-02,8.00e-02,
668,-1.52e-02,8.00e-02,
669,-3.20e-03,-8.00e-02,
670,-8.80e-03,-8.00e-02,
671,3.20e-03,8.00e-02,
672,-2.40e-03,-8.00e-02,
673,6.40e-03,8.00e-02,
674,9.60e-03,-8.00e-02,
675,-8.00e-04,8.00e-02,
676,6.40e-03,8.00e-02,
677,-4.80e-03,-8.00e-02,
678,1.60e-03,-1.60e-01,
679,-8.00e-03,8.00e-02,
680,-1.60e-03,-8.00e-02,
681,-9.60e-03,8.00e-02,
682,-9.60e-03,-8.00e-02,
683,-8.00e-04,8.00e-02,
684,-9.60e-03,-8.00e-02,
685,8.00e-04,8.00e-02,
686,-6.40e-03,-8.00e-02,
687,3.20e-03,8.00e-02,
688,3.20e-03,8.00e-02,
689,-4.80e-03,-1.60e-01,
690,1.60e-03,8.00e-02,
691,-6.40e-03,-1.60e-01,
692,1.60e-03,8.00e-02,
693,-8.00e-03,-1.60e-01,
694,0.00e+00,-8.00e-02,
695,-8.80e-03,8.00e-02,
696,-8.00e-03,8.00e-02,
697,0.00e+00,-1.60e-01,
698,-7.20e-03,-8.00e-02,
699,1.60e-03,8.00e-02,
700,-5.60e-03,8.00e-02,
701,4.00e-03,-8.00e-02,
702,-6.40e-03,8.00e-02,
703,2.40e-03,-1.60e-01,
704,0.00e+00,8.00e-02,
705,-8.00e-03,-1.60e-01,
706,-8.80e-03,-8.00e-02,
707,0.00e+00,8.00e-02,
708,-8.00e-03,8.00e-02,
709,8.00e-04,-8.00e-02,
710,-7.20e-03,-1.60e-01,
711,8.00e-04,8.00e-02,
712,-4.80e-03,8.00e-02,
713,4.00e-03,-1.60e-01,
714,-5.60e-03,8.00e-02,
715,3.20e-03,-1.60e-01,
716,-5.60e-03,-8.00e-02,
717,2.40e-03,8.00e-02,
718,-5.60e-03,-8.00e-02,
719,1.60e-03,8.00e-02,
720,0.00e+00,8.00e-02,
721,-7.20e-03,-1.60e-01,
722,-8.80e-03,-8.00e-02,
723,0.00e+00,8.00e-02,
724,-7.20e-03,-8.00e-02,
725,1.60e-03,8.00e-02,
726,2.40e-03,8.00e-02,
727,-6.40e-03,-1.60e-01,
728,-4.80e-03,-8.00e-02,
729,3.20e-03,8.00e-02,
730,-4.00e-03,-8.00e-02,
731,4.00e-03,8.00e-02,
732,2.40e-03,8.00e-02,
733,-5.60e-03,-8.00e-02,
734,8.00e-04,8.00e-02,
735,-7.20e-03,-2.40e-01,
736,8.00e-04,-8.00e-02,
737,-8.00e-03,8.00e-02,
738,-7.20e-03,8.00e-02,
739,8.00e-04,-8.00e-02,
740,-6.40e-03,8.00e-02,
741,2.40e-03,-1.60e-01,
742,-5.60e-03,-8.00e-02,
743,3.20e-03,8.00e-02,
744,4.00e-03,8.00e-02,
745,-5.60e-03,-1.60e-01,
746,3.20e-03,8.00e-02,
747,-8.80e-03,-1.60e-01,
748,-8.00e-03,8.00e-02,
749,8.00e-04,-1.60e-01,
750,-8.80e-03,-8.00e-02,
751,8.00e-04,8.00e-02,
752,-6.40e-03,8.00e-02,
753,2.40e-03,-1.60e-01,
754,-4.00e-03,8.00e-02,
755,3.20e-03,-1.60e-01,
756,2.40e-03,8.00e-02,
757,-6.40e-03,-8.00e-02,
758,1.60e-03,-8.00e-02,
759,-6.40e-03,8.00e-02,
760,-5.60e-03,-1.60e-01,
761,1.60e-03,8.00e-02,
762,8.00e-04,8.00e-02,
763,-7.20e-03,-1.60e-01,
764,-8.00e-03,-8.00e-02,
765,1.60e-03,8.00e-02,
766,-6.40e-03,-1.60e-01,
767,2.40e-03,8.00e-02,
768,2.40e-03,8.00e-02,
769,-6.40e-03,-1.60e-01,
770,1.60e-03,8.00e-02,
771,-6.40e-03,-1.60e-01,
772,8.00e-04,8.00e-02,
773,-7.20e-03,-1.60e-01,
774,-6.40e-03,8.00e-02,
775,1.60e-03,-1.60e-01,
776,0.00e+00,8.00e-02,
777,-8.80e-03,-1.60e-01,
778,-7.20e-03,8.00e-02,
779,1.60e-03,-1.60e-01,
780,0.00e+00,-8.00e-02,
781,-7.20e-03,8.00e-02,
782,-8.00e-03,8.00e-02,
783,1.60e-03,-1.60e-01,
784,1.60e-03,8.00e-02,
785,-5.60e-03,-1.60e-01,
786,2.40e-03,8.00e-02,
787,-7.20e-03,-1.60e-01,
788,-6.40e-03,8.00e-02,
789,1.60e-03,-1.60e-01,
790,0.00e+00,8.00e-02,
791,-8.80e-03,-1.60e-01,
792,-8.00e-03,8.00e-02,
793,0.00e+00,-1.60e-01,
794,8.00e-04,-8.00e-02,
795,-7.20e-03,8.00e-02,
796,-8.00e-03,8.00e-02,
797,1.60e-03,-1.60e-01,
798,2.40e-03,8.00e-02,
799,-8.00e-03,-1.60e-01,
800,2.40e-03,8.00e-02,
801,-6.40e-03,-1.60e-01,
802,8.00e-04,-1.60e-01,
803,-8.00e-03,8.00e-02,
804,-7.20e-03,8.00e-02,
805,8.00e-04,-1.60e-01,
806,1.60e-03,8.00e-02,
807,-7.20e-03,-1.60e-01,
808,-8.00e-03,-1.60e-01,
809,8.00e-04,8.00e-02,
810,8.00e-04,8.00e-02,
811,-6.40e-03,-1.60e-01,
812,-7.20e-03,8.00e-02,
813,1.60e-03,-1.60e-01,
814,1.60e-03,8.00e-02,
815,-5.60e-03,-1.60e-01,
816,1.60e-03,8.00e-02,
817,-7.20e-03,-1.60e-01,
818,8.00e-04,-1.60e-01,
819,-7.20e-03,8.00e-02,
820,8.00e-04,-8.00e-02,
821,-7.20e-03,8.00e-02,
822,-7.20e-03,8.00e-02,
823,1.60e-03,-1.60e-01,
824,8.00e-04,8.00e-02,
825,-8.00e-03,-1.60e-01,
826,-6.40e-03,8.00e-02,
827,1.60e-03,-1.60e-01,
828,1.60e-03,-1.60e-01,
829,-7.20e-03,8.00e-02,
830,-6.40e-03,-1.60e-01,
831,2.40e-03,8.00e-02,
832,1.60e-03,8.00e-02,
833,-7.20e-03,-1.60e-01,
834,8.00e-04,8.00e-02,
835,-7.20e-03,-1.60e-01,
836,-6.40e-03,-1.60e-01,
837,8.00e-04,8.00e-02,
838,1.60e-03,8.00e-02,
