NMRdata/glyc1/95up/98t7.csv

X,CH3,CH4,Start,Increment,
Sequence,Volt,Volt,-4.800000e-04,2.000000e-05
0,2.40e-03,-1.60e-01,
1,-7.20e-03,8.00e-02,
2,-7.20e-03,8.00e-02,
3,8.00e-04,-1.60e-01,
4,-6.40e-03,-1.60e-01,
5,1.60e-03,8.00e-02,
6,1.60e-03,-1.60e-01,
7,-6.40e-03,8.00e-02,
8,-5.60e-03,8.00e-02,
9,1.60e-03,-1.60e-01,
10,-6.40e-03,-1.60e-01,
11,1.60e-03,8.00e-02,
12,8.00e-04,-1.60e-01,
13,-7.20e-03,8.00e-02,
14,-5.60e-03,-1.60e-01,
15,1.60e-03,8.00e-02,
16,-6.40e-03,8.00e-02,
17,1.60e-03,-1.60e-01,
18,-6.40e-03,8.00e-02,
19,2.40e-03,-1.60e-01,
20,1.60e-03,8.00e-02,
21,-6.40e-03,-1.60e-01,
22,1.60e-03,-1.60e-01,
23,-6.40e-03,8.00e-02,
24,-6.40e-03,5.84e+00,
25,1.60e-03,4.64e+00,
26,2.40e-03,4.64e+00,
27,-4.80e-03,5.20e+00,
28,-2.40e-03,5.20e+00,
29,-8.00e-04,4.64e+00,
30,-8.00e-04,4.72e+00,
31,-1.12e-02,5.36e+00,
32,-9.60e-03,4.72e+00,
33,-5.60e-03,5.20e+00,
34,-5.60e-03,5.20e+00,
35,-7.20e-03,4.72e+00,
36,-5.60e-03,4.64e+00,
37,-8.00e-03,5.20e+00,
38,-5.60e-03,5.20e+00,
39,-2.64e-02,4.64e+00,
40,-2.32e-02,4.64e+00,
41,-5.84e-02,5.20e+00,
42,-6.16e-02,4.64e+00,
43,-5.04e-02,5.20e+00,
44,-5.44e-02,5.12e+00,
45,-2.32e-02,4.72e+00,
46,-2.48e-02,4.72e+00,
47,1.36e-02,5.12e+00,
48,1.20e-02,5.12e+00,
49,3.92e-02,4.72e+00,
50,4.08e-02,5.12e+00,
51,2.96e-02,4.72e+00,
52,3.52e-02,4.72e+00,
53,8.00e-03,5.12e+00,
54,1.12e-02,5.12e+00,
55,-1.68e-02,4.72e+00,
56,-1.28e-02,4.72e+00,
57,-3.12e-02,5.12e+00,
58,-3.20e-02,5.12e+00,
59,-2.32e-02,4.72e+00,
60,-2.80e-02,5.12e+00,
61,-6.40e-03,4.72e+00,
62,-1.04e-02,5.12e+00,
63,1.20e-02,4.72e+00,
64,7.20e-03,5.12e+00,
65,1.92e-02,4.72e+00,
66,1.92e-02,5.12e+00,
67,7.20e-03,4.72e+00,
68,1.36e-02,5.12e+00,
69,-3.20e-03,4.72e+00,
70,1.60e-03,5.12e+00,
71,-1.36e-02,4.64e+00,
72,-8.00e-03,5.12e+00,
73,-1.92e-02,4.72e+00,
74,-1.68e-02,5.12e+00,
75,-4.80e-03,4.72e+00,
76,-1.04e-02,5.12e+00,
77,2.40e-03,4.72e+00,
78,-3.20e-03,5.12e+00,
79,8.80e-03,4.72e+00,
80,8.00e-03,5.12e+00,
81,0.00e+00,4.72e+00,
82,6.40e-03,5.12e+00,
83,-4.00e-03,4.72e+00,
84,2.40e-03,5.12e+00,
85,-8.80e-03,4.72e+00,
86,-9.60e-03,5.12e+00,
87,-2.40e-03,4.72e+00,
88,-1.04e-02,4.72e+00,
89,-8.00e-04,5.12e+00,
90,-6.40e-03,5.12e+00,
91,2.40e-03,4.72e+00,
92,-4.80e-03,4.72e+00,
93,2.40e-03,5.12e+00,
94,3.20e-03,5.12e+00,
95,-4.00e-03,4.72e+00,
96,1.60e-03,5.12e+00,
97,-7.20e-03,4.72e+00,
98,-8.00e-04,4.72e+00,
99,-8.80e-03,5.12e+00,
100,-8.80e-03,5.12e+00,
101,-8.00e-04,4.72e+00,
102,-7.20e-03,5.12e+00,
103,1.60e-03,4.64e+00,
104,-5.60e-03,5.12e+00,
105,3.20e-03,4.72e+00,
106,-2.40e-03,5.12e+00,
107,5.60e-03,4.72e+00,
108,4.00e-03,5.12e+00,
109,-4.80e-03,4.72e+00,
110,0.00e+00,5.12e+00,
111,-8.80e-03,4.64e+00,
112,-1.60e-03,5.12e+00,
113,-1.04e-02,4.80e+00,
114,-9.60e-03,5.12e+00,
115,-8.00e-04,4.72e+00,
116,-7.20e-03,5.12e+00,
117,1.60e-03,4.72e+00,
118,-4.00e-03,5.12e+00,
119,4.00e-03,4.64e+00,
120,4.00e-03,5.12e+00,
121,-3.20e-03,4.72e+00,
122,4.80e-03,5.12e+00,
123,-5.60e-03,4.72e+00,
124,8.00e-04,5.12e+00,
125,-7.20e-03,4.72e+00,
126,-8.00e-03,4.72e+00,
127,0.00e+00,5.12e+00,
128,-8.80e-03,5.12e+00,
129,-1.60e-03,4.64e+00,
130,-8.00e-03,5.12e+00,
131,0.00e+00,4.64e+00,
132,-5.60e-03,5.12e+00,
133,1.60e-03,4.72e+00,
134,-4.80e-03,5.12e+00,
135,4.00e-03,4.64e+00,
136,3.20e-03,5.12e+00,
137,-4.00e-03,4.72e+00,
138,2.40e-03,5.12e+00,
139,-6.40e-03,4.72e+00,
140,8.00e-04,4.72e+00,
141,-8.80e-03,5.12e+00,
142,-8.80e-03,5.12e+00,
143,-8.00e-04,4.72e+00,
144,-8.80e-03,5.12e+00,
145,8.00e-04,4.72e+00,
146,1.60e-03,5.12e+00,
147,-5.60e-03,4.64e+00,
148,3.20e-03,5.12e+00,
149,-5.60e-03,4.64e+00,
150,-4.80e-03,4.72e+00,
151,2.40e-03,5.12e+00,
152,2.40e-03,4.72e+00,
153,-6.40e-03,5.12e+00,
154,8.00e-04,5.12e+00,
155,-7.20e-03,4.64e+00,
156,0.00e+00,5.12e+00,
157,-8.00e-03,4.64e+00,
158,-6.40e-03,5.12e+00,
159,1.60e-03,4.64e+00,
160,-6.40e-03,5.12e+00,
161,2.40e-03,4.72e+00,
162,2.40e-03,4.72e+00,
163,-5.60e-03,5.12e+00,
164,2.40e-03,5.12e+00,
165,-5.60e-03,4.64e+00,
166,-7.20e-03,5.12e+00,
167,1.60e-03,4.64e+00,
168,8.00e-04,4.72e+00,
169,-8.00e-03,5.12e+00,
170,-8.00e-03,5.12e+00,
171,0.00e+00,4.64e+00,
172,-6.40e-03,5.12e+00,
173,2.40e-03,4.64e+00,
174,-4.80e-03,5.12e+00,
175,2.40e-03,4.64e+00,
176,2.40e-03,5.12e+00,
177,-5.60e-03,4.64e+00,
178,2.40e-03,5.12e+00,
179,-5.60e-03,4.64e+00,
180,-5.60e-03,5.12e+00,
181,1.60e-03,4.72e+00,
182,-7.20e-03,5.12e+00,
183,8.00e-04,4.64e+00,
184,8.00e-04,4.64e+00,
185,-8.80e-03,5.12e+00,
186,-7.20e-03,5.12e+00,
187,8.00e-04,4.64e+00,
188,-5.60e-03,4.64e+00,
189,3.20e-03,5.12e+00,
190,2.40e-03,4.64e+00,
191,-5.60e-03,5.12e+00,
192,2.40e-03,4.64e+00,
193,-4.80e-03,5.12e+00,
194,1.60e-03,5.12e+00,
195,-8.00e-03,4.64e+00,
196,8.00e-04,5.12e+00,
197,-8.00e-03,4.64e+00,
198,-8.00e-03,4.64e+00,
199,8.00e-04,5.12e+00,
200,-7.20e-03,5.12e+00,
201,8.00e-04,4.64e+00,
202,-6.40e-03,5.12e+00,
203,1.60e-03,4.64e+00,
204,3.20e-03,4.64e+00,
205,-4.80e-03,5.12e+00,
206,2.40e-03,5.04e+00,
207,-4.80e-03,4.64e+00,
208,8.00e-04,5.04e+00,
209,-6.40e-03,4.64e+00,
210,8.00e-04,5.04e+00,
211,-8.80e-03,4.64e+00,
212,8.00e-04,4.64e+00,
213,-8.00e-03,5.04e+00,
214,-6.40e-03,5.04e+00,
215,1.60e-03,4.64e+00,
216,8.00e-04,4.64e+00,
217,-7.20e-03,5.12e+00,
218,-5.60e-03,4.64e+00,
219,2.40e-03,5.12e+00,
220,-6.40e-03,4.64e+00,
221,1.60e-03,5.12e+00,
222,-6.40e-03,4.64e+00,
223,1.60e-03,5.12e+00,
224,-6.40e-03,4.64e+00,
225,8.00e-04,5.04e+00,
226,8.00e-04,5.04e+00,
227,-7.20e-03,4.64e+00,
228,-7.20e-03,4.64e+00,
229,8.00e-04,4.96e+00,
230,-5.60e-03,4.64e+00,
231,1.60e-03,5.04e+00,
232,3.20e-03,4.64e+00,
233,-5.60e-03,5.12e+00,
234,2.40e-03,4.64e+00,
235,-6.40e-03,5.04e+00,
236,-6.40e-03,4.64e+00,
237,8.00e-04,4.96e+00,
238,-7.20e-03,5.04e+00,
239,8.00e-04,4.64e+00,
240,8.00e-04,4.64e+00,
241,-8.00e-03,5.12e+00,
242,-8.00e-03,5.04e+00,
243,8.00e-04,4.64e+00,
244,-6.40e-03,5.04e+00,
245,1.60e-03,4.64e+00,
246,8.00e-04,4.64e+00,
247,-6.40e-03,5.04e+00,
248,8.00e-04,4.64e+00,
249,-7.20e-03,5.12e+00,
250,0.00e+00,5.04e+00,
251,-7.20e-03,4.64e+00,
252,8.00e-04,5.04e+00,
253,-8.00e-03,4.64e+00,
254,-7.20e-03,4.64e+00,
255,0.00e+00,5.04e+00,
256,-7.20e-03,4.64e+00,
257,1.60e-03,5.12e+00,
258,1.60e-03,5.04e+00,
259,-7.20e-03,4.64e+00,
260,1.60e-03,5.04e+00,
261,-6.40e-03,4.64e+00,
262,-6.40e-03,5.04e+00,
263,8.00e-04,4.64e+00,
264,-8.00e-03,5.04e+00,
265,8.00e-04,4.64e+00,
266,8.00e-04,4.64e+00,
267,-8.80e-03,5.04e+00,
268,-7.20e-03,4.64e+00,
269,8.00e-04,5.04e+00,
270,2.40e-03,4.96e+00,
271,-6.40e-03,4.64e+00,
272,8.00e-04,4.64e+00,
273,-6.40e-03,5.04e+00,
274,-5.60e-03,4.64e+00,
275,1.60e-03,5.04e+00,
276,1.60e-03,4.64e+00,
277,-7.20e-03,4.96e+00,
278,1.60e-03,4.64e+00,
279,-6.40e-03,5.04e+00,
280,1.60e-03,4.64e+00,
281,-7.20e-03,5.12e+00,
282,-6.40e-03,4.64e+00,
283,1.60e-03,5.04e+00,
284,1.60e-03,5.04e+00,
285,-6.40e-03,4.64e+00,
286,1.60e-03,5.04e+00,
287,-6.40e-03,4.64e+00,
288,-6.40e-03,5.04e+00,
289,8.00e-04,4.64e+00,
290,8.00e-04,4.64e+00,
291,-6.40e-03,5.04e+00,
292,8.00e-04,4.64e+00,
293,-6.40e-03,5.04e+00,
294,8.00e-04,5.04e+00,
295,-7.20e-03,4.64e+00,
296,-7.20e-03,5.04e+00,
297,1.60e-03,4.64e+00,
298,-7.20e-03,4.64e+00,
299,1.60e-03,5.04e+00,
300,-5.60e-03,5.04e+00,
301,1.60e-03,4.64e+00,
302,-5.60e-03,5.04e+00,
303,3.20e-03,4.64e+00,
304,2.40e-03,5.04e+00,
305,-6.40e-03,4.64e+00,
306,8.00e-04,4.64e+00,
307,-7.20e-03,5.04e+00,
308,8.00e-04,4.64e+00,
309,-8.00e-03,5.04e+00,
310,1.60e-03,4.64e+00,
311,-7.20e-03,4.96e+00,
312,-6.40e-03,4.64e+00,
313,8.00e-04,5.04e+00,
314,-5.60e-03,4.64e+00,
315,1.60e-03,5.04e+00,
316,-4.80e-03,4.64e+00,
317,4.00e-03,4.96e+00,
318,-6.40e-03,4.64e+00,
319,1.60e-03,5.04e+00,
320,8.00e-04,4.64e+00,
321,-7.20e-03,5.04e+00,
322,-7.20e-03,5.04e+00,
323,8.00e-04,4.64e+00,
324,-7.20e-03,5.04e+00,
325,0.00e+00,4.64e+00,
326,8.00e-04,5.04e+00,
327,-8.00e-03,4.64e+00,
328,-8.00e-03,5.04e+00,
329,1.60e-03,4.64e+00,
330,2.40e-03,5.04e+00,
331,-5.60e-03,4.64e+00,
332,1.60e-03,4.64e+00,
333,-6.40e-03,5.04e+00,
334,-5.60e-03,4.64e+00,
335,2.40e-03,5.04e+00,
336,-7.20e-03,5.04e+00,
337,0.00e+00,4.64e+00,
338,-6.40e-03,5.04e+00,
339,8.00e-04,4.64e+00,
340,-6.40e-03,4.64e+00,
341,2.40e-03,5.04e+00,
342,-5.60e-03,4.64e+00,
343,1.60e-03,5.04e+00,
344,-6.40e-03,4.64e+00,
345,1.60e-03,5.12e+00,
346,-7.20e-03,5.12e+00,
347,2.40e-03,4.64e+00,
348,8.00e-04,4.64e+00,
349,-6.40e-03,5.04e+00,
350,2.40e-03,4.64e+00,
351,-7.20e-03,5.04e+00,
352,0.00e+00,4.64e+00,
353,-7.20e-03,5.04e+00,
354,-8.00e-03,4.64e+00,
355,8.00e-04,5.04e+00,
356,-7.20e-03,4.64e+00,
357,1.60e-03,5.04e+00,
358,1.60e-03,5.04e+00,
359,-7.20e-03,4.64e+00,
360,8.00e-04,5.04e+00,
361,-6.40e-03,4.64e+00,
362,-8.00e-03,4.64e+00,
363,1.60e-03,5.04e+00,
364,-6.40e-03,5.04e+00,
365,8.00e-04,4.64e+00,
366,-6.40e-03,4.64e+00,
367,1.60e-03,5.04e+00,
368,8.00e-04,4.64e+00,
369,-6.40e-03,5.04e+00,
370,0.00e+00,4.64e+00,
371,-7.20e-03,5.04e+00,
372,-7.20e-03,4.64e+00,
373,8.00e-04,5.04e+00,
374,8.00e-04,4.64e+00,
375,-8.80e-03,5.12e+00,
376,-8.00e-03,4.56e+00,
377,-8.00e-04,5.12e+00,
378,-2.40e-03,4.56e+00,
379,-4.80e-03,5.12e+00,
380,-2.40e-03,4.24e+00,
381,-1.28e-02,5.20e+00,
382,-1.36e-02,5.36e+00,
383,-7.20e-03,4.56e+00,
384,-7.20e-03,4.56e+00,
385,-9.60e-03,5.12e+00,
386,-7.20e-03,5.04e+00,
387,-8.80e-03,4.56e+00,
388,-7.20e-03,4.64e+00,
389,-8.80e-03,5.04e+00,
390,-7.20e-03,4.64e+00,
391,-8.80e-03,5.12e+00,
392,-6.40e-03,4.64e+00,
393,-1.60e-02,5.12e+00,
394,-1.76e-02,5.12e+00,
395,-5.60e-03,-1.28e+00,
396,-9.60e-03,0.00e+00,
397,5.60e-03,-3.20e-01,
398,0.00e+00,0.00e+00,
399,1.20e-02,-2.40e-01,
400,1.12e-02,-1.60e-01,
401,3.20e-03,0.00e+00,
402,8.80e-03,-2.40e-01,
403,-4.00e-03,0.00e+00,
404,8.00e-04,-1.60e-01,
405,-1.04e-02,0.00e+00,
406,-4.00e-03,-1.60e-01,
407,-1.28e-02,0.00e+00,
408,-1.28e-02,-1.60e-01,
409,-4.00e-03,0.00e+00,
410,-1.04e-02,-1.60e-01,
411,0.00e+00,0.00e+00,
412,-6.40e-03,0.00e+00,
413,4.00e-03,-2.40e-01,
414,-3.20e-03,-1.60e-01,
415,5.60e-03,0.00e+00,
416,4.80e-03,-1.60e-01,
417,-3.20e-03,0.00e+00,
418,2.40e-03,-1.60e-01,
419,-7.20e-03,0.00e+00,
420,-8.00e-04,0.00e+00,
421,-8.80e-03,-1.60e-01,
422,-8.00e-04,-2.40e-01,
423,-9.60e-03,0.00e+00,
424,-9.60e-03,0.00e+00,
425,1.60e-03,-1.60e-01,
426,-6.40e-03,-1.60e-01,
427,2.40e-03,0.00e+00,
428,4.00e-03,-1.60e-01,
429,-4.80e-03,0.00e+00,
430,1.60e-03,-1.60e-01,
431,-6.40e-03,0.00e+00,
432,1.60e-03,0.00e+00,
433,-8.00e-03,-2.40e-01,
434,0.00e+00,-1.60e-01,
435,-9.60e-03,0.00e+00,
436,0.00e+00,-8.00e-02,
437,-7.20e-03,-1.60e-01,
438,-6.40e-03,-1.60e-01,
439,1.60e-03,0.00e+00,
440,2.40e-03,0.00e+00,
441,-6.40e-03,-1.60e-01,
442,-5.60e-03,-1.60e-01,
443,3.20e-03,0.00e+00,
444,1.60e-03,-2.40e-01,
445,-8.00e-03,0.00e+00,
446,8.00e-04,-1.60e-01,
447,-8.00e-03,0.00e+00,
448,-8.00e-03,-1.60e-01,
449,0.00e+00,0.00e+00,
450,1.60e-03,-1.60e-01,
451,-6.40e-03,0.00e+00,
452,-5.60e-03,-1.60e-01,
453,3.20e-03,0.00e+00,
454,2.40e-03,0.00e+00,
455,-4.80e-03,-2.40e-01,
456,3.20e-03,-1.60e-01,
457,-4.80e-03,0.00e+00,
458,1.60e-03,-1.60e-01,
459,-6.40e-03,0.00e+00,
460,8.00e-04,-1.60e-01,
461,-6.40e-03,0.00e+00,
462,8.00e-04,-1.60e-01,
463,-8.00e-03,0.00e+00,
464,8.00e-04,-1.60e-01,
465,-8.00e-03,-2.40e-01,
466,1.60e-03,-1.60e-01,
467,-7.20e-03,0.00e+00,
468,-4.80e-03,-1.60e-01,
469,2.40e-03,-1.60e-01,
470,4.80e-03,-1.60e-01,
471,-5.60e-03,0.00e+00,
472,-6.40e-03,-1.60e-01,
473,1.60e-03,-1.60e-01,
474,8.00e-04,-2.40e-01,
475,-7.20e-03,0.00e+00,
476,-7.20e-03,-1.60e-01,
477,8.00e-04,-1.60e-01,
478,1.60e-03,-1.60e-01,
479,-8.00e-03,0.00e+00,
480,-6.40e-03,-1.60e-01,
481,1.60e-03,0.00e+00,
482,-6.40e-03,-1.60e-01,
483,1.60e-03,0.00e+00,
484,-5.60e-03,-1.60e-01,
485,1.60e-03,0.00e+00,
486,2.40e-03,-2.40e-01,
487,-6.40e-03,0.00e+00,
488,-6.40e-03,-1.60e-01,
489,2.40e-03,0.00e+00,
490,1.60e-03,-1.60e-01,
491,-6.40e-03,0.00e+00,
492,8.00e-04,-1.60e-01,
493,-5.60e-03,0.00e+00,
494,8.00e-04,-1.60e-01,
495,-6.40e-03,0.00e+00,
496,8.00e-04,0.00e+00,
497,-7.20e-03,-2.40e-01,
498,-7.20e-03,-1.60e-01,
499,8.00e-04,0.00e+00,
500,-5.60e-03,-1.60e-01,
501,2.40e-03,0.00e+00,
502,-5.60e-03,-1.60e-01,
503,2.40e-03,0.00e+00,
504,2.40e-03,-1.60e-01,
505,-6.40e-03,0.00e+00,
506,2.40e-03,-2.40e-01,
507,-7.20e-03,8.00e-02,
508,1.60e-03,-1.60e-01,
509,-7.20e-03,0.00e+00,
510,-6.40e-03,-1.60e-01,
511,1.60e-03,8.00e-02,
512,-7.20e-03,-1.60e-01,
513,1.60e-03,8.00e-02,
514,-6.40e-03,-1.60e-01,
515,1.60e-03,8.00e-02,
516,-5.60e-03,8.00e-02,
517,1.60e-03,-2.40e-01,
518,1.60e-03,-1.60e-01,
519,-6.40e-03,8.00e-02,
520,1.60e-03,-1.60e-01,
521,-7.20e-03,8.00e-02,
522,-6.40e-03,-1.60e-01,
523,1.60e-03,8.00e-02,
524,-7.20e-03,-1.60e-01,
525,1.60e-03,8.00e-02,
526,-6.40e-03,-1.60e-01,
527,1.60e-03,8.00e-02,
528,2.40e-03,-2.40e-01,
529,-5.60e-03,8.00e-02,
530,-5.60e-03,-1.60e-01,
531,8.00e-04,8.00e-02,
532,-6.40e-03,-1.60e-01,
533,1.60e-03,8.00e-02,
534,2.40e-03,8.00e-02,
535,-5.60e-03,-1.60e-01,
536,-5.60e-03,-1.60e-01,
537,1.60e-03,8.00e-02,
538,1.60e-03,-2.40e-01,
539,-6.40e-03,8.00e-02,
540,2.40e-03,-1.60e-01,
541,-5.60e-03,8.00e-02,
542,8.00e-04,8.00e-02,
543,-7.20e-03,-1.60e-01,
544,-7.20e-03,-1.60e-01,
545,1.60e-03,8.00e-02,
546,-5.60e-03,-1.60e-01,
547,3.20e-03,8.00e-02,
548,2.40e-03,8.00e-02,
549,-7.20e-03,-2.40e-01,
550,8.00e-04,-1.60e-01,
551,-8.00e-03,8.00e-02,
552,-8.00e-03,8.00e-02,
553,8.00e-04,-1.60e-01,
554,-7.20e-03,-1.60e-01,
555,1.60e-03,8.00e-02,
556,1.60e-03,-1.60e-01,
557,-7.20e-03,8.00e-02,
558,-7.20e-03,8.00e-02,
559,1.60e-03,-2.40e-01,
560,2.40e-03,-1.60e-01,
561,-6.40e-03,8.00e-02,
562,-6.40e-03,-1.60e-01,
563,1.60e-03,8.00e-02,
564,2.40e-03,-1.60e-01,
565,-8.80e-03,8.00e-02,
566,1.60e-03,-1.60e-01,
567,-7.20e-03,8.00e-02,
568,-7.20e-03,8.00e-02,
569,2.40e-03,-2.40e-01,
570,-5.60e-03,-1.60e-01,
571,2.40e-03,8.00e-02,
572,-4.80e-03,-1.60e-01,
573,3.20e-03,8.00e-02,
574,2.40e-03,-1.60e-01,
575,-6.40e-03,8.00e-02,
576,-6.40e-03,-1.60e-01,
577,3.20e-03,8.00e-02,
578,-5.60e-03,-1.60e-01,
579,1.60e-03,8.00e-02,
580,-5.60e-03,-2.40e-01,
581,2.40e-03,8.00e-02,
582,3.20e-03,-1.60e-01,
583,-7.20e-03,8.00e-02,
584,-8.00e-03,8.00e-02,
585,8.00e-04,-1.60e-01,
586,8.00e-04,-1.60e-01,
587,-8.00e-03,8.00e-02,
588,-6.40e-03,-1.60e-01,
589,1.60e-03,8.00e-02,
590,1.60e-03,-1.60e-01,
591,-7.20e-03,8.00e-02,
592,1.60e-03,-1.60e-01,
593,-8.00e-03,8.00e-02,
594,-7.20e-03,-1.60e-01,
595,8.00e-04,8.00e-02,
596,-7.20e-03,8.00e-02,
597,8.00e-04,-1.60e-01,
598,-8.00e-03,8.00e-02,
599,1.60e-03,-1.60e-01,
600,-7.20e-03,-1.60e-01,
601,1.60e-03,8.00e-02,
602,-8.00e-03,-1.60e-01,
603,1.60e-03,8.00e-02,
604,2.40e-03,8.00e-02,
605,-7.20e-03,-1.60e-01,
606,8.00e-04,8.00e-02,
607,-7.20e-03,-1.60e-01,
608,-5.60e-03,8.00e-02,
609,1.60e-03,-1.60e-01,
610,1.60e-03,-1.60e-01,
611,-7.20e-03,8.00e-02,
612,-8.00e-03,8.00e-02,
613,1.60e-03,-1.60e-01,
614,-5.60e-03,-1.60e-01,
615,2.40e-03,8.00e-02,
616,-5.60e-03,-1.60e-01,
617,2.40e-03,8.00e-02,
618,3.20e-03,-1.60e-01,
619,-5.60e-03,8.00e-02,
620,-5.60e-03,8.00e-02,
621,2.40e-03,-1.60e-01,
622,1.60e-03,-1.60e-01,
623,-8.00e-03,8.00e-02,
624,-7.20e-03,8.00e-02,
625,1.60e-03,-1.60e-01,
626,-7.20e-03,8.00e-02,
627,1.60e-03,-1.60e-01,
628,-5.60e-03,8.00e-02,
629,4.00e-03,-1.60e-01,
630,4.80e-03,-1.60e-01,
631,-5.60e-03,8.00e-02,
632,2.40e-03,8.00e-02,
633,-7.20e-03,-1.60e-01,
634,-8.80e-03,8.00e-02,
635,1.60e-03,-1.60e-01,
636,0.00e+00,8.00e-02,
637,-8.00e-03,-1.60e-01,
638,-8.00e-03,8.00e-02,
639,8.00e-04,-1.60e-01,
640,-6.40e-03,8.00e-02,
641,2.40e-03,-1.60e-01,
642,-4.80e-03,-8.00e-02,
643,4.00e-03,8.00e-02,
644,4.00e-03,8.00e-02,
645,-4.80e-03,-1.60e-01,
646,3.20e-03,8.00e-02,
647,-4.80e-03,-1.60e-01,
648,3.20e-03,8.00e-02,
649,-7.20e-03,-1.60e-01,
650,0.00e+00,8.00e-02,
651,-8.80e-03,-1.60e-01,
652,-8.00e-04,8.00e-02,
653,-8.80e-03,-1.60e-01,
654,-8.80e-03,8.00e-02,
655,8.00e-04,-1.60e-01,
656,1.60e-03,-1.60e-01,
657,-7.20e-03,8.00e-02,
658,-4.80e-03,8.00e-02,
659,4.00e-03,-1.60e-01,
660,3.20e-03,-8.00e-02,
661,-5.60e-03,8.00e-02,
662,-6.40e-03,8.00e-02,
663,2.40e-03,-1.60e-01,
664,0.00e+00,-1.60e-01,
665,-9.60e-03,8.00e-02,
666,-8.00e-03,-8.00e-02,
667,8.00e-04,8.00e-02,
668,-7.20e-03,8.00e-02,
669,8.00e-04,-8.00e-02,
670,-6.40e-03,-1.60e-01,
671,2.40e-03,8.00e-02,
672,-5.60e-03,8.00e-02,
673,4.00e-03,-1.60e-01,
674,1.60e-03,-8.00e-02,
675,-7.20e-03,8.00e-02,
676,0.00e+00,8.00e-02,
677,-8.80e-03,-1.60e-01,
678,-9.60e-03,8.00e-02,
679,0.00e+00,-1.60e-01,
680,-8.00e-03,8.00e-02,
681,1.60e-03,-1.60e-01,
682,-6.40e-03,-8.00e-02,
683,4.00e-03,8.00e-02,
684,-3.20e-03,-8.00e-02,
685,4.80e-03,8.00e-02,
686,4.80e-03,8.00e-02,
687,-3.20e-03,-1.60e-01,
688,2.40e-03,8.00e-02,
689,-8.80e-03,-1.60e-01,
690,-2.40e-03,8.00e-02,
691,-1.28e-02,-1.60e-01,
692,-1.28e-02,-8.00e-02,
693,-4.80e-03,8.00e-02,
694,-1.28e-02,8.00e-02,
695,0.00e+00,-1.60e-01,
696,-7.20e-03,8.00e-02,
697,4.80e-03,-1.60e-01,
698,-8.00e-04,-8.00e-02,
699,1.04e-02,8.00e-02,
700,1.20e-02,-8.00e-02,
701,1.60e-03,8.00e-02,
702,8.80e-03,-8.00e-02,
703,-4.80e-03,8.00e-02,
704,0.00e+00,8.00e-02,
705,-1.44e-02,-1.60e-01,
706,-9.60e-03,-8.00e-02,
707,-2.08e-02,8.00e-02,
708,-2.00e-02,8.00e-02,
709,-1.04e-02,-8.00e-02,
710,-1.68e-02,-8.00e-02,
711,2.40e-03,8.00e-02,
712,-3.20e-03,8.00e-02,
713,1.36e-02,-8.00e-02,
714,8.80e-03,8.00e-02,
715,2.00e-02,-1.60e-01,
716,1.84e-02,-1.60e-01,
717,5.60e-03,8.00e-02,
718,1.12e-02,-1.60e-01,
719,-1.12e-02,8.00e-02,
720,-6.40e-03,8.00e-02,
721,-2.64e-02,-1.60e-01,
722,-2.16e-02,-8.00e-02,
723,-3.36e-02,8.00e-02,
724,-3.36e-02,8.00e-02,
725,-1.68e-02,-1.60e-01,
726,-2.16e-02,-8.00e-02,
727,1.36e-02,8.00e-02,
728,9.60e-03,-8.00e-02,
729,4.24e-02,8.00e-02,
730,4.64e-02,-8.00e-02,
731,2.88e-02,8.00e-02,
732,3.36e-02,8.00e-02,
733,-1.12e-02,-1.60e-01,
734,-8.80e-03,-8.00e-02,
735,-4.56e-02,8.00e-02,
736,-4.88e-02,-8.00e-02,
737,-3.52e-02,8.00e-02,
738,-3.92e-02,-8.00e-02,
739,-6.40e-03,8.00e-02,
740,-1.12e-02,-8.00e-02,
741,1.68e-02,8.00e-02,
742,1.12e-02,-8.00e-02,
743,2.64e-02,8.00e-02,
744,2.40e-02,8.00e-02,
745,1.36e-02,-1.60e-01,
746,1.92e-02,-8.00e-02,
747,-4.00e-03,8.00e-02,
748,8.00e-04,-8.00e-02,
749,-1.84e-02,8.00e-02,
750,-1.28e-02,-8.00e-02,
751,-2.48e-02,8.00e-02,
752,-2.32e-02,8.00e-02,
753,-1.12e-02,-8.00e-02,
754,-1.68e-02,-8.00e-02,
755,8.00e-04,8.00e-02,
756,-4.00e-03,-8.00e-02,
757,1.12e-02,8.00e-02,
758,4.00e-03,-1.60e-01,
759,1.44e-02,8.00e-02,
760,1.36e-02,8.00e-02,
761,1.60e-03,-8.00e-02,
762,6.40e-03,-8.00e-02,
763,-5.60e-03,8.00e-02,
764,0.00e+00,-8.00e-02,
765,-1.28e-02,8.00e-02,
766,-7.20e-03,-8.00e-02,
767,-1.60e-02,8.00e-02,
768,-1.36e-02,8.00e-02,
769,-2.40e-03,-1.60e-01,
770,-8.80e-03,8.00e-02,
771,2.40e-03,-1.60e-01,
772,-3.20e-03,-8.00e-02,
773,5.60e-03,8.00e-02,
774,0.00e+00,8.00e-02,
775,7.20e-03,-8.00e-02,
776,-4.00e-03,8.00e-02,
777,5.60e-03,-1.60e-01,
778,1.60e-03,8.00e-02,
779,-7.20e-03,-1.60e-01,
780,-8.00e-04,-1.60e-01,
781,-9.60e-03,8.00e-02,
782,-2.40e-03,-8.00e-02,
783,-9.60e-03,8.00e-02,
784,-8.80e-03,8.00e-02,
785,8.00e-04,-1.60e-01,
786,-6.40e-03,-8.00e-02,
787,2.40e-03,8.00e-02,
788,3.20e-03,8.00e-02,
789,-4.80e-03,-1.60e-01,
790,2.40e-03,-8.00e-02,
791,-5.60e-03,8.00e-02,
792,1.60e-03,-8.00e-02,
793,-7.20e-03,8.00e-02,
794,8.00e-04,-1.60e-01,
795,-8.00e-03,8.00e-02,
796,-7.20e-03,-8.00e-02,
797,8.00e-04,8.00e-02,
798,-6.40e-03,8.00e-02,
799,2.40e-03,-1.60e-01,
800,-6.40e-03,8.00e-02,
801,3.20e-03,-1.60e-01,
802,-4.80e-03,8.00e-02,
803,2.40e-03,-1.60e-01,
804,1.60e-03,8.00e-02,
805,-6.40e-03,-1.60e-01,
806,-8.80e-03,8.00e-02,
807,-8.00e-04,-1.60e-01,
808,-8.80e-03,8.00e-02,
809,8.00e-04,-1.60e-01,
810,-7.20e-03,8.00e-02,
811,1.60e-03,-1.60e-01,
812,-5.60e-03,-8.00e-02,
813,1.60e-03,8.00e-02,
814,-4.80e-03,8.00e-02,
815,3.20e-03,-1.60e-01,
816,3.20e-03,-8.00e-02,
817,-4.80e-03,8.00e-02,
818,1.60e-03,-8.00e-02,
819,-6.40e-03,8.00e-02,
820,0.00e+00,8.00e-02,
821,-8.80e-03,-1.60e-01,
822,-8.00e-04,-8.00e-02,
823,-8.80e-03,8.00e-02,
824,-8.00e-03,-1.60e-01,
825,0.00e+00,8.00e-02,
826,-6.40e-03,8.00e-02,
827,1.60e-03,-1.60e-01,
828,-6.40e-03,-8.00e-02,
829,1.60e-03,8.00e-02,
830,-4.80e-03,-8.00e-02,
831,3.20e-03,8.00e-02,
832,1.60e-03,-8.00e-02,
833,-7.20e-03,8.00e-02,
834,8.00e-04,8.00e-02,
835,-8.80e-03,-1.60e-01,
836,0.00e+00,-1.60e-01,
837,-8.00e-03,8.00e-02,
838,-8.00e-03,8.00e-02,
839,8.00e-04,-1.60e-01,
