NMRdata/glyc1/95up/98t9.csv

X,CH3,CH4,Start,Increment,
Sequence,Volt,Volt,-4.800000e-04,2.000000e-05
0,1.60e-03,8.00e-02,
1,-6.40e-03,-1.60e-01,
2,-5.60e-03,8.00e-02,
3,1.60e-03,-1.60e-01,
4,8.00e-04,-1.60e-01,
5,-7.20e-03,8.00e-02,
6,-7.20e-03,8.00e-02,
7,8.00e-04,-1.60e-01,
8,1.60e-03,8.00e-02,
9,-8.80e-03,-1.60e-01,
10,-6.40e-03,-1.60e-01,
11,1.60e-03,8.00e-02,
12,1.60e-03,8.00e-02,
13,-6.40e-03,-1.60e-01,
14,-5.60e-03,-1.60e-01,
15,2.40e-03,8.00e-02,
16,2.40e-03,8.00e-02,
17,-6.40e-03,-1.60e-01,
18,1.60e-03,8.00e-02,
19,-7.20e-03,-1.60e-01,
20,8.00e-04,-1.60e-01,
21,-7.20e-03,8.00e-02,
22,8.00e-04,8.00e-02,
23,-7.20e-03,-1.60e-01,
24,-8.80e-03,5.84e+00,
25,8.00e-04,4.64e+00,
26,-6.40e-03,4.72e+00,
27,8.00e-04,5.20e+00,
28,-8.00e-04,5.20e+00,
29,-3.20e-03,4.64e+00,
30,-8.00e-04,4.64e+00,
31,-1.04e-02,5.36e+00,
32,-9.60e-03,5.20e+00,
33,-5.60e-03,4.72e+00,
34,-8.00e-03,4.64e+00,
35,-5.60e-03,5.20e+00,
36,-5.60e-03,4.72e+00,
37,-8.00e-03,5.20e+00,
38,-5.60e-03,5.12e+00,
39,-2.72e-02,4.72e+00,
40,-2.24e-02,5.12e+00,
41,-5.84e-02,4.64e+00,
42,-6.24e-02,5.12e+00,
43,-5.04e-02,4.64e+00,
44,-5.44e-02,4.72e+00,
45,-2.32e-02,5.12e+00,
46,-2.64e-02,5.12e+00,
47,1.36e-02,4.72e+00,
48,7.20e-03,5.12e+00,
49,3.68e-02,4.72e+00,
50,4.24e-02,5.12e+00,
51,3.04e-02,4.72e+00,
52,3.52e-02,4.72e+00,
53,7.20e-03,5.12e+00,
54,1.04e-02,5.12e+00,
55,-1.84e-02,4.72e+00,
56,-1.28e-02,4.72e+00,
57,-3.12e-02,5.12e+00,
58,-3.28e-02,5.12e+00,
59,-2.24e-02,4.72e+00,
60,-2.80e-02,5.12e+00,
61,-6.40e-03,4.72e+00,
62,-1.12e-02,5.12e+00,
63,1.12e-02,4.72e+00,
64,8.00e-03,5.12e+00,
65,1.92e-02,4.72e+00,
66,1.92e-02,4.72e+00,
67,7.20e-03,5.12e+00,
68,1.28e-02,4.72e+00,
69,-4.80e-03,5.12e+00,
70,8.00e-04,5.12e+00,
71,-1.44e-02,4.64e+00,
72,-9.60e-03,5.12e+00,
73,-2.16e-02,4.80e+00,
74,-2.00e-02,5.12e+00,
75,-7.20e-03,4.72e+00,
76,-1.20e-02,4.72e+00,
77,3.20e-03,5.12e+00,
78,-2.40e-03,5.12e+00,
79,8.00e-03,4.72e+00,
80,8.00e-03,5.12e+00,
81,-8.00e-04,4.72e+00,
82,4.00e-03,5.12e+00,
83,-4.00e-03,4.72e+00,
84,2.40e-03,5.12e+00,
85,-8.00e-03,4.72e+00,
86,-1.12e-02,5.12e+00,
87,-1.60e-03,4.72e+00,
88,-9.60e-03,4.72e+00,
89,-1.60e-03,5.12e+00,
90,-8.80e-03,4.72e+00,
91,1.60e-03,5.12e+00,
92,-4.80e-03,5.12e+00,
93,3.20e-03,4.72e+00,
94,3.20e-03,4.80e+00,
95,-4.80e-03,5.12e+00,
96,8.00e-04,5.12e+00,
97,-8.80e-03,4.72e+00,
98,-1.60e-03,5.12e+00,
99,-9.60e-03,4.72e+00,
100,-1.04e-02,4.72e+00,
101,-8.00e-04,5.12e+00,
102,-8.80e-03,5.12e+00,
103,8.00e-04,4.64e+00,
104,-6.40e-03,5.12e+00,
105,4.00e-03,4.72e+00,
106,-3.20e-03,5.12e+00,
107,4.80e-03,4.72e+00,
108,4.00e-03,5.12e+00,
109,-6.40e-03,4.80e+00,
110,0.00e+00,5.12e+00,
111,-9.60e-03,4.72e+00,
112,-1.12e-02,5.12e+00,
113,-2.40e-03,4.80e+00,
114,-1.04e-02,5.12e+00,
115,-1.60e-03,4.64e+00,
116,-7.20e-03,4.80e+00,
117,2.40e-03,5.12e+00,
118,-4.00e-03,4.64e+00,
119,4.00e-03,5.12e+00,
120,4.80e-03,5.12e+00,
121,-3.20e-03,4.72e+00,
122,4.00e-03,4.72e+00,
123,-5.60e-03,5.12e+00,
124,2.40e-03,4.72e+00,
125,-9.60e-03,5.12e+00,
126,-1.60e-03,5.12e+00,
127,-9.60e-03,4.64e+00,
128,-9.60e-03,5.12e+00,
129,-2.40e-03,4.72e+00,
130,-9.60e-03,5.12e+00,
131,0.00e+00,4.64e+00,
132,-7.20e-03,5.12e+00,
133,1.60e-03,4.72e+00,
134,-4.00e-03,5.12e+00,
135,4.00e-03,4.64e+00,
136,4.80e-03,5.12e+00,
137,-4.80e-03,4.64e+00,
138,1.60e-03,4.72e+00,
139,-6.40e-03,5.12e+00,
140,0.00e+00,5.12e+00,
141,-9.60e-03,4.64e+00,
142,-8.80e-03,5.12e+00,
143,-8.00e-04,4.64e+00,
144,-8.00e-03,5.12e+00,
145,8.00e-04,4.72e+00,
146,-6.40e-03,5.12e+00,
147,1.60e-03,4.64e+00,
148,-5.60e-03,4.72e+00,
149,2.40e-03,5.12e+00,
150,2.40e-03,5.12e+00,
151,-6.40e-03,4.64e+00,
152,-7.20e-03,5.12e+00,
153,1.60e-03,4.72e+00,
154,8.00e-04,5.12e+00,
155,-7.20e-03,4.72e+00,
156,1.60e-03,5.12e+00,
157,-8.00e-03,4.72e+00,
158,-7.20e-03,5.12e+00,
159,1.60e-03,4.64e+00,
160,-6.40e-03,5.12e+00,
161,2.40e-03,4.64e+00,
162,-4.80e-03,4.64e+00,
163,3.20e-03,5.12e+00,
164,1.60e-03,4.64e+00,
165,-6.40e-03,5.12e+00,
166,1.60e-03,5.12e+00,
167,-6.40e-03,4.64e+00,
168,-8.00e-04,5.12e+00,
169,-8.80e-03,4.64e+00,
170,-8.80e-03,4.64e+00,
171,8.00e-04,5.12e+00,
172,1.60e-03,5.12e+00,
173,-8.00e-03,4.64e+00,
174,-5.60e-03,4.64e+00,
175,2.40e-03,5.12e+00,
176,-6.40e-03,5.12e+00,
177,3.20e-03,4.64e+00,
178,-5.60e-03,4.64e+00,
179,1.60e-03,5.12e+00,
180,1.60e-03,5.12e+00,
181,-8.00e-03,4.64e+00,
182,-8.00e-04,5.12e+00,
183,-8.80e-03,4.64e+00,
184,-9.60e-03,5.12e+00,
185,2.40e-03,4.64e+00,
186,-6.40e-03,5.12e+00,
187,2.40e-03,4.64e+00,
188,2.40e-03,5.12e+00,
189,-6.40e-03,4.64e+00,
190,1.60e-03,5.12e+00,
191,-6.40e-03,4.64e+00,
192,2.40e-03,5.12e+00,
193,-4.80e-03,4.64e+00,
194,1.60e-03,4.64e+00,
195,-6.40e-03,5.12e+00,
196,-7.20e-03,5.12e+00,
197,8.00e-04,4.64e+00,
198,-8.80e-03,5.12e+00,
199,8.00e-04,4.64e+00,
200,0.00e+00,5.12e+00,
201,-8.80e-03,4.64e+00,
202,-8.00e-03,5.12e+00,
203,8.00e-04,4.64e+00,
204,-6.40e-03,5.04e+00,
205,2.40e-03,4.64e+00,
206,2.40e-03,5.04e+00,
207,-7.20e-03,4.64e+00,
208,8.00e-04,5.12e+00,
209,-7.20e-03,4.64e+00,
210,0.00e+00,4.64e+00,
211,-8.80e-03,5.12e+00,
212,-8.80e-03,4.64e+00,
213,0.00e+00,5.12e+00,
214,-8.00e-03,5.04e+00,
215,1.60e-03,4.64e+00,
216,-8.00e-03,4.64e+00,
217,2.40e-03,5.12e+00,
218,1.60e-03,4.64e+00,
219,-6.40e-03,5.04e+00,
220,-5.60e-03,5.04e+00,
221,2.40e-03,4.64e+00,
222,1.60e-03,5.04e+00,
223,-7.20e-03,4.64e+00,
224,-8.00e-03,4.64e+00,
225,0.00e+00,5.12e+00,
226,-8.80e-03,4.64e+00,
227,8.00e-04,5.04e+00,
228,8.00e-04,4.64e+00,
229,-9.60e-03,4.96e+00,
230,-6.40e-03,4.64e+00,
231,1.60e-03,5.12e+00,
232,2.40e-03,5.12e+00,
233,-8.00e-03,4.64e+00,
234,-5.60e-03,4.64e+00,
235,2.40e-03,5.04e+00,
236,-6.40e-03,4.64e+00,
237,8.00e-04,5.04e+00,
238,-8.00e-03,4.64e+00,
239,1.60e-03,5.04e+00,
240,-7.20e-03,5.12e+00,
241,2.40e-03,4.64e+00,
242,8.00e-04,5.04e+00,
243,-6.40e-03,4.64e+00,
244,-6.40e-03,5.04e+00,
245,2.40e-03,4.64e+00,
246,-5.60e-03,4.64e+00,
247,2.40e-03,5.12e+00,
248,8.00e-04,5.12e+00,
249,-6.40e-03,4.64e+00,
250,-7.20e-03,4.64e+00,
251,0.00e+00,5.04e+00,
252,0.00e+00,4.64e+00,
253,-7.20e-03,5.04e+00,
254,2.40e-03,5.04e+00,
255,-6.40e-03,4.64e+00,
256,-7.20e-03,5.04e+00,
257,8.00e-04,4.64e+00,
258,-7.20e-03,4.64e+00,
259,1.60e-03,5.04e+00,
260,-6.40e-03,4.64e+00,
261,2.40e-03,5.04e+00,
262,2.40e-03,5.04e+00,
263,-6.40e-03,4.64e+00,
264,-6.40e-03,5.04e+00,
265,1.60e-03,4.64e+00,
266,-7.20e-03,4.64e+00,
267,1.60e-03,5.04e+00,
268,-7.20e-03,4.64e+00,
269,2.40e-03,4.80e+00,
270,8.00e-04,4.64e+00,
271,-7.20e-03,5.04e+00,
272,-6.40e-03,5.04e+00,
273,3.20e-03,4.64e+00,
274,-6.40e-03,5.04e+00,
275,2.40e-03,4.64e+00,
276,-6.40e-03,4.64e+00,
277,1.60e-03,5.04e+00,
278,-6.40e-03,4.64e+00,
279,3.20e-03,5.04e+00,
280,-7.20e-03,4.64e+00,
281,8.00e-04,5.04e+00,
282,8.00e-04,4.64e+00,
283,-7.20e-03,5.04e+00,
284,1.60e-03,5.04e+00,
285,-7.20e-03,4.64e+00,
286,-7.20e-03,5.04e+00,
287,1.60e-03,4.64e+00,
288,-6.40e-03,4.64e+00,
289,2.40e-03,5.04e+00,
290,1.60e-03,5.04e+00,
291,-5.60e-03,4.64e+00,
292,-8.00e-03,5.04e+00,
293,1.60e-03,4.64e+00,
294,-6.40e-03,4.64e+00,
295,1.60e-03,5.04e+00,
296,1.60e-03,4.64e+00,
297,-8.00e-03,5.04e+00,
298,-7.20e-03,5.04e+00,
299,1.60e-03,4.64e+00,
300,-8.00e-03,5.04e+00,
301,1.60e-03,4.64e+00,
302,1.60e-03,4.64e+00,
303,-7.20e-03,5.12e+00,
304,-6.40e-03,5.12e+00,
305,1.60e-03,4.64e+00,
306,8.00e-04,4.64e+00,
307,-7.20e-03,5.04e+00,
308,1.60e-03,4.64e+00,
309,-7.20e-03,5.04e+00,
310,-7.20e-03,4.64e+00,
311,8.00e-04,4.80e+00,
312,-7.20e-03,4.64e+00,
313,1.60e-03,5.04e+00,
314,1.60e-03,5.04e+00,
315,-6.40e-03,4.64e+00,
316,1.60e-03,4.64e+00,
317,-6.40e-03,5.04e+00,
318,8.00e-04,4.64e+00,
319,-6.40e-03,5.04e+00,
320,-6.40e-03,4.64e+00,
321,1.60e-03,5.04e+00,
322,8.00e-04,4.64e+00,
323,-7.20e-03,5.04e+00,
324,8.00e-04,4.64e+00,
325,-7.20e-03,5.04e+00,
326,-6.40e-03,5.04e+00,
327,8.00e-04,4.64e+00,
328,-8.00e-03,5.12e+00,
329,8.00e-04,4.64e+00,
330,-6.40e-03,4.64e+00,
331,2.40e-03,5.04e+00,
332,-5.60e-03,4.64e+00,
333,1.60e-03,5.04e+00,
334,-6.40e-03,5.04e+00,
335,1.60e-03,4.64e+00,
336,8.00e-04,4.64e+00,
337,-8.00e-03,5.04e+00,
338,0.00e+00,5.04e+00,
339,-9.60e-03,4.64e+00,
340,-7.20e-03,4.64e+00,
341,6.40e-03,5.04e+00,
342,1.60e-03,5.04e+00,
343,-7.20e-03,4.64e+00,
344,2.40e-03,4.64e+00,
345,-6.40e-03,5.04e+00,
346,-6.40e-03,4.64e+00,
347,1.60e-03,5.04e+00,
348,-7.20e-03,4.64e+00,
349,1.60e-03,5.04e+00,
350,-7.20e-03,4.72e+00,
351,3.20e-03,4.64e+00,
352,-6.40e-03,4.64e+00,
353,1.60e-03,5.04e+00,
354,8.00e-04,4.64e+00,
355,-7.20e-03,5.04e+00,
356,-6.40e-03,4.64e+00,
357,1.60e-03,5.04e+00,
358,8.00e-04,4.64e+00,
359,-8.00e-03,5.04e+00,
360,-6.40e-03,4.64e+00,
361,2.40e-03,5.04e+00,
362,-5.60e-03,4.64e+00,
363,2.40e-03,5.04e+00,
364,8.00e-04,5.04e+00,
365,-6.40e-03,4.64e+00,
366,-7.20e-03,4.64e+00,
367,1.60e-03,5.04e+00,
368,-6.40e-03,5.04e+00,
369,1.60e-03,4.64e+00,
370,1.60e-03,4.64e+00,
371,-6.40e-03,5.04e+00,
372,-5.60e-03,5.04e+00,
373,1.60e-03,4.64e+00,
374,-6.40e-03,4.64e+00,
375,1.60e-03,5.04e+00,
376,8.00e-04,4.64e+00,
377,-7.20e-03,5.04e+00,
378,1.60e-03,5.04e+00,
379,-7.20e-03,4.64e+00,
380,-7.20e-03,5.04e+00,
381,1.60e-03,4.64e+00,
382,-6.40e-03,4.64e+00,
383,3.20e-03,5.04e+00,
384,-6.40e-03,5.04e+00,
385,1.60e-03,4.64e+00,
386,-8.00e-03,4.64e+00,
387,1.60e-03,5.04e+00,
388,2.40e-03,4.64e+00,
389,-6.40e-03,5.04e+00,
390,-6.40e-03,4.64e+00,
391,1.60e-03,4.80e+00,
392,-7.20e-03,4.64e+00,
393,2.40e-03,5.12e+00,
394,8.00e-04,4.64e+00,
395,-7.20e-03,5.04e+00,
396,-7.20e-03,4.64e+00,
397,1.60e-03,5.04e+00,
398,-8.00e-03,4.64e+00,
399,1.60e-03,5.04e+00,
400,2.40e-03,5.04e+00,
401,-6.40e-03,4.64e+00,
402,-6.40e-03,4.64e+00,
403,2.40e-03,5.04e+00,
404,-6.40e-03,4.64e+00,
405,1.60e-03,5.04e+00,
406,8.00e-04,4.64e+00,
407,-7.20e-03,5.04e+00,
408,8.00e-04,4.64e+00,
409,-7.20e-03,5.04e+00,
410,-7.20e-03,5.04e+00,
411,8.00e-04,4.64e+00,
412,-6.40e-03,4.64e+00,
413,2.40e-03,5.04e+00,
414,1.60e-03,4.64e+00,
415,-8.00e-03,5.04e+00,
416,8.00e-04,4.64e+00,
417,-7.20e-03,5.04e+00,
418,-6.40e-03,5.04e+00,
419,8.00e-04,4.64e+00,
420,8.00e-04,5.04e+00,
421,-8.00e-03,4.64e+00,
422,-7.20e-03,5.04e+00,
423,8.00e-04,4.64e+00,
424,-6.40e-03,5.04e+00,
425,1.60e-03,4.64e+00,
426,-7.20e-03,5.04e+00,
427,2.40e-03,4.64e+00,
428,1.60e-03,4.64e+00,
429,-6.40e-03,5.04e+00,
430,-6.40e-03,4.64e+00,
431,2.40e-03,5.04e+00,
432,8.00e-04,4.64e+00,
433,-8.00e-03,5.04e+00,
434,-6.40e-03,4.64e+00,
435,1.60e-03,5.04e+00,
436,-8.00e-03,4.64e+00,
437,1.60e-03,4.96e+00,
438,1.60e-03,4.64e+00,
439,-7.20e-03,5.04e+00,
440,-6.40e-03,4.64e+00,
441,2.40e-03,5.04e+00,
442,1.60e-03,5.04e+00,
443,-6.40e-03,4.64e+00,
444,1.60e-03,4.56e+00,
445,-9.60e-03,5.04e+00,
446,1.60e-03,4.64e+00,
447,-7.20e-03,5.04e+00,
448,8.00e-04,4.64e+00,
449,-8.00e-03,5.04e+00,
450,-6.40e-03,4.64e+00,
451,8.00e-04,5.04e+00,
452,1.60e-03,4.64e+00,
453,-6.40e-03,5.04e+00,
454,1.60e-03,4.64e+00,
455,-8.00e-03,5.04e+00,
456,8.00e-04,4.64e+00,
457,-8.00e-03,5.04e+00,
458,8.00e-04,5.04e+00,
459,-8.00e-03,4.64e+00,
460,-8.80e-03,4.64e+00,
461,8.00e-04,5.04e+00,
462,-8.00e-04,5.04e+00,
463,-8.80e-03,4.64e+00,
464,0.00e+00,4.64e+00,
465,-8.00e-03,5.04e+00,
466,-7.20e-03,5.04e+00,
467,2.40e-03,4.64e+00,
468,8.00e-04,4.64e+00,
469,-7.20e-03,5.12e+00,
470,-6.40e-03,4.64e+00,
471,2.40e-03,5.04e+00,
472,1.60e-03,5.12e+00,
473,-8.80e-03,4.64e+00,
474,-8.00e-03,5.04e+00,
475,1.60e-03,4.64e+00,
476,0.00e+00,4.64e+00,
477,-8.00e-03,5.12e+00,
478,-4.00e-03,4.56e+00,
479,-1.60e-03,5.12e+00,
480,-1.60e-03,4.32e+00,
481,-1.28e-02,5.28e+00,
482,-1.60e-02,5.28e+00,
483,-7.20e-03,4.48e+00,
484,-7.20e-03,5.12e+00,
485,-9.60e-03,4.56e+00,
486,-7.20e-03,5.04e+00,
487,-8.80e-03,4.56e+00,
488,-8.80e-03,5.04e+00,
489,-6.40e-03,4.64e+00,
490,-7.20e-03,4.64e+00,
491,-8.80e-03,5.12e+00,
492,-6.40e-03,5.12e+00,
493,-1.60e-02,4.56e+00,
494,-1.76e-02,5.12e+00,
495,-4.80e-03,-1.36e+00,
496,-9.60e-03,0.00e+00,
497,6.40e-03,-3.20e-01,
498,8.00e-04,0.00e+00,
499,1.12e-02,-2.40e-01,
500,1.28e-02,0.00e+00,
501,3.20e-03,-2.40e-01,
502,8.80e-03,-1.60e-01,
503,-4.80e-03,0.00e+00,
504,8.00e-04,-1.60e-01,
505,-1.20e-02,0.00e+00,
506,-4.80e-03,-2.40e-01,
507,-1.44e-02,0.00e+00,
508,-1.36e-02,-1.60e-01,
509,-4.80e-03,0.00e+00,
510,-1.04e-02,-1.60e-01,
511,2.40e-03,0.00e+00,
512,-4.00e-03,0.00e+00,
513,4.80e-03,-1.60e-01,
514,5.60e-03,-1.60e-01,
515,-3.20e-03,0.00e+00,
516,5.60e-03,0.00e+00,
517,-4.00e-03,-2.40e-01,
518,-7.20e-03,-1.60e-01,
519,3.20e-03,0.00e+00,
520,-1.60e-03,-1.60e-01,
521,-9.60e-03,0.00e+00,
522,-1.04e-02,-1.60e-01,
523,-1.60e-03,0.00e+00,
524,-8.80e-03,-1.60e-01,
525,8.00e-04,0.00e+00,
526,-4.80e-03,0.00e+00,
527,2.40e-03,-2.40e-01,
528,-4.80e-03,-1.60e-01,
529,3.20e-03,0.00e+00,
530,3.20e-03,-1.60e-01,
531,-6.40e-03,0.00e+00,
532,8.00e-04,-1.60e-01,
533,-8.80e-03,0.00e+00,
534,0.00e+00,-1.60e-01,
535,-9.60e-03,0.00e+00,
536,-8.00e-03,0.00e+00,
537,8.00e-04,-2.40e-01,
538,-7.20e-03,0.00e+00,
539,8.00e-04,-2.40e-01,
540,2.40e-03,-1.60e-01,
541,-6.40e-03,0.00e+00,
542,-5.60e-03,-1.60e-01,
543,2.40e-03,0.00e+00,
544,1.60e-03,-8.00e-02,
545,-7.20e-03,-1.60e-01,
546,8.00e-04,0.00e+00,
547,-8.80e-03,-2.40e-01,
548,-1.04e-02,-8.00e-02,
549,0.00e+00,-2.40e-01,
550,1.60e-03,-1.60e-01,
551,-8.00e-03,0.00e+00,
552,-7.20e-03,-1.60e-01,
553,1.60e-03,0.00e+00,
554,-5.60e-03,-1.60e-01,
555,3.20e-03,0.00e+00,
556,3.20e-03,0.00e+00,
557,-5.60e-03,-1.60e-01,
558,8.00e-04,-2.40e-01,
559,-8.00e-03,0.00e+00,
560,-8.00e-03,-1.60e-01,
561,0.00e+00,0.00e+00,
562,-8.80e-03,-1.60e-01,
563,0.00e+00,0.00e+00,
564,-7.20e-03,-1.60e-01,
565,1.60e-03,0.00e+00,
566,-6.40e-03,-1.60e-01,
567,1.60e-03,0.00e+00,
568,-4.00e-03,0.00e+00,
569,2.40e-03,-2.40e-01,
570,-4.80e-03,-1.60e-01,
571,3.20e-03,0.00e+00,
572,2.40e-03,-1.60e-01,
573,-6.40e-03,0.00e+00,
574,2.40e-03,-1.60e-01,
575,-8.80e-03,0.00e+00,
576,-8.80e-03,-1.60e-01,
577,8.00e-04,0.00e+00,
578,0.00e+00,0.00e+00,
579,-6.40e-03,-2.40e-01,
580,0.00e+00,0.00e+00,
581,-7.20e-03,-2.40e-01,
582,-6.40e-03,-1.60e-01,
583,1.60e-03,0.00e+00,
584,-5.60e-03,-1.60e-01,
585,3.20e-03,0.00e+00,
586,3.20e-03,-1.60e-01,
587,-5.60e-03,0.00e+00,
588,8.00e-04,-8.00e-02,
589,-7.20e-03,-2.40e-01,
590,-8.00e-03,-2.40e-01,
591,8.00e-04,8.00e-02,
592,8.00e-04,-1.60e-01,
593,-7.20e-03,-1.60e-01,
594,1.60e-03,-1.60e-01,
595,-8.00e-03,8.00e-02,
596,-7.20e-03,-1.60e-01,
597,1.60e-03,8.00e-02,
598,1.60e-03,-1.60e-01,
599,-7.20e-03,8.00e-02,
600,-7.20e-03,0.00e+00,
601,2.40e-03,-2.40e-01,
602,1.60e-03,-1.60e-01,
603,-6.40e-03,8.00e-02,
604,8.00e-04,-1.60e-01,
605,-7.20e-03,8.00e-02,
606,-5.60e-03,-1.60e-01,
607,3.20e-03,8.00e-02,
608,2.40e-03,-1.60e-01,
609,-5.60e-03,8.00e-02,
610,8.00e-04,8.00e-02,
611,-6.40e-03,-2.40e-01,
612,1.60e-03,-1.60e-01,
613,-7.20e-03,8.00e-02,
614,0.00e+00,-1.60e-01,
615,-8.00e-03,8.00e-02,
616,-7.20e-03,-1.60e-01,
617,8.00e-04,8.00e-02,
618,1.60e-03,-1.60e-01,
619,-7.20e-03,8.00e-02,
620,-6.40e-03,8.00e-02,
621,1.60e-03,-2.40e-01,
622,-6.40e-03,-1.60e-01,
623,1.60e-03,8.00e-02,
624,1.60e-03,-1.60e-01,
625,-6.40e-03,8.00e-02,
626,1.60e-03,8.00e-02,
627,-7.20e-03,-1.60e-01,
628,8.00e-04,-1.60e-01,
629,-7.20e-03,8.00e-02,
630,-6.40e-03,8.00e-02,
631,1.60e-03,-2.40e-01,
632,-8.00e-03,-1.60e-01,
633,8.00e-04,8.00e-02,
634,-8.00e-03,-1.60e-01,
635,1.60e-03,8.00e-02,
636,-7.20e-03,-1.60e-01,
637,8.00e-04,8.00e-02,
638,1.60e-03,8.00e-02,
639,-6.40e-03,-1.60e-01,
640,-6.40e-03,-1.60e-01,
641,1.60e-03,8.00e-02,
642,8.00e-04,8.00e-02,
643,-7.20e-03,-2.40e-01,
644,-6.40e-03,8.00e-02,
645,1.60e-03,-1.60e-01,
646,1.60e-03,-1.60e-01,
647,-5.60e-03,8.00e-02,
648,-7.20e-03,-1.60e-01,
649,1.60e-03,8.00e-02,
650,-5.60e-03,-1.60e-01,
651,1.60e-03,8.00e-02,
652,8.00e-04,8.00e-02,
653,-8.00e-03,-2.40e-01,
654,-6.40e-03,-1.60e-01,
655,1.60e-03,8.00e-02,
656,-5.60e-03,-1.60e-01,
657,3.20e-03,8.00e-02,
658,8.00e-04,-1.60e-01,
659,-6.40e-03,8.00e-02,
660,-6.40e-03,-1.60e-01,
661,1.60e-03,8.00e-02,
662,1.60e-03,-1.60e-01,
663,-7.20e-03,8.00e-02,
664,8.00e-04,-2.40e-01,
665,-7.20e-03,8.00e-02,
666,-7.20e-03,-1.60e-01,
667,1.60e-03,8.00e-02,
668,8.00e-04,-1.60e-01,
669,-6.40e-03,8.00e-02,
670,1.60e-03,-1.60e-01,
671,-6.40e-03,8.00e-02,
672,8.00e-04,-1.60e-01,
673,-8.00e-03,8.00e-02,
674,-8.00e-03,-1.60e-01,
675,8.00e-04,8.00e-02,
676,-5.60e-03,-1.60e-01,
677,1.60e-03,8.00e-02,
678,1.60e-03,-1.60e-01,
679,-5.60e-03,8.00e-02,
680,-5.60e-03,-1.60e-01,
681,1.60e-03,8.00e-02,
682,1.60e-03,8.00e-02,
683,-7.20e-03,-1.60e-01,
684,-6.40e-03,8.00e-02,
685,1.60e-03,-1.60e-01,
686,1.60e-03,8.00e-02,
687,-6.40e-03,-1.60e-01,
688,8.00e-04,-1.60e-01,
689,-6.40e-03,8.00e-02,
690,-7.20e-03,-1.60e-01,
691,1.60e-03,8.00e-02,
692,-5.60e-03,-1.60e-01,
693,1.60e-03,8.00e-02,
694,1.60e-03,-1.60e-01,
695,-7.20e-03,8.00e-02,
696,1.60e-03,8.00e-02,
697,-6.40e-03,-1.60e-01,
698,2.40e-03,-1.60e-01,
699,-7.20e-03,8.00e-02,
700,-8.00e-03,8.00e-02,
701,8.00e-04,-1.60e-01,
702,-5.60e-03,-1.60e-01,
703,1.60e-03,8.00e-02,
704,1.60e-03,8.00e-02,
705,-6.40e-03,-1.60e-01,
706,-6.40e-03,-1.60e-01,
707,2.40e-03,8.00e-02,
708,-5.60e-03,8.00e-02,
709,2.40e-03,-1.60e-01,
710,1.60e-03,-1.60e-01,
711,-7.20e-03,8.00e-02,
712,-7.20e-03,8.00e-02,
713,1.60e-03,-1.60e-01,
714,-7.20e-03,8.00e-02,
715,8.00e-04,-1.60e-01,
716,1.60e-03,8.00e-02,
717,-8.80e-03,-1.60e-01,
718,-6.40e-03,8.00e-02,
719,1.60e-03,-1.60e-01,
720,-7.20e-03,8.00e-02,
721,3.20e-03,-1.60e-01,
722,1.60e-03,8.00e-02,
723,-6.40e-03,-1.60e-01,
724,8.00e-04,8.00e-02,
725,-6.40e-03,-1.60e-01,
726,-5.60e-03,8.00e-02,
727,1.60e-03,-1.60e-01,
728,-5.60e-03,8.00e-02,
729,3.20e-03,-1.60e-01,
730,1.60e-03,8.00e-02,
731,-7.20e-03,-1.60e-01,
732,-5.60e-03,-8.00e-02,
733,1.60e-03,8.00e-02,
734,-4.80e-03,8.00e-02,
735,3.20e-03,-1.60e-01,
736,3.20e-03,-8.00e-02,
737,-5.60e-03,8.00e-02,
738,8.00e-04,-8.00e-02,
739,-8.00e-03,8.00e-02,
740,-6.40e-03,-8.00e-02,
741,1.60e-03,8.00e-02,
742,1.60e-03,-8.00e-02,
743,-6.40e-03,8.00e-02,
744,-7.20e-03,8.00e-02,
745,1.60e-03,-1.60e-01,
746,1.60e-03,8.00e-02,
747,-5.60e-03,-1.60e-01,
748,-8.00e-03,8.00e-02,
749,3.20e-03,-1.60e-01,
750,1.60e-03,8.00e-02,
751,-7.20e-03,-1.60e-01,
752,1.60e-03,8.00e-02,
753,-7.20e-03,-1.60e-01,
754,-6.40e-03,8.00e-02,
755,2.40e-03,-1.60e-01,
756,8.00e-04,8.00e-02,
757,-7.20e-03,-8.00e-02,
758,-6.40e-03,8.00e-02,
759,2.40e-03,-1.60e-01,
760,2.40e-03,8.00e-02,
761,-6.40e-03,-1.60e-01,
762,1.60e-03,8.00e-02,
763,-7.20e-03,-1.60e-01,
764,2.40e-03,8.00e-02,
765,-6.40e-03,-1.60e-01,
766,-6.40e-03,8.00e-02,
767,8.00e-04,-1.60e-01,
768,-8.00e-03,8.00e-02,
769,0.00e+00,-1.60e-01,
770,-8.80e-03,-8.00e-02,
771,1.60e-03,8.00e-02,
772,8.00e-04,-8.00e-02,
773,-6.40e-03,8.00e-02,
774,8.00e-04,8.00e-02,
775,-5.60e-03,-1.60e-01,
776,2.40e-03,-8.00e-02,
777,-6.40e-03,8.00e-02,
778,1.60e-03,8.00e-02,
779,-6.40e-03,-8.00e-02,
780,1.60e-03,-8.00e-02,
781,-7.20e-03,8.00e-02,
782,-8.80e-03,-1.60e-01,
783,8.00e-04,8.00e-02,
784,-7.20e-03,8.00e-02,
785,8.00e-04,-1.60e-01,
786,2.40e-03,8.00e-02,
787,-7.20e-03,-1.60e-01,
788,8.00e-04,8.00e-02,
789,-8.00e-03,-1.60e-01,
790,1.60e-03,-8.00e-02,
791,-6.40e-03,8.00e-02,
792,1.60e-03,-8.00e-02,
793,-5.60e-03,8.00e-02,
794,1.60e-03,-8.00e-02,
795,-8.00e-03,8.00e-02,
796,-8.00e-03,8.00e-02,
797,8.00e-04,-8.00e-02,
798,8.00e-04,8.00e-02,
799,-7.20e-03,-1.60e-01,
800,1.60e-03,8.00e-02,
801,-6.40e-03,-1.60e-01,
802,-8.00e-03,-8.00e-02,
803,1.60e-03,8.00e-02,
804,-7.20e-03,-8.00e-02,
805,1.60e-03,8.00e-02,
806,-6.40e-03,8.00e-02,
807,1.60e-03,-1.60e-01,
808,8.00e-04,8.00e-02,
809,-7.20e-03,-8.00e-02,
810,-8.00e-03,-8.00e-02,
811,2.40e-03,8.00e-02,
812,-6.40e-03,8.00e-02,
813,2.40e-03,-1.60e-01,
814,2.40e-03,-1.60e-01,
815,-5.60e-03,8.00e-02,
816,2.40e-03,-8.00e-02,
817,-6.40e-03,8.00e-02,
818,1.60e-03,-8.00e-02,
819,-6.40e-03,8.00e-02,
820,8.00e-04,-8.00e-02,
821,-8.00e-03,8.00e-02,
822,-8.00e-03,-8.00e-02,
823,8.00e-04,8.00e-02,
824,8.00e-04,8.00e-02,
825,-7.20e-03,-8.00e-02,
826,1.60e-03,-8.00e-02,
827,-7.20e-03,8.00e-02,
828,-5.60e-03,8.00e-02,
829,1.60e-03,-1.60e-01,
830,-6.40e-03,8.00e-02,
831,4.00e-03,-1.60e-01,
832,1.60e-03,8.00e-02,
833,-6.40e-03,-1.60e-01,
834,8.00e-04,8.00e-02,
835,-8.80e-03,-1.60e-01,
836,0.00e+00,8.00e-02,
837,-9.60e-03,-8.00e-02,
838,-8.80e-03,-8.00e-02,
839,0.00e+00,8.00e-02,
840,-6.40e-03,-8.00e-02,
841,8.00e-04,8.00e-02,
842,-5.60e-03,-1.60e-01,
