NMRdata/glyc1/20_t10.csv

X,CH3,CH4,Start,Increment,
Sequence,Volt,Volt,-4.800000e-04,2.000000e-05
0,1.20e-02,8.00e-02,
1,2.60e-03,-1.60e-01,
2,2.80e-03,-1.60e-01,
3,1.14e-02,8.00e-02,
4,1.28e-02,8.00e-02,
5,5.20e-03,-1.60e-01,
6,1.54e-02,8.00e-02,
7,5.80e-03,-1.60e-01,
8,1.38e-02,8.00e-02,
9,3.80e-03,-1.60e-01,
10,1.32e-02,-1.60e-01,
11,3.80e-03,8.00e-02,
12,3.60e-03,8.00e-02,
13,1.26e-02,-2.40e-01,
14,1.40e-02,-1.60e-01,
15,4.20e-03,8.00e-02,
16,4.40e-03,8.00e-02,
17,1.46e-02,-1.60e-01,
18,1.26e-02,8.00e-02,
19,4.80e-03,-1.60e-01,
20,1.24e-02,-1.60e-01,
21,5.00e-03,8.00e-02,
22,1.28e-02,8.00e-02,
23,4.00e-03,-1.60e-01,
24,1.12e-02,5.84e+00,
25,3.80e-03,4.64e+00,
26,2.40e-03,4.72e+00,
27,1.22e-02,5.20e+00,
28,8.80e-03,5.20e+00,
29,1.04e-02,4.72e+00,
30,1.04e-02,4.40e+00,
31,-7.60e-03,5.36e+00,
32,-5.80e-03,5.20e+00,
33,-8.00e-04,4.64e+00,
34,-2.40e-03,4.64e+00,
35,-8.00e-04,5.20e+00,
36,-2.40e-03,5.20e+00,
37,-8.00e-04,4.72e+00,
38,-3.40e-03,4.64e+00,
39,3.60e-03,5.20e+00,
40,-2.20e-03,4.72e+00,
41,6.20e-03,5.20e+00,
42,-6.00e-04,5.20e+00,
43,7.60e-03,4.72e+00,
44,4.00e-04,4.72e+00,
45,9.40e-03,5.12e+00,
46,4.20e-03,4.72e+00,
47,1.26e-02,5.12e+00,
48,6.60e-03,4.72e+00,
49,1.44e-02,5.12e+00,
50,1.50e-02,4.72e+00,
51,7.00e-03,5.12e+00,
52,1.36e-02,5.12e+00,
53,3.40e-03,4.72e+00,
54,1.00e-02,5.04e+00,
55,3.40e-03,4.72e+00,
56,2.80e-03,5.12e+00,
57,1.02e-02,4.72e+00,
58,-2.00e-04,5.12e+00,
59,1.20e-02,4.72e+00,
60,2.40e-03,5.12e+00,
61,1.12e-02,4.72e+00,
62,5.80e-03,4.80e+00,
63,1.32e-02,5.20e+00,
64,6.20e-03,5.12e+00,
65,1.48e-02,4.72e+00,
66,1.26e-02,5.12e+00,
67,5.80e-03,4.72e+00,
68,1.28e-02,4.72e+00,
69,4.00e-03,5.12e+00,
70,3.40e-03,5.12e+00,
71,1.10e-02,4.72e+00,
72,4.20e-03,5.12e+00,
73,1.10e-02,4.72e+00,
74,3.80e-03,5.12e+00,
75,1.12e-02,4.72e+00,
76,5.00e-03,4.72e+00,
77,1.48e-02,5.12e+00,
78,1.24e-02,4.72e+00,
79,4.00e-03,5.12e+00,
80,4.00e-03,5.12e+00,
81,1.34e-02,4.72e+00,
82,1.26e-02,5.12e+00,
83,4.80e-03,4.72e+00,
84,4.80e-03,4.80e+00,
85,1.34e-02,5.12e+00,
86,5.20e-03,4.72e+00,
87,1.30e-02,5.12e+00,
88,1.56e-02,5.12e+00,
89,4.60e-03,4.72e+00,
90,4.20e-03,5.12e+00,
91,1.22e-02,4.72e+00,
92,6.20e-03,5.12e+00,
93,1.34e-02,4.72e+00,
94,1.22e-02,4.72e+00,
95,4.80e-03,5.20e+00,
96,1.40e-02,5.12e+00,
97,4.00e-03,4.72e+00,
98,1.08e-02,5.12e+00,
99,2.80e-03,4.72e+00,
100,3.40e-03,5.12e+00,
101,1.12e-02,4.72e+00,
102,4.20e-03,5.12e+00,
103,1.18e-02,4.72e+00,
104,5.00e-03,5.12e+00,
105,1.22e-02,4.72e+00,
106,2.60e-03,4.72e+00,
107,1.28e-02,5.12e+00,
108,4.00e-03,5.12e+00,
109,1.16e-02,4.72e+00,
110,1.20e-02,5.12e+00,
111,4.00e-03,4.72e+00,
112,1.30e-02,5.12e+00,
113,2.40e-03,4.72e+00,
114,3.60e-03,4.72e+00,
115,1.30e-02,5.12e+00,
116,4.60e-03,5.12e+00,
117,1.28e-02,4.72e+00,
118,1.32e-02,5.12e+00,
119,3.60e-03,4.72e+00,
120,1.42e-02,5.12e+00,
121,3.40e-03,4.72e+00,
122,1.26e-02,5.12e+00,
123,5.20e-03,4.72e+00,
124,5.60e-03,5.12e+00,
125,1.38e-02,4.72e+00,
126,3.80e-03,5.20e+00,
127,1.42e-02,4.72e+00,
128,1.30e-02,4.72e+00,
129,4.80e-03,5.12e+00,
130,1.32e-02,4.72e+00,
131,5.60e-03,5.12e+00,
132,1.34e-02,5.12e+00,
133,4.20e-03,4.72e+00,
134,1.20e-02,5.12e+00,
135,1.40e-03,4.72e+00,
136,1.18e-02,5.12e+00,
137,1.80e-03,4.80e+00,
138,1.10e-02,4.72e+00,
139,3.60e-03,5.12e+00,
140,3.60e-03,5.12e+00,
141,1.36e-02,4.72e+00,
142,1.12e-02,5.12e+00,
143,3.60e-03,4.72e+00,
144,1.22e-02,5.12e+00,
145,5.40e-03,4.72e+00,
146,1.32e-02,5.12e+00,
147,3.80e-03,4.64e+00,
148,1.20e-02,5.12e+00,
149,3.20e-03,4.72e+00,
150,1.28e-02,4.72e+00,
151,3.00e-03,5.12e+00,
152,4.40e-03,5.12e+00,
153,1.16e-02,4.72e+00,
154,1.30e-02,5.12e+00,
155,2.80e-03,4.72e+00,
156,2.80e-03,5.12e+00,
157,1.60e-02,4.72e+00,
158,1.18e-02,5.12e+00,
159,3.20e-03,4.72e+00,
160,1.18e-02,5.12e+00,
161,2.40e-03,4.72e+00,
162,4.60e-03,5.12e+00,
163,1.20e-02,4.72e+00,
164,1.16e-02,5.12e+00,
165,4.40e-03,4.80e+00,
166,4.40e-03,5.12e+00,
167,1.32e-02,4.72e+00,
168,1.52e-02,5.12e+00,
169,4.40e-03,4.72e+00,
170,1.20e-02,4.72e+00,
171,4.40e-03,5.12e+00,
172,1.10e-02,5.12e+00,
173,3.80e-03,4.72e+00,
174,1.12e-02,5.12e+00,
175,4.20e-03,4.80e+00,
176,1.30e-02,5.12e+00,
177,3.40e-03,4.72e+00,
178,1.60e-02,5.12e+00,
179,2.20e-03,4.72e+00,
180,4.00e-03,5.12e+00,
181,1.14e-02,4.72e+00,
182,1.80e-03,5.12e+00,
183,1.44e-02,4.72e+00,
184,5.20e-03,4.72e+00,
185,1.36e-02,5.12e+00,
186,1.16e-02,5.12e+00,
187,3.80e-03,4.64e+00,
188,5.00e-03,5.12e+00,
189,1.12e-02,4.64e+00,
190,1.22e-02,5.12e+00,
191,3.80e-03,4.72e+00,
192,5.40e-03,5.12e+00,
193,1.36e-02,4.72e+00,
194,1.32e-02,5.12e+00,
195,5.60e-03,4.72e+00,
196,1.40e-02,5.12e+00,
197,4.20e-03,4.64e+00,
198,2.60e-03,5.12e+00,
199,1.32e-02,4.72e+00,
200,1.22e-02,4.64e+00,
201,5.00e-03,5.12e+00,
202,3.80e-03,5.12e+00,
203,1.16e-02,4.72e+00,
204,1.80e-03,4.64e+00,
205,1.24e-02,5.12e+00,
206,1.22e-02,5.12e+00,
207,5.40e-03,4.72e+00,
208,1.48e-02,4.64e+00,
209,2.80e-03,5.12e+00,
210,1.34e-02,5.12e+00,
211,4.60e-03,4.72e+00,
212,1.36e-02,4.64e+00,
213,4.20e-03,5.12e+00,
214,4.00e-03,5.12e+00,
215,1.22e-02,4.64e+00,
216,1.32e-02,5.12e+00,
217,4.00e-03,4.64e+00,
218,1.12e-02,4.64e+00,
219,3.20e-03,5.12e+00,
220,4.80e-03,4.72e+00,
221,1.38e-02,5.12e+00,
222,4.00e-03,5.12e+00,
223,1.22e-02,4.64e+00,
224,5.20e-03,4.64e+00,
225,1.28e-02,5.12e+00,
226,5.20e-03,4.64e+00,
227,1.32e-02,5.12e+00,
228,5.00e-03,4.64e+00,
229,1.42e-02,5.12e+00,
230,4.80e-03,4.64e+00,
231,1.32e-02,5.12e+00,
232,1.22e-02,4.64e+00,
233,5.60e-03,5.12e+00,
234,5.80e-03,4.64e+00,
235,1.24e-02,5.12e+00,
236,1.24e-02,4.64e+00,
237,3.80e-03,5.12e+00,
238,1.18e-02,4.64e+00,
239,3.60e-03,5.12e+00,
240,5.40e-03,5.12e+00,
241,1.24e-02,4.64e+00,
242,1.24e-02,5.12e+00,
243,4.80e-03,4.64e+00,
244,1.34e-02,4.64e+00,
245,4.80e-03,5.12e+00,
246,1.44e-02,4.64e+00,
247,5.00e-03,5.12e+00,
248,4.60e-03,4.64e+00,
249,1.40e-02,5.12e+00,
250,5.60e-03,5.12e+00,
251,1.22e-02,4.64e+00,
252,1.30e-02,4.64e+00,
253,5.40e-03,5.12e+00,
254,1.26e-02,4.64e+00,
255,5.60e-03,5.12e+00,
256,5.00e-03,4.64e+00,
257,1.26e-02,5.12e+00,
258,4.80e-03,4.64e+00,
259,1.24e-02,5.04e+00,
260,4.60e-03,4.64e+00,
261,1.44e-02,5.12e+00,
262,6.20e-03,4.64e+00,
263,1.20e-02,5.12e+00,
264,1.36e-02,4.64e+00,
265,4.00e-03,5.12e+00,
266,4.20e-03,4.64e+00,
267,1.28e-02,5.12e+00,
268,5.80e-03,4.64e+00,
269,1.24e-02,5.12e+00,
270,5.20e-03,4.64e+00,
271,1.30e-02,5.12e+00,
272,4.60e-03,4.64e+00,
273,1.20e-02,5.12e+00,
274,1.12e-02,4.64e+00,
275,3.80e-03,5.12e+00,
276,5.00e-03,4.64e+00,
277,1.22e-02,5.12e+00,
278,1.22e-02,4.64e+00,
279,5.40e-03,5.12e+00,
280,1.18e-02,4.64e+00,
281,5.20e-03,5.12e+00,
282,5.00e-03,5.12e+00,
283,1.26e-02,4.64e+00,
284,5.20e-03,4.64e+00,
285,1.46e-02,5.12e+00,
286,6.00e-03,4.64e+00,
287,1.24e-02,5.12e+00,
288,4.40e-03,4.64e+00,
289,1.16e-02,5.12e+00,
290,5.80e-03,4.64e+00,
291,1.18e-02,5.12e+00,
292,1.20e-02,4.64e+00,
293,2.80e-03,5.12e+00,
294,1.34e-02,5.12e+00,
295,5.20e-03,4.64e+00,
296,1.30e-02,4.64e+00,
297,5.00e-03,5.12e+00,
298,4.60e-03,5.12e+00,
299,1.34e-02,4.64e+00,
300,1.28e-02,4.64e+00,
301,4.40e-03,5.12e+00,
302,6.00e-03,5.12e+00,
303,1.50e-02,4.64e+00,
304,5.40e-03,4.64e+00,
305,1.22e-02,5.12e+00,
306,5.80e-03,5.12e+00,
307,1.20e-02,4.64e+00,
308,1.24e-02,4.64e+00,
309,3.60e-03,5.12e+00,
310,4.80e-03,5.12e+00,
311,1.20e-02,4.64e+00,
312,3.00e-03,4.64e+00,
313,1.18e-02,5.12e+00,
314,1.20e-02,5.04e+00,
315,5.00e-03,4.64e+00,
316,6.20e-03,4.64e+00,
317,1.28e-02,5.12e+00,
318,4.80e-03,5.04e+00,
319,1.36e-02,4.64e+00,
320,1.46e-02,4.64e+00,
321,4.60e-03,5.12e+00,
322,4.60e-03,5.04e+00,
323,1.72e-02,4.64e+00,
324,1.16e-02,5.12e+00,
325,4.60e-03,4.64e+00,
326,1.20e-02,4.64e+00,
327,4.40e-03,5.04e+00,
328,4.20e-03,4.64e+00,
329,1.28e-02,5.12e+00,
330,5.60e-03,4.64e+00,
331,1.32e-02,5.04e+00,
332,1.28e-02,4.64e+00,
333,5.40e-03,5.12e+00,
334,4.60e-03,4.64e+00,
335,1.20e-02,5.04e+00,
336,5.40e-03,5.12e+00,
337,1.32e-02,4.64e+00,
338,5.40e-03,4.64e+00,
339,1.42e-02,5.04e+00,
340,1.18e-02,4.64e+00,
341,3.80e-03,5.12e+00,
342,1.08e-02,4.64e+00,
343,3.60e-03,5.04e+00,
344,2.60e-03,4.64e+00,
345,1.36e-02,5.12e+00,
346,4.60e-03,5.04e+00,
347,1.36e-02,4.64e+00,
348,3.20e-03,5.12e+00,
349,1.50e-02,4.64e+00,
350,1.20e-02,4.64e+00,
351,5.00e-03,5.12e+00,
352,1.20e-02,5.12e+00,
353,1.60e-03,4.64e+00,
354,4.80e-03,4.64e+00,
355,1.48e-02,5.12e+00,
356,3.60e-03,4.64e+00,
357,1.28e-02,5.12e+00,
358,1.34e-02,4.64e+00,
359,4.20e-03,5.12e+00,
360,3.40e-03,5.12e+00,
361,1.22e-02,4.64e+00,
362,4.00e-03,4.64e+00,
363,1.30e-02,5.12e+00,
364,4.60e-03,5.12e+00,
365,1.54e-02,4.64e+00,
366,5.00e-03,4.64e+00,
367,1.28e-02,5.12e+00,
368,1.28e-02,5.12e+00,
369,6.00e-03,4.64e+00,
370,5.60e-03,4.64e+00,
371,1.34e-02,5.12e+00,
372,1.12e-02,5.12e+00,
373,1.80e-03,4.64e+00,
374,2.80e-03,4.64e+00,
375,1.24e-02,5.12e+00,
376,2.60e-03,5.12e+00,
377,1.42e-02,4.64e+00,
378,4.60e-03,4.64e+00,
379,1.22e-02,5.12e+00,
380,1.16e-02,4.64e+00,
381,4.80e-03,5.12e+00,
382,1.24e-02,4.64e+00,
383,5.60e-03,5.12e+00,
384,1.22e-02,4.64e+00,
385,3.20e-03,5.12e+00,
386,1.40e-02,4.64e+00,
387,3.60e-03,5.12e+00,
388,1.14e-02,4.64e+00,
389,5.20e-03,5.12e+00,
390,2.40e-03,4.64e+00,
391,1.12e-02,5.12e+00,
392,5.00e-03,4.64e+00,
393,1.22e-02,5.12e+00,
394,2.00e-03,4.64e+00,
395,1.42e-02,5.12e+00,
396,1.58e-02,5.12e+00,
397,6.20e-03,4.64e+00,
398,1.16e-02,4.64e+00,
399,4.80e-03,5.12e+00,
400,4.20e-03,4.64e+00,
401,1.38e-02,5.12e+00,
402,1.18e-02,4.64e+00,
403,4.20e-03,5.12e+00,
404,1.40e-02,5.12e+00,
405,5.60e-03,4.64e+00,
406,1.32e-02,4.64e+00,
407,5.20e-03,5.12e+00,
408,5.80e-03,4.64e+00,
409,1.22e-02,5.12e+00,
410,4.00e-03,4.64e+00,
411,1.16e-02,5.12e+00,
412,4.00e-03,4.64e+00,
413,1.24e-02,5.12e+00,
414,3.40e-03,4.64e+00,
415,1.12e-02,5.12e+00,
416,3.40e-03,4.64e+00,
417,1.06e-02,5.12e+00,
418,4.00e-03,4.64e+00,
419,1.36e-02,5.12e+00,
420,5.20e-03,4.64e+00,
421,1.20e-02,5.12e+00,
422,1.22e-02,4.64e+00,
423,5.80e-03,5.12e+00,
424,4.20e-03,4.64e+00,
425,1.40e-02,5.12e+00,
426,2.80e-03,4.64e+00,
427,1.18e-02,5.12e+00,
428,1.30e-02,4.64e+00,
429,3.40e-03,5.12e+00,
430,3.60e-03,4.64e+00,
431,1.26e-02,5.12e+00,
432,1.22e-02,4.64e+00,
433,5.20e-03,5.12e+00,
434,1.32e-02,4.64e+00,
435,3.40e-03,5.12e+00,
436,3.40e-03,4.64e+00,
437,1.12e-02,5.12e+00,
438,1.18e-02,4.64e+00,
439,4.60e-03,5.12e+00,
440,1.12e-02,5.12e+00,
441,3.60e-03,4.64e+00,
442,1.52e-02,4.64e+00,
443,3.00e-03,5.12e+00,
444,4.20e-03,4.64e+00,
445,1.30e-02,5.12e+00,
446,3.60e-03,4.64e+00,
447,1.64e-02,5.12e+00,
448,4.80e-03,5.12e+00,
449,1.34e-02,4.64e+00,
450,5.20e-03,4.64e+00,
451,1.18e-02,5.12e+00,
452,1.10e-02,4.64e+00,
453,3.60e-03,5.12e+00,
454,4.40e-03,4.64e+00,
455,1.28e-02,5.12e+00,
456,1.28e-02,4.64e+00,
457,5.80e-03,5.12e+00,
458,5.00e-03,4.64e+00,
459,1.36e-02,5.12e+00,
460,1.38e-02,5.12e+00,
461,6.00e-03,4.64e+00,
462,1.26e-02,4.64e+00,
463,4.60e-03,5.12e+00,
464,1.14e-02,4.64e+00,
465,3.20e-03,5.12e+00,
466,4.80e-03,4.64e+00,
467,1.32e-02,5.12e+00,
468,4.00e-03,4.64e+00,
469,1.18e-02,5.12e+00,
470,4.20e-03,4.64e+00,
471,1.24e-02,5.12e+00,
472,1.24e-02,5.12e+00,
473,4.20e-03,4.64e+00,
474,1.30e-02,4.64e+00,
475,3.40e-03,5.12e+00,
476,5.00e-03,4.64e+00,
477,1.24e-02,5.12e+00,
478,1.18e-02,5.12e+00,
479,3.80e-03,4.64e+00,
480,1.10e-02,5.12e+00,
481,3.40e-03,4.64e+00,
482,5.00e-03,4.64e+00,
483,1.28e-02,5.12e+00,
484,4.60e-03,5.12e+00,
485,1.46e-02,4.64e+00,
486,4.80e-03,4.64e+00,
487,1.22e-02,5.12e+00,
488,1.32e-02,5.12e+00,
489,5.80e-03,4.64e+00,
490,5.40e-03,4.64e+00,
491,1.48e-02,5.12e+00,
492,1.18e-02,5.12e+00,
493,2.60e-03,4.64e+00,
494,1.32e-02,4.64e+00,
495,4.40e-03,5.12e+00,
496,1.18e-02,4.64e+00,
497,4.60e-03,5.12e+00,
498,5.40e-03,4.64e+00,
499,1.22e-02,5.12e+00,
500,3.40e-03,5.12e+00,
501,1.26e-02,4.64e+00,
502,1.48e-02,4.64e+00,
503,5.60e-03,5.12e+00,
504,3.00e-03,5.12e+00,
505,1.26e-02,4.64e+00,
506,1.38e-02,4.64e+00,
507,5.00e-03,5.12e+00,
508,1.22e-02,4.64e+00,
509,3.80e-03,5.04e+00,
510,2.20e-03,5.12e+00,
511,1.14e-02,4.64e+00,
512,1.24e-02,4.64e+00,
513,3.60e-03,5.04e+00,
514,1.22e-02,4.64e+00,
515,4.80e-03,5.12e+00,
516,1.22e-02,4.64e+00,
517,4.80e-03,5.04e+00,
518,3.60e-03,4.64e+00,
519,1.30e-02,5.12e+00,
520,1.28e-02,4.64e+00,
521,4.80e-03,5.12e+00,
522,1.14e-02,4.64e+00,
523,4.20e-03,5.12e+00,
524,4.20e-03,5.12e+00,
525,1.10e-02,4.64e+00,
526,1.28e-02,4.64e+00,
527,3.60e-03,5.12e+00,
528,9.20e-03,4.64e+00,
529,7.80e-03,5.12e+00,
530,9.40e-03,4.64e+00,
531,-1.06e-02,5.36e+00,
532,-1.30e-02,5.12e+00,
533,-4.80e-03,4.40e+00,
534,-4.80e-03,5.12e+00,
535,-6.40e-03,4.56e+00,
536,-6.20e-03,5.12e+00,
537,-4.60e-03,4.64e+00,
538,-6.20e-03,5.12e+00,
539,-4.60e-03,4.64e+00,
540,-4.60e-03,5.12e+00,
541,-6.20e-03,4.56e+00,
542,-6.20e-03,5.12e+00,
543,4.40e-03,4.64e+00,
544,8.00e-04,5.12e+00,
545,1.22e-02,-1.28e+00,
546,5.40e-03,0.00e+00,
547,1.22e-02,-2.40e-01,
548,4.00e-03,-2.40e-01,
549,1.44e-02,0.00e+00,
550,1.36e-02,-1.60e-01,
551,6.20e-03,0.00e+00,
552,1.20e-02,0.00e+00,
553,4.60e-03,-2.40e-01,
554,1.26e-02,-1.60e-01,
555,3.80e-03,0.00e+00,
556,4.80e-03,0.00e+00,
557,1.16e-02,-2.40e-01,
558,1.14e-02,-1.60e-01,
559,4.80e-03,0.00e+00,
560,1.22e-02,-1.60e-01,
561,4.60e-03,0.00e+00,
562,5.20e-03,-1.60e-01,
563,1.24e-02,0.00e+00,
564,1.26e-02,-1.60e-01,
565,2.20e-03,0.00e+00,
566,5.00e-03,0.00e+00,
567,1.18e-02,-1.60e-01,
568,1.12e-02,-2.40e-01,
569,4.20e-03,0.00e+00,
570,5.60e-03,0.00e+00,
571,1.22e-02,-1.60e-01,
572,5.80e-03,-1.60e-01,
573,1.26e-02,0.00e+00,
574,1.48e-02,0.00e+00,
575,4.60e-03,-1.60e-01,
576,1.20e-02,-1.60e-01,
577,5.60e-03,0.00e+00,
578,1.18e-02,0.00e+00,
579,4.80e-03,-2.40e-01,
580,1.22e-02,-2.40e-01,
581,5.20e-03,0.00e+00,
582,1.54e-02,-1.60e-01,
583,4.40e-03,0.00e+00,
584,5.20e-03,-1.60e-01,
585,1.16e-02,0.00e+00,
586,1.16e-02,-1.60e-01,
587,4.60e-03,0.00e+00,
588,3.60e-03,0.00e+00,
589,1.12e-02,-2.40e-01,
590,4.20e-03,0.00e+00,
591,1.18e-02,-1.60e-01,
592,1.40e-02,-1.60e-01,
593,5.20e-03,0.00e+00,
594,1.20e-02,-1.60e-01,
595,5.60e-03,0.00e+00,
596,4.60e-03,-1.60e-01,
597,1.18e-02,0.00e+00,
598,5.00e-03,0.00e+00,
599,1.26e-02,-2.40e-01,
600,5.80e-03,0.00e+00,
601,1.26e-02,-2.40e-01,
602,1.14e-02,-1.60e-01,
603,3.80e-03,-1.60e-01,
604,1.22e-02,-1.60e-01,
605,4.60e-03,0.00e+00,
606,5.40e-03,-1.60e-01,
607,1.52e-02,-1.60e-01,
608,6.20e-03,0.00e+00,
609,1.34e-02,-2.40e-01,
610,1.28e-02,-1.60e-01,
611,5.20e-03,-2.40e-01,
612,1.28e-02,-1.60e-01,
613,5.60e-03,0.00e+00,
614,1.22e-02,-1.60e-01,
615,5.60e-03,-1.60e-01,
616,1.34e-02,-1.60e-01,
617,3.60e-03,0.00e+00,
618,6.40e-03,-1.60e-01,
619,1.26e-02,0.00e+00,
620,1.14e-02,0.00e+00,
621,5.80e-03,-2.40e-01,
622,1.18e-02,-1.60e-01,
623,4.80e-03,0.00e+00,
624,3.80e-03,-1.60e-01,
625,1.20e-02,0.00e+00,
626,1.26e-02,-1.60e-01,
627,5.20e-03,0.00e+00,
628,1.36e-02,-1.60e-01,
629,5.60e-03,0.00e+00,
630,6.20e-03,0.00e+00,
631,1.32e-02,-2.40e-01,
632,5.20e-03,-1.60e-01,
633,1.32e-02,8.00e-02,
634,3.40e-03,-1.60e-01,
635,1.24e-02,0.00e+00,
636,6.40e-03,-1.60e-01,
637,1.46e-02,8.00e-02,
638,5.60e-03,-1.60e-01,
639,1.30e-02,8.00e-02,
640,5.40e-03,0.00e+00,
641,1.20e-02,-2.40e-01,
642,1.16e-02,8.00e-02,
643,5.00e-03,-2.40e-01,
644,5.00e-03,-1.60e-01,
645,1.34e-02,0.00e+00,
646,1.30e-02,-1.60e-01,
647,4.00e-03,0.00e+00,
648,1.34e-02,-1.60e-01,
649,5.20e-03,0.00e+00,
650,5.20e-03,8.00e-02,
651,1.30e-02,-2.40e-01,
652,1.16e-02,-2.40e-01,
653,3.80e-03,8.00e-02,
654,1.20e-02,-1.60e-01,
655,5.20e-03,8.00e-02,
656,3.00e-03,-1.60e-01,
657,1.18e-02,8.00e-02,
658,1.20e-02,-1.60e-01,
659,5.60e-03,8.00e-02,
660,1.16e-02,-1.60e-01,
661,6.60e-03,0.00e+00,
662,1.22e-02,8.00e-02,
663,5.00e-03,-2.40e-01,
664,4.40e-03,-1.60e-01,
665,1.16e-02,8.00e-02,
666,1.26e-02,-1.60e-01,
667,5.00e-03,8.00e-02,
668,6.00e-03,-1.60e-01,
669,1.24e-02,8.00e-02,
670,1.24e-02,-1.60e-01,
671,3.60e-03,8.00e-02,
672,1.26e-02,8.00e-02,
673,4.40e-03,-2.40e-01,
674,4.80e-03,-2.40e-01,
675,1.28e-02,8.00e-02,
676,5.00e-03,-1.60e-01,
677,1.24e-02,8.00e-02,
678,5.20e-03,-1.60e-01,
679,1.36e-02,8.00e-02,
680,1.26e-02,-1.60e-01,
681,3.60e-03,8.00e-02,
682,1.20e-02,8.00e-02,
683,5.60e-03,-2.40e-01,
684,5.40e-03,8.00e-02,
685,1.38e-02,-1.60e-01,
686,5.60e-03,-1.60e-01,
687,1.22e-02,8.00e-02,
688,6.20e-03,-1.60e-01,
689,1.28e-02,8.00e-02,
690,1.36e-02,-1.60e-01,
691,5.80e-03,8.00e-02,
692,4.60e-03,8.00e-02,
693,1.28e-02,-2.40e-01,
694,1.22e-02,-1.60e-01,
695,6.60e-03,8.00e-02,
696,1.22e-02,-1.60e-01,
697,5.60e-03,8.00e-02,
698,1.14e-02,-1.60e-01,
699,5.20e-03,8.00e-02,
700,1.34e-02,-1.60e-01,
701,3.40e-03,8.00e-02,
702,3.00e-03,-1.60e-01,
703,1.16e-02,8.00e-02,
704,2.60e-03,8.00e-02,
705,1.14e-02,-2.40e-01,
706,5.60e-03,-1.60e-01,
707,1.36e-02,8.00e-02,
708,1.26e-02,-1.60e-01,
709,4.00e-03,8.00e-02,
710,4.80e-03,-1.60e-01,
711,1.26e-02,8.00e-02,
712,1.22e-02,8.00e-02,
713,4.40e-03,-1.60e-01,
714,5.60e-03,8.00e-02,
715,1.18e-02,-2.40e-01,
716,1.32e-02,-1.60e-01,
717,6.00e-03,8.00e-02,
718,1.26e-02,8.00e-02,
719,4.60e-03,-1.60e-01,
720,3.80e-03,-1.60e-01,
721,1.36e-02,8.00e-02,
722,4.60e-03,-1.60e-01,
723,1.22e-02,8.00e-02,
724,1.36e-02,8.00e-02,
725,5.60e-03,-2.40e-01,
726,1.24e-02,8.00e-02,
727,5.00e-03,-2.40e-01,
728,1.12e-02,-1.60e-01,
729,3.60e-03,8.00e-02,
730,1.22e-02,-1.60e-01,
731,4.60e-03,8.00e-02,
732,4.80e-03,-1.60e-01,
733,1.36e-02,8.00e-02,
734,1.22e-02,8.00e-02,
735,5.80e-03,-2.40e-01,
736,4.40e-03,-1.60e-01,
737,1.18e-02,8.00e-02,
738,5.00e-03,8.00e-02,
739,1.28e-02,-1.60e-01,
740,1.30e-02,8.00e-02,
741,5.60e-03,-1.60e-01,
742,3.80e-03,-1.60e-01,
743,1.28e-02,8.00e-02,
744,5.20e-03,-1.60e-01,
745,1.28e-02,8.00e-02,
746,1.34e-02,-1.60e-01,
747,5.20e-03,8.00e-02,
748,5.60e-03,-1.60e-01,
749,1.38e-02,8.00e-02,
750,1.36e-02,-1.60e-01,
751,3.60e-03,8.00e-02,
752,1.20e-02,-1.60e-01,
753,4.00e-03,8.00e-02,
754,5.20e-03,-1.60e-01,
755,1.42e-02,8.00e-02,
756,2.60e-03,8.00e-02,
757,1.32e-02,-2.40e-01,
758,1.18e-02,8.00e-02,
759,4.60e-03,-1.60e-01,
760,3.80e-03,-1.60e-01,
761,1.22e-02,8.00e-02,
762,4.80e-03,-1.60e-01,
763,1.42e-02,8.00e-02,
764,5.80e-03,8.00e-02,
765,1.34e-02,-1.60e-01,
766,1.26e-02,8.00e-02,
767,5.60e-03,-1.60e-01,
768,1.24e-02,-1.60e-01,
769,5.20e-03,8.00e-02,
770,1.18e-02,-1.60e-01,
771,3.00e-03,8.00e-02,
772,5.00e-03,8.00e-02,
773,1.22e-02,-1.60e-01,
774,1.30e-02,-1.60e-01,
775,4.80e-03,8.00e-02,
776,3.40e-03,8.00e-02,
777,1.18e-02,-1.60e-01,
778,1.26e-02,8.00e-02,
779,5.40e-03,-1.60e-01,
780,1.28e-02,8.00e-02,
781,6.00e-03,-1.60e-01,
782,4.60e-03,8.00e-02,
783,1.44e-02,-1.60e-01,
784,1.26e-02,8.00e-02,
785,2.80e-03,-1.60e-01,
786,4.80e-03,8.00e-02,
787,1.18e-02,-1.60e-01,
788,4.40e-03,8.00e-02,
789,1.24e-02,-1.60e-01,
790,1.22e-02,8.00e-02,
791,5.20e-03,-1.60e-01,
792,3.20e-03,8.00e-02,
793,1.36e-02,-1.60e-01,
794,1.28e-02,8.00e-02,
795,5.00e-03,-1.60e-01,
796,1.32e-02,8.00e-02,
797,5.20e-03,-8.00e-02,
798,6.00e-04,8.00e-02,
799,1.24e-02,-1.60e-01,
800,1.20e-02,8.00e-02,
801,-4.00e-04,-1.60e-01,
802,4.80e-03,8.00e-02,
803,1.26e-02,-1.60e-01,
804,1.24e-02,-1.60e-01,
805,4.80e-03,8.00e-02,
806,5.60e-03,8.00e-02,
807,1.30e-02,-1.60e-01,
808,5.20e-03,8.00e-02,
809,1.34e-02,-1.60e-01,
810,1.30e-02,8.00e-02,
811,5.00e-03,-1.60e-01,
812,3.80e-03,-1.60e-01,
813,1.22e-02,8.00e-02,
814,1.16e-02,8.00e-02,
815,4.00e-03,-1.60e-01,
816,1.12e-02,-8.00e-02,
817,4.80e-03,8.00e-02,
818,3.40e-03,8.00e-02,
819,1.34e-02,-8.00e-02,
820,5.40e-03,-8.00e-02,
821,1.52e-02,8.00e-02,
822,5.40e-03,8.00e-02,
823,1.26e-02,-1.60e-01,
824,1.30e-02,8.00e-02,
825,4.60e-03,-1.60e-01,
826,4.60e-03,-8.00e-02,
827,1.10e-02,8.00e-02,
828,1.24e-02,8.00e-02,
829,2.80e-03,-1.60e-01,
830,1.20e-02,-8.00e-02,
831,5.00e-03,8.00e-02,
832,5.00e-03,-8.00e-02,
833,1.30e-02,8.00e-02,
834,1.36e-02,-8.00e-02,
835,5.40e-03,8.00e-02,
836,1.34e-02,8.00e-02,
837,2.40e-03,-1.60e-01,
838,1.46e-02,8.00e-02,
839,8.00e-04,-1.60e-01,
840,4.80e-03,8.00e-02,
841,1.22e-02,-1.60e-01,
842,5.40e-03,8.00e-02,
843,1.22e-02,-8.00e-02,
844,1.18e-02,-8.00e-02,
845,4.60e-03,8.00e-02,
846,1.34e-02,8.00e-02,
847,5.20e-03,-8.00e-02,
848,1.30e-02,-8.00e-02,
849,3.20e-03,8.00e-02,
850,1.18e-02,8.00e-02,
851,5.20e-03,-8.00e-02,
852,3.40e-03,-1.60e-01,
853,1.32e-02,8.00e-02,
854,1.14e-02,8.00e-02,
855,2.00e-03,-1.60e-01,
856,4.00e-03,8.00e-02,
857,1.24e-02,-1.60e-01,
858,1.22e-02,8.00e-02,
859,5.60e-03,-8.00e-02,
860,3.80e-03,-8.00e-02,
861,1.22e-02,8.00e-02,
