NMRdata/glyc1/50_t4.csv

X,CH3,CH4,Start,Increment,
Sequence,Volt,Volt,-4.800000e-04,2.000000e-05
0,5.40e-03,-1.60e-01,
1,1.26e-02,8.00e-02,
2,1.28e-02,8.00e-02,
3,6.20e-03,-1.60e-01,
4,7.60e-03,-1.60e-01,
5,1.58e-02,8.00e-02,
6,8.60e-03,8.00e-02,
7,1.60e-02,-1.60e-01,
8,1.50e-02,8.00e-02,
9,7.40e-03,-1.60e-01,
10,6.00e-03,-2.40e-01,
11,1.44e-02,8.00e-02,
12,1.30e-02,8.00e-02,
13,5.20e-03,-1.60e-01,
14,4.20e-03,-1.60e-01,
15,1.54e-02,8.00e-02,
16,7.00e-03,-1.60e-01,
17,1.40e-02,8.00e-02,
18,1.50e-02,-1.60e-01,
19,7.40e-03,8.00e-02,
20,8.20e-03,8.00e-02,
21,1.56e-02,-1.60e-01,
22,7.80e-03,8.00e-02,
23,1.56e-02,-1.60e-01,
24,1.58e-02,5.68e+00,
25,6.20e-03,4.72e+00,
26,1.36e-02,5.20e+00,
27,4.00e-03,4.72e+00,
28,8.20e-03,5.20e+00,
29,9.40e-03,4.64e+00,
30,9.40e-03,4.32e+00,
31,-7.60e-03,5.44e+00,
32,-5.60e-03,5.20e+00,
33,-4.00e-04,4.72e+00,
34,-1.60e-03,5.20e+00,
35,-2.00e-04,4.72e+00,
36,-1.80e-03,4.72e+00,
37,-2.00e-04,5.20e+00,
38,-3.40e-03,5.20e+00,
39,2.60e-03,4.72e+00,
40,2.40e-03,5.20e+00,
41,-6.40e-03,4.72e+00,
42,-5.60e-03,4.64e+00,
43,7.80e-03,5.20e+00,
44,-2.00e-04,4.72e+00,
45,1.14e-02,5.12e+00,
46,5.20e-03,4.72e+00,
47,2.10e-02,5.20e+00,
48,1.52e-02,4.72e+00,
49,2.40e-02,5.12e+00,
50,2.24e-02,4.72e+00,
51,1.10e-02,5.20e+00,
52,1.72e-02,4.72e+00,
53,6.80e-03,5.04e+00,
54,1.18e-02,4.72e+00,
55,1.80e-03,5.20e+00,
56,1.00e-03,5.12e+00,
57,8.60e-03,4.72e+00,
58,2.40e-03,4.72e+00,
59,9.40e-03,5.20e+00,
60,5.00e-03,4.80e+00,
61,1.44e-02,5.12e+00,
62,9.20e-03,4.72e+00,
63,1.68e-02,5.20e+00,
64,1.10e-02,5.12e+00,
65,1.86e-02,4.72e+00,
66,1.76e-02,4.72e+00,
67,8.20e-03,5.20e+00,
68,1.44e-02,5.12e+00,
69,5.80e-03,4.72e+00,
70,1.20e-02,4.72e+00,
71,4.60e-03,5.20e+00,
72,5.00e-03,5.12e+00,
73,1.28e-02,4.72e+00,
74,1.46e-02,4.72e+00,
75,6.00e-03,5.12e+00,
76,7.60e-03,5.12e+00,
77,1.64e-02,4.72e+00,
78,1.64e-02,4.72e+00,
79,9.00e-03,5.20e+00,
80,1.56e-02,5.12e+00,
81,7.80e-03,4.72e+00,
82,1.36e-02,4.72e+00,
83,5.40e-03,5.20e+00,
84,5.20e-03,4.72e+00,
85,1.44e-02,5.12e+00,
86,4.20e-03,4.72e+00,
87,1.28e-02,5.20e+00,
88,1.42e-02,5.12e+00,
89,6.60e-03,4.72e+00,
90,7.40e-03,4.72e+00,
91,1.48e-02,5.12e+00,
92,7.80e-03,5.12e+00,
93,1.50e-02,4.72e+00,
94,1.48e-02,4.72e+00,
95,7.00e-03,5.20e+00,
96,1.42e-02,5.12e+00,
97,5.80e-03,4.72e+00,
98,6.20e-03,4.72e+00,
99,1.32e-02,5.12e+00,
100,1.44e-02,5.12e+00,
101,6.00e-03,4.72e+00,
102,1.42e-02,4.72e+00,
103,7.00e-03,5.20e+00,
104,6.40e-03,5.12e+00,
105,1.66e-02,4.72e+00,
106,6.80e-03,5.12e+00,
107,1.54e-02,4.72e+00,
108,1.54e-02,5.12e+00,
109,5.80e-03,4.72e+00,
110,1.28e-02,4.72e+00,
111,4.00e-03,5.20e+00,
112,5.80e-03,4.80e+00,
113,1.28e-02,5.12e+00,
114,6.40e-03,5.12e+00,
115,1.36e-02,4.72e+00,
116,4.80e-03,5.12e+00,
117,1.62e-02,4.72e+00,
118,1.40e-02,5.12e+00,
119,7.40e-03,4.72e+00,
120,1.40e-02,5.12e+00,
121,6.60e-03,4.72e+00,
122,1.38e-02,4.80e+00,
123,6.00e-03,5.12e+00,
124,5.80e-03,5.12e+00,
125,1.34e-02,4.72e+00,
126,6.20e-03,4.72e+00,
127,1.36e-02,5.20e+00,
128,1.44e-02,5.12e+00,
129,6.00e-03,4.72e+00,
130,7.40e-03,4.72e+00,
131,1.46e-02,5.12e+00,
132,8.40e-03,5.12e+00,
133,1.58e-02,4.72e+00,
134,1.52e-02,4.80e+00,
135,7.00e-03,5.20e+00,
136,6.00e-03,4.72e+00,
137,1.48e-02,5.12e+00,
138,1.44e-02,4.72e+00,
139,6.60e-03,5.12e+00,
140,1.36e-02,4.72e+00,
141,6.40e-03,5.20e+00,
142,5.60e-03,5.12e+00,
143,1.48e-02,4.72e+00,
144,7.40e-03,5.12e+00,
145,1.46e-02,4.72e+00,
146,7.60e-03,5.12e+00,
147,1.64e-02,4.72e+00,
148,8.00e-03,4.72e+00,
149,1.58e-02,5.12e+00,
150,1.46e-02,5.20e+00,
151,6.20e-03,4.72e+00,
152,6.60e-03,5.12e+00,
153,1.42e-02,4.64e+00,
154,6.00e-03,4.80e+00,
155,1.46e-02,5.12e+00,
156,6.60e-03,5.12e+00,
157,1.46e-02,4.72e+00,
158,1.38e-02,5.12e+00,
159,6.60e-03,4.64e+00,
160,7.60e-03,5.12e+00,
161,1.44e-02,4.72e+00,
162,1.46e-02,5.12e+00,
163,7.00e-03,4.72e+00,
164,1.64e-02,5.12e+00,
165,7.00e-03,4.72e+00,
166,1.48e-02,5.12e+00,
167,5.80e-03,4.72e+00,
168,6.80e-03,5.12e+00,
169,1.50e-02,4.72e+00,
170,5.20e-03,4.80e+00,
171,1.50e-02,5.12e+00,
172,1.48e-02,5.12e+00,
173,8.00e-03,4.80e+00,
174,1.56e-02,5.12e+00,
175,6.80e-03,4.80e+00,
176,1.58e-02,5.12e+00,
177,7.40e-03,4.72e+00,
178,1.32e-02,5.12e+00,
179,6.20e-03,4.72e+00,
180,6.60e-03,4.72e+00,
181,1.62e-02,5.20e+00,
182,1.40e-02,4.72e+00,
183,5.20e-03,5.12e+00,
184,1.54e-02,5.12e+00,
185,6.80e-03,4.72e+00,
186,1.50e-02,5.12e+00,
187,7.40e-03,4.72e+00,
188,7.00e-03,5.12e+00,
189,1.70e-02,4.72e+00,
190,1.62e-02,5.12e+00,
191,7.80e-03,4.72e+00,
192,1.42e-02,5.12e+00,
193,5.40e-03,4.64e+00,
194,1.48e-02,5.12e+00,
195,5.00e-03,4.64e+00,
196,1.32e-02,4.64e+00,
197,5.60e-03,5.20e+00,
198,4.00e-03,5.12e+00,
199,1.38e-02,4.64e+00,
200,6.40e-03,5.12e+00,
201,1.58e-02,4.64e+00,
202,8.00e-03,5.12e+00,
203,1.68e-02,4.64e+00,
204,1.78e-02,5.12e+00,
205,5.00e-03,4.64e+00,
206,1.52e-02,4.72e+00,
207,5.60e-03,5.12e+00,
208,1.22e-02,5.12e+00,
209,3.60e-03,4.64e+00,
210,4.80e-03,5.12e+00,
211,1.32e-02,4.64e+00,
212,6.00e-03,5.12e+00,
213,1.34e-02,4.72e+00,
214,7.80e-03,5.12e+00,
215,1.68e-02,4.64e+00,
216,1.92e-02,5.12e+00,
217,9.00e-03,4.64e+00,
218,1.54e-02,5.12e+00,
219,5.20e-03,4.64e+00,
220,1.56e-02,5.12e+00,
221,5.80e-03,4.64e+00,
222,1.32e-02,5.12e+00,
223,2.40e-03,4.64e+00,
224,2.60e-03,5.12e+00,
225,1.12e-02,4.64e+00,
226,4.00e-03,5.12e+00,
227,1.30e-02,4.64e+00,
228,1.02e-02,5.12e+00,
229,1.16e-02,4.64e+00,
230,1.16e-02,4.48e+00,
231,-8.60e-03,5.28e+00,
232,-1.06e-02,4.64e+00,
233,-3.20e-03,5.36e+00,
234,-3.20e-03,4.56e+00,
235,-4.40e-03,5.12e+00,
236,-4.40e-03,4.64e+00,
237,-3.00e-03,5.12e+00,
238,-4.40e-03,5.12e+00,
239,-3.00e-03,4.64e+00,
240,-3.00e-03,4.64e+00,
241,-4.40e-03,5.12e+00,
242,-5.80e-03,4.64e+00,
243,3.20e-03,5.12e+00,
244,-1.40e-03,5.12e+00,
245,1.18e-02,4.64e+00,
246,6.40e-03,4.80e+00,
247,1.70e-02,-1.12e+00,
248,8.40e-03,0.00e+00,
249,1.68e-02,-2.40e-01,
250,8.80e-03,0.00e+00,
251,1.70e-02,-2.40e-01,
252,1.54e-02,0.00e+00,
253,8.00e-03,-1.60e-01,
254,1.50e-02,-1.60e-01,
255,6.40e-03,0.00e+00,
256,1.26e-02,0.00e+00,
257,4.40e-03,-1.60e-01,
258,4.60e-03,-1.60e-01,
259,1.38e-02,0.00e+00,
260,1.44e-02,-1.60e-01,
261,5.00e-03,0.00e+00,
262,6.80e-03,0.00e+00,
263,1.52e-02,-2.40e-01,
264,6.80e-03,-1.60e-01,
265,1.60e-02,0.00e+00,
266,1.44e-02,-1.60e-01,
267,6.40e-03,0.00e+00,
268,1.32e-02,0.00e+00,
269,5.00e-03,-1.60e-01,
270,1.56e-02,-1.60e-01,
271,5.40e-03,0.00e+00,
272,6.40e-03,0.00e+00,
273,1.44e-02,-2.40e-01,
274,1.36e-02,-1.60e-01,
275,4.60e-03,0.00e+00,
276,7.60e-03,-1.60e-01,
277,1.70e-02,0.00e+00,
278,1.38e-02,-1.60e-01,
279,6.00e-03,0.00e+00,
280,1.42e-02,-1.60e-01,
281,4.00e-03,0.00e+00,
282,1.36e-02,-2.40e-01,
283,5.80e-03,0.00e+00,
284,1.44e-02,0.00e+00,
285,4.80e-03,-1.60e-01,
286,6.20e-03,-1.60e-01,
287,1.40e-02,0.00e+00,
288,6.40e-03,0.00e+00,
289,1.38e-02,-1.60e-01,
290,7.40e-03,-1.60e-01,
291,1.38e-02,0.00e+00,
292,1.40e-02,0.00e+00,
293,7.00e-03,-2.40e-01,
294,5.40e-03,-2.40e-01,
295,1.50e-02,0.00e+00,
296,6.20e-03,-8.00e-02,
297,1.42e-02,-1.60e-01,
298,1.50e-02,-1.60e-01,
299,5.80e-03,0.00e+00,
300,6.80e-03,-1.60e-01,
301,1.38e-02,0.00e+00,
302,6.80e-03,-1.60e-01,
303,1.46e-02,0.00e+00,
304,7.80e-03,0.00e+00,
305,1.70e-02,-2.40e-01,
306,1.46e-02,-1.60e-01,
307,6.60e-03,0.00e+00,
308,1.38e-02,-1.60e-01,
309,6.80e-03,0.00e+00,
310,6.60e-03,-1.60e-01,
311,1.36e-02,0.00e+00,
312,1.42e-02,-1.60e-01,
313,7.40e-03,0.00e+00,
314,6.20e-03,0.00e+00,
315,1.46e-02,-2.40e-01,
316,1.64e-02,-1.60e-01,
317,7.40e-03,0.00e+00,
318,6.40e-03,-1.60e-01,
319,1.56e-02,0.00e+00,
320,1.52e-02,-1.60e-01,
321,7.60e-03,0.00e+00,
322,1.38e-02,-1.60e-01,
323,6.00e-03,0.00e+00,
324,6.00e-03,-1.60e-01,
325,1.42e-02,-2.40e-01,
326,6.00e-03,-1.60e-01,
327,1.46e-02,0.00e+00,
328,1.38e-02,-1.60e-01,
329,5.80e-03,-1.60e-01,
330,6.00e-03,-1.60e-01,
331,1.46e-02,0.00e+00,
332,7.00e-03,-1.60e-01,
333,1.62e-02,-1.60e-01,
334,1.66e-02,0.00e+00,
335,6.80e-03,-2.40e-01,
336,6.00e-03,-1.60e-01,
337,1.54e-02,-1.60e-01,
338,1.52e-02,-1.60e-01,
339,6.40e-03,0.00e+00,
340,1.28e-02,-1.60e-01,
341,5.20e-03,0.00e+00,
342,6.60e-03,-1.60e-01,
343,1.54e-02,0.00e+00,
344,7.60e-03,-1.60e-01,
345,1.50e-02,0.00e+00,
346,8.20e-03,0.00e+00,
347,1.56e-02,-2.40e-01,
348,8.20e-03,-1.60e-01,
349,1.64e-02,0.00e+00,
350,1.40e-02,-1.60e-01,
351,7.60e-03,0.00e+00,
352,1.44e-02,-1.60e-01,
353,6.20e-03,8.00e-02,
354,6.40e-03,-1.60e-01,
355,1.40e-02,8.00e-02,
356,1.38e-02,0.00e+00,
357,6.20e-03,-2.40e-01,
358,5.20e-03,-1.60e-01,
359,1.54e-02,0.00e+00,
360,1.56e-02,-1.60e-01,
361,6.80e-03,0.00e+00,
362,1.42e-02,-1.60e-01,
363,5.40e-03,8.00e-02,
364,1.44e-02,-1.60e-01,
365,6.60e-03,8.00e-02,
366,1.28e-02,8.00e-02,
367,6.00e-03,-2.40e-01,
368,5.80e-03,-1.60e-01,
369,1.42e-02,8.00e-02,
370,1.40e-02,-1.60e-01,
371,5.60e-03,8.00e-02,
372,6.40e-03,-1.60e-01,
373,1.60e-02,8.00e-02,
374,1.50e-02,8.00e-02,
375,6.40e-03,-1.60e-01,
376,6.60e-03,8.00e-02,
377,1.52e-02,-2.40e-01,
378,1.44e-02,-1.60e-01,
379,5.20e-03,8.00e-02,
380,4.00e-03,-1.60e-01,
381,1.30e-02,8.00e-02,
382,1.44e-02,-1.60e-01,
383,5.60e-03,8.00e-02,
384,7.60e-03,-1.60e-01,
385,1.54e-02,8.00e-02,
386,9.20e-03,-1.60e-01,
387,1.68e-02,8.00e-02,
388,7.60e-03,8.00e-02,
389,1.66e-02,-2.40e-01,
390,1.44e-02,-1.60e-01,
391,3.80e-03,8.00e-02,
392,4.00e-03,-1.60e-01,
393,1.18e-02,8.00e-02,
394,4.20e-03,-1.60e-01,
395,1.28e-02,8.00e-02,
396,5.40e-03,-1.60e-01,
397,1.42e-02,8.00e-02,
398,6.80e-03,-1.60e-01,
399,1.84e-02,8.00e-02,
400,1.76e-02,-1.60e-01,
401,9.20e-03,8.00e-02,
402,1.92e-02,-1.60e-01,
403,8.60e-03,8.00e-02,
404,1.46e-02,-1.60e-01,
405,5.40e-03,8.00e-02,
406,1.10e-02,-1.60e-01,
407,2.00e-03,8.00e-02,
408,1.20e-03,8.00e-02,
409,9.00e-03,-2.40e-01,
410,2.20e-03,8.00e-02,
411,1.38e-02,-1.60e-01,
412,8.60e-03,-1.60e-01,
413,1.84e-02,8.00e-02,
414,1.28e-02,8.00e-02,
415,2.22e-02,-1.60e-01,
416,2.20e-02,8.00e-02,
417,1.18e-02,-1.60e-01,
418,1.66e-02,8.00e-02,
419,6.00e-03,-2.40e-01,
420,1.04e-02,-1.60e-01,
421,-8.00e-04,8.00e-02,
422,5.00e-03,-1.60e-01,
423,-4.00e-03,8.00e-02,
424,-3.40e-03,-1.60e-01,
425,8.00e-03,8.00e-02,
426,1.80e-03,-1.60e-01,
427,1.82e-02,8.00e-02,
428,1.10e-02,8.00e-02,
429,2.98e-02,-1.60e-01,
430,3.04e-02,8.00e-02,
431,2.06e-02,-2.40e-01,
432,2.48e-02,-1.60e-01,
433,5.60e-03,8.00e-02,
434,1.02e-02,-1.60e-01,
435,-6.20e-03,8.00e-02,
436,-8.40e-03,-1.60e-01,
437,1.00e-03,8.00e-02,
438,-5.00e-03,-1.60e-01,
439,1.20e-02,8.00e-02,
440,8.40e-03,8.00e-02,
441,2.08e-02,-2.40e-01,
442,1.56e-02,-1.60e-01,
443,2.34e-02,8.00e-02,
444,2.32e-02,-1.60e-01,
445,1.38e-02,8.00e-02,
446,1.88e-02,-1.60e-01,
447,6.60e-03,8.00e-02,
448,1.22e-02,-1.60e-01,
449,2.00e-03,8.00e-02,
450,7.20e-03,-2.40e-01,
451,-1.20e-03,8.00e-02,
452,1.00e-03,-1.60e-01,
453,1.08e-02,8.00e-02,
454,5.60e-03,-1.60e-01,
455,1.48e-02,8.00e-02,
456,9.80e-03,8.00e-02,
457,1.80e-02,-1.60e-01,
458,1.28e-02,-1.60e-01,
459,2.00e-02,8.00e-02,
460,1.82e-02,8.00e-02,
461,9.40e-03,-2.40e-01,
462,1.44e-02,-1.60e-01,
463,5.40e-03,8.00e-02,
464,1.14e-02,8.00e-02,
465,3.60e-03,-1.60e-01,
466,3.80e-03,8.00e-02,
467,1.38e-02,-1.60e-01,
468,6.00e-03,-1.60e-01,
469,1.46e-02,8.00e-02,
470,1.52e-02,8.00e-02,
471,8.80e-03,-1.60e-01,
472,1.72e-02,8.00e-02,
473,8.00e-03,-2.40e-01,
474,1.90e-02,8.00e-02,
475,9.80e-03,-1.60e-01,
476,1.54e-02,8.00e-02,
477,7.40e-03,-1.60e-01,
478,1.52e-02,8.00e-02,
479,6.40e-03,-1.60e-01,
480,1.22e-02,8.00e-02,
481,5.20e-03,-1.60e-01,
482,4.60e-03,-1.60e-01,
483,1.48e-02,8.00e-02,
484,6.20e-03,8.00e-02,
485,1.54e-02,-1.60e-01,
486,8.00e-03,-8.00e-02,
487,1.64e-02,8.00e-02,
488,1.58e-02,-1.60e-01,
489,8.60e-03,8.00e-02,
490,1.48e-02,-8.00e-02,
491,6.40e-03,8.00e-02,
492,1.38e-02,-1.60e-01,
493,6.20e-03,8.00e-02,
494,1.42e-02,8.00e-02,
495,6.00e-03,-1.60e-01,
496,6.80e-03,8.00e-02,
497,1.42e-02,-1.60e-01,
498,7.80e-03,-8.00e-02,
499,1.48e-02,8.00e-02,
500,1.44e-02,8.00e-02,
501,7.20e-03,-1.60e-01,
502,1.34e-02,8.00e-02,
503,6.20e-03,-1.60e-01,
504,6.40e-03,8.00e-02,
505,1.48e-02,-1.60e-01,
506,6.00e-03,8.00e-02,
507,1.34e-02,-1.60e-01,
508,7.40e-03,-8.00e-02,
509,1.54e-02,8.00e-02,
510,8.00e-03,8.00e-02,
511,1.52e-02,-1.60e-01,
512,7.60e-03,-8.00e-02,
513,1.56e-02,8.00e-02,
514,1.40e-02,-8.00e-02,
515,7.20e-03,8.00e-02,
516,1.34e-02,-8.00e-02,
517,5.80e-03,8.00e-02,
518,1.32e-02,8.00e-02,
519,6.00e-03,-1.60e-01,
520,1.34e-02,-8.00e-02,
521,6.80e-03,8.00e-02,
522,1.54e-02,8.00e-02,
523,6.40e-03,-8.00e-02,
524,1.60e-02,-1.60e-01,
525,8.00e-03,8.00e-02,
526,1.52e-02,8.00e-02,
527,7.40e-03,-1.60e-01,
528,1.50e-02,8.00e-02,
529,7.40e-03,-1.60e-01,
530,1.50e-02,8.00e-02,
531,6.60e-03,-8.00e-02,
532,1.40e-02,8.00e-02,
533,5.60e-03,-8.00e-02,
534,6.60e-03,8.00e-02,
535,1.32e-02,-1.60e-01,
536,7.20e-03,-8.00e-02,
537,1.70e-02,8.00e-02,
538,6.40e-03,-8.00e-02,
539,1.50e-02,8.00e-02,
540,1.42e-02,-8.00e-02,
541,7.60e-03,8.00e-02,
542,1.68e-02,8.00e-02,
543,6.60e-03,-1.60e-01,
544,1.54e-02,-8.00e-02,
545,6.40e-03,8.00e-02,
546,7.00e-03,8.00e-02,
547,1.50e-02,-1.60e-01,
548,7.00e-03,8.00e-02,
549,1.46e-02,-8.00e-02,
550,7.00e-03,-8.00e-02,
551,1.50e-02,8.00e-02,
552,1.76e-02,-8.00e-02,
553,7.60e-03,8.00e-02,
554,1.50e-02,-8.00e-02,
555,8.00e-03,8.00e-02,
556,1.42e-02,-1.60e-01,
557,6.00e-03,8.00e-02,
558,5.80e-03,8.00e-02,
559,1.48e-02,-1.60e-01,
560,1.50e-02,-8.00e-02,
561,6.00e-03,8.00e-02,
562,6.20e-03,-8.00e-02,
563,1.34e-02,8.00e-02,
564,5.80e-03,-8.00e-02,
565,1.40e-02,8.00e-02,
566,5.40e-03,8.00e-02,
567,1.34e-02,-1.60e-01,
568,1.46e-02,-8.00e-02,
569,5.80e-03,8.00e-02,
570,1.40e-02,8.00e-02,
571,7.00e-03,-1.60e-01,
572,1.42e-02,-1.60e-01,
573,7.40e-03,8.00e-02,
574,1.56e-02,8.00e-02,
575,6.20e-03,-1.60e-01,
576,1.38e-02,-8.00e-02,
577,6.80e-03,8.00e-02,
578,7.60e-03,8.00e-02,
579,1.52e-02,-8.00e-02,
580,1.50e-02,-8.00e-02,
581,8.20e-03,8.00e-02,
582,1.58e-02,-8.00e-02,
583,5.80e-03,8.00e-02,
584,1.62e-02,-8.00e-02,
585,6.40e-03,8.00e-02,
586,1.34e-02,8.00e-02,
587,3.00e-03,-8.00e-02,
588,6.80e-03,-8.00e-02,
589,1.50e-02,8.00e-02,
590,1.44e-02,8.00e-02,
591,6.20e-03,-1.60e-01,
592,6.60e-03,-8.00e-02,
593,1.64e-02,8.00e-02,
594,1.46e-02,-8.00e-02,
595,6.40e-03,8.00e-02,
596,6.60e-03,-8.00e-02,
597,1.46e-02,8.00e-02,
598,7.00e-03,-1.60e-01,
599,1.50e-02,8.00e-02,
600,1.48e-02,-8.00e-02,
601,4.80e-03,8.00e-02,
602,1.44e-02,8.00e-02,
603,6.00e-03,-8.00e-02,
604,1.36e-02,-8.00e-02,
605,3.60e-03,8.00e-02,
606,6.20e-03,8.00e-02,
607,1.66e-02,-8.00e-02,
608,1.62e-02,-8.00e-02,
609,8.20e-03,8.00e-02,
610,1.50e-02,8.00e-02,
611,6.60e-03,-8.00e-02,
612,8.20e-03,-8.00e-02,
613,1.58e-02,8.00e-02,
614,1.52e-02,8.00e-02,
615,7.20e-03,-8.00e-02,
616,6.20e-03,-1.60e-01,
617,1.56e-02,8.00e-02,
618,7.20e-03,-8.00e-02,
619,1.46e-02,8.00e-02,
620,1.40e-02,-8.00e-02,
621,6.40e-03,8.00e-02,
622,3.60e-03,-8.00e-02,
623,1.42e-02,8.00e-02,
624,7.00e-03,-8.00e-02,
625,1.46e-02,8.00e-02,
626,5.60e-03,-8.00e-02,
627,1.62e-02,8.00e-02,
628,1.66e-02,8.00e-02,
629,6.60e-03,-1.60e-01,
630,1.44e-02,-8.00e-02,
631,4.60e-03,8.00e-02,
632,1.14e-02,8.00e-02,
633,4.20e-03,-1.60e-01,
634,4.40e-03,8.00e-02,
635,1.32e-02,-8.00e-02,
636,6.80e-03,8.00e-02,
637,1.54e-02,-1.60e-01,
638,9.40e-03,-8.00e-02,
639,1.70e-02,8.00e-02,
640,1.80e-02,-8.00e-02,
641,7.80e-03,8.00e-02,
642,1.46e-02,8.00e-02,
643,6.20e-03,-8.00e-02,
644,5.80e-03,-8.00e-02,
645,1.26e-02,8.00e-02,
646,1.28e-02,-8.00e-02,
647,4.60e-03,8.00e-02,
648,6.60e-03,8.00e-02,
649,1.36e-02,-1.60e-01,
650,6.40e-03,-8.00e-02,
651,1.58e-02,8.00e-02,
652,7.60e-03,-8.00e-02,
653,1.82e-02,8.00e-02,
654,1.56e-02,-8.00e-02,
655,6.80e-03,8.00e-02,
656,7.60e-03,-1.60e-01,
657,1.56e-02,8.00e-02,
658,5.20e-03,8.00e-02,
659,1.50e-02,-8.00e-02,
660,7.00e-03,8.00e-02,
661,1.50e-02,-1.60e-01,
662,7.00e-03,-8.00e-02,
663,1.58e-02,8.00e-02,
664,6.60e-03,-8.00e-02,
665,1.50e-02,8.00e-02,
666,1.42e-02,8.00e-02,
667,6.40e-03,-1.60e-01,
668,5.20e-03,8.00e-02,
669,1.54e-02,-1.60e-01,
670,1.48e-02,8.00e-02,
671,5.60e-03,-1.60e-01,
672,1.40e-02,-8.00e-02,
673,6.40e-03,8.00e-02,
674,1.54e-02,8.00e-02,
675,6.60e-03,-1.60e-01,
676,1.34e-02,8.00e-02,
677,5.60e-03,-1.60e-01,
678,6.00e-03,8.00e-02,
679,1.48e-02,-1.60e-01,
680,6.20e-03,-1.60e-01,
681,1.44e-02,8.00e-02,
682,7.00e-03,-1.60e-01,
683,1.48e-02,8.00e-02,
684,7.00e-03,8.00e-02,
685,1.46e-02,-1.60e-01,
686,1.36e-02,-1.60e-01,
687,6.20e-03,8.00e-02,
688,5.40e-03,8.00e-02,
689,1.36e-02,-1.60e-01,
690,1.48e-02,8.00e-02,
691,6.80e-03,-2.40e-01,
692,6.20e-03,8.00e-02,
693,1.54e-02,-1.60e-01,
694,1.42e-02,-8.00e-02,
695,4.60e-03,8.00e-02,
696,1.36e-02,8.00e-02,
697,6.40e-03,-1.60e-01,
698,6.40e-03,8.00e-02,
699,1.42e-02,-1.60e-01,
700,5.60e-03,8.00e-02,
701,1.32e-02,-1.60e-01,
702,1.34e-02,8.00e-02,
703,4.60e-03,-1.60e-01,
704,1.34e-02,8.00e-02,
705,2.40e-03,-1.60e-01,
706,5.20e-03,8.00e-02,
707,1.50e-02,-1.60e-01,
708,1.38e-02,-1.60e-01,
709,5.80e-03,8.00e-02,
710,1.46e-02,8.00e-02,
711,5.60e-03,-1.60e-01,
712,6.80e-03,8.00e-02,
713,1.48e-02,-1.60e-01,
714,1.42e-02,-8.00e-02,
715,5.40e-03,8.00e-02,
716,1.48e-02,-1.60e-01,
717,6.20e-03,8.00e-02,
718,1.58e-02,8.00e-02,
719,6.00e-03,-1.60e-01,
720,1.44e-02,8.00e-02,
721,6.80e-03,-1.60e-01,
722,1.48e-02,8.00e-02,
723,6.80e-03,-1.60e-01,
724,1.54e-02,8.00e-02,
725,7.00e-03,-8.00e-02,
726,6.40e-03,-1.60e-01,
727,1.48e-02,8.00e-02,
728,1.32e-02,8.00e-02,
729,5.60e-03,-1.60e-01,
730,1.40e-02,8.00e-02,
731,5.80e-03,-1.60e-01,
732,1.38e-02,-1.60e-01,
733,5.60e-03,8.00e-02,
734,5.80e-03,8.00e-02,
735,1.42e-02,-2.40e-01,
736,1.48e-02,8.00e-02,
737,3.40e-03,-1.60e-01,
738,6.80e-03,8.00e-02,
739,1.54e-02,-1.60e-01,
740,7.60e-03,8.00e-02,
741,1.46e-02,-1.60e-01,
742,7.00e-03,8.00e-02,
743,1.72e-02,-1.60e-01,
744,7.20e-03,8.00e-02,
745,1.58e-02,-1.60e-01,
746,7.00e-03,8.00e-02,
747,1.62e-02,-1.60e-01,
748,1.34e-02,8.00e-02,
749,5.00e-03,-1.60e-01,
750,4.40e-03,8.00e-02,
751,1.50e-02,-1.60e-01,
752,1.40e-02,8.00e-02,
753,6.80e-03,-1.60e-01,
754,5.00e-03,8.00e-02,
755,1.50e-02,-1.60e-01,
756,1.34e-02,8.00e-02,
757,5.40e-03,-1.60e-01,
758,5.80e-03,-1.60e-01,
759,1.50e-02,8.00e-02,
760,1.52e-02,-1.60e-01,
761,7.80e-03,8.00e-02,
762,1.40e-02,-1.60e-01,
763,3.80e-03,8.00e-02,
764,1.32e-02,8.00e-02,
765,4.40e-03,-1.60e-01,
766,1.40e-02,-1.60e-01,
767,5.40e-03,8.00e-02,
768,5.60e-03,8.00e-02,
769,1.34e-02,-1.60e-01,
770,6.20e-03,8.00e-02,
771,1.48e-02,-1.60e-01,
772,1.56e-02,8.00e-02,
773,8.00e-03,-1.60e-01,
774,1.48e-02,-1.60e-01,
775,6.00e-03,8.00e-02,
776,1.34e-02,8.00e-02,
777,6.40e-03,-1.60e-01,
778,1.44e-02,8.00e-02,
779,6.40e-03,-1.60e-01,
780,6.00e-03,8.00e-02,
781,1.40e-02,-1.60e-01,
782,1.38e-02,8.00e-02,
783,4.20e-03,-1.60e-01,
784,1.44e-02,8.00e-02,
785,7.20e-03,-1.60e-01,
786,7.20e-03,8.00e-02,
787,1.50e-02,-1.60e-01,
788,1.72e-02,8.00e-02,
789,7.00e-03,-1.60e-01,
790,1.48e-02,8.00e-02,
791,6.80e-03,-1.60e-01,
792,6.20e-03,8.00e-02,
793,1.38e-02,-1.60e-01,
794,7.00e-03,8.00e-02,
795,1.48e-02,-1.60e-01,
796,1.50e-02,8.00e-02,
797,6.60e-03,-2.40e-01,
798,1.46e-02,8.00e-02,
799,6.40e-03,-1.60e-01,
800,1.46e-02,-1.60e-01,
801,7.20e-03,8.00e-02,
802,1.50e-02,-1.60e-01,
803,5.40e-03,8.00e-02,
804,1.42e-02,-1.60e-01,
805,6.40e-03,8.00e-02,
806,1.66e-02,8.00e-02,
807,7.20e-03,-1.60e-01,
808,1.62e-02,-1.60e-01,
809,5.80e-03,8.00e-02,
810,1.60e-02,8.00e-02,
811,6.40e-03,-1.60e-01,
812,1.38e-02,8.00e-02,
813,7.00e-03,-1.60e-01,
814,1.32e-02,8.00e-02,
815,6.40e-03,-1.60e-01,
816,1.48e-02,-1.60e-01,
817,6.20e-03,8.00e-02,
818,6.80e-03,-1.60e-01,
819,1.38e-02,8.00e-02,
820,6.00e-03,8.00e-02,
821,1.38e-02,-1.60e-01,
822,1.38e-02,-1.60e-01,
823,6.60e-03,8.00e-02,
824,1.34e-02,-8.00e-02,
825,4.00e-03,8.00e-02,
826,7.00e-03,-1.60e-01,
827,1.42e-02,8.00e-02,
828,6.60e-03,8.00e-02,
829,1.38e-02,-1.60e-01,
830,1.36e-02,-1.60e-01,
831,4.60e-03,8.00e-02,
832,6.00e-03,8.00e-02,
833,1.44e-02,-1.60e-01,
834,6.40e-03,-1.60e-01,
835,1.36e-02,8.00e-02,
836,7.40e-03,-1.60e-01,
837,1.50e-02,8.00e-02,
838,4.60e-03,8.00e-02,
839,1.32e-02,-1.60e-01,
840,1.60e-02,8.00e-02,
841,7.40e-03,-1.60e-01,
842,1.40e-02,-1.60e-01,
843,7.20e-03,8.00e-02,
844,1.42e-02,8.00e-02,
845,5.60e-03,-1.60e-01,
846,7.80e-03,8.00e-02,
847,1.58e-02,-1.60e-01,
848,1.44e-02,8.00e-02,
849,5.60e-03,-1.60e-01,
850,1.36e-02,8.00e-02,
851,6.80e-03,-1.60e-01,
852,1.50e-02,8.00e-02,
853,5.80e-03,-1.60e-01,
854,1.38e-02,-1.60e-01,
