NMRdata/glyc1/70_t1z.csv

X,CH3,CH4,Start,Increment,
Sequence,Volt,Volt,-4.800000e-04,2.000000e-05
0,3.60e-03,-1.60e-01,
1,-4.00e-03,8.00e-02,
2,-3.60e-03,8.00e-02,
3,6.40e-03,-1.60e-01,
4,7.60e-03,8.00e-02,
5,-2.00e-03,-1.60e-01,
6,-1.60e-03,-1.60e-01,
7,6.00e-03,8.00e-02,
8,6.40e-03,8.00e-02,
9,-2.00e-03,-1.60e-01,
10,4.80e-03,-1.60e-01,
11,-2.00e-03,8.00e-02,
12,3.20e-03,8.00e-02,
13,-3.60e-03,-1.60e-01,
14,2.80e-03,8.00e-02,
15,-3.60e-03,-1.60e-01,
16,4.80e-03,8.00e-02,
17,-4.80e-03,-1.60e-01,
18,-1.20e-03,8.00e-02,
19,7.20e-03,-2.40e-01,
20,-1.20e-03,8.00e-02,
21,6.40e-03,-1.60e-01,
22,-8.00e-04,8.00e-02,
23,8.80e-03,-1.60e-01,
24,6.80e-03,5.92e+00,
25,-2.00e-03,4.64e+00,
26,4.00e-03,4.72e+00,
27,-3.20e-03,5.20e+00,
28,-4.00e-04,4.72e+00,
29,1.20e-03,5.28e+00,
30,1.20e-03,4.48e+00,
31,-8.80e-03,5.36e+00,
32,-5.20e-03,5.20e+00,
33,-8.40e-03,4.64e+00,
34,-6.80e-03,4.72e+00,
35,-8.40e-03,5.20e+00,
36,-6.40e-03,5.20e+00,
37,-8.40e-03,4.72e+00,
38,-6.40e-03,5.20e+00,
39,-1.40e-02,4.72e+00,
40,-8.00e-03,4.72e+00,
41,-2.44e-02,5.20e+00,
42,-2.52e-02,4.72e+00,
43,-1.72e-02,5.12e+00,
44,-2.16e-02,4.72e+00,
45,-4.80e-03,5.20e+00,
46,-9.20e-03,4.72e+00,
47,9.60e-03,5.04e+00,
48,5.20e-03,5.20e+00,
49,1.96e-02,4.72e+00,
50,2.12e-02,5.04e+00,
51,1.32e-02,4.72e+00,
52,1.76e-02,5.20e+00,
53,2.00e-03,4.72e+00,
54,6.00e-03,5.12e+00,
55,-6.80e-03,4.72e+00,
56,-1.60e-03,5.12e+00,
57,-1.32e-02,4.72e+00,
58,-1.32e-02,5.12e+00,
59,-4.40e-03,4.72e+00,
60,-9.20e-03,4.72e+00,
61,2.80e-03,5.12e+00,
62,-2.40e-03,5.12e+00,
63,1.08e-02,4.72e+00,
64,6.00e-03,5.12e+00,
65,1.44e-02,4.72e+00,
66,1.20e-02,5.12e+00,
67,2.80e-03,4.72e+00,
68,7.20e-03,5.12e+00,
69,-3.20e-03,4.72e+00,
70,1.60e-03,5.12e+00,
71,-5.60e-03,4.72e+00,
72,-6.80e-03,4.72e+00,
73,4.00e-04,5.12e+00,
74,-4.40e-03,5.12e+00,
75,4.00e-03,4.72e+00,
76,-1.60e-03,5.20e+00,
77,7.20e-03,4.72e+00,
78,7.60e-03,5.12e+00,
79,4.00e-04,4.72e+00,
80,4.00e-04,5.12e+00,
81,7.20e-03,4.72e+00,
82,6.00e-03,4.72e+00,
83,-3.60e-03,5.20e+00,
84,2.00e-03,5.20e+00,
85,-6.40e-03,4.72e+00,
86,-6.00e-03,4.72e+00,
87,2.40e-03,5.12e+00,
88,-4.00e-03,5.12e+00,
89,4.00e-03,4.72e+00,
90,-3.60e-03,4.72e+00,
91,6.00e-03,5.12e+00,
92,6.00e-03,4.72e+00,
93,-2.40e-03,5.12e+00,
94,6.00e-03,4.72e+00,
95,-2.40e-03,5.12e+00,
96,-4.40e-03,4.72e+00,
97,3.60e-03,5.12e+00,
98,-3.60e-03,4.72e+00,
99,4.80e-03,5.12e+00,
100,4.00e-03,5.12e+00,
101,-3.20e-03,4.72e+00,
102,-3.20e-03,5.12e+00,
103,4.40e-03,4.72e+00,
104,4.80e-03,4.72e+00,
105,-2.00e-03,5.12e+00,
106,-1.20e-03,5.12e+00,
107,8.40e-03,4.72e+00,
108,5.20e-03,5.12e+00,
109,-3.20e-03,4.72e+00,
110,-4.80e-03,4.80e+00,
111,4.00e-03,5.12e+00,
112,3.20e-03,5.12e+00,
113,-3.60e-03,4.72e+00,
114,-3.20e-03,5.12e+00,
115,6.00e-03,4.72e+00,
116,-2.00e-03,5.12e+00,
117,6.00e-03,4.72e+00,
118,5.60e-03,5.12e+00,
119,-2.00e-03,4.72e+00,
120,-4.80e-03,5.12e+00,
121,5.60e-03,4.72e+00,
122,5.60e-03,5.12e+00,
123,-2.40e-03,4.72e+00,
124,4.00e-03,5.12e+00,
125,-4.00e-03,4.72e+00,
126,-3.20e-03,5.12e+00,
127,4.40e-03,4.72e+00,
128,4.00e-03,5.12e+00,
129,-2.40e-03,4.72e+00,
130,-3.20e-03,5.12e+00,
131,4.80e-03,4.72e+00,
132,5.20e-03,5.12e+00,
133,-2.00e-03,4.72e+00,
134,5.60e-03,4.72e+00,
135,-5.20e-03,5.12e+00,
136,-4.00e-03,5.12e+00,
137,4.40e-03,4.72e+00,
138,4.80e-03,5.12e+00,
139,-2.40e-03,4.72e+00,
140,-3.60e-03,4.72e+00,
141,4.40e-03,5.12e+00,
142,-3.20e-03,5.12e+00,
143,5.20e-03,4.72e+00,
144,-1.60e-03,5.12e+00,
145,6.40e-03,4.72e+00,
146,6.40e-03,4.72e+00,
147,-2.80e-03,5.12e+00,
148,5.20e-03,5.12e+00,
149,-1.60e-03,4.72e+00,
150,4.80e-03,5.12e+00,
151,-2.80e-03,4.72e+00,
152,-4.40e-03,5.12e+00,
153,4.40e-03,4.72e+00,
154,-5.20e-03,4.72e+00,
155,4.40e-03,5.12e+00,
156,-3.60e-03,5.12e+00,
157,4.80e-03,4.64e+00,
158,5.20e-03,5.12e+00,
159,-2.00e-03,4.72e+00,
160,4.40e-03,5.12e+00,
161,-2.80e-03,4.72e+00,
162,5.60e-03,4.64e+00,
163,-3.60e-03,5.12e+00,
164,-2.40e-03,5.12e+00,
165,4.80e-03,4.64e+00,
166,-4.80e-03,5.12e+00,
167,6.40e-03,4.64e+00,
168,4.80e-03,5.12e+00,
169,-3.60e-03,4.64e+00,
170,4.80e-03,5.12e+00,
171,-4.00e-03,4.64e+00,
172,-2.00e-03,5.12e+00,
173,6.80e-03,4.64e+00,
174,-1.60e-03,5.12e+00,
175,7.20e-03,4.72e+00,
176,6.80e-03,4.64e+00,
177,-2.00e-03,5.12e+00,
178,4.40e-03,5.12e+00,
179,-2.00e-03,4.72e+00,
180,-2.80e-03,4.72e+00,
181,6.00e-03,5.12e+00,
182,3.60e-03,5.12e+00,
183,-3.20e-03,4.64e+00,
184,-3.20e-03,5.12e+00,
185,5.20e-03,4.64e+00,
186,5.60e-03,5.12e+00,
187,-3.60e-03,4.64e+00,
188,-3.20e-03,4.72e+00,
189,5.20e-03,5.12e+00,
190,4.80e-03,5.12e+00,
191,-2.80e-03,4.64e+00,
192,-2.80e-03,5.12e+00,
193,5.20e-03,4.64e+00,
194,-2.00e-03,5.12e+00,
195,6.00e-03,4.64e+00,
196,-1.20e-03,5.12e+00,
197,5.60e-03,4.64e+00,
198,6.00e-03,5.12e+00,
199,-2.40e-03,4.64e+00,
200,-1.20e-03,5.12e+00,
201,6.40e-03,4.64e+00,
202,-2.40e-03,5.12e+00,
203,7.60e-03,4.64e+00,
204,-2.00e-03,5.12e+00,
205,6.40e-03,4.64e+00,
206,6.00e-03,5.12e+00,
207,-5.60e-03,4.64e+00,
208,4.80e-03,4.64e+00,
209,-2.80e-03,5.12e+00,
210,4.40e-03,4.64e+00,
211,-3.20e-03,5.12e+00,
212,-1.20e-03,4.64e+00,
213,6.40e-03,5.12e+00,
214,4.40e-03,4.72e+00,
215,-2.80e-03,5.12e+00,
216,5.60e-03,5.12e+00,
217,-3.20e-03,4.64e+00,
218,-1.60e-03,5.12e+00,
219,5.60e-03,4.64e+00,
220,5.20e-03,4.64e+00,
221,-2.80e-03,5.12e+00,
222,4.80e-03,5.12e+00,
223,-5.20e-03,4.64e+00,
224,5.60e-03,5.12e+00,
225,-3.60e-03,4.64e+00,
226,-2.40e-03,5.12e+00,
227,5.60e-03,4.64e+00,
228,6.00e-03,4.64e+00,
229,-2.00e-03,5.12e+00,
230,4.40e-03,4.64e+00,
231,-4.80e-03,5.12e+00,
232,-3.60e-03,4.64e+00,
233,6.80e-03,5.12e+00,
234,-3.60e-03,4.64e+00,
235,4.80e-03,5.12e+00,
236,-2.40e-03,4.64e+00,
237,6.40e-03,5.12e+00,
238,-2.40e-03,4.64e+00,
239,6.00e-03,5.12e+00,
240,6.80e-03,4.64e+00,
241,-2.40e-03,5.12e+00,
242,-3.60e-03,4.64e+00,
243,6.80e-03,5.12e+00,
244,-2.80e-03,4.64e+00,
245,4.40e-03,5.12e+00,
246,5.20e-03,4.64e+00,
247,-2.40e-03,5.12e+00,
248,-3.20e-03,4.64e+00,
249,5.20e-03,5.12e+00,
250,-3.60e-03,4.64e+00,
251,3.60e-03,5.12e+00,
252,4.00e-03,4.64e+00,
253,-3.60e-03,5.12e+00,
254,5.20e-03,5.12e+00,
255,-4.00e-03,4.64e+00,
256,-4.40e-03,4.64e+00,
257,5.60e-03,5.12e+00,
258,7.20e-03,4.64e+00,
259,-4.40e-03,5.12e+00,
260,4.80e-03,4.64e+00,
261,-3.20e-03,5.12e+00,
262,4.40e-03,4.64e+00,
263,-3.60e-03,5.04e+00,
264,5.20e-03,4.64e+00,
265,-4.80e-03,5.12e+00,
266,-3.20e-03,4.64e+00,
267,6.00e-03,5.12e+00,
268,6.00e-03,4.64e+00,
269,-2.80e-03,5.12e+00,
270,5.60e-03,4.64e+00,
271,-1.60e-03,5.12e+00,
272,5.20e-03,4.64e+00,
273,-2.40e-03,5.12e+00,
274,5.60e-03,4.64e+00,
275,-2.80e-03,5.12e+00,
276,5.20e-03,4.64e+00,
277,-2.40e-03,5.12e+00,
278,-2.00e-03,5.12e+00,
279,5.60e-03,4.64e+00,
280,4.80e-03,4.64e+00,
281,-2.80e-03,5.12e+00,
282,5.60e-03,4.64e+00,
283,-2.80e-03,5.12e+00,
284,6.00e-03,4.64e+00,
285,-4.80e-03,5.12e+00,
286,-2.80e-03,5.12e+00,
287,6.40e-03,4.64e+00,
288,-2.80e-03,5.12e+00,
289,5.20e-03,4.64e+00,
290,3.60e-03,4.64e+00,
291,-5.20e-03,5.12e+00,
292,-3.60e-03,4.64e+00,
293,6.40e-03,5.04e+00,
294,-2.80e-03,4.64e+00,
295,5.20e-03,5.12e+00,
296,-2.40e-03,4.64e+00,
297,6.80e-03,5.12e+00,
298,6.00e-03,4.64e+00,
299,-2.40e-03,5.12e+00,
300,4.40e-03,5.12e+00,
301,-3.60e-03,4.64e+00,
302,6.00e-03,5.12e+00,
303,-2.00e-03,4.64e+00,
304,5.60e-03,4.64e+00,
305,-4.00e-03,5.12e+00,
306,-4.00e-03,5.12e+00,
307,4.80e-03,4.64e+00,
308,-2.40e-03,4.64e+00,
309,4.80e-03,5.12e+00,
310,4.80e-03,5.04e+00,
311,-2.80e-03,4.64e+00,
312,7.20e-03,4.64e+00,
313,-1.60e-03,5.12e+00,
314,-2.40e-03,5.04e+00,
315,5.20e-03,4.64e+00,
316,-4.40e-03,5.12e+00,
317,5.20e-03,4.64e+00,
318,5.20e-03,5.04e+00,
319,-2.80e-03,4.64e+00,
320,4.40e-03,5.12e+00,
321,-3.20e-03,4.64e+00,
322,5.20e-03,4.64e+00,
323,-2.40e-03,5.04e+00,
324,8.00e-03,5.12e+00,
325,-3.20e-03,4.64e+00,
326,-2.00e-03,4.64e+00,
327,5.20e-03,5.04e+00,
328,8.00e-03,4.64e+00,
329,-2.40e-03,5.12e+00,
330,4.80e-03,5.04e+00,
331,-2.80e-03,4.64e+00,
332,4.80e-03,5.12e+00,
333,-3.60e-03,4.64e+00,
334,-2.40e-03,4.64e+00,
335,6.40e-03,5.12e+00,
336,-1.60e-03,4.64e+00,
337,6.80e-03,5.12e+00,
338,5.20e-03,4.64e+00,
339,-3.20e-03,5.12e+00,
340,-3.20e-03,5.12e+00,
341,5.20e-03,4.64e+00,
342,-2.40e-03,4.64e+00,
343,4.80e-03,5.12e+00,
344,9.20e-03,5.12e+00,
345,-2.40e-03,4.64e+00,
346,-3.20e-03,4.64e+00,
347,6.00e-03,5.12e+00,
348,-1.60e-03,5.12e+00,
349,8.80e-03,4.64e+00,
350,5.60e-03,4.64e+00,
351,-2.80e-03,5.12e+00,
352,-3.60e-03,4.64e+00,
353,4.40e-03,5.12e+00,
354,5.20e-03,4.64e+00,
355,-3.20e-03,5.12e+00,
356,5.60e-03,5.12e+00,
357,-4.00e-03,4.64e+00,
358,-5.20e-03,4.64e+00,
359,6.40e-03,5.12e+00,
360,-4.40e-03,4.64e+00,
361,5.20e-03,5.12e+00,
362,5.20e-03,4.64e+00,
363,-2.80e-03,5.12e+00,
364,-3.60e-03,5.12e+00,
365,4.80e-03,4.64e+00,
366,4.80e-03,4.64e+00,
367,-2.40e-03,5.12e+00,
368,5.20e-03,5.12e+00,
369,-3.20e-03,4.64e+00,
370,-4.00e-03,4.64e+00,
371,4.40e-03,5.12e+00,
372,4.80e-03,4.64e+00,
373,-3.60e-03,5.12e+00,
374,-4.00e-03,4.64e+00,
375,5.20e-03,5.12e+00,
376,4.00e-03,4.64e+00,
377,-4.40e-03,5.12e+00,
378,-3.60e-03,4.64e+00,
379,5.20e-03,5.12e+00,
380,5.20e-03,4.64e+00,
381,-2.80e-03,5.12e+00,
382,-4.00e-03,4.64e+00,
383,4.80e-03,5.12e+00,
384,4.00e-03,4.64e+00,
385,-3.20e-03,5.12e+00,
386,3.60e-03,4.64e+00,
387,-6.80e-03,5.12e+00,
388,-2.80e-03,4.64e+00,
389,5.20e-03,5.12e+00,
390,4.80e-03,4.64e+00,
391,-2.40e-03,5.12e+00,
392,-1.60e-03,4.64e+00,
393,6.00e-03,5.12e+00,
394,6.00e-03,4.64e+00,
395,-1.20e-03,5.12e+00,
396,-1.20e-03,5.04e+00,
397,6.40e-03,4.64e+00,
398,5.20e-03,4.64e+00,
399,-3.60e-03,5.12e+00,
400,-3.20e-03,5.04e+00,
401,4.40e-03,4.64e+00,
402,-2.80e-03,4.64e+00,
403,4.80e-03,5.12e+00,
404,-2.40e-03,4.64e+00,
405,4.40e-03,5.12e+00,
406,-5.20e-03,4.64e+00,
407,6.40e-03,5.12e+00,
408,5.60e-03,4.64e+00,
409,-2.40e-03,5.12e+00,
410,5.20e-03,4.64e+00,
411,-2.80e-03,5.12e+00,
412,-3.60e-03,4.64e+00,
413,5.60e-03,5.12e+00,
414,-3.60e-03,4.64e+00,
415,4.80e-03,5.12e+00,
416,6.40e-03,4.64e+00,
417,-1.60e-03,5.12e+00,
418,-1.20e-03,4.64e+00,
419,6.00e-03,5.12e+00,
420,5.20e-03,4.64e+00,
421,-2.00e-03,5.12e+00,
422,5.20e-03,4.64e+00,
423,-3.20e-03,5.12e+00,
424,-3.20e-03,4.64e+00,
425,5.60e-03,5.12e+00,
426,-1.60e-03,4.64e+00,
427,5.60e-03,5.12e+00,
428,-3.20e-03,4.64e+00,
429,5.60e-03,5.04e+00,
430,5.60e-03,4.64e+00,
431,-2.40e-03,5.12e+00,
432,-1.60e-03,4.64e+00,
433,6.40e-03,5.12e+00,
434,5.20e-03,4.64e+00,
435,-3.20e-03,5.12e+00,
436,3.60e-03,5.12e+00,
437,-3.20e-03,4.64e+00,
438,4.00e-03,4.64e+00,
439,-2.80e-03,5.12e+00,
440,-3.20e-03,4.64e+00,
441,4.80e-03,5.12e+00,
442,-2.00e-03,4.64e+00,
443,4.80e-03,5.12e+00,
444,-1.20e-03,5.12e+00,
445,6.40e-03,4.64e+00,
446,5.20e-03,4.64e+00,
447,-1.60e-03,5.12e+00,
448,-2.00e-03,5.12e+00,
449,5.60e-03,4.64e+00,
450,-4.00e-03,4.64e+00,
451,6.80e-03,5.12e+00,
452,-2.80e-03,5.04e+00,
453,5.60e-03,4.64e+00,
454,-3.60e-03,4.64e+00,
455,3.60e-03,5.12e+00,
456,-2.80e-03,4.64e+00,
457,4.80e-03,5.04e+00,
458,-3.20e-03,4.64e+00,
459,5.20e-03,5.12e+00,
460,-2.00e-03,4.64e+00,
461,6.80e-03,5.04e+00,
462,-1.20e-03,4.64e+00,
463,1.00e-02,5.12e+00,
464,-1.60e-03,5.04e+00,
465,7.60e-03,4.64e+00,
466,-2.40e-03,5.12e+00,
467,4.80e-03,4.64e+00,
468,5.20e-03,4.64e+00,
469,-3.20e-03,5.12e+00,
470,-3.20e-03,4.64e+00,
471,5.20e-03,5.12e+00,
472,-3.60e-03,4.64e+00,
473,4.80e-03,5.12e+00,
474,-1.20e-03,5.12e+00,
475,5.20e-03,4.64e+00,
476,-2.00e-03,4.64e+00,
477,6.00e-03,5.12e+00,
478,6.40e-03,5.12e+00,
479,-2.40e-03,4.64e+00,
480,4.80e-03,4.64e+00,
481,-2.80e-03,5.12e+00,
482,4.40e-03,5.12e+00,
483,-4.40e-03,4.64e+00,
484,-2.40e-03,4.64e+00,
485,4.00e-03,5.12e+00,
486,-2.40e-03,5.12e+00,
487,6.40e-03,4.64e+00,
488,6.40e-03,4.64e+00,
489,-1.20e-03,5.12e+00,
490,-1.60e-03,5.12e+00,
491,6.00e-03,4.64e+00,
492,4.80e-03,4.64e+00,
493,-3.20e-03,5.12e+00,
494,-4.00e-03,5.12e+00,
495,3.20e-03,4.56e+00,
496,2.80e-03,4.64e+00,
497,-3.20e-03,5.12e+00,
498,-3.60e-03,4.64e+00,
499,4.40e-03,5.12e+00,
500,-1.20e-03,5.04e+00,
501,8.00e-03,4.64e+00,
502,8.00e-04,4.64e+00,
503,8.40e-03,5.12e+00,
504,8.40e-03,4.64e+00,
505,0.00e+00,5.12e+00,
506,6.00e-03,5.12e+00,
507,-2.40e-03,4.64e+00,
508,4.00e-03,4.64e+00,
509,-4.40e-03,5.12e+00,
510,2.80e-03,4.64e+00,
511,-6.00e-03,5.12e+00,
512,-4.40e-03,4.64e+00,
513,4.40e-03,5.12e+00,
514,-8.00e-04,4.64e+00,
515,6.40e-03,5.12e+00,
516,1.20e-03,4.64e+00,
517,1.00e-02,5.12e+00,
518,8.80e-03,4.64e+00,
519,8.00e-04,5.12e+00,
520,6.00e-03,4.64e+00,
521,-2.00e-03,5.12e+00,
522,3.60e-03,4.64e+00,
523,-6.00e-03,5.12e+00,
524,-8.80e-03,5.12e+00,
525,4.00e-04,4.56e+00,
526,-2.40e-03,4.64e+00,
527,-8.40e-03,5.12e+00,
528,-3.20e-03,4.64e+00,
529,-4.80e-03,5.12e+00,
530,-2.80e-03,4.64e+00,
531,-1.08e-02,5.28e+00,
532,-1.20e-02,5.12e+00,
533,-7.60e-03,4.56e+00,
534,-8.00e-03,4.64e+00,
535,-1.00e-02,5.12e+00,
536,-1.04e-02,5.12e+00,
537,-8.00e-03,4.64e+00,
538,-8.00e-03,4.64e+00,
539,-1.00e-02,5.12e+00,
540,-9.60e-03,4.64e+00,
541,-8.00e-03,5.12e+00,
542,-1.16e-02,5.12e+00,
543,-3.20e-03,4.64e+00,
544,-8.80e-03,5.12e+00,
545,3.20e-03,-1.36e+00,
546,-4.00e-03,0.00e+00,
547,6.40e-03,-3.20e-01,
548,1.20e-03,0.00e+00,
549,9.60e-03,-2.40e-01,
550,1.04e-02,-1.60e-01,
551,1.60e-03,0.00e+00,
552,6.80e-03,0.00e+00,
553,-1.20e-03,-2.40e-01,
554,3.20e-03,0.00e+00,
555,-4.80e-03,-2.40e-01,
556,8.00e-04,-1.60e-01,
557,-5.60e-03,0.00e+00,
558,-6.40e-03,-1.60e-01,
559,3.20e-03,0.00e+00,
560,-4.00e-03,-1.60e-01,
561,5.20e-03,0.00e+00,
562,-8.00e-04,-1.60e-01,
563,1.12e-02,0.00e+00,
564,7.20e-03,0.00e+00,
565,-8.00e-04,-2.40e-01,
566,5.20e-03,-1.60e-01,
567,-2.00e-03,-8.00e-02,
568,3.60e-03,0.00e+00,
569,-2.80e-03,-1.60e-01,
570,-3.60e-03,-1.60e-01,
571,4.40e-03,0.00e+00,
572,-2.80e-03,0.00e+00,
573,4.00e-03,-1.60e-01,
574,-3.20e-03,-2.40e-01,
575,4.40e-03,0.00e+00,
576,7.20e-03,0.00e+00,
577,-1.20e-03,-1.60e-01,
578,-2.00e-03,-1.60e-01,
579,5.60e-03,0.00e+00,
580,-1.60e-03,-1.60e-01,
581,5.60e-03,0.00e+00,
582,4.80e-03,-1.60e-01,
583,-2.80e-03,0.00e+00,
584,4.00e-03,0.00e+00,
585,-3.20e-03,-2.40e-01,
586,-3.20e-03,-1.60e-01,
587,6.00e-03,0.00e+00,
588,-2.40e-03,-1.60e-01,
589,6.00e-03,0.00e+00,
590,4.80e-03,-1.60e-01,
591,-3.20e-03,0.00e+00,
592,5.60e-03,-1.60e-01,
593,-2.00e-03,0.00e+00,
594,4.80e-03,0.00e+00,
595,-4.40e-03,-2.40e-01,
596,3.60e-03,0.00e+00,
597,-4.40e-03,-2.40e-01,
598,3.20e-03,-1.60e-01,
599,-3.20e-03,0.00e+00,
600,-3.20e-03,0.00e+00,
601,6.80e-03,-1.60e-01,
602,-8.00e-04,-1.60e-01,
603,6.40e-03,0.00e+00,
604,5.60e-03,0.00e+00,
605,-3.20e-03,-2.40e-01,
606,4.80e-03,-2.40e-01,
607,-3.60e-03,0.00e+00,
608,4.40e-03,-1.60e-01,
609,-3.60e-03,-1.60e-01,
610,2.80e-03,-1.60e-01,
611,-5.60e-03,0.00e+00,
612,4.40e-03,-1.60e-01,
613,-4.00e-03,-1.60e-01,
614,-2.00e-03,-1.60e-01,
615,5.20e-03,0.00e+00,
616,-5.20e-03,-1.60e-01,
617,4.80e-03,-2.40e-01,
618,6.00e-03,-1.60e-01,
619,-4.00e-03,0.00e+00,
620,5.20e-03,-1.60e-01,
621,-4.80e-03,0.00e+00,
622,-2.00e-03,-1.60e-01,
623,4.80e-03,0.00e+00,
624,-2.00e-03,-1.60e-01,
625,5.20e-03,0.00e+00,
626,-3.60e-03,0.00e+00,
627,6.00e-03,-2.40e-01,
628,4.80e-03,-1.60e-01,
629,-7.20e-03,0.00e+00,
630,-2.00e-03,-1.60e-01,
631,4.80e-03,0.00e+00,
632,5.60e-03,-1.60e-01,
633,-1.20e-03,0.00e+00,
634,5.60e-03,-1.60e-01,
635,-2.00e-03,8.00e-02,
636,-2.80e-03,0.00e+00,
637,6.00e-03,-2.40e-01,
638,-3.20e-03,0.00e+00,
639,4.00e-03,-2.40e-01,
640,6.00e-03,-1.60e-01,
641,-2.00e-03,0.00e+00,
642,-2.80e-03,-1.60e-01,
643,4.80e-03,8.00e-02,
644,3.60e-03,-1.60e-01,
645,-4.00e-03,8.00e-02,
646,5.20e-03,8.00e-02,
647,-7.60e-03,-2.40e-01,
648,-3.20e-03,0.00e+00,
649,5.20e-03,-2.40e-01,
650,5.20e-03,-1.60e-01,
651,-2.80e-03,8.00e-02,
652,-2.40e-03,-1.60e-01,
653,4.80e-03,8.00e-02,
654,4.40e-03,-1.60e-01,
655,-7.60e-03,8.00e-02,
656,-3.20e-03,8.00e-02,
657,5.60e-03,-2.40e-01,
658,-2.40e-03,8.00e-02,
659,5.20e-03,-2.40e-01,
660,5.60e-03,-1.60e-01,
661,-2.40e-03,8.00e-02,
662,6.40e-03,-1.60e-01,
663,-2.80e-03,8.00e-02,
664,-3.20e-03,-1.60e-01,
665,4.40e-03,8.00e-02,
666,7.20e-03,-1.60e-01,
667,-4.40e-03,8.00e-02,
668,-3.20e-03,8.00e-02,
669,4.40e-03,-2.40e-01,
670,1.16e-02,-1.60e-01,
671,-2.00e-03,8.00e-02,
672,6.40e-03,-1.60e-01,
673,-2.80e-03,8.00e-02,
674,4.80e-03,-1.60e-01,
675,-2.40e-03,8.00e-02,
676,-2.40e-03,-1.60e-01,
677,4.40e-03,8.00e-02,
678,4.40e-03,8.00e-02,
679,-2.80e-03,-2.40e-01,
680,3.20e-03,8.00e-02,
681,-4.00e-03,-2.40e-01,
682,-4.00e-03,-1.60e-01,
683,4.40e-03,8.00e-02,
684,-3.20e-03,8.00e-02,
685,4.80e-03,-1.60e-01,
686,4.80e-03,-1.60e-01,
687,-2.80e-03,8.00e-02,
688,5.20e-03,8.00e-02,
689,-4.00e-03,-1.60e-01,
690,-4.40e-03,-1.60e-01,
691,6.80e-03,8.00e-02,
692,5.60e-03,8.00e-02,
693,-2.80e-03,-1.60e-01,
694,4.40e-03,8.00e-02,
695,-3.60e-03,-1.60e-01,
696,-3.20e-03,-1.60e-01,
697,4.80e-03,8.00e-02,
698,7.20e-03,-1.60e-01,
699,-2.40e-03,8.00e-02,
700,6.40e-03,8.00e-02,
701,-2.00e-03,-2.40e-01,
702,5.20e-03,8.00e-02,
703,-6.40e-03,-1.60e-01,
704,4.80e-03,-1.60e-01,
705,-4.40e-03,8.00e-02,
706,-2.80e-03,-1.60e-01,
707,4.80e-03,8.00e-02,
708,-4.00e-03,-1.60e-01,
709,4.40e-03,8.00e-02,
710,-2.40e-03,8.00e-02,
711,5.20e-03,-2.40e-01,
712,-2.00e-03,-1.60e-01,
713,7.20e-03,8.00e-02,
714,5.60e-03,-1.60e-01,
715,-1.20e-03,8.00e-02,
716,-2.40e-03,-1.60e-01,
717,4.40e-03,8.00e-02,
718,4.00e-03,-1.60e-01,
719,-3.60e-03,8.00e-02,
720,-4.00e-03,8.00e-02,
721,6.00e-03,-2.40e-01,
722,5.60e-03,-1.60e-01,
723,-2.80e-03,8.00e-02,
724,4.80e-03,-1.60e-01,
725,-3.20e-03,8.00e-02,
726,-1.60e-03,-1.60e-01,
727,7.60e-03,8.00e-02,
728,-2.40e-03,-1.60e-01,
729,5.60e-03,8.00e-02,
730,-3.20e-03,8.00e-02,
731,5.20e-03,-2.40e-01,
732,-2.00e-03,8.00e-02,
733,6.40e-03,-1.60e-01,
734,-6.80e-03,-1.60e-01,
735,5.60e-03,8.00e-02,
736,4.40e-03,8.00e-02,
737,-4.00e-03,-1.60e-01,
738,-4.40e-03,-1.60e-01,
739,5.20e-03,8.00e-02,
740,-2.40e-03,-1.60e-01,
741,6.00e-03,8.00e-02,
742,5.60e-03,8.00e-02,
743,-2.00e-03,-2.40e-01,
744,6.00e-03,8.00e-02,
745,-2.00e-03,-1.60e-01,
746,4.40e-03,-1.60e-01,
747,-3.60e-03,8.00e-02,
748,-3.60e-03,8.00e-02,
749,4.40e-03,-1.60e-01,
750,6.40e-03,-1.60e-01,
751,-3.60e-03,8.00e-02,
752,6.40e-03,8.00e-02,
753,-1.60e-03,-2.40e-01,
754,5.60e-03,-1.60e-01,
755,-2.40e-03,8.00e-02,
756,4.80e-03,-1.60e-01,
757,-3.20e-03,8.00e-02,
758,-2.40e-03,-1.60e-01,
759,6.40e-03,8.00e-02,
760,-3.60e-03,8.00e-02,
761,4.40e-03,-1.60e-01,
762,-3.20e-03,8.00e-02,
763,4.80e-03,-2.40e-01,
764,4.40e-03,8.00e-02,
765,-3.20e-03,-1.60e-01,
766,-3.20e-03,8.00e-02,
767,6.80e-03,-1.60e-01,
768,-2.80e-03,-1.60e-01,
769,4.80e-03,8.00e-02,
770,-2.40e-03,-1.60e-01,
771,4.80e-03,8.00e-02,
772,-2.40e-03,8.00e-02,
773,5.20e-03,-1.60e-01,
774,4.40e-03,8.00e-02,
775,-2.80e-03,-1.60e-01,
776,-7.20e-03,8.00e-02,
777,6.80e-03,-1.60e-01,
778,5.20e-03,-1.60e-01,
779,-3.20e-03,8.00e-02,
780,6.00e-03,8.00e-02,
781,-3.20e-03,-1.60e-01,
782,5.20e-03,8.00e-02,
783,-3.60e-03,-1.60e-01,
784,-2.00e-03,8.00e-02,
785,5.60e-03,-1.60e-01,
786,-2.00e-03,8.00e-02,
787,5.20e-03,-1.60e-01,
788,4.40e-03,8.00e-02,
789,-2.80e-03,-1.60e-01,
790,-2.00e-03,8.00e-02,
791,5.60e-03,-1.60e-01,
792,4.80e-03,8.00e-02,
793,-9.20e-03,-1.60e-01,
794,-4.00e-03,8.00e-02,
795,6.00e-03,-1.60e-01,
796,-2.00e-03,8.00e-02,
797,6.80e-03,-1.60e-01,
798,8.40e-03,8.00e-02,
799,-2.40e-03,-1.60e-01,
800,-2.40e-03,8.00e-02,
801,6.00e-03,-1.60e-01,
802,-2.40e-03,-8.00e-02,
803,5.60e-03,8.00e-02,
804,4.40e-03,8.00e-02,
805,-3.60e-03,-8.00e-02,
806,-3.20e-03,8.00e-02,
807,4.40e-03,-1.60e-01,
808,-3.20e-03,8.00e-02,
809,4.80e-03,-1.60e-01,
810,4.40e-03,-8.00e-02,
811,-2.40e-03,8.00e-02,
812,-4.00e-03,8.00e-02,
813,8.00e-03,-1.60e-01,
814,-3.20e-03,-8.00e-02,
815,6.40e-03,8.00e-02,
816,4.80e-03,8.00e-02,
817,-4.00e-03,-1.60e-01,
818,5.60e-03,-1.60e-01,
819,-3.60e-03,8.00e-02,
820,-2.00e-03,8.00e-02,
821,5.20e-03,-1.60e-01,
822,5.20e-03,-8.00e-02,
823,-3.20e-03,8.00e-02,
824,-2.80e-03,8.00e-02,
825,4.80e-03,-1.60e-01,
826,-3.20e-03,8.00e-02,
827,4.40e-03,-1.60e-01,
828,-4.00e-03,-8.00e-02,
829,4.00e-03,8.00e-02,
830,4.80e-03,8.00e-02,
831,-2.40e-03,-8.00e-02,
832,8.80e-03,-8.00e-02,
833,-2.40e-03,8.00e-02,
834,4.00e-03,-8.00e-02,
835,-2.40e-03,8.00e-02,
836,-3.60e-03,-8.00e-02,
837,5.20e-03,8.00e-02,
838,-1.60e-03,-8.00e-02,
839,5.20e-03,8.00e-02,
840,5.60e-03,-8.00e-02,
841,-3.20e-03,8.00e-02,
842,4.80e-03,-8.00e-02,
843,-5.20e-03,8.00e-02,
844,4.00e-03,8.00e-02,
