NMRdata/glyc1/NewFolder2/90_t101.csv

X,CH3,CH4,Start,Increment,
Sequence,Volt,Volt,-4.800000e-04,2.000000e-05
0,-4.00e-03,-1.60e-01,
1,4.00e-03,8.00e-02,
2,-2.40e-03,8.00e-02,
3,6.40e-03,-1.60e-01,
4,-3.20e-03,-1.60e-01,
5,6.40e-03,8.00e-02,
6,4.00e-03,8.00e-02,
7,-4.80e-03,-1.60e-01,
8,-3.20e-03,-1.60e-01,
9,4.00e-03,8.00e-02,
10,4.80e-03,-1.60e-01,
11,-3.20e-03,8.00e-02,
12,4.80e-03,-1.60e-01,
13,-3.20e-03,8.00e-02,
14,4.00e-03,8.00e-02,
15,-3.20e-03,-1.60e-01,
16,-4.00e-03,-1.60e-01,
17,3.20e-03,8.00e-02,
18,6.40e-03,-1.60e-01,
19,-2.40e-03,8.00e-02,
20,4.80e-03,8.00e-02,
21,-3.20e-03,-1.60e-01,
22,-3.20e-03,8.00e-02,
23,4.00e-03,-1.60e-01,
24,4.00e-03,5.84e+00,
25,-5.60e-03,4.72e+00,
26,-3.20e-03,5.20e+00,
27,7.20e-03,4.64e+00,
28,4.00e-03,4.72e+00,
29,1.60e-03,5.20e+00,
30,4.00e-03,5.44e+00,
31,-9.60e-03,4.56e+00,
32,-8.80e-03,4.72e+00,
33,-5.60e-03,5.20e+00,
34,-7.20e-03,5.20e+00,
35,-8.80e-03,4.72e+00,
36,-7.20e-03,4.72e+00,
37,-8.80e-03,5.20e+00,
38,-6.40e-03,4.72e+00,
39,-2.96e-02,5.20e+00,
40,-2.48e-02,4.64e+00,
41,-5.44e-02,5.20e+00,
42,-5.52e-02,4.64e+00,
43,-4.16e-02,5.20e+00,
44,-4.48e-02,4.72e+00,
45,-1.44e-02,5.12e+00,
46,-1.68e-02,5.12e+00,
47,1.84e-02,4.72e+00,
48,1.44e-02,5.12e+00,
49,3.76e-02,4.72e+00,
50,4.08e-02,4.72e+00,
51,2.80e-02,5.12e+00,
52,3.20e-02,5.12e+00,
53,4.00e-03,4.72e+00,
54,8.00e-03,5.12e+00,
55,-1.76e-02,4.72e+00,
56,-1.44e-02,5.12e+00,
57,-2.64e-02,4.72e+00,
58,-2.88e-02,4.72e+00,
59,-1.52e-02,5.12e+00,
60,-2.08e-02,5.12e+00,
61,0.00e+00,4.72e+00,
62,-4.00e-03,5.12e+00,
63,1.68e-02,4.72e+00,
64,9.60e-03,5.12e+00,
65,2.24e-02,4.72e+00,
66,2.00e-02,5.12e+00,
67,5.60e-03,4.72e+00,
68,1.28e-02,5.12e+00,
69,-4.00e-03,4.72e+00,
70,8.00e-04,4.72e+00,
71,-1.20e-02,5.12e+00,
72,-4.80e-03,5.12e+00,
73,-1.28e-02,4.72e+00,
74,-1.12e-02,5.12e+00,
75,2.40e-03,4.72e+00,
76,-4.00e-03,5.12e+00,
77,1.04e-02,4.72e+00,
78,3.20e-03,5.12e+00,
79,1.44e-02,4.72e+00,
80,1.04e-02,5.12e+00,
81,0.00e+00,4.72e+00,
82,7.20e-03,5.12e+00,
83,-3.20e-03,4.72e+00,
84,4.80e-03,4.72e+00,
85,-8.00e-03,5.12e+00,
86,-7.20e-03,5.12e+00,
87,1.60e-03,4.72e+00,
88,-4.80e-03,5.12e+00,
89,4.00e-03,4.72e+00,
90,-1.60e-03,5.12e+00,
91,6.40e-03,4.72e+00,
92,0.00e+00,4.72e+00,
93,6.40e-03,5.12e+00,
94,7.20e-03,5.12e+00,
95,-2.40e-03,4.72e+00,
96,2.40e-03,5.12e+00,
97,-6.40e-03,4.72e+00,
98,-5.60e-03,5.12e+00,
99,3.20e-03,4.72e+00,
100,-7.20e-03,5.12e+00,
101,2.40e-03,4.72e+00,
102,4.80e-03,4.72e+00,
103,-4.00e-03,5.12e+00,
104,-2.40e-03,5.12e+00,
105,7.20e-03,4.72e+00,
106,6.40e-03,5.12e+00,
107,-8.00e-04,4.72e+00,
108,4.80e-03,5.12e+00,
109,-3.20e-03,4.72e+00,
110,1.60e-03,5.12e+00,
111,-5.60e-03,4.72e+00,
112,-7.20e-03,5.12e+00,
113,8.00e-04,4.72e+00,
114,-4.80e-03,4.72e+00,
115,4.00e-03,5.12e+00,
116,-4.80e-03,5.12e+00,
117,4.80e-03,4.80e+00,
118,-8.00e-04,4.80e+00,
119,7.20e-03,5.12e+00,
120,-8.00e-04,5.12e+00,
121,8.00e-03,4.72e+00,
122,7.20e-03,4.72e+00,
123,-2.40e-03,5.12e+00,
124,3.20e-03,5.12e+00,
125,-7.20e-03,4.72e+00,
126,-5.60e-03,5.12e+00,
127,3.20e-03,4.72e+00,
128,-5.60e-03,5.12e+00,
129,4.00e-03,4.72e+00,
130,-3.20e-03,5.12e+00,
131,4.80e-03,4.72e+00,
132,-2.40e-03,5.12e+00,
133,8.00e-03,4.72e+00,
134,4.80e-03,5.12e+00,
135,-2.40e-03,4.72e+00,
136,4.00e-03,4.72e+00,
137,-2.40e-03,5.12e+00,
138,4.80e-03,4.72e+00,
139,-4.00e-03,5.12e+00,
140,3.20e-03,5.12e+00,
141,-6.40e-03,4.72e+00,
142,-4.00e-03,5.12e+00,
143,4.00e-03,4.64e+00,
144,4.00e-03,4.72e+00,
145,-3.20e-03,5.12e+00,
146,-2.40e-03,5.12e+00,
147,4.80e-03,4.80e+00,
148,5.60e-03,5.12e+00,
149,-4.80e-03,4.80e+00,
150,4.80e-03,5.12e+00,
151,-4.00e-03,4.80e+00,
152,3.20e-03,5.12e+00,
153,-6.40e-03,4.64e+00,
154,-4.80e-03,5.12e+00,
155,2.40e-03,4.72e+00,
156,4.00e-03,5.12e+00,
157,-4.80e-03,4.64e+00,
158,-4.00e-03,5.12e+00,
159,4.80e-03,4.72e+00,
160,8.00e-03,5.12e+00,
161,-4.00e-03,4.64e+00,
162,4.80e-03,5.12e+00,
163,-2.40e-03,4.72e+00,
164,-3.20e-03,5.12e+00,
165,4.80e-03,4.72e+00,
166,4.00e-03,5.12e+00,
167,-4.00e-03,4.72e+00,
168,1.60e-03,5.12e+00,
169,-6.40e-03,4.64e+00,
170,-4.00e-03,5.12e+00,
171,4.80e-03,4.72e+00,
172,-4.80e-03,5.12e+00,
173,4.80e-03,4.72e+00,
174,-2.40e-03,5.12e+00,
175,4.80e-03,4.72e+00,
176,4.80e-03,5.12e+00,
177,-4.80e-03,4.64e+00,
178,3.20e-03,4.72e+00,
179,-5.60e-03,5.12e+00,
180,2.40e-03,5.12e+00,
181,-5.60e-03,4.72e+00,
182,-4.00e-03,5.12e+00,
183,5.60e-03,4.64e+00,
184,3.20e-03,5.12e+00,
185,-3.20e-03,4.64e+00,
186,-2.40e-03,5.12e+00,
187,9.60e-03,4.72e+00,
188,6.40e-03,5.12e+00,
189,-8.00e-04,4.64e+00,
190,-3.20e-03,5.12e+00,
191,7.20e-03,4.64e+00,
192,4.80e-03,5.12e+00,
193,-5.60e-03,4.64e+00,
194,4.80e-03,5.12e+00,
195,-6.40e-03,4.72e+00,
196,2.40e-03,5.12e+00,
197,-5.60e-03,4.64e+00,
198,-4.00e-03,4.64e+00,
199,3.20e-03,5.12e+00,
200,-3.20e-03,5.12e+00,
201,4.00e-03,4.64e+00,
202,-4.80e-03,5.12e+00,
203,4.00e-03,4.64e+00,
204,-5.60e-03,4.72e+00,
205,4.80e-03,5.12e+00,
206,-3.20e-03,5.12e+00,
207,4.00e-03,4.64e+00,
208,7.20e-03,4.64e+00,
209,-3.20e-03,5.12e+00,
210,-4.00e-03,5.12e+00,
211,3.20e-03,4.64e+00,
212,4.00e-03,5.12e+00,
213,-4.80e-03,4.64e+00,
214,-3.20e-03,4.64e+00,
215,7.20e-03,5.12e+00,
216,-1.60e-03,5.12e+00,
217,6.40e-03,4.64e+00,
218,4.00e-03,5.12e+00,
219,-3.20e-03,4.64e+00,
220,-2.40e-03,5.12e+00,
221,4.80e-03,4.64e+00,
222,2.40e-03,4.64e+00,
223,-4.80e-03,5.12e+00,
224,2.40e-03,4.72e+00,
225,-6.40e-03,5.12e+00,
226,7.20e-03,4.64e+00,
227,-4.00e-03,5.12e+00,
228,5.60e-03,5.12e+00,
229,-3.20e-03,4.64e+00,
230,-3.20e-03,4.64e+00,
231,4.80e-03,5.12e+00,
232,8.00e-03,4.64e+00,
233,-5.60e-03,5.12e+00,
234,2.40e-03,4.64e+00,
235,-5.60e-03,5.12e+00,
236,-3.20e-03,5.12e+00,
237,6.40e-03,4.64e+00,
238,3.20e-03,4.64e+00,
239,-4.00e-03,5.12e+00,
240,4.00e-03,4.64e+00,
241,-4.00e-03,5.12e+00,
242,5.60e-03,5.12e+00,
243,-4.80e-03,4.64e+00,
244,-4.00e-03,5.12e+00,
245,5.60e-03,4.64e+00,
246,-4.00e-03,5.12e+00,
247,4.80e-03,4.64e+00,
248,-4.80e-03,5.12e+00,
249,6.40e-03,4.64e+00,
250,4.80e-03,4.64e+00,
251,-3.20e-03,5.12e+00,
252,4.80e-03,4.64e+00,
253,-5.60e-03,5.12e+00,
254,5.60e-03,5.04e+00,
255,-4.00e-03,4.64e+00,
256,-3.20e-03,4.64e+00,
257,4.00e-03,5.12e+00,
258,-8.00e-04,5.04e+00,
259,5.60e-03,4.64e+00,
260,6.40e-03,5.04e+00,
261,-2.40e-03,4.64e+00,
262,-4.00e-03,5.12e+00,
263,5.60e-03,4.64e+00,
264,3.20e-03,4.64e+00,
265,-4.00e-03,5.04e+00,
266,5.60e-03,4.64e+00,
267,-4.00e-03,5.12e+00,
268,-4.80e-03,4.64e+00,
269,5.60e-03,5.04e+00,
270,-3.20e-03,4.64e+00,
271,4.80e-03,5.12e+00,
272,4.80e-03,4.64e+00,
273,-4.80e-03,5.12e+00,
274,4.00e-03,4.64e+00,
275,-4.80e-03,5.12e+00,
276,-5.60e-03,4.64e+00,
277,4.00e-03,5.12e+00,
278,-4.80e-03,4.64e+00,
279,4.80e-03,5.12e+00,
280,4.00e-03,4.64e+00,
281,-4.00e-03,5.04e+00,
282,-5.60e-03,4.64e+00,
283,4.80e-03,5.12e+00,
284,-2.40e-03,5.04e+00,
285,4.80e-03,4.64e+00,
286,4.80e-03,4.64e+00,
287,-4.00e-03,5.04e+00,
288,-3.20e-03,5.04e+00,
289,3.20e-03,4.64e+00,
290,4.80e-03,4.64e+00,
291,-3.20e-03,5.12e+00,
292,3.20e-03,5.04e+00,
293,-4.80e-03,4.64e+00,
294,-3.20e-03,5.12e+00,
295,3.20e-03,4.64e+00,
296,-3.20e-03,4.64e+00,
297,4.80e-03,5.04e+00,
298,-4.00e-03,4.64e+00,
299,5.60e-03,5.12e+00,
300,4.80e-03,5.04e+00,
301,-8.00e-03,4.64e+00,
302,6.40e-03,5.04e+00,
303,-3.20e-03,4.64e+00,
304,-4.80e-03,4.64e+00,
305,4.80e-03,5.12e+00,
306,-4.80e-03,4.64e+00,
307,4.00e-03,5.12e+00,
308,7.20e-03,4.64e+00,
309,-4.80e-03,5.04e+00,
310,-4.00e-03,4.64e+00,
311,4.80e-03,5.04e+00,
312,4.00e-03,4.64e+00,
313,-2.40e-03,5.04e+00,
314,-4.00e-03,4.64e+00,
315,4.80e-03,5.12e+00,
316,4.80e-03,4.64e+00,
317,-4.00e-03,5.12e+00,
318,-3.20e-03,4.64e+00,
319,5.60e-03,5.04e+00,
320,6.40e-03,4.64e+00,
321,-4.80e-03,5.04e+00,
322,4.80e-03,4.64e+00,
323,-5.60e-03,5.12e+00,
324,4.80e-03,4.64e+00,
325,-4.00e-03,5.04e+00,
326,-3.20e-03,5.04e+00,
327,7.20e-03,4.64e+00,
328,-3.20e-03,4.64e+00,
329,5.60e-03,5.04e+00,
330,4.00e-03,4.64e+00,
331,-4.00e-03,5.12e+00,
332,4.80e-03,4.64e+00,
333,-5.60e-03,5.04e+00,
334,-5.60e-03,4.64e+00,
335,4.00e-03,5.04e+00,
336,4.00e-03,4.64e+00,
337,-4.00e-03,5.04e+00,
338,-3.20e-03,5.12e+00,
339,3.20e-03,4.64e+00,
340,-4.80e-03,4.64e+00,
341,5.60e-03,5.12e+00,
342,4.00e-03,5.04e+00,
343,-5.60e-03,4.64e+00,
344,-5.60e-03,4.64e+00,
345,4.00e-03,5.04e+00,
346,-4.00e-03,4.64e+00,
347,4.80e-03,5.12e+00,
348,-3.20e-03,4.64e+00,
349,5.60e-03,5.04e+00,
350,-3.20e-03,4.64e+00,
351,4.00e-03,5.12e+00,
352,-4.80e-03,5.04e+00,
353,4.00e-03,4.64e+00,
354,-4.80e-03,4.64e+00,
355,7.20e-03,5.12e+00,
356,4.00e-03,5.04e+00,
357,-3.20e-03,4.64e+00,
358,-4.80e-03,4.64e+00,
359,4.80e-03,5.04e+00,
360,4.00e-03,4.64e+00,
361,-4.00e-03,5.04e+00,
362,3.20e-03,4.64e+00,
363,-4.80e-03,5.12e+00,
364,4.80e-03,4.64e+00,
365,-5.60e-03,5.04e+00,
366,4.00e-03,4.64e+00,
367,-4.00e-03,5.04e+00,
368,3.20e-03,4.64e+00,
369,-4.00e-03,5.04e+00,
370,-2.40e-03,4.64e+00,
371,5.60e-03,5.12e+00,
372,-4.80e-03,4.64e+00,
373,4.00e-03,5.12e+00,
374,-2.40e-03,4.64e+00,
375,5.60e-03,5.12e+00,
376,3.20e-03,5.12e+00,
377,-4.80e-03,4.64e+00,
378,-4.00e-03,5.04e+00,
379,3.20e-03,4.64e+00,
380,4.80e-03,4.64e+00,
381,-5.60e-03,5.12e+00,
382,-3.20e-03,4.64e+00,
383,5.60e-03,5.12e+00,
384,5.60e-03,4.64e+00,
385,-4.80e-03,5.12e+00,
386,-3.20e-03,4.64e+00,
387,3.20e-03,5.12e+00,
388,-4.80e-03,4.64e+00,
389,4.00e-03,5.12e+00,
390,5.60e-03,4.64e+00,
391,-3.20e-03,5.04e+00,
392,-4.00e-03,5.12e+00,
393,4.80e-03,4.64e+00,
394,-7.20e-03,4.64e+00,
395,4.00e-03,5.04e+00,
396,-2.40e-03,5.04e+00,
397,7.20e-03,4.64e+00,
398,5.60e-03,4.64e+00,
399,-4.80e-03,5.04e+00,
400,3.20e-03,5.04e+00,
401,-6.40e-03,4.64e+00,
402,3.20e-03,4.64e+00,
403,-5.60e-03,5.04e+00,
404,2.40e-03,5.04e+00,
405,-5.60e-03,4.64e+00,
406,-5.60e-03,4.64e+00,
407,4.00e-03,5.04e+00,
408,4.80e-03,4.64e+00,
409,-4.00e-03,5.12e+00,
410,5.60e-03,4.64e+00,
411,-4.00e-03,5.12e+00,
412,4.80e-03,4.64e+00,
413,-4.80e-03,5.04e+00,
414,-3.20e-03,4.64e+00,
415,5.60e-03,5.04e+00,
416,4.80e-03,4.64e+00,
417,-3.20e-03,5.04e+00,
418,4.00e-03,4.64e+00,
419,-4.00e-03,5.12e+00,
420,4.00e-03,5.04e+00,
421,-4.80e-03,4.64e+00,
422,3.20e-03,4.64e+00,
423,-4.00e-03,5.04e+00,
424,-2.40e-03,4.64e+00,
425,5.60e-03,5.12e+00,
426,6.40e-03,4.64e+00,
427,-3.20e-03,5.04e+00,
428,-2.40e-03,4.64e+00,
429,6.40e-03,5.04e+00,
430,4.00e-03,5.12e+00,
431,-5.60e-03,4.64e+00,
432,4.80e-03,5.12e+00,
433,-3.20e-03,4.64e+00,
434,4.00e-03,5.04e+00,
435,-5.60e-03,4.64e+00,
436,3.20e-03,4.96e+00,
437,-4.80e-03,4.64e+00,
438,4.00e-03,5.04e+00,
439,-4.80e-03,4.64e+00,
440,4.80e-03,4.64e+00,
441,-4.00e-03,5.04e+00,
442,4.80e-03,4.64e+00,
443,-4.80e-03,5.12e+00,
444,-4.00e-03,4.64e+00,
445,8.80e-03,5.04e+00,
446,4.80e-03,5.04e+00,
447,-6.40e-03,4.64e+00,
448,4.00e-03,5.04e+00,
449,-4.00e-03,4.64e+00,
450,5.60e-03,4.64e+00,
451,-3.20e-03,5.12e+00,
452,-4.80e-03,5.04e+00,
453,4.00e-03,4.64e+00,
454,-4.00e-03,4.64e+00,
455,4.80e-03,5.04e+00,
456,5.60e-03,5.04e+00,
457,-2.40e-03,4.64e+00,
458,4.80e-03,4.64e+00,
459,-4.00e-03,5.12e+00,
460,5.60e-03,4.64e+00,
461,-4.00e-03,5.04e+00,
462,-4.00e-03,5.04e+00,
463,5.60e-03,4.64e+00,
464,4.00e-03,5.04e+00,
465,-4.80e-03,4.64e+00,
466,-4.80e-03,4.64e+00,
467,3.20e-03,5.12e+00,
468,-4.80e-03,4.64e+00,
469,2.40e-03,4.96e+00,
470,-3.20e-03,4.64e+00,
471,4.80e-03,5.04e+00,
472,5.60e-03,5.04e+00,
473,-6.40e-03,4.64e+00,
474,-4.80e-03,4.64e+00,
475,4.80e-03,5.12e+00,
476,-3.20e-03,5.04e+00,
477,5.60e-03,4.64e+00,
478,4.80e-03,5.04e+00,
479,-3.20e-03,4.64e+00,
480,-5.60e-03,4.64e+00,
481,6.40e-03,5.04e+00,
482,-5.60e-03,5.04e+00,
483,4.80e-03,4.64e+00,
484,3.20e-03,4.64e+00,
485,-7.20e-03,5.12e+00,
486,-4.80e-03,5.04e+00,
487,4.00e-03,4.64e+00,
488,5.60e-03,5.12e+00,
489,-3.20e-03,4.64e+00,
490,-2.40e-03,5.12e+00,
491,5.60e-03,4.64e+00,
492,3.20e-03,5.04e+00,
493,-7.20e-03,4.56e+00,
494,5.60e-03,5.12e+00,
495,-4.00e-03,4.56e+00,
496,4.00e-03,4.64e+00,
497,-5.60e-03,5.12e+00,
498,3.20e-03,5.04e+00,
499,-6.40e-03,4.64e+00,
500,-6.40e-03,4.64e+00,
501,4.00e-03,5.04e+00,
502,8.00e-03,5.04e+00,
503,-4.00e-03,4.64e+00,
504,4.80e-03,4.64e+00,
505,-4.80e-03,5.04e+00,
506,-4.80e-03,4.64e+00,
507,4.80e-03,5.04e+00,
508,4.00e-03,4.64e+00,
509,-4.00e-03,5.04e+00,
510,2.40e-03,5.04e+00,
511,-4.80e-03,4.64e+00,
512,-4.00e-03,4.64e+00,
513,4.00e-03,5.04e+00,
514,4.00e-03,4.64e+00,
515,-6.40e-03,5.12e+00,
516,-3.20e-03,4.64e+00,
517,4.00e-03,5.12e+00,
518,-4.00e-03,4.64e+00,
519,6.40e-03,5.12e+00,
520,-2.40e-03,4.64e+00,
521,8.80e-03,5.12e+00,
522,5.60e-03,4.64e+00,
523,-5.60e-03,5.12e+00,
524,-4.80e-03,4.64e+00,
525,3.20e-03,5.12e+00,
526,8.00e-04,5.12e+00,
527,-4.00e-03,4.64e+00,
528,-2.40e-03,5.12e+00,
529,-8.00e-04,4.56e+00,
530,-8.00e-04,4.32e+00,
531,-1.28e-02,5.28e+00,
532,-1.44e-02,5.20e+00,
533,-8.80e-03,4.40e+00,
534,-1.12e-02,5.12e+00,
535,-8.80e-03,4.56e+00,
536,-1.12e-02,4.64e+00,
537,-8.80e-03,5.12e+00,
538,-8.80e-03,4.64e+00,
539,-1.12e-02,5.12e+00,
540,-8.80e-03,4.64e+00,
541,-1.12e-02,5.12e+00,
542,-7.20e-03,5.12e+00,
543,-1.68e-02,4.64e+00,
544,-1.36e-02,5.12e+00,
545,8.00e-04,-1.28e+00,
546,-4.00e-03,0.00e+00,
547,1.12e-02,-3.20e-01,
548,4.80e-03,-2.40e-01,
549,1.52e-02,0.00e+00,
550,1.36e-02,0.00e+00,
551,4.00e-03,-2.40e-01,
552,1.12e-02,0.00e+00,
553,-1.60e-03,-1.60e-01,
554,2.40e-03,-1.60e-01,
555,-8.00e-03,0.00e+00,
556,-1.12e-02,0.00e+00,
557,8.00e-04,-1.60e-01,
558,-1.04e-02,0.00e+00,
559,2.40e-03,-2.40e-01,
560,-4.00e-03,-1.60e-01,
561,7.20e-03,0.00e+00,
562,0.00e+00,0.00e+00,
563,8.80e-03,-2.40e-01,
564,7.20e-03,-1.60e-01,
565,-1.60e-03,0.00e+00,
566,-2.40e-03,-1.60e-01,
567,4.80e-03,0.00e+00,
568,7.20e-03,-1.60e-01,
569,-4.00e-03,0.00e+00,
570,1.60e-03,-1.60e-01,
571,-6.40e-03,0.00e+00,
572,4.80e-03,0.00e+00,
573,-8.00e-03,-2.40e-01,
574,-6.40e-03,-1.60e-01,
575,3.20e-03,0.00e+00,
576,5.60e-03,-1.60e-01,
577,-6.40e-03,0.00e+00,
578,-5.60e-03,-1.60e-01,
579,7.20e-03,0.00e+00,
580,4.00e-03,-1.60e-01,
581,-3.20e-03,0.00e+00,
582,4.00e-03,-2.40e-01,
583,-6.40e-03,0.00e+00,
584,-3.20e-03,0.00e+00,
585,6.40e-03,-1.60e-01,
586,-7.20e-03,-1.60e-01,
587,3.20e-03,0.00e+00,
588,-5.60e-03,-1.60e-01,
589,4.00e-03,0.00e+00,
590,-1.60e-03,-1.60e-01,
591,5.60e-03,-8.00e-02,
592,6.40e-03,0.00e+00,
593,-4.00e-03,-2.40e-01,
594,-7.20e-03,-2.40e-01,
595,4.00e-03,0.00e+00,
596,6.40e-03,0.00e+00,
597,-4.80e-03,-1.60e-01,
598,-5.60e-03,-1.60e-01,
599,4.00e-03,0.00e+00,
600,-2.40e-03,-1.60e-01,
601,6.40e-03,0.00e+00,
602,7.20e-03,-1.60e-01,
603,-2.40e-03,0.00e+00,
604,-8.00e-04,0.00e+00,
605,8.00e-03,-2.40e-01,
606,7.20e-03,-1.60e-01,
607,-4.00e-03,0.00e+00,
608,-3.20e-03,-1.60e-01,
609,4.80e-03,0.00e+00,
610,3.20e-03,-1.60e-01,
611,-4.80e-03,0.00e+00,
612,3.20e-03,0.00e+00,
613,-8.00e-03,-1.60e-01,
614,-7.20e-03,0.00e+00,
615,4.00e-03,-2.40e-01,
616,-3.20e-03,-1.60e-01,
617,6.40e-03,0.00e+00,
618,-2.40e-03,-1.60e-01,
619,5.60e-03,0.00e+00,
620,5.60e-03,0.00e+00,
621,-4.00e-03,-1.60e-01,
622,-8.00e-03,-1.60e-01,
623,4.80e-03,0.00e+00,
624,5.60e-03,0.00e+00,
625,-5.60e-03,-2.40e-01,
626,2.40e-03,-2.40e-01,
627,-5.60e-03,0.00e+00,
628,-4.80e-03,0.00e+00,
629,6.40e-03,-1.60e-01,
630,4.80e-03,-1.60e-01,
631,-4.00e-03,-8.00e-02,
632,4.80e-03,8.00e-02,
633,-5.60e-03,-1.60e-01,
634,-3.20e-03,-2.40e-01,
635,4.00e-03,-8.00e-02,
636,4.00e-03,0.00e+00,
637,-5.60e-03,-1.60e-01,
638,-4.00e-03,-1.60e-01,
639,5.60e-03,-8.00e-02,
640,4.80e-03,-1.60e-01,
641,-6.40e-03,8.00e-02,
642,-5.60e-03,-1.60e-01,
643,3.20e-03,0.00e+00,
644,-4.80e-03,-1.60e-01,
645,4.80e-03,0.00e+00,
646,4.80e-03,0.00e+00,
647,-5.60e-03,-2.40e-01,
648,-4.80e-03,-1.60e-01,
649,3.20e-03,0.00e+00,
650,4.80e-03,-1.60e-01,
651,-4.00e-03,8.00e-02,
652,3.20e-03,-1.60e-01,
653,-4.80e-03,0.00e+00,
654,-3.20e-03,-1.60e-01,
655,8.00e-03,8.00e-02,
656,-1.60e-03,0.00e+00,
657,7.20e-03,-2.40e-01,
658,-2.40e-03,-1.60e-01,
659,5.60e-03,8.00e-02,
660,-2.40e-03,-1.60e-01,
661,4.00e-03,0.00e+00,
662,4.00e-03,-1.60e-01,
663,-4.00e-03,8.00e-02,
664,-4.00e-03,0.00e+00,
665,5.60e-03,-1.60e-01,
666,6.40e-03,8.00e-02,
667,-4.00e-03,-2.40e-01,
668,3.20e-03,-1.60e-01,
669,-5.60e-03,8.00e-02,
670,-5.60e-03,-1.60e-01,
671,4.00e-03,8.00e-02,
672,5.60e-03,-1.60e-01,
673,-2.40e-03,8.00e-02,
674,5.60e-03,-1.60e-01,
675,-4.00e-03,8.00e-02,
676,-3.20e-03,8.00e-02,
677,5.60e-03,-2.40e-01,
678,-4.00e-03,8.00e-02,
679,4.00e-03,-2.40e-01,
680,3.20e-03,-1.60e-01,
681,-4.00e-03,8.00e-02,
682,3.20e-03,-1.60e-01,
683,-4.00e-03,8.00e-02,
684,-4.00e-03,-1.60e-01,
685,4.00e-03,8.00e-02,
686,-3.20e-03,-1.60e-01,
687,3.20e-03,8.00e-02,
688,4.00e-03,8.00e-02,
689,-4.00e-03,-2.40e-01,
690,4.00e-03,-1.60e-01,
691,-5.60e-03,8.00e-02,
692,-2.40e-03,-1.60e-01,
693,5.60e-03,8.00e-02,
694,3.20e-03,8.00e-02,
695,-4.00e-03,-1.60e-01,
696,-4.80e-03,-1.60e-01,
697,3.20e-03,8.00e-02,
698,-4.00e-03,8.00e-02,
699,5.60e-03,-2.40e-01,
700,-3.20e-03,8.00e-02,
701,6.40e-03,-1.60e-01,
702,4.80e-03,-1.60e-01,
703,-3.20e-03,8.00e-02,
704,4.00e-03,-1.60e-01,
705,-3.20e-03,8.00e-02,
706,4.80e-03,8.00e-02,
707,-4.80e-03,-1.60e-01,
708,5.60e-03,-1.60e-01,
709,-4.80e-03,8.00e-02,
710,-4.00e-03,-1.60e-01,
711,5.60e-03,8.00e-02,
712,-3.20e-03,-1.60e-01,
713,4.00e-03,8.00e-02,
714,3.20e-03,8.00e-02,
715,-4.00e-03,-1.60e-01,
716,-3.20e-03,-1.60e-01,
717,4.80e-03,8.00e-02,
718,4.80e-03,-1.60e-01,
719,-3.20e-03,8.00e-02,
720,4.80e-03,-2.40e-01,
721,-4.00e-03,8.00e-02,
722,-4.00e-03,8.00e-02,
723,4.00e-03,-1.60e-01,
724,5.60e-03,-1.60e-01,
725,-4.80e-03,8.00e-02,
726,4.80e-03,8.00e-02,
727,-3.20e-03,-1.60e-01,
728,-3.20e-03,-1.60e-01,
729,4.80e-03,8.00e-02,
730,-2.40e-03,8.00e-02,
731,4.80e-03,-2.40e-01,
732,4.00e-03,-1.60e-01,
733,-3.20e-03,8.00e-02,
734,4.80e-03,-1.60e-01,
735,-3.20e-03,8.00e-02,
736,4.00e-03,-1.60e-01,
737,-4.80e-03,8.00e-02,
738,-2.40e-03,-1.60e-01,
739,4.80e-03,8.00e-02,
740,-4.00e-03,8.00e-02,
741,4.80e-03,-2.40e-01,
742,4.80e-03,8.00e-02,
743,-4.80e-03,-1.60e-01,
744,6.40e-03,-1.60e-01,
745,-2.40e-03,8.00e-02,
746,4.00e-03,-1.60e-01,
747,-3.20e-03,8.00e-02,
748,-3.20e-03,8.00e-02,
749,4.00e-03,-1.60e-01,
750,6.40e-03,-1.60e-01,
751,-4.00e-03,8.00e-02,
752,-3.20e-03,8.00e-02,
753,4.80e-03,-1.60e-01,
754,4.00e-03,-1.60e-01,
755,-4.00e-03,8.00e-02,
756,-3.20e-03,-1.60e-01,
757,4.00e-03,8.00e-02,
758,5.60e-03,8.00e-02,
759,-3.20e-03,-1.60e-01,
760,-4.00e-03,-1.60e-01,
761,5.60e-03,8.00e-02,
762,4.80e-03,-2.40e-01,
763,-3.20e-03,8.00e-02,
764,-3.20e-03,-1.60e-01,
765,4.80e-03,8.00e-02,
766,-1.60e-03,8.00e-02,
767,5.60e-03,-1.60e-01,
768,5.60e-03,-1.60e-01,
769,-3.20e-03,8.00e-02,
770,4.80e-03,8.00e-02,
771,-3.20e-03,-1.60e-01,
772,4.00e-03,-1.60e-01,
773,-3.20e-03,8.00e-02,
774,4.00e-03,8.00e-02,
775,-5.60e-03,-1.60e-01,
776,4.80e-03,-1.60e-01,
777,-4.00e-03,8.00e-02,
778,4.00e-03,8.00e-02,
779,-4.80e-03,-1.60e-01,
780,4.00e-03,-1.60e-01,
781,-3.20e-03,8.00e-02,
782,3.20e-03,8.00e-02,
783,-3.20e-03,-1.60e-01,
784,4.00e-03,-1.60e-01,
785,-5.60e-03,8.00e-02,
786,-6.40e-03,8.00e-02,
787,3.20e-03,-8.00e-02,
788,2.40e-03,-1.60e-01,
789,-8.00e-03,8.00e-02,
790,-3.20e-03,8.00e-02,
791,4.00e-03,-1.60e-01,
792,5.60e-03,-2.40e-01,
793,-4.00e-03,8.00e-02,
794,-3.20e-03,8.00e-02,
795,6.40e-03,-1.60e-01,
796,-2.40e-03,8.00e-02,
797,8.80e-03,-1.60e-01,
798,4.80e-03,8.00e-02,
799,-4.00e-03,-1.60e-01,
800,-3.20e-03,8.00e-02,
801,4.80e-03,-1.60e-01,
802,-4.00e-03,8.00e-02,
803,4.00e-03,-1.60e-01,
804,-4.00e-03,8.00e-02,
805,4.80e-03,-1.60e-01,
806,-2.40e-03,8.00e-02,
807,5.60e-03,-1.60e-01,
808,4.00e-03,8.00e-02,
809,-4.80e-03,-1.60e-01,
810,4.80e-03,8.00e-02,
811,-4.00e-03,-1.60e-01,
812,-3.20e-03,-8.00e-02,
813,4.80e-03,8.00e-02,
814,-4.00e-03,8.00e-02,
815,5.60e-03,-1.60e-01,
816,-2.40e-03,-8.00e-02,
817,4.80e-03,8.00e-02,
818,-3.20e-03,-1.60e-01,
819,5.60e-03,8.00e-02,
820,-3.20e-03,-8.00e-02,
821,7.20e-03,8.00e-02,
822,-4.00e-03,8.00e-02,
823,6.40e-03,-1.60e-01,
824,4.00e-03,8.00e-02,
825,-5.60e-03,-1.60e-01,
826,3.20e-03,8.00e-02,
827,-3.20e-03,-1.60e-01,
828,-5.60e-03,8.00e-02,
829,5.60e-03,-1.60e-01,
830,-1.60e-03,8.00e-02,
831,6.40e-03,-1.60e-01,
832,4.80e-03,-8.00e-02,
833,-1.60e-03,8.00e-02,
834,-2.40e-03,8.00e-02,
835,5.60e-03,-8.00e-02,
836,5.60e-03,-1.60e-01,
837,-3.20e-03,8.00e-02,
838,3.20e-03,8.00e-02,
839,-3.20e-03,-8.00e-02,
840,4.00e-03,8.00e-02,
841,-4.80e-03,-8.00e-02,
842,-4.80e-03,-8.00e-02,
843,4.00e-03,8.00e-02,
844,-4.80e-03,-8.00e-02,
