NMRdata/glyc1/NewFolder2/95t10.csv

X,CH3,CH4,Start,Increment,
Sequence,Volt,Volt,-4.800000e-04,2.000000e-05
0,0.00e+00,8.00e-02,
1,-9.60e-03,-1.60e-01,
2,-6.40e-03,8.00e-02,
3,8.00e-04,-1.60e-01,
4,8.00e-04,8.00e-02,
5,-6.40e-03,-1.60e-01,
6,1.60e-03,-1.60e-01,
7,-6.40e-03,8.00e-02,
8,0.00e+00,8.00e-02,
9,-8.80e-03,-1.60e-01,
10,-7.20e-03,8.00e-02,
11,2.40e-03,-1.60e-01,
12,1.60e-03,-1.60e-01,
13,-5.60e-03,8.00e-02,
14,1.60e-03,8.00e-02,
15,-5.60e-03,-1.60e-01,
16,8.00e-04,8.00e-02,
17,-6.40e-03,-1.60e-01,
18,-6.40e-03,8.00e-02,
19,1.60e-03,-1.60e-01,
20,8.00e-04,8.00e-02,
21,-6.40e-03,-2.40e-01,
22,-6.40e-03,8.00e-02,
23,8.00e-04,-1.60e-01,
24,0.00e+00,5.76e+00,
25,-7.20e-03,4.72e+00,
26,8.00e-04,5.20e+00,
27,-7.20e-03,4.72e+00,
28,-3.20e-03,4.72e+00,
29,-1.60e-03,5.20e+00,
30,-8.00e-04,4.72e+00,
31,-1.12e-02,5.36e+00,
32,-9.60e-03,4.72e+00,
33,-6.40e-03,5.20e+00,
34,-6.40e-03,4.72e+00,
35,-8.00e-03,5.20e+00,
36,-6.40e-03,5.20e+00,
37,-8.00e-03,4.64e+00,
38,-6.40e-03,5.20e+00,
39,-2.80e-02,4.72e+00,
40,-2.40e-02,5.20e+00,
41,-5.84e-02,4.72e+00,
42,-6.32e-02,4.72e+00,
43,-4.96e-02,5.20e+00,
44,-5.36e-02,5.12e+00,
45,-2.16e-02,4.72e+00,
46,-2.48e-02,5.12e+00,
47,1.36e-02,4.72e+00,
48,9.60e-03,5.20e+00,
49,3.68e-02,4.72e+00,
50,4.08e-02,5.12e+00,
51,2.88e-02,4.72e+00,
52,3.44e-02,5.12e+00,
53,5.60e-03,4.72e+00,
54,9.60e-03,5.12e+00,
55,-1.84e-02,4.72e+00,
56,-1.52e-02,5.12e+00,
57,-3.12e-02,4.72e+00,
58,-3.12e-02,5.12e+00,
59,-2.08e-02,4.72e+00,
60,-2.64e-02,5.12e+00,
61,-5.60e-03,4.72e+00,
62,-9.60e-03,5.12e+00,
63,1.12e-02,4.72e+00,
64,7.20e-03,5.12e+00,
65,1.84e-02,4.72e+00,
66,1.76e-02,5.12e+00,
67,5.60e-03,4.72e+00,
68,1.04e-02,5.12e+00,
69,-6.40e-03,4.72e+00,
70,-1.60e-03,5.12e+00,
71,-1.68e-02,4.72e+00,
72,-1.68e-02,5.12e+00,
73,-1.04e-02,4.72e+00,
74,-1.68e-02,5.12e+00,
75,-4.00e-03,4.72e+00,
76,-9.60e-03,4.72e+00,
77,4.00e-03,5.12e+00,
78,-1.60e-03,4.72e+00,
79,7.20e-03,5.12e+00,
80,7.20e-03,4.72e+00,
81,-8.00e-04,5.12e+00,
82,4.80e-03,5.12e+00,
83,-5.60e-03,4.72e+00,
84,0.00e+00,4.72e+00,
85,-9.60e-03,5.12e+00,
86,-3.20e-03,5.12e+00,
87,-9.60e-03,4.72e+00,
88,-8.80e-03,5.12e+00,
89,0.00e+00,4.72e+00,
90,-6.40e-03,5.12e+00,
91,4.00e-03,4.72e+00,
92,-2.40e-03,5.12e+00,
93,4.80e-03,4.72e+00,
94,3.20e-03,5.12e+00,
95,-4.80e-03,4.72e+00,
96,8.00e-04,5.12e+00,
97,-8.00e-03,4.72e+00,
98,0.00e+00,5.12e+00,
99,-8.80e-03,4.72e+00,
100,0.00e+00,5.12e+00,
101,-9.60e-03,4.72e+00,
102,-6.40e-03,5.12e+00,
103,2.40e-03,4.72e+00,
104,-4.00e-03,5.12e+00,
105,4.00e-03,4.72e+00,
106,4.80e-03,4.72e+00,
107,-3.20e-03,5.12e+00,
108,3.20e-03,5.12e+00,
109,-6.40e-03,4.80e+00,
110,0.00e+00,5.12e+00,
111,-8.80e-03,4.72e+00,
112,-2.40e-03,5.12e+00,
113,-8.80e-03,4.72e+00,
114,-8.80e-03,5.12e+00,
115,-8.00e-04,4.72e+00,
116,-5.60e-03,4.80e+00,
117,2.40e-03,5.12e+00,
118,-4.00e-03,5.12e+00,
119,4.00e-03,4.72e+00,
120,-3.20e-03,5.12e+00,
121,4.00e-03,4.72e+00,
122,2.40e-03,5.12e+00,
123,-4.80e-03,4.72e+00,
124,0.00e+00,5.12e+00,
125,-7.20e-03,4.72e+00,
126,-1.60e-03,4.72e+00,
127,-8.80e-03,5.12e+00,
128,-8.00e-03,5.12e+00,
129,-8.00e-04,4.72e+00,
130,-7.20e-03,5.12e+00,
131,1.60e-03,4.72e+00,
132,-4.00e-03,4.72e+00,
133,3.20e-03,5.12e+00,
134,3.20e-03,5.12e+00,
135,-3.20e-03,4.72e+00,
136,-4.00e-03,4.72e+00,
137,4.00e-03,5.12e+00,
138,1.60e-03,5.12e+00,
139,-6.40e-03,4.72e+00,
140,-8.00e-04,5.12e+00,
141,-9.60e-03,4.72e+00,
142,-8.00e-03,5.12e+00,
143,0.00e+00,4.72e+00,
144,-5.60e-03,5.12e+00,
145,1.60e-03,4.72e+00,
146,-5.60e-03,5.12e+00,
147,1.60e-03,4.72e+00,
148,-4.80e-03,5.12e+00,
149,2.40e-03,4.72e+00,
150,1.60e-03,5.12e+00,
151,-5.60e-03,4.72e+00,
152,8.00e-04,5.12e+00,
153,-8.00e-03,4.72e+00,
154,8.00e-04,5.12e+00,
155,-8.00e-03,4.64e+00,
156,-8.00e-04,5.12e+00,
157,-8.00e-03,4.72e+00,
158,-6.40e-03,5.12e+00,
159,1.60e-03,4.72e+00,
160,-4.80e-03,5.12e+00,
161,1.60e-03,4.72e+00,
162,2.40e-03,5.12e+00,
163,-4.80e-03,4.72e+00,
164,-4.80e-03,5.12e+00,
165,2.40e-03,4.72e+00,
166,2.40e-03,5.12e+00,
167,-4.80e-03,4.64e+00,
168,8.00e-04,4.72e+00,
169,-6.40e-03,5.12e+00,
170,-5.60e-03,5.12e+00,
171,1.60e-03,4.72e+00,
172,-4.80e-03,5.12e+00,
173,1.60e-03,4.72e+00,
174,-4.80e-03,4.72e+00,
175,2.40e-03,5.12e+00,
176,1.60e-03,5.12e+00,
177,-6.40e-03,4.72e+00,
178,1.60e-03,4.72e+00,
179,-5.60e-03,5.12e+00,
180,8.00e-04,5.12e+00,
181,-6.40e-03,4.72e+00,
182,-8.00e-03,4.72e+00,
183,8.00e-04,5.12e+00,
184,-7.20e-03,5.12e+00,
185,0.00e+00,4.72e+00,
186,-6.40e-03,5.12e+00,
187,1.60e-03,4.72e+00,
188,2.40e-03,5.12e+00,
189,-5.60e-03,4.72e+00,
190,-4.80e-03,5.12e+00,
191,2.40e-03,4.72e+00,
192,1.60e-03,5.12e+00,
193,-7.20e-03,4.64e+00,
194,0.00e+00,5.12e+00,
195,-8.00e-03,4.64e+00,
196,-7.20e-03,5.12e+00,
197,8.00e-04,4.64e+00,
198,-5.60e-03,5.12e+00,
199,1.60e-03,4.72e+00,
200,4.80e-03,5.12e+00,
201,-4.80e-03,4.64e+00,
202,-4.80e-03,4.72e+00,
203,2.40e-03,5.12e+00,
204,3.20e-03,5.12e+00,
205,-4.80e-03,4.64e+00,
206,-4.80e-03,5.12e+00,
207,1.60e-03,4.64e+00,
208,1.60e-03,5.12e+00,
209,-7.20e-03,4.72e+00,
210,8.00e-04,5.12e+00,
211,-7.20e-03,4.64e+00,
212,-5.60e-03,4.64e+00,
213,1.60e-03,5.12e+00,
214,1.60e-03,4.72e+00,
215,-6.40e-03,5.12e+00,
216,1.60e-03,5.12e+00,
217,-4.80e-03,4.64e+00,
218,2.40e-03,5.12e+00,
219,-6.40e-03,4.64e+00,
220,8.00e-04,5.12e+00,
221,-6.40e-03,4.64e+00,
222,-6.40e-03,5.12e+00,
223,8.00e-04,4.64e+00,
224,-6.40e-03,5.12e+00,
225,8.00e-04,4.64e+00,
226,-6.40e-03,5.12e+00,
227,1.60e-03,4.64e+00,
228,-5.60e-03,5.12e+00,
229,2.40e-03,4.64e+00,
230,8.00e-04,5.12e+00,
231,-7.20e-03,4.64e+00,
232,-5.60e-03,5.12e+00,
233,1.60e-03,4.64e+00,
234,1.60e-03,4.64e+00,
235,-6.40e-03,5.12e+00,
236,-6.40e-03,5.12e+00,
237,3.20e-03,4.64e+00,
238,-7.20e-03,5.12e+00,
239,8.00e-04,4.64e+00,
240,8.00e-04,4.64e+00,
241,-7.20e-03,5.12e+00,
242,-5.60e-03,5.12e+00,
243,1.60e-03,4.64e+00,
244,1.60e-03,5.12e+00,
245,-5.60e-03,4.64e+00,
246,1.60e-03,5.12e+00,
247,-6.40e-03,4.64e+00,
248,-5.60e-03,4.64e+00,
249,1.60e-03,5.12e+00,
250,1.60e-03,5.12e+00,
251,-6.40e-03,4.64e+00,
252,-6.40e-03,5.12e+00,
253,8.00e-04,4.64e+00,
254,8.00e-04,5.12e+00,
255,-8.00e-03,4.64e+00,
256,-8.00e-03,5.12e+00,
257,1.60e-03,4.64e+00,
258,1.60e-03,4.64e+00,
259,-5.60e-03,5.12e+00,
260,8.00e-04,5.12e+00,
261,-7.20e-03,4.64e+00,
262,8.00e-04,4.64e+00,
263,-6.40e-03,5.12e+00,
264,-8.00e-03,4.64e+00,
265,0.00e+00,5.12e+00,
266,8.00e-04,4.64e+00,
267,-7.20e-03,5.12e+00,
268,0.00e+00,5.12e+00,
269,-7.20e-03,4.64e+00,
270,-5.60e-03,4.64e+00,
271,2.40e-03,5.12e+00,
272,8.00e-04,4.64e+00,
273,-6.40e-03,5.12e+00,
274,1.60e-03,4.64e+00,
275,-5.60e-03,5.12e+00,
276,1.60e-03,4.64e+00,
277,-5.60e-03,5.12e+00,
278,0.00e+00,4.64e+00,
279,-6.40e-03,5.12e+00,
280,-7.20e-03,5.12e+00,
281,0.00e+00,4.64e+00,
282,-7.20e-03,5.12e+00,
283,2.40e-03,4.64e+00,
284,8.00e-04,4.64e+00,
285,-6.40e-03,5.04e+00,
286,-7.20e-03,5.12e+00,
287,1.60e-03,4.64e+00,
288,1.60e-03,4.64e+00,
289,-4.80e-03,5.12e+00,
290,8.00e-04,4.64e+00,
291,-6.40e-03,5.12e+00,
292,-7.20e-03,5.12e+00,
293,0.00e+00,4.64e+00,
294,8.00e-04,4.64e+00,
295,-8.00e-03,5.12e+00,
296,8.00e-04,4.64e+00,
297,-8.00e-03,5.12e+00,
298,-6.40e-03,5.12e+00,
299,2.40e-03,4.64e+00,
300,1.60e-03,4.64e+00,
301,-5.60e-03,5.12e+00,
302,8.00e-04,4.64e+00,
303,-8.00e-03,5.12e+00,
304,0.00e+00,5.12e+00,
305,-8.00e-03,4.64e+00,
306,-7.20e-03,4.64e+00,
307,0.00e+00,5.12e+00,
308,-6.40e-03,4.64e+00,
309,1.60e-03,5.12e+00,
310,-6.40e-03,4.64e+00,
311,1.60e-03,5.12e+00,
312,-5.60e-03,4.64e+00,
313,1.60e-03,5.12e+00,
314,2.40e-03,4.64e+00,
315,-5.60e-03,5.12e+00,
316,2.40e-03,4.64e+00,
317,-5.60e-03,5.12e+00,
318,0.00e+00,4.64e+00,
319,-6.40e-03,5.12e+00,
320,0.00e+00,4.64e+00,
321,-8.00e-03,5.12e+00,
322,2.40e-03,4.64e+00,
323,-8.00e-03,5.12e+00,
324,8.00e-04,5.12e+00,
325,-8.00e-03,4.64e+00,
326,-6.40e-03,4.64e+00,
327,8.00e-04,5.12e+00,
328,8.00e-04,5.12e+00,
329,-6.40e-03,4.64e+00,
330,-6.40e-03,4.64e+00,
331,8.00e-04,5.12e+00,
332,1.60e-03,5.12e+00,
333,-6.40e-03,4.64e+00,
334,-6.40e-03,4.64e+00,
335,0.00e+00,5.12e+00,
336,0.00e+00,4.64e+00,
337,-6.40e-03,5.12e+00,
338,1.60e-03,5.12e+00,
339,-5.60e-03,4.64e+00,
340,-6.40e-03,4.64e+00,
341,1.60e-03,5.12e+00,
342,1.60e-03,4.64e+00,
343,-7.20e-03,5.12e+00,
344,8.00e-04,5.12e+00,
345,-6.40e-03,4.64e+00,
346,-7.20e-03,4.64e+00,
347,8.00e-04,5.12e+00,
348,-6.40e-03,4.64e+00,
349,1.60e-03,5.12e+00,
350,-7.20e-03,4.64e+00,
351,8.00e-04,5.12e+00,
352,1.60e-03,4.64e+00,
353,-6.40e-03,5.12e+00,
354,-5.60e-03,5.12e+00,
355,1.60e-03,4.64e+00,
356,1.60e-03,4.64e+00,
357,-5.60e-03,5.12e+00,
358,-5.60e-03,4.64e+00,
359,8.00e-04,5.12e+00,
360,-5.60e-03,4.64e+00,
361,1.60e-03,5.12e+00,
362,8.00e-04,4.64e+00,
363,-7.20e-03,5.12e+00,
364,8.00e-04,4.64e+00,
365,-5.60e-03,5.12e+00,
366,-6.40e-03,4.64e+00,
367,2.40e-03,5.12e+00,
368,8.00e-04,4.64e+00,
369,-6.40e-03,5.12e+00,
370,1.60e-03,4.64e+00,
371,-5.60e-03,5.12e+00,
372,0.00e+00,4.64e+00,
373,-6.40e-03,5.12e+00,
374,-6.40e-03,5.12e+00,
375,1.60e-03,4.64e+00,
376,8.00e-04,5.12e+00,
377,-6.40e-03,4.64e+00,
378,-6.40e-03,4.64e+00,
379,8.00e-04,5.12e+00,
380,1.60e-03,4.64e+00,
381,-5.60e-03,5.12e+00,
382,-4.80e-03,4.64e+00,
383,8.00e-04,5.12e+00,
384,8.00e-04,5.12e+00,
385,-7.20e-03,4.64e+00,
386,1.60e-03,4.64e+00,
387,-6.40e-03,5.12e+00,
388,-7.20e-03,5.12e+00,
389,0.00e+00,4.64e+00,
390,-6.40e-03,4.64e+00,
391,1.60e-03,5.12e+00,
392,1.60e-03,5.12e+00,
393,-6.40e-03,4.64e+00,
394,8.00e-04,5.12e+00,
395,-7.20e-03,4.64e+00,
396,-6.40e-03,4.64e+00,
397,1.60e-03,5.12e+00,
398,-5.60e-03,4.64e+00,
399,2.40e-03,5.12e+00,
400,1.60e-03,5.12e+00,
401,-6.40e-03,4.64e+00,
402,8.00e-04,5.12e+00,
403,-7.20e-03,4.64e+00,
404,-7.20e-03,4.64e+00,
405,2.40e-03,5.12e+00,
406,8.00e-04,4.64e+00,
407,-5.60e-03,5.12e+00,
408,1.60e-03,4.64e+00,
409,-6.40e-03,5.12e+00,
410,-7.20e-03,5.12e+00,
411,8.00e-04,4.64e+00,
412,8.00e-04,4.64e+00,
413,-6.40e-03,5.12e+00,
414,-6.40e-03,4.64e+00,
415,8.00e-04,5.12e+00,
416,1.60e-03,5.12e+00,
417,-7.20e-03,4.64e+00,
418,8.00e-04,5.12e+00,
419,-6.40e-03,4.64e+00,
420,2.40e-03,4.64e+00,
421,-6.40e-03,5.12e+00,
422,-6.40e-03,5.12e+00,
423,2.40e-03,4.64e+00,
424,-8.00e-03,4.64e+00,
425,1.60e-03,5.12e+00,
426,-5.60e-03,5.12e+00,
427,1.60e-03,4.64e+00,
428,8.00e-04,5.12e+00,
429,-5.60e-03,4.64e+00,
430,8.00e-04,5.12e+00,
431,-6.40e-03,4.64e+00,
432,-7.20e-03,5.12e+00,
433,8.00e-04,4.64e+00,
434,-5.60e-03,5.12e+00,
435,1.60e-03,4.64e+00,
436,1.60e-03,4.64e+00,
437,-5.60e-03,5.12e+00,
438,-6.40e-03,5.12e+00,
439,8.00e-04,4.64e+00,
440,8.00e-04,4.64e+00,
441,-5.60e-03,5.12e+00,
442,-6.40e-03,5.12e+00,
443,8.00e-04,4.64e+00,
444,-7.20e-03,4.64e+00,
445,1.60e-03,5.12e+00,
446,8.00e-04,4.64e+00,
447,-5.60e-03,5.12e+00,
448,1.60e-03,4.64e+00,
449,-5.60e-03,5.12e+00,
450,1.60e-03,5.12e+00,
451,-6.40e-03,4.64e+00,
452,1.60e-03,5.12e+00,
453,-6.40e-03,4.64e+00,
454,0.00e+00,5.12e+00,
455,-6.40e-03,4.64e+00,
456,-6.40e-03,4.64e+00,
457,8.00e-04,5.12e+00,
458,0.00e+00,5.12e+00,
459,-5.60e-03,4.64e+00,
460,0.00e+00,5.12e+00,
461,-7.20e-03,4.64e+00,
462,-6.40e-03,4.64e+00,
463,8.00e-04,5.12e+00,
464,3.20e-03,4.64e+00,
465,-6.40e-03,5.12e+00,
466,-4.80e-03,5.12e+00,
467,8.00e-04,4.64e+00,
468,-6.40e-03,5.12e+00,
469,8.00e-04,4.64e+00,
470,2.40e-03,5.12e+00,
471,-6.40e-03,4.64e+00,
472,1.60e-03,5.12e+00,
473,-7.20e-03,4.64e+00,
474,8.00e-04,5.12e+00,
475,-5.60e-03,4.64e+00,
476,-5.60e-03,4.64e+00,
477,8.00e-04,5.12e+00,
478,8.00e-04,5.12e+00,
479,-6.40e-03,4.64e+00,
480,-6.40e-03,5.12e+00,
481,1.60e-03,4.64e+00,
482,-5.60e-03,5.12e+00,
483,1.60e-03,4.64e+00,
484,0.00e+00,4.64e+00,
485,-6.40e-03,5.12e+00,
486,8.00e-04,4.64e+00,
487,-6.40e-03,5.12e+00,
488,-5.60e-03,4.64e+00,
489,8.00e-04,5.12e+00,
490,-4.80e-03,4.64e+00,
491,2.40e-03,5.12e+00,
492,2.40e-03,5.12e+00,
493,-5.60e-03,4.64e+00,
494,-4.80e-03,5.12e+00,
495,8.00e-04,4.56e+00,
496,8.00e-04,5.12e+00,
497,-7.20e-03,4.64e+00,
498,-5.60e-03,5.12e+00,
499,1.60e-03,4.64e+00,
500,-5.60e-03,5.12e+00,
501,1.60e-03,4.64e+00,
502,-5.60e-03,4.64e+00,
503,2.40e-03,5.12e+00,
504,-4.80e-03,4.64e+00,
505,1.60e-03,5.12e+00,
506,1.60e-03,4.64e+00,
507,-5.60e-03,5.12e+00,
508,-7.20e-03,4.64e+00,
509,2.40e-03,5.12e+00,
510,1.60e-03,5.12e+00,
511,-5.60e-03,4.64e+00,
512,-5.60e-03,5.12e+00,
513,1.60e-03,4.64e+00,
514,1.60e-03,5.12e+00,
515,-7.20e-03,4.64e+00,
516,-5.60e-03,5.12e+00,
517,1.60e-03,4.64e+00,
518,1.60e-03,4.64e+00,
519,-4.80e-03,5.12e+00,
520,-4.80e-03,5.12e+00,
521,1.60e-03,4.64e+00,
522,8.00e-04,4.64e+00,
523,-6.40e-03,5.12e+00,
524,-5.60e-03,5.12e+00,
525,8.00e-04,4.64e+00,
526,0.00e+00,5.12e+00,
527,-6.40e-03,4.56e+00,
528,-3.20e-03,5.12e+00,
529,-1.60e-03,4.56e+00,
530,-8.00e-04,5.12e+00,
531,-1.20e-02,4.32e+00,
532,-1.36e-02,5.28e+00,
533,-7.20e-03,4.56e+00,
534,-7.20e-03,5.12e+00,
535,-9.60e-03,4.64e+00,
536,-7.20e-03,4.64e+00,
537,-9.60e-03,5.12e+00,
538,-7.20e-03,4.64e+00,
539,-9.60e-03,5.12e+00,
540,-7.20e-03,4.64e+00,
541,-9.60e-03,5.12e+00,
542,-6.40e-03,4.64e+00,
543,-1.52e-02,5.12e+00,
544,-1.60e-02,5.12e+00,
545,-4.00e-03,-1.36e+00,
546,-8.00e-03,-2.40e-01,
547,7.20e-03,0.00e+00,
548,1.60e-03,-1.60e-01,
549,1.12e-02,0.00e+00,
550,1.20e-02,-1.60e-01,
551,2.40e-03,-8.00e-02,
552,8.00e-03,-1.60e-01,
553,-4.00e-03,0.00e+00,
554,1.60e-03,0.00e+00,
555,-1.12e-02,-2.40e-01,
556,-4.80e-03,-1.60e-01,
557,-1.28e-02,0.00e+00,
558,-1.20e-02,-1.60e-01,
559,-2.40e-03,0.00e+00,
560,-8.00e-03,-1.60e-01,
561,1.60e-03,0.00e+00,
562,-4.00e-03,-1.60e-01,
563,4.00e-03,0.00e+00,
564,4.80e-03,-1.60e-01,
565,-1.60e-03,0.00e+00,
566,4.00e-03,-2.40e-01,
567,-4.00e-03,0.00e+00,
568,0.00e+00,-1.60e-01,
569,-8.00e-03,0.00e+00,
570,0.00e+00,-1.60e-01,
571,-8.80e-03,0.00e+00,
572,-8.80e-03,-1.60e-01,
573,-8.00e-04,0.00e+00,
574,-6.40e-03,-1.60e-01,
575,8.00e-04,0.00e+00,
576,2.40e-03,0.00e+00,
577,-4.80e-03,-2.40e-01,
578,3.20e-03,-1.60e-01,
579,-4.00e-03,0.00e+00,
580,-6.40e-03,-1.60e-01,
581,2.40e-03,0.00e+00,
582,8.00e-04,-1.60e-01,
583,-8.00e-03,-1.60e-01,
584,-7.20e-03,-1.60e-01,
585,8.00e-04,0.00e+00,
586,-6.40e-03,-1.60e-01,
587,8.00e-04,-2.40e-01,
588,-4.80e-03,-1.60e-01,
589,2.40e-03,0.00e+00,
590,-5.60e-03,-1.60e-01,
591,3.20e-03,-1.60e-01,
592,1.60e-03,-1.60e-01,
593,-4.80e-03,0.00e+00,
594,1.60e-03,-1.60e-01,
595,-6.40e-03,-1.60e-01,
596,0.00e+00,0.00e+00,
597,-8.00e-03,-2.40e-01,
598,-8.00e-03,-1.60e-01,
599,0.00e+00,0.00e+00,
600,-5.60e-03,-1.60e-01,
601,8.00e-04,0.00e+00,
602,-4.80e-03,-1.60e-01,
603,2.40e-03,0.00e+00,
604,2.40e-03,-1.60e-01,
605,-4.80e-03,0.00e+00,
606,2.40e-03,-1.60e-01,
607,-6.40e-03,0.00e+00,
608,8.00e-04,-2.40e-01,
609,-5.60e-03,0.00e+00,
610,0.00e+00,-1.60e-01,
611,-7.20e-03,0.00e+00,
612,-7.20e-03,-1.60e-01,
613,-8.00e-04,0.00e+00,
614,-5.60e-03,-1.60e-01,
615,1.60e-03,0.00e+00,
616,-4.80e-03,-1.60e-01,
617,2.40e-03,8.00e-02,
618,-4.00e-03,0.00e+00,
619,3.20e-03,-2.40e-01,
620,2.40e-03,-1.60e-01,
621,-5.60e-03,8.00e-02,
622,-5.60e-03,-1.60e-01,
623,1.60e-03,0.00e+00,
624,-6.40e-03,-1.60e-01,
625,8.00e-04,8.00e-02,
626,-6.40e-03,-1.60e-01,
627,8.00e-04,8.00e-02,
628,-8.00e-04,8.00e-02,
629,-8.00e-03,-2.40e-01,
630,-6.40e-03,-1.60e-01,
631,1.60e-03,0.00e+00,
632,-8.00e-03,-1.60e-01,
633,1.60e-03,8.00e-02,
634,-7.20e-03,-1.60e-01,
635,1.60e-03,0.00e+00,
636,2.40e-03,-1.60e-01,
637,-4.80e-03,8.00e-02,
638,1.60e-03,8.00e-02,
639,-6.40e-03,-2.40e-01,
640,-6.40e-03,-1.60e-01,
641,1.60e-03,8.00e-02,
642,8.00e-04,-1.60e-01,
643,-6.40e-03,0.00e+00,
644,1.60e-03,-1.60e-01,
645,-7.20e-03,8.00e-02,
646,8.00e-04,-1.60e-01,
647,-6.40e-03,8.00e-02,
648,-5.60e-03,8.00e-02,
649,1.60e-03,-2.40e-01,
650,8.00e-04,-1.60e-01,
651,-6.40e-03,0.00e+00,
652,1.60e-03,-1.60e-01,
653,-5.60e-03,8.00e-02,
654,-6.40e-03,-1.60e-01,
655,8.00e-04,8.00e-02,
656,1.60e-03,-1.60e-01,
657,-8.80e-03,8.00e-02,
658,-4.80e-03,-1.60e-01,
659,1.60e-03,8.00e-02,
660,-4.80e-03,-2.40e-01,
661,3.20e-03,8.00e-02,
662,1.60e-03,-1.60e-01,
663,-5.60e-03,8.00e-02,
664,-5.60e-03,-1.60e-01,
665,1.60e-03,8.00e-02,
666,1.60e-03,-1.60e-01,
667,-7.20e-03,8.00e-02,
668,8.00e-04,-1.60e-01,
669,-5.60e-03,8.00e-02,
670,-5.60e-03,8.00e-02,
671,2.40e-03,-2.40e-01,
672,-4.80e-03,-1.60e-01,
673,2.40e-03,8.00e-02,
674,1.60e-03,-1.60e-01,
675,-5.60e-03,8.00e-02,
676,-6.40e-03,8.00e-02,
677,3.20e-03,-1.60e-01,
678,1.60e-03,8.00e-02,
679,-5.60e-03,-1.60e-01,
680,8.00e-04,8.00e-02,
681,-6.40e-03,-2.40e-01,
682,1.60e-03,-1.60e-01,
683,-7.20e-03,8.00e-02,
684,-6.40e-03,8.00e-02,
685,3.20e-03,-1.60e-01,
686,-5.60e-03,-1.60e-01,
687,1.60e-03,8.00e-02,
688,1.60e-03,-1.60e-01,
689,-5.60e-03,8.00e-02,
690,1.60e-03,8.00e-02,
691,-4.80e-03,-2.40e-01,
692,-4.80e-03,-1.60e-01,
693,1.60e-03,8.00e-02,
694,1.60e-03,-1.60e-01,
695,-6.40e-03,8.00e-02,
696,0.00e+00,-1.60e-01,
697,-5.60e-03,8.00e-02,
698,8.00e-04,-1.60e-01,
699,-6.40e-03,8.00e-02,
700,1.60e-03,-1.60e-01,
701,-6.40e-03,8.00e-02,
702,-5.60e-03,-2.40e-01,
703,2.40e-03,8.00e-02,
704,1.60e-03,-1.60e-01,
705,-6.40e-03,8.00e-02,
706,1.60e-03,-1.60e-01,
707,-6.40e-03,8.00e-02,
708,8.00e-04,-1.60e-01,
709,-8.00e-03,8.00e-02,
710,-6.40e-03,8.00e-02,
711,1.60e-03,-1.60e-01,
712,-6.40e-03,8.00e-02,
713,2.40e-03,-2.40e-01,
714,-6.40e-03,-1.60e-01,
715,8.00e-04,8.00e-02,
716,8.00e-04,-1.60e-01,
717,-5.60e-03,8.00e-02,
718,-5.60e-03,-1.60e-01,
719,1.60e-03,8.00e-02,
720,-5.60e-03,-1.60e-01,
721,1.60e-03,8.00e-02,
722,8.00e-04,8.00e-02,
723,-6.40e-03,-2.40e-01,
724,-5.60e-03,8.00e-02,
725,1.60e-03,-2.40e-01,
726,8.00e-04,-1.60e-01,
727,-5.60e-03,8.00e-02,
728,8.00e-04,-1.60e-01,
729,-5.60e-03,8.00e-02,
730,-6.40e-03,-1.60e-01,
731,8.00e-04,8.00e-02,
732,-5.60e-03,8.00e-02,
733,2.40e-03,-2.40e-01,
734,1.60e-03,-1.60e-01,
735,-6.40e-03,8.00e-02,
736,-6.40e-03,-1.60e-01,
737,1.60e-03,8.00e-02,
738,1.60e-03,-1.60e-01,
739,-6.40e-03,8.00e-02,
740,-6.40e-03,-1.60e-01,
741,8.00e-04,8.00e-02,
742,1.60e-03,8.00e-02,
743,-6.40e-03,-2.40e-01,
744,8.00e-04,8.00e-02,
745,-6.40e-03,-2.40e-01,
746,8.00e-04,-1.60e-01,
747,-6.40e-03,8.00e-02,
748,8.00e-04,-1.60e-01,
749,-5.60e-03,8.00e-02,
750,1.60e-03,-1.60e-01,
751,-6.40e-03,8.00e-02,
752,-4.80e-03,8.00e-02,
753,1.60e-03,-1.60e-01,
754,8.00e-04,-2.40e-01,
755,-7.20e-03,8.00e-02,
756,8.00e-04,8.00e-02,
757,-6.40e-03,-1.60e-01,
758,1.60e-03,8.00e-02,
759,-6.40e-03,-1.60e-01,
760,8.00e-04,-1.60e-01,
761,-5.60e-03,8.00e-02,
762,-5.60e-03,8.00e-02,
763,1.60e-03,-1.60e-01,
764,8.00e-04,-1.60e-01,
765,-7.20e-03,8.00e-02,
766,8.00e-04,8.00e-02,
767,-6.40e-03,-1.60e-01,
768,1.60e-03,8.00e-02,
769,-5.60e-03,-1.60e-01,
770,-4.80e-03,8.00e-02,
771,1.60e-03,-1.60e-01,
772,8.00e-04,8.00e-02,
773,-6.40e-03,-1.60e-01,
774,8.00e-04,-1.60e-01,
775,-5.60e-03,8.00e-02,
776,-5.60e-03,-1.60e-01,
777,1.60e-03,8.00e-02,
778,8.00e-04,8.00e-02,
779,-7.20e-03,-1.60e-01,
780,-7.20e-03,-1.60e-01,
781,8.00e-04,8.00e-02,
782,-6.40e-03,8.00e-02,
783,1.60e-03,-1.60e-01,
784,8.00e-04,8.00e-02,
785,-7.20e-03,-1.60e-01,
786,-7.20e-03,-1.60e-01,
787,2.40e-03,8.00e-02,
788,8.00e-04,8.00e-02,
789,-7.20e-03,-1.60e-01,
790,-6.40e-03,8.00e-02,
791,1.60e-03,-1.60e-01,
792,-6.40e-03,-1.60e-01,
793,3.20e-03,8.00e-02,
794,-5.60e-03,8.00e-02,
795,3.20e-03,-1.60e-01,
796,8.00e-04,-1.60e-01,
797,-5.60e-03,8.00e-02,
798,0.00e+00,8.00e-02,
799,-7.20e-03,-1.60e-01,
800,-6.40e-03,8.00e-02,
801,8.00e-04,-1.60e-01,
802,2.40e-03,8.00e-02,
803,-5.60e-03,-1.60e-01,
804,-5.60e-03,8.00e-02,
805,8.00e-04,-1.60e-01,
806,-5.60e-03,8.00e-02,
807,1.60e-03,-1.60e-01,
808,1.60e-03,8.00e-02,
809,-5.60e-03,-1.60e-01,
810,8.00e-04,8.00e-02,
811,-7.20e-03,-1.60e-01,
812,8.00e-04,-8.00e-02,
813,-5.60e-03,8.00e-02,
814,-5.60e-03,8.00e-02,
815,2.40e-03,-1.60e-01,
816,-6.40e-03,-1.60e-01,
817,1.60e-03,8.00e-02,
818,1.60e-03,8.00e-02,
819,-6.40e-03,-1.60e-01,
820,-7.20e-03,8.00e-02,
821,8.00e-04,-1.60e-01,
822,-7.20e-03,8.00e-02,
823,8.00e-04,-1.60e-01,
824,-5.60e-03,-8.00e-02,
825,3.20e-03,8.00e-02,
826,1.60e-03,-1.60e-01,
827,-5.60e-03,8.00e-02,
828,-6.40e-03,-8.00e-02,
829,8.00e-04,8.00e-02,
830,-6.40e-03,8.00e-02,
831,1.60e-03,-1.60e-01,
832,-4.80e-03,8.00e-02,
833,2.40e-03,-1.60e-01,
834,-4.80e-03,-8.00e-02,
835,1.60e-03,8.00e-02,
836,-5.60e-03,-8.00e-02,
837,1.60e-03,8.00e-02,
838,-6.40e-03,-8.00e-02,
839,2.40e-03,8.00e-02,
840,3.20e-03,8.00e-02,
841,-7.20e-03,-1.60e-01,
842,-5.60e-03,-8.00e-02,
843,1.60e-03,8.00e-02,
