NMRdata/cumulativemaybe/m_b/pm_1/pm_1_7.csv

X,CH1,CH3,CH4,Start,Increment,
Sequence,Volt,Volt,Volt,-4.060000e-03,1.000000e-05
0,1.72e-01,4.00e+00,0.00e+00,
1,1.72e-01,4.00e+00,0.00e+00,
2,1.68e-01,4.00e+00,0.00e+00,
3,1.68e-01,4.00e+00,0.00e+00,
4,1.68e-01,2.00e+00,0.00e+00,
5,1.68e-01,2.00e+00,0.00e+00,
6,1.68e-01,2.00e+00,0.00e+00,
7,1.68e-01,2.00e+00,0.00e+00,
8,1.72e-01,4.00e+00,0.00e+00,
9,1.72e-01,4.00e+00,0.00e+00,
10,1.68e-01,2.00e+00,2.00e-01,
11,1.68e-01,2.00e+00,2.00e-01,
12,1.68e-01,2.00e+00,-2.00e-01,
13,1.68e-01,2.00e+00,-2.00e-01,
14,1.76e-01,4.00e+00,-2.00e-01,
15,1.76e-01,4.00e+00,-2.00e-01,
16,1.68e-01,4.00e+00,-2.00e-01,
17,1.68e-01,4.00e+00,-2.00e-01,
18,1.68e-01,2.00e+00,0.00e+00,
19,1.68e-01,2.00e+00,0.00e+00,
20,1.68e-01,2.00e+00,-2.00e-01,
21,1.68e-01,2.00e+00,-2.00e-01,
22,1.72e-01,4.00e+00,0.00e+00,
23,1.72e-01,4.00e+00,0.00e+00,
24,1.68e-01,2.00e+00,0.00e+00,
25,1.68e-01,2.00e+00,0.00e+00,
26,1.68e-01,2.00e+00,2.00e-01,
27,1.68e-01,2.00e+00,2.00e-01,
28,1.72e-01,2.00e+00,-2.00e-01,
29,1.72e-01,2.00e+00,-2.00e-01,
30,1.68e-01,2.00e+00,0.00e+00,
31,1.68e-01,2.00e+00,0.00e+00,
32,1.72e-01,2.00e+00,0.00e+00,
33,1.72e-01,2.00e+00,0.00e+00,
34,1.72e-01,2.00e+00,0.00e+00,
35,1.72e-01,2.00e+00,0.00e+00,
36,1.68e-01,2.00e+00,0.00e+00,
37,1.68e-01,2.00e+00,0.00e+00,
38,1.72e-01,4.00e+00,0.00e+00,
39,1.72e-01,4.00e+00,0.00e+00,
40,1.64e-01,4.00e+00,0.00e+00,
41,1.64e-01,4.00e+00,0.00e+00,
42,1.64e-01,0.00e+00,0.00e+00,
43,1.64e-01,0.00e+00,0.00e+00,
44,1.64e-01,2.00e+00,2.00e-01,
45,1.64e-01,2.00e+00,2.00e-01,
46,1.68e-01,4.00e+00,0.00e+00,
47,1.68e-01,4.00e+00,0.00e+00,
48,1.76e-01,4.00e+00,0.00e+00,
49,1.76e-01,4.00e+00,0.00e+00,
50,1.64e-01,2.00e+00,2.00e-01,
51,1.64e-01,2.00e+00,2.00e-01,
52,1.72e-01,0.00e+00,0.00e+00,
53,1.72e-01,0.00e+00,0.00e+00,
54,1.72e-01,4.00e+00,0.00e+00,
55,1.72e-01,4.00e+00,0.00e+00,
56,1.68e-01,4.00e+00,0.00e+00,
57,1.68e-01,4.00e+00,0.00e+00,
58,1.68e-01,0.00e+00,0.00e+00,
59,1.68e-01,0.00e+00,0.00e+00,
60,1.68e-01,2.00e+00,-2.00e-01,
61,1.68e-01,2.00e+00,-2.00e-01,
62,1.68e-01,4.00e+00,0.00e+00,
63,1.68e-01,4.00e+00,0.00e+00,
64,1.64e-01,2.00e+00,0.00e+00,
65,1.64e-01,2.00e+00,0.00e+00,
66,1.68e-01,2.00e+00,2.00e-01,
67,1.68e-01,2.00e+00,2.00e-01,
68,1.68e-01,2.00e+00,0.00e+00,
69,1.68e-01,2.00e+00,0.00e+00,
70,1.76e-01,0.00e+00,0.00e+00,
71,1.76e-01,0.00e+00,0.00e+00,
72,1.76e-01,2.00e+00,0.00e+00,
73,1.76e-01,2.00e+00,0.00e+00,
74,1.60e-01,0.00e+00,0.00e+00,
75,1.60e-01,0.00e+00,0.00e+00,
76,1.68e-01,2.00e+00,0.00e+00,
77,1.68e-01,2.00e+00,0.00e+00,
78,1.68e-01,0.00e+00,2.00e-01,
79,1.68e-01,0.00e+00,2.00e-01,
80,1.72e-01,2.00e+00,0.00e+00,
81,1.72e-01,2.00e+00,0.00e+00,
82,1.68e-01,2.00e+00,0.00e+00,
83,1.68e-01,2.00e+00,0.00e+00,
84,1.72e-01,4.00e+00,0.00e+00,
85,1.72e-01,4.00e+00,0.00e+00,
86,1.68e-01,4.00e+00,0.00e+00,
87,1.68e-01,4.00e+00,0.00e+00,
88,1.76e-01,2.00e+00,0.00e+00,
89,1.76e-01,2.00e+00,0.00e+00,
90,1.68e-01,2.00e+00,0.00e+00,
91,1.68e-01,2.00e+00,0.00e+00,
92,1.68e-01,2.00e+00,2.00e-01,
93,1.68e-01,2.00e+00,2.00e-01,
94,1.72e-01,2.00e+00,0.00e+00,
95,1.72e-01,2.00e+00,0.00e+00,
96,1.64e-01,0.00e+00,0.00e+00,
97,1.64e-01,0.00e+00,0.00e+00,
98,1.68e-01,2.00e+00,0.00e+00,
99,1.68e-01,2.00e+00,0.00e+00,
100,1.64e-01,2.00e+00,0.00e+00,
101,1.64e-01,2.00e+00,0.00e+00,
102,1.68e-01,2.00e+00,0.00e+00,
103,1.68e-01,2.00e+00,0.00e+00,
104,1.72e-01,0.00e+00,0.00e+00,
105,1.72e-01,0.00e+00,0.00e+00,
106,1.72e-01,2.00e+00,0.00e+00,
107,1.72e-01,2.00e+00,0.00e+00,
108,1.68e-01,4.00e+00,-2.00e-01,
109,1.68e-01,4.00e+00,-2.00e-01,
110,1.68e-01,2.00e+00,0.00e+00,
111,1.68e-01,2.00e+00,0.00e+00,
112,1.68e-01,0.00e+00,-2.00e-01,
113,1.68e-01,0.00e+00,-2.00e-01,
114,1.68e-01,2.00e+00,0.00e+00,
115,1.68e-01,2.00e+00,0.00e+00,
116,1.68e-01,2.00e+00,2.00e-01,
117,1.68e-01,2.00e+00,2.00e-01,
118,1.72e-01,2.00e+00,0.00e+00,
119,1.72e-01,2.00e+00,0.00e+00,
120,1.76e-01,2.00e+00,2.00e-01,
121,1.76e-01,2.00e+00,2.00e-01,
122,1.72e-01,4.00e+00,0.00e+00,
123,1.72e-01,4.00e+00,0.00e+00,
124,1.72e-01,2.00e+00,2.00e-01,
125,1.72e-01,2.00e+00,2.00e-01,
126,1.64e-01,2.00e+00,0.00e+00,
127,1.64e-01,2.00e+00,0.00e+00,
128,1.68e-01,2.00e+00,0.00e+00,
129,1.68e-01,2.00e+00,0.00e+00,
130,1.60e-01,4.00e+00,2.00e-01,
131,1.60e-01,4.00e+00,2.00e-01,
132,1.68e-01,0.00e+00,2.00e-01,
133,1.68e-01,0.00e+00,2.00e-01,
134,1.64e-01,2.00e+00,0.00e+00,
135,1.64e-01,2.00e+00,0.00e+00,
136,1.68e-01,0.00e+00,0.00e+00,
137,1.68e-01,0.00e+00,0.00e+00,
138,1.68e-01,2.00e+00,2.00e-01,
139,1.68e-01,2.00e+00,2.00e-01,
140,1.68e-01,2.00e+00,0.00e+00,
141,1.68e-01,2.00e+00,0.00e+00,
142,1.68e-01,0.00e+00,-2.00e-01,
143,1.68e-01,0.00e+00,-2.00e-01,
144,1.64e-01,5.00e+01,0.00e+00,
145,1.64e-01,5.00e+01,0.00e+00,
146,1.64e-01,5.40e+01,0.00e+00,
147,1.64e-01,5.40e+01,0.00e+00,
148,1.68e-01,5.00e+01,0.00e+00,
149,1.68e-01,5.00e+01,0.00e+00,
150,1.68e-01,5.20e+01,2.00e-01,
151,1.68e-01,5.20e+01,2.00e-01,
152,1.64e-01,5.00e+01,0.00e+00,
153,1.64e-01,5.00e+01,0.00e+00,
154,1.68e-01,5.40e+01,0.00e+00,
155,1.68e-01,5.40e+01,0.00e+00,
156,1.64e-01,5.00e+01,-5.60e+00,
157,1.64e-01,5.00e+01,-5.60e+00,
158,-1.08e-01,5.20e+01,1.60e+00,
159,-1.08e-01,5.20e+01,1.60e+00,
160,-1.84e-01,5.00e+01,3.20e+00,
161,-1.84e-01,5.00e+01,3.20e+00,
162,-1.96e-01,5.20e+01,5.00e+00,
163,-1.96e-01,5.20e+01,5.00e+00,
164,-1.76e-01,5.20e+01,1.80e+00,
165,-1.76e-01,5.20e+01,1.80e+00,
166,-9.20e-02,5.20e+01,1.80e+00,
167,-9.20e-02,5.20e+01,1.80e+00,
168,-8.80e-02,5.20e+01,1.40e+00,
169,-8.80e-02,5.20e+01,1.40e+00,
170,-9.20e-02,5.20e+01,1.40e+00,
171,-9.20e-02,5.20e+01,1.40e+00,
172,-8.80e-02,5.20e+01,1.00e+00,
173,-8.80e-02,5.20e+01,1.00e+00,
174,-9.20e-02,5.20e+01,1.20e+00,
175,-9.20e-02,5.20e+01,1.20e+00,
176,-9.20e-02,5.00e+01,1.00e+00,
177,-9.20e-02,5.00e+01,1.00e+00,
178,-9.20e-02,5.00e+01,8.00e-01,
179,-9.20e-02,5.00e+01,8.00e-01,
180,2.76e-01,5.20e+01,1.00e+00,
181,2.76e-01,5.20e+01,1.00e+00,
182,4.32e-01,5.40e+01,8.00e-01,
183,4.32e-01,5.40e+01,8.00e-01,
184,2.08e-01,5.40e+01,1.00e+00,
185,2.08e-01,5.40e+01,1.00e+00,
186,-4.00e-02,5.40e+01,8.00e-01,
187,-4.00e-02,5.40e+01,8.00e-01,
188,1.60e-02,5.40e+01,1.00e+00,
189,1.60e-02,5.40e+01,1.00e+00,
190,2.44e-01,5.40e+01,1.00e+00,
191,2.44e-01,5.40e+01,1.00e+00,
192,3.24e-01,5.20e+01,8.00e-01,
193,3.24e-01,5.20e+01,8.00e-01,
194,1.96e-01,5.40e+01,1.00e+00,
195,1.96e-01,5.40e+01,1.00e+00,
196,5.20e-02,5.40e+01,8.00e-01,
197,5.20e-02,5.40e+01,8.00e-01,
198,8.00e-02,5.00e+01,8.00e-01,
199,8.00e-02,5.00e+01,8.00e-01,
200,2.12e-01,5.20e+01,8.00e-01,
201,2.12e-01,5.20e+01,8.00e-01,
202,2.72e-01,5.00e+01,8.00e-01,
203,2.72e-01,5.00e+01,8.00e-01,
204,1.84e-01,5.40e+01,8.00e-01,
205,1.84e-01,5.40e+01,8.00e-01,
206,9.60e-02,5.20e+01,8.00e-01,
207,9.60e-02,5.20e+01,8.00e-01,
208,1.04e-01,5.40e+01,6.00e-01,
209,1.04e-01,5.40e+01,6.00e-01,
210,1.92e-01,5.20e+01,6.00e-01,
211,1.92e-01,5.20e+01,6.00e-01,
212,2.28e-01,5.20e+01,6.00e-01,
213,2.28e-01,5.20e+01,6.00e-01,
214,1.88e-01,5.20e+01,6.00e-01,
215,1.88e-01,5.20e+01,6.00e-01,
216,1.24e-01,5.20e+01,6.00e-01,
217,1.24e-01,5.20e+01,6.00e-01,
218,1.28e-01,5.20e+01,6.00e-01,
219,1.28e-01,5.20e+01,6.00e-01,
220,1.76e-01,5.40e+01,6.00e-01,
221,1.76e-01,5.40e+01,6.00e-01,
222,2.12e-01,5.00e+01,4.00e-01,
223,2.12e-01,5.00e+01,4.00e-01,
224,1.80e-01,5.00e+01,6.00e-01,
225,1.80e-01,5.00e+01,6.00e-01,
226,1.40e-01,5.20e+01,6.00e-01,
227,1.40e-01,5.20e+01,6.00e-01,
228,1.32e-01,5.40e+01,6.00e-01,
229,1.32e-01,5.40e+01,6.00e-01,
230,1.68e-01,5.20e+01,6.00e-01,
231,1.68e-01,5.20e+01,6.00e-01,
232,1.84e-01,5.40e+01,6.00e-01,
233,1.84e-01,5.40e+01,6.00e-01,
234,1.76e-01,5.00e+01,6.00e-01,
235,1.76e-01,5.00e+01,6.00e-01,
236,1.52e-01,5.40e+01,6.00e-01,
237,1.52e-01,5.40e+01,6.00e-01,
238,1.48e-01,5.40e+01,4.00e-01,
239,1.48e-01,5.40e+01,4.00e-01,
240,1.60e-01,5.20e+01,6.00e-01,
241,1.60e-01,5.20e+01,6.00e-01,
242,1.76e-01,5.40e+01,6.00e-01,
243,1.76e-01,5.40e+01,6.00e-01,
244,1.72e-01,5.20e+01,6.00e-01,
245,1.72e-01,5.20e+01,6.00e-01,
246,1.60e-01,5.20e+01,6.00e-01,
247,1.60e-01,5.20e+01,6.00e-01,
248,1.60e-01,5.40e+01,6.00e-01,
249,1.60e-01,5.40e+01,6.00e-01,
250,1.64e-01,5.40e+01,6.00e-01,
251,1.64e-01,5.40e+01,6.00e-01,
252,1.76e-01,5.00e+01,6.00e-01,
253,1.76e-01,5.00e+01,6.00e-01,
254,1.72e-01,5.20e+01,4.00e-01,
255,1.72e-01,5.20e+01,4.00e-01,
256,1.64e-01,5.00e+01,6.00e-01,
257,1.64e-01,5.00e+01,6.00e-01,
258,1.64e-01,5.40e+01,6.00e-01,
259,1.64e-01,5.40e+01,6.00e-01,
260,1.68e-01,5.00e+01,4.00e-01,
261,1.68e-01,5.00e+01,4.00e-01,
262,1.72e-01,5.00e+01,6.00e-01,
263,1.72e-01,5.00e+01,6.00e-01,
264,1.72e-01,5.00e+01,6.00e-01,
265,1.72e-01,5.00e+01,6.00e-01,
266,1.64e-01,5.20e+01,6.00e-01,
267,1.64e-01,5.20e+01,6.00e-01,
268,1.68e-01,5.20e+01,6.00e-01,
269,1.68e-01,5.20e+01,6.00e-01,
270,1.64e-01,5.20e+01,2.00e-01,
271,1.64e-01,5.20e+01,2.00e-01,
272,1.68e-01,5.20e+01,4.00e-01,
273,1.68e-01,5.20e+01,4.00e-01,
274,1.60e-01,5.40e+01,4.00e-01,
275,1.60e-01,5.40e+01,4.00e-01,
276,1.68e-01,5.00e+01,4.00e-01,
277,1.68e-01,5.00e+01,4.00e-01,
278,1.64e-01,5.00e+01,2.00e-01,
279,1.64e-01,5.00e+01,2.00e-01,
280,1.60e-01,5.00e+01,4.00e-01,
281,1.60e-01,5.00e+01,4.00e-01,
282,1.68e-01,5.40e+01,4.00e-01,
283,1.68e-01,5.40e+01,4.00e-01,
284,1.64e-01,5.20e+01,4.00e-01,
285,1.64e-01,5.20e+01,4.00e-01,
286,1.68e-01,5.20e+01,4.00e-01,
287,1.68e-01,5.20e+01,4.00e-01,
288,1.68e-01,5.20e+01,2.00e-01,
289,1.68e-01,5.20e+01,2.00e-01,
290,1.56e-01,5.40e+01,4.00e-01,
291,1.56e-01,5.40e+01,4.00e-01,
292,1.64e-01,5.40e+01,2.00e-01,
293,1.64e-01,5.40e+01,2.00e-01,
294,1.64e-01,5.40e+01,4.00e-01,
295,1.64e-01,5.40e+01,4.00e-01,
296,1.76e-01,5.40e+01,4.00e-01,
297,1.76e-01,5.40e+01,4.00e-01,
298,1.68e-01,5.20e+01,2.00e-01,
299,1.68e-01,5.20e+01,2.00e-01,
300,1.60e-01,5.40e+01,4.00e-01,
301,1.60e-01,5.40e+01,4.00e-01,
302,1.68e-01,5.20e+01,4.00e-01,
303,1.68e-01,5.20e+01,4.00e-01,
304,1.68e-01,5.40e+01,4.00e-01,
305,1.68e-01,5.40e+01,4.00e-01,
306,1.60e-01,5.00e+01,2.00e-01,
307,1.60e-01,5.00e+01,2.00e-01,
308,1.64e-01,5.40e+01,2.00e-01,
309,1.64e-01,5.40e+01,2.00e-01,
310,1.68e-01,5.00e+01,4.00e-01,
311,1.68e-01,5.00e+01,4.00e-01,
312,1.68e-01,5.40e+01,4.00e-01,
313,1.68e-01,5.40e+01,4.00e-01,
314,1.68e-01,5.20e+01,4.00e-01,
315,1.68e-01,5.20e+01,4.00e-01,
316,1.68e-01,5.20e+01,2.00e-01,
317,1.68e-01,5.20e+01,2.00e-01,
318,1.68e-01,5.20e+01,2.00e-01,
319,1.68e-01,5.20e+01,2.00e-01,
320,1.60e-01,5.40e+01,2.00e-01,
321,1.60e-01,5.40e+01,2.00e-01,
322,1.68e-01,5.20e+01,2.00e-01,
323,1.68e-01,5.20e+01,2.00e-01,
324,1.68e-01,5.20e+01,2.00e-01,
325,1.68e-01,5.20e+01,2.00e-01,
326,1.68e-01,5.20e+01,2.00e-01,
327,1.68e-01,5.20e+01,2.00e-01,
328,1.68e-01,5.40e+01,2.00e-01,
329,1.68e-01,5.40e+01,2.00e-01,
330,1.64e-01,5.20e+01,2.00e-01,
331,1.64e-01,5.20e+01,2.00e-01,
332,1.68e-01,5.00e+01,2.00e-01,
333,1.68e-01,5.00e+01,2.00e-01,
334,1.68e-01,5.00e+01,2.00e-01,
335,1.68e-01,5.00e+01,2.00e-01,
336,1.68e-01,5.20e+01,4.00e-01,
337,1.68e-01,5.20e+01,4.00e-01,
338,1.64e-01,5.20e+01,4.00e-01,
339,1.64e-01,5.20e+01,4.00e-01,
340,1.68e-01,5.20e+01,4.00e-01,
341,1.68e-01,5.20e+01,4.00e-01,
342,1.68e-01,5.00e+01,2.00e-01,
343,1.68e-01,5.00e+01,2.00e-01,
344,1.60e-01,5.20e+01,2.00e-01,
345,1.60e-01,5.20e+01,2.00e-01,
346,1.64e-01,5.40e+01,4.00e-01,
347,1.64e-01,5.40e+01,4.00e-01,
348,1.68e-01,5.20e+01,4.00e-01,
349,1.68e-01,5.20e+01,4.00e-01,
350,1.68e-01,5.20e+01,4.00e-01,
351,1.68e-01,5.20e+01,4.00e-01,
352,1.64e-01,5.20e+01,4.00e-01,
353,1.64e-01,5.20e+01,4.00e-01,
354,1.68e-01,5.20e+01,4.00e-01,
355,1.68e-01,5.20e+01,4.00e-01,
356,1.72e-01,5.40e+01,2.00e-01,
357,1.72e-01,5.40e+01,2.00e-01,
358,1.72e-01,5.20e+01,2.00e-01,
359,1.72e-01,5.20e+01,2.00e-01,
360,1.72e-01,5.20e+01,2.00e-01,
361,1.72e-01,5.20e+01,2.00e-01,
362,1.68e-01,5.20e+01,9.60e+00,
363,1.68e-01,5.20e+01,9.60e+00,
364,-1.08e-01,5.20e+01,2.80e+00,
365,-1.08e-01,5.20e+01,2.80e+00,
366,-1.80e-01,5.20e+01,1.00e+00,
367,-1.80e-01,5.20e+01,1.00e+00,
368,-1.92e-01,5.40e+01,8.00e-01,
369,-1.92e-01,5.40e+01,8.00e-01,
370,-1.96e-01,5.20e+01,-1.20e+00,
371,-1.96e-01,5.20e+01,-1.20e+00,
372,-1.92e-01,5.00e+01,2.00e-01,
373,-1.92e-01,5.00e+01,2.00e-01,
374,-1.96e-01,5.40e+01,2.40e+00,
375,-1.96e-01,5.40e+01,2.40e+00,
376,-1.92e-01,5.20e+01,4.00e+00,
377,-1.92e-01,5.20e+01,4.00e+00,
378,-1.48e-01,5.40e+01,2.00e+00,
379,-1.48e-01,5.40e+01,2.00e+00,
380,-8.80e-02,5.00e+01,1.60e+00,
381,-8.80e-02,5.00e+01,1.60e+00,
382,-8.40e-02,5.40e+01,1.40e+00,
383,-8.40e-02,5.40e+01,1.40e+00,
384,-8.00e-02,5.20e+01,1.20e+00,
385,-8.00e-02,5.20e+01,1.20e+00,
386,-8.40e-02,5.20e+01,1.20e+00,
387,-8.40e-02,5.20e+01,1.20e+00,
388,-8.40e-02,5.20e+01,1.20e+00,
389,-8.40e-02,5.20e+01,1.20e+00,
390,-8.80e-02,5.40e+01,1.20e+00,
391,-8.80e-02,5.40e+01,1.20e+00,
392,-8.40e-02,5.20e+01,1.00e+00,
393,-8.40e-02,5.20e+01,1.00e+00,
394,-8.40e-02,5.40e+01,8.00e-01,
395,-8.40e-02,5.40e+01,8.00e-01,
396,-8.40e-02,5.20e+01,8.00e-01,
397,-8.40e-02,5.20e+01,8.00e-01,
398,-9.20e-02,5.40e+01,1.00e+00,
399,-9.20e-02,5.40e+01,1.00e+00,
400,5.20e-02,5.40e+01,1.00e+00,
401,5.20e-02,5.40e+01,1.00e+00,
402,3.08e-01,5.20e+01,1.00e+00,
403,3.08e-01,5.20e+01,1.00e+00,
404,3.32e-01,2.00e+00,1.00e+00,
405,3.32e-01,2.00e+00,1.00e+00,
406,1.48e-01,0.00e+00,8.00e-01,
407,1.48e-01,0.00e+00,8.00e-01,
408,2.80e-02,2.00e+00,1.00e+00,
409,2.80e-02,2.00e+00,1.00e+00,
410,1.08e-01,2.00e+00,1.00e+00,
411,1.08e-01,2.00e+00,1.00e+00,
412,2.48e-01,2.00e+00,8.00e-01,
413,2.48e-01,2.00e+00,8.00e-01,
414,2.56e-01,0.00e+00,1.00e+00,
415,2.56e-01,0.00e+00,1.00e+00,
416,1.52e-01,4.00e+00,8.00e-01,
417,1.52e-01,4.00e+00,8.00e-01,
418,8.40e-02,2.00e+00,8.00e-01,
419,8.40e-02,2.00e+00,8.00e-01,
420,1.36e-01,2.00e+00,8.00e-01,
421,1.36e-01,2.00e+00,8.00e-01,
422,2.16e-01,2.00e+00,6.00e-01,
423,2.16e-01,2.00e+00,6.00e-01,
424,2.24e-01,2.00e+00,6.00e-01,
425,2.24e-01,2.00e+00,6.00e-01,
426,1.60e-01,4.00e+00,4.00e-01,
427,1.60e-01,4.00e+00,4.00e-01,
428,1.20e-01,0.00e+00,4.00e-01,
429,1.20e-01,0.00e+00,4.00e-01,
430,1.44e-01,0.00e+00,6.00e-01,
431,1.44e-01,0.00e+00,6.00e-01,
432,1.92e-01,2.00e+00,6.00e-01,
433,1.92e-01,2.00e+00,6.00e-01,
434,2.04e-01,4.00e+00,4.00e-01,
435,2.04e-01,4.00e+00,4.00e-01,
436,1.64e-01,2.00e+00,4.00e-01,
437,1.64e-01,2.00e+00,4.00e-01,
438,1.40e-01,2.00e+00,4.00e-01,
439,1.40e-01,2.00e+00,4.00e-01,
440,1.52e-01,4.00e+00,6.00e-01,
441,1.52e-01,4.00e+00,6.00e-01,
442,1.80e-01,0.00e+00,6.00e-01,
443,1.80e-01,0.00e+00,6.00e-01,
444,1.88e-01,0.00e+00,6.00e-01,
445,1.88e-01,0.00e+00,6.00e-01,
446,1.68e-01,4.00e+00,6.00e-01,
447,1.68e-01,4.00e+00,6.00e-01,
448,1.52e-01,2.00e+00,4.00e-01,
449,1.52e-01,2.00e+00,4.00e-01,
450,1.56e-01,2.00e+00,6.00e-01,
451,1.56e-01,2.00e+00,6.00e-01,
452,1.76e-01,2.00e+00,6.00e-01,
453,1.76e-01,2.00e+00,6.00e-01,
454,1.84e-01,4.00e+00,6.00e-01,
455,1.84e-01,4.00e+00,6.00e-01,
456,1.68e-01,2.00e+00,6.00e-01,
457,1.68e-01,2.00e+00,6.00e-01,
458,1.56e-01,2.00e+00,6.00e-01,
459,1.56e-01,2.00e+00,6.00e-01,
460,1.56e-01,2.00e+00,6.00e-01,
461,1.56e-01,2.00e+00,6.00e-01,
462,1.68e-01,2.00e+00,6.00e-01,
463,1.68e-01,2.00e+00,6.00e-01,
464,1.76e-01,2.00e+00,4.00e-01,
465,1.76e-01,2.00e+00,4.00e-01,
466,1.68e-01,0.00e+00,4.00e-01,
467,1.68e-01,0.00e+00,4.00e-01,
468,1.60e-01,0.00e+00,6.00e-01,
469,1.60e-01,0.00e+00,6.00e-01,
470,1.64e-01,2.00e+00,6.00e-01,
471,1.64e-01,2.00e+00,6.00e-01,
472,1.68e-01,2.00e+00,6.00e-01,
473,1.68e-01,2.00e+00,6.00e-01,
474,1.72e-01,0.00e+00,6.00e-01,
475,1.72e-01,0.00e+00,6.00e-01,
476,1.64e-01,0.00e+00,4.00e-01,
477,1.64e-01,0.00e+00,4.00e-01,
478,1.68e-01,2.00e+00,4.00e-01,
479,1.68e-01,2.00e+00,4.00e-01,
480,1.68e-01,4.00e+00,6.00e-01,
481,1.68e-01,4.00e+00,6.00e-01,
482,1.76e-01,2.00e+00,4.00e-01,
483,1.76e-01,2.00e+00,4.00e-01,
484,1.72e-01,2.00e+00,6.00e-01,
485,1.72e-01,2.00e+00,6.00e-01,
486,1.68e-01,2.00e+00,4.00e-01,
487,1.68e-01,2.00e+00,4.00e-01,
488,1.64e-01,2.00e+00,6.00e-01,
489,1.64e-01,2.00e+00,6.00e-01,
490,1.64e-01,0.00e+00,4.00e-01,
491,1.64e-01,0.00e+00,4.00e-01,
492,1.64e-01,0.00e+00,4.00e-01,
493,1.64e-01,0.00e+00,4.00e-01,
494,1.72e-01,0.00e+00,4.00e-01,
495,1.72e-01,0.00e+00,4.00e-01,
496,1.64e-01,4.00e+00,6.00e-01,
497,1.64e-01,4.00e+00,6.00e-01,
498,1.68e-01,2.00e+00,6.00e-01,
499,1.68e-01,2.00e+00,6.00e-01,
500,1.64e-01,4.00e+00,4.00e-01,
501,1.64e-01,4.00e+00,4.00e-01,
502,1.64e-01,2.00e+00,4.00e-01,
503,1.64e-01,2.00e+00,4.00e-01,
504,1.64e-01,2.00e+00,4.00e-01,
505,1.64e-01,2.00e+00,4.00e-01,
506,1.64e-01,0.00e+00,6.00e-01,
507,1.64e-01,0.00e+00,6.00e-01,
508,1.68e-01,2.00e+00,4.00e-01,
509,1.68e-01,2.00e+00,4.00e-01,
510,1.72e-01,2.00e+00,4.00e-01,
511,1.72e-01,2.00e+00,4.00e-01,
512,1.68e-01,2.00e+00,4.00e-01,
513,1.68e-01,2.00e+00,4.00e-01,
514,1.68e-01,0.00e+00,4.00e-01,
515,1.68e-01,0.00e+00,4.00e-01,
516,1.72e-01,2.00e+00,2.00e-01,
517,1.72e-01,2.00e+00,2.00e-01,
518,1.68e-01,2.00e+00,2.00e-01,
519,1.68e-01,2.00e+00,2.00e-01,
520,1.64e-01,0.00e+00,2.00e-01,
521,1.64e-01,0.00e+00,2.00e-01,
522,1.64e-01,0.00e+00,2.00e-01,
523,1.64e-01,0.00e+00,2.00e-01,
524,1.64e-01,0.00e+00,2.00e-01,
525,1.64e-01,0.00e+00,2.00e-01,
526,1.68e-01,4.00e+00,6.00e-01,
527,1.68e-01,4.00e+00,6.00e-01,
528,1.72e-01,2.00e+00,4.00e-01,
529,1.72e-01,2.00e+00,4.00e-01,
530,1.72e-01,2.00e+00,6.00e-01,
531,1.72e-01,2.00e+00,6.00e-01,
532,1.68e-01,2.00e+00,2.00e-01,
533,1.68e-01,2.00e+00,2.00e-01,
534,1.64e-01,2.00e+00,2.00e-01,
535,1.64e-01,2.00e+00,2.00e-01,
536,1.64e-01,0.00e+00,2.00e-01,
537,1.64e-01,0.00e+00,2.00e-01,
538,1.68e-01,0.00e+00,2.00e-01,
539,1.68e-01,0.00e+00,2.00e-01,
540,1.64e-01,0.00e+00,2.00e-01,
541,1.64e-01,0.00e+00,2.00e-01,
542,1.64e-01,0.00e+00,2.00e-01,
543,1.64e-01,0.00e+00,2.00e-01,
544,1.68e-01,2.00e+00,4.00e-01,
545,1.68e-01,2.00e+00,4.00e-01,
546,1.68e-01,0.00e+00,6.00e-01,
547,1.68e-01,0.00e+00,6.00e-01,
548,1.68e-01,0.00e+00,4.00e-01,
549,1.68e-01,0.00e+00,4.00e-01,
550,1.68e-01,0.00e+00,4.00e-01,
551,1.68e-01,0.00e+00,4.00e-01,
552,1.68e-01,2.00e+00,2.00e-01,
553,1.68e-01,2.00e+00,2.00e-01,
554,1.60e-01,2.00e+00,2.00e-01,
555,1.60e-01,2.00e+00,2.00e-01,
556,1.64e-01,2.00e+00,2.00e-01,
557,1.64e-01,2.00e+00,2.00e-01,
558,1.64e-01,2.00e+00,4.00e-01,
559,1.64e-01,2.00e+00,4.00e-01,
560,1.72e-01,0.00e+00,2.00e-01,
561,1.72e-01,0.00e+00,2.00e-01,
562,1.68e-01,2.00e+00,2.00e-01,
563,1.68e-01,2.00e+00,2.00e-01,
564,1.68e-01,0.00e+00,2.00e-01,
565,1.68e-01,0.00e+00,2.00e-01,
566,1.64e-01,2.00e+00,4.00e-01,
567,1.64e-01,2.00e+00,4.00e-01,
568,1.64e-01,2.00e+00,4.00e-01,
569,1.64e-01,2.00e+00,4.00e-01,
570,1.68e-01,0.00e+00,2.00e-01,
571,1.68e-01,0.00e+00,2.00e-01,
572,1.68e-01,2.00e+00,2.00e-01,
573,1.68e-01,2.00e+00,2.00e-01,
574,1.72e-01,2.00e+00,4.00e-01,
575,1.72e-01,2.00e+00,4.00e-01,
576,1.64e-01,0.00e+00,2.00e-01,
577,1.64e-01,0.00e+00,2.00e-01,
578,1.72e-01,4.00e+00,2.00e-01,
579,1.72e-01,4.00e+00,2.00e-01,
580,1.72e-01,2.00e+00,2.00e-01,
581,1.72e-01,2.00e+00,2.00e-01,
582,1.68e-01,0.00e+00,2.00e-01,
583,1.68e-01,0.00e+00,2.00e-01,
584,1.72e-01,0.00e+00,4.00e-01,
585,1.72e-01,0.00e+00,4.00e-01,
586,1.72e-01,2.00e+00,2.00e-01,
587,1.72e-01,2.00e+00,2.00e-01,
588,1.68e-01,2.00e+00,2.00e-01,
589,1.68e-01,2.00e+00,2.00e-01,
590,1.68e-01,0.00e+00,2.00e-01,
591,1.68e-01,0.00e+00,2.00e-01,
592,1.72e-01,0.00e+00,2.00e-01,
593,1.72e-01,0.00e+00,2.00e-01,
594,1.72e-01,0.00e+00,4.00e-01,
595,1.72e-01,0.00e+00,4.00e-01,
596,1.68e-01,2.00e+00,4.00e-01,
597,1.68e-01,2.00e+00,4.00e-01,
598,1.68e-01,0.00e+00,4.00e-01,
599,1.68e-01,0.00e+00,4.00e-01,
600,1.72e-01,0.00e+00,2.00e-01,
601,1.72e-01,0.00e+00,2.00e-01,
602,1.68e-01,0.00e+00,2.00e-01,
603,1.68e-01,0.00e+00,2.00e-01,
604,1.64e-01,0.00e+00,4.00e-01,
605,1.64e-01,0.00e+00,4.00e-01,
606,1.72e-01,0.00e+00,4.00e-01,
607,1.72e-01,0.00e+00,4.00e-01,
608,1.72e-01,2.00e+00,4.00e-01,
609,1.72e-01,2.00e+00,4.00e-01,
610,1.68e-01,0.00e+00,4.00e-01,
611,1.68e-01,0.00e+00,4.00e-01,
612,1.72e-01,0.00e+00,2.00e-01,
613,1.72e-01,0.00e+00,2.00e-01,
614,1.72e-01,0.00e+00,2.00e-01,
615,1.72e-01,0.00e+00,2.00e-01,
616,1.72e-01,0.00e+00,2.00e-01,
617,1.72e-01,0.00e+00,2.00e-01,
618,1.72e-01,0.00e+00,2.00e-01,
619,1.72e-01,0.00e+00,2.00e-01,
620,1.76e-01,0.00e+00,2.00e-01,
621,1.76e-01,0.00e+00,2.00e-01,
622,1.68e-01,0.00e+00,2.00e-01,
