NMRdata/cumulativemaybe/m_b/pm_1/pm_1_1.csv

X,CH1,CH3,CH4,Start,Increment,
Sequence,Volt,Volt,Volt,-4.060000e-03,1.000000e-05
0,1.60e-01,4.00e+00,0.00e+00,
1,1.60e-01,4.00e+00,0.00e+00,
2,1.60e-01,4.00e+00,0.00e+00,
3,1.60e-01,4.00e+00,0.00e+00,
4,1.64e-01,0.00e+00,0.00e+00,
5,1.64e-01,0.00e+00,0.00e+00,
6,1.60e-01,2.00e+00,0.00e+00,
7,1.60e-01,2.00e+00,0.00e+00,
8,1.60e-01,4.00e+00,0.00e+00,
9,1.60e-01,4.00e+00,0.00e+00,
10,1.60e-01,4.00e+00,2.00e-01,
11,1.60e-01,4.00e+00,2.00e-01,
12,1.64e-01,0.00e+00,0.00e+00,
13,1.64e-01,0.00e+00,0.00e+00,
14,1.64e-01,2.00e+00,0.00e+00,
15,1.64e-01,2.00e+00,0.00e+00,
16,1.64e-01,2.00e+00,-2.00e-01,
17,1.64e-01,2.00e+00,-2.00e-01,
18,1.60e-01,2.00e+00,0.00e+00,
19,1.60e-01,2.00e+00,0.00e+00,
20,1.60e-01,0.00e+00,0.00e+00,
21,1.60e-01,0.00e+00,0.00e+00,
22,1.60e-01,2.00e+00,0.00e+00,
23,1.60e-01,2.00e+00,0.00e+00,
24,1.60e-01,4.00e+00,0.00e+00,
25,1.60e-01,4.00e+00,0.00e+00,
26,1.56e-01,4.00e+00,0.00e+00,
27,1.56e-01,4.00e+00,0.00e+00,
28,1.56e-01,2.00e+00,0.00e+00,
29,1.56e-01,2.00e+00,0.00e+00,
30,1.60e-01,4.00e+00,0.00e+00,
31,1.60e-01,4.00e+00,0.00e+00,
32,1.56e-01,2.00e+00,0.00e+00,
33,1.56e-01,2.00e+00,0.00e+00,
34,1.64e-01,2.00e+00,2.00e-01,
35,1.64e-01,2.00e+00,2.00e-01,
36,1.64e-01,2.00e+00,2.00e-01,
37,1.64e-01,2.00e+00,2.00e-01,
38,1.64e-01,4.00e+00,-2.00e-01,
39,1.64e-01,4.00e+00,-2.00e-01,
40,1.60e-01,2.00e+00,2.00e-01,
41,1.60e-01,2.00e+00,2.00e-01,
42,1.60e-01,0.00e+00,0.00e+00,
43,1.60e-01,0.00e+00,0.00e+00,
44,1.56e-01,2.00e+00,0.00e+00,
45,1.56e-01,2.00e+00,0.00e+00,
46,1.64e-01,2.00e+00,2.00e-01,
47,1.64e-01,2.00e+00,2.00e-01,
48,1.56e-01,4.00e+00,0.00e+00,
49,1.56e-01,4.00e+00,0.00e+00,
50,1.60e-01,0.00e+00,0.00e+00,
51,1.60e-01,0.00e+00,0.00e+00,
52,1.64e-01,2.00e+00,0.00e+00,
53,1.64e-01,2.00e+00,0.00e+00,
54,1.56e-01,2.00e+00,0.00e+00,
55,1.56e-01,2.00e+00,0.00e+00,
56,1.56e-01,4.00e+00,2.00e-01,
57,1.56e-01,4.00e+00,2.00e-01,
58,1.60e-01,0.00e+00,0.00e+00,
59,1.60e-01,0.00e+00,0.00e+00,
60,1.60e-01,2.00e+00,0.00e+00,
61,1.60e-01,2.00e+00,0.00e+00,
62,1.64e-01,4.00e+00,-2.00e-01,
63,1.64e-01,4.00e+00,-2.00e-01,
64,1.64e-01,2.00e+00,0.00e+00,
65,1.64e-01,2.00e+00,0.00e+00,
66,1.64e-01,2.00e+00,0.00e+00,
67,1.64e-01,2.00e+00,0.00e+00,
68,1.60e-01,0.00e+00,-2.00e-01,
69,1.60e-01,0.00e+00,-2.00e-01,
70,1.60e-01,2.00e+00,-2.00e-01,
71,1.60e-01,2.00e+00,-2.00e-01,
72,1.56e-01,4.00e+00,0.00e+00,
73,1.56e-01,4.00e+00,0.00e+00,
74,1.64e-01,0.00e+00,0.00e+00,
75,1.64e-01,0.00e+00,0.00e+00,
76,1.64e-01,2.00e+00,2.00e-01,
77,1.64e-01,2.00e+00,2.00e-01,
78,1.64e-01,2.00e+00,2.00e-01,
79,1.64e-01,2.00e+00,2.00e-01,
80,1.64e-01,0.00e+00,2.00e-01,
81,1.64e-01,0.00e+00,2.00e-01,
82,1.64e-01,0.00e+00,0.00e+00,
83,1.64e-01,0.00e+00,0.00e+00,
84,1.60e-01,4.00e+00,0.00e+00,
85,1.60e-01,4.00e+00,0.00e+00,
86,1.60e-01,2.00e+00,2.00e-01,
87,1.60e-01,2.00e+00,2.00e-01,
88,1.64e-01,2.00e+00,0.00e+00,
89,1.64e-01,2.00e+00,0.00e+00,
90,1.64e-01,0.00e+00,0.00e+00,
91,1.64e-01,0.00e+00,0.00e+00,
92,1.64e-01,2.00e+00,0.00e+00,
93,1.64e-01,2.00e+00,0.00e+00,
94,1.68e-01,2.00e+00,-2.00e-01,
95,1.68e-01,2.00e+00,-2.00e-01,
96,1.56e-01,2.00e+00,0.00e+00,
97,1.56e-01,2.00e+00,0.00e+00,
98,1.60e-01,2.00e+00,0.00e+00,
99,1.60e-01,2.00e+00,0.00e+00,
100,1.60e-01,2.00e+00,0.00e+00,
101,1.60e-01,2.00e+00,0.00e+00,
102,1.60e-01,4.00e+00,0.00e+00,
103,1.60e-01,4.00e+00,0.00e+00,
104,1.56e-01,0.00e+00,0.00e+00,
105,1.56e-01,0.00e+00,0.00e+00,
106,1.64e-01,4.00e+00,0.00e+00,
107,1.64e-01,4.00e+00,0.00e+00,
108,1.60e-01,2.00e+00,0.00e+00,
109,1.60e-01,2.00e+00,0.00e+00,
110,1.56e-01,2.00e+00,0.00e+00,
111,1.56e-01,2.00e+00,0.00e+00,
112,1.64e-01,0.00e+00,0.00e+00,
113,1.64e-01,0.00e+00,0.00e+00,
114,1.60e-01,2.00e+00,0.00e+00,
115,1.60e-01,2.00e+00,0.00e+00,
116,1.68e-01,2.00e+00,0.00e+00,
117,1.68e-01,2.00e+00,0.00e+00,
118,1.64e-01,4.00e+00,-2.00e-01,
119,1.64e-01,4.00e+00,-2.00e-01,
120,1.60e-01,2.00e+00,0.00e+00,
121,1.60e-01,2.00e+00,0.00e+00,
122,1.64e-01,2.00e+00,0.00e+00,
123,1.64e-01,2.00e+00,0.00e+00,
124,1.60e-01,0.00e+00,0.00e+00,
125,1.60e-01,0.00e+00,0.00e+00,
126,1.64e-01,2.00e+00,0.00e+00,
127,1.64e-01,2.00e+00,0.00e+00,
128,1.68e-01,0.00e+00,0.00e+00,
129,1.68e-01,0.00e+00,0.00e+00,
130,1.64e-01,2.00e+00,-2.00e-01,
131,1.64e-01,2.00e+00,-2.00e-01,
132,1.60e-01,0.00e+00,0.00e+00,
133,1.60e-01,0.00e+00,0.00e+00,
134,1.64e-01,2.00e+00,-2.00e-01,
135,1.64e-01,2.00e+00,-2.00e-01,
136,1.60e-01,2.00e+00,0.00e+00,
137,1.60e-01,2.00e+00,0.00e+00,
138,1.64e-01,4.00e+00,0.00e+00,
139,1.64e-01,4.00e+00,0.00e+00,
140,1.64e-01,4.00e+00,-2.00e-01,
141,1.64e-01,4.00e+00,-2.00e-01,
142,1.60e-01,2.00e+00,0.00e+00,
143,1.60e-01,2.00e+00,0.00e+00,
144,1.60e-01,5.20e+01,0.00e+00,
145,1.60e-01,5.20e+01,0.00e+00,
146,1.60e-01,5.20e+01,-2.00e-01,
147,1.60e-01,5.20e+01,-2.00e-01,
148,1.64e-01,5.20e+01,0.00e+00,
149,1.64e-01,5.20e+01,0.00e+00,
150,1.72e-01,5.40e+01,-2.00e-01,
151,1.72e-01,5.40e+01,-2.00e-01,
152,1.68e-01,5.40e+01,0.00e+00,
153,1.68e-01,5.40e+01,0.00e+00,
154,1.72e-01,5.40e+01,-2.00e-01,
155,1.72e-01,5.40e+01,-2.00e-01,
156,1.72e-01,5.20e+01,1.40e+00,
157,1.72e-01,5.20e+01,1.40e+00,
158,-1.40e-01,5.20e+01,9.00e+00,
159,-1.40e-01,5.20e+01,9.00e+00,
160,-2.24e-01,5.20e+01,1.12e+01,
161,-2.24e-01,5.20e+01,1.12e+01,
162,-2.52e-01,5.20e+01,1.38e+01,
163,-2.52e-01,5.20e+01,1.38e+01,
164,-2.32e-01,5.00e+01,1.80e+00,
165,-2.32e-01,5.00e+01,1.80e+00,
166,-1.20e-01,5.20e+01,1.80e+00,
167,-1.20e-01,5.20e+01,1.80e+00,
168,-1.24e-01,5.00e+01,1.40e+00,
169,-1.24e-01,5.00e+01,1.40e+00,
170,-1.24e-01,5.20e+01,1.20e+00,
171,-1.24e-01,5.20e+01,1.20e+00,
172,-1.16e-01,5.20e+01,1.00e+00,
173,-1.16e-01,5.20e+01,1.00e+00,
174,-1.24e-01,5.40e+01,1.00e+00,
175,-1.24e-01,5.40e+01,1.00e+00,
176,-1.16e-01,5.00e+01,1.00e+00,
177,-1.16e-01,5.00e+01,1.00e+00,
178,-1.16e-01,5.20e+01,1.00e+00,
179,-1.16e-01,5.20e+01,1.00e+00,
180,2.56e-01,5.00e+01,8.00e-01,
181,2.56e-01,5.00e+01,8.00e-01,
182,4.28e-01,5.20e+01,8.00e-01,
183,4.28e-01,5.20e+01,8.00e-01,
184,2.00e-01,5.20e+01,8.00e-01,
185,2.00e-01,5.20e+01,8.00e-01,
186,-4.40e-02,5.40e+01,8.00e-01,
187,-4.40e-02,5.40e+01,8.00e-01,
188,8.00e-03,5.20e+01,8.00e-01,
189,8.00e-03,5.20e+01,8.00e-01,
190,2.36e-01,5.40e+01,8.00e-01,
191,2.36e-01,5.40e+01,8.00e-01,
192,3.20e-01,5.20e+01,8.00e-01,
193,3.20e-01,5.20e+01,8.00e-01,
194,1.92e-01,5.40e+01,8.00e-01,
195,1.92e-01,5.40e+01,8.00e-01,
196,4.80e-02,5.20e+01,8.00e-01,
197,4.80e-02,5.20e+01,8.00e-01,
198,6.80e-02,5.20e+01,6.00e-01,
199,6.80e-02,5.20e+01,6.00e-01,
200,2.00e-01,5.40e+01,6.00e-01,
201,2.00e-01,5.40e+01,6.00e-01,
202,2.56e-01,5.40e+01,8.00e-01,
203,2.56e-01,5.40e+01,8.00e-01,
204,1.80e-01,5.40e+01,6.00e-01,
205,1.80e-01,5.40e+01,6.00e-01,
206,8.80e-02,5.20e+01,8.00e-01,
207,8.80e-02,5.20e+01,8.00e-01,
208,1.00e-01,5.20e+01,8.00e-01,
209,1.00e-01,5.20e+01,8.00e-01,
210,1.84e-01,5.20e+01,6.00e-01,
211,1.84e-01,5.20e+01,6.00e-01,
212,2.24e-01,5.40e+01,6.00e-01,
213,2.24e-01,5.40e+01,6.00e-01,
214,1.76e-01,5.00e+01,6.00e-01,
215,1.76e-01,5.00e+01,6.00e-01,
216,1.16e-01,5.20e+01,4.00e-01,
217,1.16e-01,5.20e+01,4.00e-01,
218,1.16e-01,5.20e+01,6.00e-01,
219,1.16e-01,5.20e+01,6.00e-01,
220,1.68e-01,5.40e+01,6.00e-01,
221,1.68e-01,5.40e+01,6.00e-01,
222,2.00e-01,5.20e+01,6.00e-01,
223,2.00e-01,5.20e+01,6.00e-01,
224,1.76e-01,5.40e+01,6.00e-01,
225,1.76e-01,5.40e+01,6.00e-01,
226,1.36e-01,5.20e+01,6.00e-01,
227,1.36e-01,5.20e+01,6.00e-01,
228,1.32e-01,5.40e+01,4.00e-01,
229,1.32e-01,5.40e+01,4.00e-01,
230,1.64e-01,5.20e+01,4.00e-01,
231,1.64e-01,5.20e+01,4.00e-01,
232,1.84e-01,5.20e+01,4.00e-01,
233,1.84e-01,5.20e+01,4.00e-01,
234,1.76e-01,5.00e+01,6.00e-01,
235,1.76e-01,5.00e+01,6.00e-01,
236,1.44e-01,5.20e+01,4.00e-01,
237,1.44e-01,5.20e+01,4.00e-01,
238,1.44e-01,5.20e+01,4.00e-01,
239,1.44e-01,5.20e+01,4.00e-01,
240,1.56e-01,5.20e+01,6.00e-01,
241,1.56e-01,5.20e+01,6.00e-01,
242,1.76e-01,5.20e+01,6.00e-01,
243,1.76e-01,5.20e+01,6.00e-01,
244,1.64e-01,5.20e+01,6.00e-01,
245,1.64e-01,5.20e+01,6.00e-01,
246,1.52e-01,5.40e+01,6.00e-01,
247,1.52e-01,5.40e+01,6.00e-01,
248,1.44e-01,5.40e+01,6.00e-01,
249,1.44e-01,5.40e+01,6.00e-01,
250,1.60e-01,5.20e+01,6.00e-01,
251,1.60e-01,5.20e+01,6.00e-01,
252,1.68e-01,5.20e+01,4.00e-01,
253,1.68e-01,5.20e+01,4.00e-01,
254,1.64e-01,5.40e+01,4.00e-01,
255,1.64e-01,5.40e+01,4.00e-01,
256,1.56e-01,5.20e+01,4.00e-01,
257,1.56e-01,5.20e+01,4.00e-01,
258,1.56e-01,5.40e+01,6.00e-01,
259,1.56e-01,5.40e+01,6.00e-01,
260,1.56e-01,5.20e+01,4.00e-01,
261,1.56e-01,5.20e+01,4.00e-01,
262,1.60e-01,5.40e+01,6.00e-01,
263,1.60e-01,5.40e+01,6.00e-01,
264,1.60e-01,5.00e+01,4.00e-01,
265,1.60e-01,5.00e+01,4.00e-01,
266,1.60e-01,5.20e+01,2.00e-01,
267,1.60e-01,5.20e+01,2.00e-01,
268,1.60e-01,5.00e+01,4.00e-01,
269,1.60e-01,5.00e+01,4.00e-01,
270,1.64e-01,5.20e+01,6.00e-01,
271,1.64e-01,5.20e+01,6.00e-01,
272,1.60e-01,5.00e+01,4.00e-01,
273,1.60e-01,5.00e+01,4.00e-01,
274,1.60e-01,5.20e+01,4.00e-01,
275,1.60e-01,5.20e+01,4.00e-01,
276,1.56e-01,5.00e+01,6.00e-01,
277,1.56e-01,5.00e+01,6.00e-01,
278,1.56e-01,5.40e+01,4.00e-01,
279,1.56e-01,5.40e+01,4.00e-01,
280,1.60e-01,5.20e+01,4.00e-01,
281,1.60e-01,5.20e+01,4.00e-01,
282,1.64e-01,5.40e+01,4.00e-01,
283,1.64e-01,5.40e+01,4.00e-01,
284,1.60e-01,5.20e+01,4.00e-01,
285,1.60e-01,5.20e+01,4.00e-01,
286,1.60e-01,5.20e+01,4.00e-01,
287,1.60e-01,5.20e+01,4.00e-01,
288,1.60e-01,5.00e+01,4.00e-01,
289,1.60e-01,5.00e+01,4.00e-01,
290,1.60e-01,5.20e+01,4.00e-01,
291,1.60e-01,5.20e+01,4.00e-01,
292,1.60e-01,5.20e+01,4.00e-01,
293,1.60e-01,5.20e+01,4.00e-01,
294,1.56e-01,5.40e+01,4.00e-01,
295,1.56e-01,5.40e+01,4.00e-01,
296,1.60e-01,5.20e+01,2.00e-01,
297,1.60e-01,5.20e+01,2.00e-01,
298,1.68e-01,5.40e+01,4.00e-01,
299,1.68e-01,5.40e+01,4.00e-01,
300,1.64e-01,5.40e+01,2.00e-01,
301,1.64e-01,5.40e+01,2.00e-01,
302,1.60e-01,5.20e+01,2.00e-01,
303,1.60e-01,5.20e+01,2.00e-01,
304,1.56e-01,5.20e+01,2.00e-01,
305,1.56e-01,5.20e+01,2.00e-01,
306,1.60e-01,5.40e+01,2.00e-01,
307,1.60e-01,5.40e+01,2.00e-01,
308,1.60e-01,5.40e+01,2.00e-01,
309,1.60e-01,5.40e+01,2.00e-01,
310,1.60e-01,5.40e+01,2.00e-01,
311,1.60e-01,5.40e+01,2.00e-01,
312,1.56e-01,5.40e+01,2.00e-01,
313,1.56e-01,5.40e+01,2.00e-01,
314,1.64e-01,5.20e+01,2.00e-01,
315,1.64e-01,5.20e+01,2.00e-01,
316,1.64e-01,5.40e+01,4.00e-01,
317,1.64e-01,5.40e+01,4.00e-01,
318,1.56e-01,5.20e+01,2.00e-01,
319,1.56e-01,5.20e+01,2.00e-01,
320,1.56e-01,5.40e+01,2.00e-01,
321,1.56e-01,5.40e+01,2.00e-01,
322,1.56e-01,5.20e+01,2.00e-01,
323,1.56e-01,5.20e+01,2.00e-01,
324,1.60e-01,5.20e+01,2.00e-01,
325,1.60e-01,5.20e+01,2.00e-01,
326,1.60e-01,5.00e+01,2.00e-01,
327,1.60e-01,5.00e+01,2.00e-01,
328,1.60e-01,5.40e+01,2.00e-01,
329,1.60e-01,5.40e+01,2.00e-01,
330,1.64e-01,5.00e+01,2.00e-01,
331,1.64e-01,5.00e+01,2.00e-01,
332,1.64e-01,5.20e+01,2.00e-01,
333,1.64e-01,5.20e+01,2.00e-01,
334,1.56e-01,5.00e+01,2.00e-01,
335,1.56e-01,5.00e+01,2.00e-01,
336,1.60e-01,5.20e+01,2.00e-01,
337,1.60e-01,5.20e+01,2.00e-01,
338,1.60e-01,5.00e+01,4.00e-01,
339,1.60e-01,5.00e+01,4.00e-01,
340,1.60e-01,5.00e+01,2.00e-01,
341,1.60e-01,5.00e+01,2.00e-01,
342,1.60e-01,5.00e+01,4.00e-01,
343,1.60e-01,5.00e+01,4.00e-01,
344,1.56e-01,5.20e+01,2.00e-01,
345,1.56e-01,5.20e+01,2.00e-01,
346,1.64e-01,5.20e+01,4.00e-01,
347,1.64e-01,5.20e+01,4.00e-01,
348,1.60e-01,5.20e+01,2.00e-01,
349,1.60e-01,5.20e+01,2.00e-01,
350,1.60e-01,5.20e+01,2.00e-01,
351,1.60e-01,5.20e+01,2.00e-01,
352,1.60e-01,5.40e+01,2.00e-01,
353,1.60e-01,5.40e+01,2.00e-01,
354,1.60e-01,5.20e+01,2.00e-01,
355,1.60e-01,5.20e+01,2.00e-01,
356,1.68e-01,5.20e+01,2.00e-01,
357,1.68e-01,5.20e+01,2.00e-01,
358,1.64e-01,5.20e+01,2.00e-01,
359,1.64e-01,5.20e+01,2.00e-01,
360,1.68e-01,5.20e+01,2.00e-01,
361,1.68e-01,5.20e+01,2.00e-01,
362,1.68e-01,5.20e+01,5.20e+00,
363,1.68e-01,5.20e+01,5.20e+00,
364,-1.36e-01,5.20e+01,6.00e-01,
365,-1.36e-01,5.20e+01,6.00e-01,
366,-2.24e-01,5.20e+01,2.00e+00,
367,-2.24e-01,5.20e+01,2.00e+00,
368,-2.40e-01,5.40e+01,4.00e+00,
369,-2.40e-01,5.40e+01,4.00e+00,
370,-2.48e-01,5.20e+01,6.00e+00,
371,-2.48e-01,5.20e+01,6.00e+00,
372,-2.52e-01,5.20e+01,7.40e+00,
373,-2.52e-01,5.20e+01,7.40e+00,
374,-2.52e-01,5.00e+01,1.00e+01,
375,-2.52e-01,5.00e+01,1.00e+01,
376,-2.52e-01,5.20e+01,1.26e+01,
377,-2.52e-01,5.20e+01,1.26e+01,
378,-1.96e-01,5.40e+01,2.00e+00,
379,-1.96e-01,5.40e+01,2.00e+00,
380,-1.20e-01,5.20e+01,1.60e+00,
381,-1.20e-01,5.20e+01,1.60e+00,
382,-1.16e-01,5.40e+01,1.40e+00,
383,-1.16e-01,5.40e+01,1.40e+00,
384,-1.16e-01,5.00e+01,1.00e+00,
385,-1.16e-01,5.00e+01,1.00e+00,
386,-1.16e-01,5.40e+01,1.20e+00,
387,-1.16e-01,5.40e+01,1.20e+00,
388,-1.16e-01,5.20e+01,1.20e+00,
389,-1.16e-01,5.20e+01,1.20e+00,
390,-1.16e-01,5.40e+01,1.00e+00,
391,-1.16e-01,5.40e+01,1.00e+00,
392,-1.16e-01,5.20e+01,1.20e+00,
393,-1.16e-01,5.20e+01,1.20e+00,
394,-1.16e-01,5.40e+01,1.00e+00,
395,-1.16e-01,5.40e+01,1.00e+00,
396,-1.16e-01,5.20e+01,1.00e+00,
397,-1.16e-01,5.20e+01,1.00e+00,
398,-1.16e-01,5.40e+01,1.00e+00,
399,-1.16e-01,5.40e+01,1.00e+00,
400,4.00e-02,5.20e+01,1.00e+00,
401,4.00e-02,5.20e+01,1.00e+00,
402,3.00e-01,5.20e+01,1.00e+00,
403,3.00e-01,5.20e+01,1.00e+00,
404,3.32e-01,4.00e+00,8.00e-01,
405,3.32e-01,4.00e+00,8.00e-01,
406,1.48e-01,0.00e+00,8.00e-01,
407,1.48e-01,0.00e+00,8.00e-01,
408,2.00e-02,2.00e+00,8.00e-01,
409,2.00e-02,2.00e+00,8.00e-01,
410,1.00e-01,0.00e+00,8.00e-01,
411,1.00e-01,0.00e+00,8.00e-01,
412,2.44e-01,2.00e+00,8.00e-01,
413,2.44e-01,2.00e+00,8.00e-01,
414,2.56e-01,0.00e+00,8.00e-01,
415,2.56e-01,0.00e+00,8.00e-01,
416,1.52e-01,2.00e+00,8.00e-01,
417,1.52e-01,2.00e+00,8.00e-01,
418,8.00e-02,2.00e+00,8.00e-01,
419,8.00e-02,2.00e+00,8.00e-01,
420,1.32e-01,0.00e+00,8.00e-01,
421,1.32e-01,0.00e+00,8.00e-01,
422,2.08e-01,0.00e+00,6.00e-01,
423,2.08e-01,0.00e+00,6.00e-01,
424,2.16e-01,4.00e+00,6.00e-01,
425,2.16e-01,4.00e+00,6.00e-01,
426,1.52e-01,2.00e+00,6.00e-01,
427,1.52e-01,2.00e+00,6.00e-01,
428,1.16e-01,2.00e+00,6.00e-01,
429,1.16e-01,2.00e+00,6.00e-01,
430,1.40e-01,0.00e+00,6.00e-01,
431,1.40e-01,0.00e+00,6.00e-01,
432,1.88e-01,2.00e+00,6.00e-01,
433,1.88e-01,2.00e+00,6.00e-01,
434,1.96e-01,4.00e+00,6.00e-01,
435,1.96e-01,4.00e+00,6.00e-01,
436,1.68e-01,2.00e+00,6.00e-01,
437,1.68e-01,2.00e+00,6.00e-01,
438,1.32e-01,2.00e+00,6.00e-01,
439,1.32e-01,2.00e+00,6.00e-01,
440,1.44e-01,2.00e+00,6.00e-01,
441,1.44e-01,2.00e+00,6.00e-01,
442,1.76e-01,2.00e+00,6.00e-01,
443,1.76e-01,2.00e+00,6.00e-01,
444,1.88e-01,2.00e+00,6.00e-01,
445,1.88e-01,2.00e+00,6.00e-01,
446,1.64e-01,0.00e+00,6.00e-01,
447,1.64e-01,0.00e+00,6.00e-01,
448,1.48e-01,2.00e+00,6.00e-01,
449,1.48e-01,2.00e+00,6.00e-01,
450,1.52e-01,4.00e+00,6.00e-01,
451,1.52e-01,4.00e+00,6.00e-01,
452,1.68e-01,2.00e+00,6.00e-01,
453,1.68e-01,2.00e+00,6.00e-01,
454,1.72e-01,2.00e+00,6.00e-01,
455,1.72e-01,2.00e+00,6.00e-01,
456,1.64e-01,2.00e+00,4.00e-01,
457,1.64e-01,2.00e+00,4.00e-01,
458,1.52e-01,2.00e+00,4.00e-01,
459,1.52e-01,2.00e+00,4.00e-01,
460,1.56e-01,0.00e+00,4.00e-01,
461,1.56e-01,0.00e+00,4.00e-01,
462,1.60e-01,2.00e+00,4.00e-01,
463,1.60e-01,2.00e+00,4.00e-01,
464,1.72e-01,2.00e+00,4.00e-01,
465,1.72e-01,2.00e+00,4.00e-01,
466,1.68e-01,0.00e+00,4.00e-01,
467,1.68e-01,0.00e+00,4.00e-01,
468,1.60e-01,2.00e+00,6.00e-01,
469,1.60e-01,2.00e+00,6.00e-01,
470,1.56e-01,4.00e+00,6.00e-01,
471,1.56e-01,4.00e+00,6.00e-01,
472,1.68e-01,2.00e+00,4.00e-01,
473,1.68e-01,2.00e+00,4.00e-01,
474,1.72e-01,2.00e+00,6.00e-01,
475,1.72e-01,2.00e+00,6.00e-01,
476,1.68e-01,2.00e+00,4.00e-01,
477,1.68e-01,2.00e+00,4.00e-01,
478,1.64e-01,0.00e+00,4.00e-01,
479,1.64e-01,0.00e+00,4.00e-01,
480,1.60e-01,4.00e+00,4.00e-01,
481,1.60e-01,4.00e+00,4.00e-01,
482,1.64e-01,2.00e+00,4.00e-01,
483,1.64e-01,2.00e+00,4.00e-01,
484,1.64e-01,0.00e+00,2.00e-01,
485,1.64e-01,0.00e+00,2.00e-01,
486,1.64e-01,2.00e+00,4.00e-01,
487,1.64e-01,2.00e+00,4.00e-01,
488,1.60e-01,2.00e+00,4.00e-01,
489,1.60e-01,2.00e+00,4.00e-01,
490,1.56e-01,0.00e+00,6.00e-01,
491,1.56e-01,0.00e+00,6.00e-01,
492,1.64e-01,2.00e+00,4.00e-01,
493,1.64e-01,2.00e+00,4.00e-01,
494,1.64e-01,0.00e+00,4.00e-01,
495,1.64e-01,0.00e+00,4.00e-01,
496,1.60e-01,2.00e+00,4.00e-01,
497,1.60e-01,2.00e+00,4.00e-01,
498,1.60e-01,0.00e+00,4.00e-01,
499,1.60e-01,0.00e+00,4.00e-01,
500,1.60e-01,0.00e+00,4.00e-01,
501,1.60e-01,0.00e+00,4.00e-01,
502,1.64e-01,2.00e+00,4.00e-01,
503,1.64e-01,2.00e+00,4.00e-01,
504,1.60e-01,2.00e+00,4.00e-01,
505,1.60e-01,2.00e+00,4.00e-01,
506,1.64e-01,2.00e+00,4.00e-01,
507,1.64e-01,2.00e+00,4.00e-01,
508,1.60e-01,2.00e+00,2.00e-01,
509,1.60e-01,2.00e+00,2.00e-01,
510,1.64e-01,2.00e+00,4.00e-01,
511,1.64e-01,2.00e+00,4.00e-01,
512,1.56e-01,2.00e+00,4.00e-01,
513,1.56e-01,2.00e+00,4.00e-01,
514,1.60e-01,2.00e+00,4.00e-01,
515,1.60e-01,2.00e+00,4.00e-01,
516,1.60e-01,2.00e+00,4.00e-01,
517,1.60e-01,2.00e+00,4.00e-01,
518,1.60e-01,2.00e+00,4.00e-01,
519,1.60e-01,2.00e+00,4.00e-01,
520,1.64e-01,0.00e+00,2.00e-01,
521,1.64e-01,0.00e+00,2.00e-01,
522,1.64e-01,2.00e+00,4.00e-01,
523,1.64e-01,2.00e+00,4.00e-01,
524,1.60e-01,0.00e+00,4.00e-01,
525,1.60e-01,0.00e+00,4.00e-01,
526,1.60e-01,0.00e+00,4.00e-01,
527,1.60e-01,0.00e+00,4.00e-01,
528,1.60e-01,0.00e+00,2.00e-01,
529,1.60e-01,0.00e+00,2.00e-01,
530,1.60e-01,0.00e+00,2.00e-01,
531,1.60e-01,0.00e+00,2.00e-01,
532,1.68e-01,0.00e+00,4.00e-01,
533,1.68e-01,0.00e+00,4.00e-01,
534,1.64e-01,0.00e+00,2.00e-01,
535,1.64e-01,0.00e+00,2.00e-01,
536,1.64e-01,0.00e+00,4.00e-01,
537,1.64e-01,0.00e+00,4.00e-01,
538,1.60e-01,2.00e+00,4.00e-01,
539,1.60e-01,2.00e+00,4.00e-01,
540,1.64e-01,0.00e+00,2.00e-01,
541,1.64e-01,0.00e+00,2.00e-01,
542,1.64e-01,2.00e+00,2.00e-01,
543,1.64e-01,2.00e+00,2.00e-01,
544,1.60e-01,0.00e+00,4.00e-01,
545,1.60e-01,0.00e+00,4.00e-01,
546,1.68e-01,0.00e+00,2.00e-01,
547,1.68e-01,0.00e+00,2.00e-01,
548,1.60e-01,0.00e+00,2.00e-01,
549,1.60e-01,0.00e+00,2.00e-01,
550,1.64e-01,0.00e+00,2.00e-01,
551,1.64e-01,0.00e+00,2.00e-01,
552,1.64e-01,0.00e+00,4.00e-01,
553,1.64e-01,0.00e+00,4.00e-01,
554,1.60e-01,2.00e+00,2.00e-01,
555,1.60e-01,2.00e+00,2.00e-01,
556,1.64e-01,0.00e+00,2.00e-01,
557,1.64e-01,0.00e+00,2.00e-01,
558,1.60e-01,2.00e+00,2.00e-01,
559,1.60e-01,2.00e+00,2.00e-01,
560,1.64e-01,0.00e+00,4.00e-01,
561,1.64e-01,0.00e+00,4.00e-01,
562,1.64e-01,0.00e+00,2.00e-01,
563,1.64e-01,0.00e+00,2.00e-01,
564,1.60e-01,0.00e+00,4.00e-01,
565,1.60e-01,0.00e+00,4.00e-01,
566,1.56e-01,0.00e+00,2.00e-01,
567,1.56e-01,0.00e+00,2.00e-01,
568,1.60e-01,2.00e+00,2.00e-01,
569,1.60e-01,2.00e+00,2.00e-01,
570,1.60e-01,0.00e+00,2.00e-01,
571,1.60e-01,0.00e+00,2.00e-01,
572,1.64e-01,0.00e+00,2.00e-01,
573,1.64e-01,0.00e+00,2.00e-01,
574,1.64e-01,0.00e+00,2.00e-01,
575,1.64e-01,0.00e+00,2.00e-01,
576,1.60e-01,0.00e+00,2.00e-01,
577,1.60e-01,0.00e+00,2.00e-01,
578,1.56e-01,2.00e+00,2.00e-01,
579,1.56e-01,2.00e+00,2.00e-01,
580,1.60e-01,4.00e+00,2.00e-01,
581,1.60e-01,4.00e+00,2.00e-01,
582,1.64e-01,2.00e+00,2.00e-01,
583,1.64e-01,2.00e+00,2.00e-01,
584,1.64e-01,0.00e+00,2.00e-01,
585,1.64e-01,0.00e+00,2.00e-01,
586,1.60e-01,2.00e+00,2.00e-01,
587,1.60e-01,2.00e+00,2.00e-01,
588,1.56e-01,4.00e+00,2.00e-01,
589,1.56e-01,4.00e+00,2.00e-01,
590,1.60e-01,0.00e+00,2.00e-01,
591,1.60e-01,0.00e+00,2.00e-01,
592,1.64e-01,0.00e+00,2.00e-01,
593,1.64e-01,0.00e+00,2.00e-01,
594,1.60e-01,0.00e+00,2.00e-01,
595,1.60e-01,0.00e+00,2.00e-01,
596,1.64e-01,2.00e+00,2.00e-01,
597,1.64e-01,2.00e+00,2.00e-01,
598,1.56e-01,2.00e+00,4.00e-01,
599,1.56e-01,2.00e+00,4.00e-01,
600,1.60e-01,0.00e+00,2.00e-01,
601,1.60e-01,0.00e+00,2.00e-01,
602,1.64e-01,2.00e+00,2.00e-01,
603,1.64e-01,2.00e+00,2.00e-01,
604,1.64e-01,0.00e+00,4.00e-01,
605,1.64e-01,0.00e+00,4.00e-01,
606,1.64e-01,0.00e+00,4.00e-01,
607,1.64e-01,0.00e+00,4.00e-01,
608,1.64e-01,0.00e+00,2.00e-01,
609,1.64e-01,0.00e+00,2.00e-01,
610,1.60e-01,0.00e+00,2.00e-01,
611,1.60e-01,0.00e+00,2.00e-01,
612,1.60e-01,0.00e+00,2.00e-01,
613,1.60e-01,0.00e+00,2.00e-01,
614,1.64e-01,0.00e+00,2.00e-01,
615,1.64e-01,0.00e+00,2.00e-01,
616,1.64e-01,0.00e+00,2.00e-01,
617,1.64e-01,0.00e+00,2.00e-01,
618,1.60e-01,0.00e+00,2.00e-01,
619,1.60e-01,0.00e+00,2.00e-01,
620,1.64e-01,0.00e+00,2.00e-01,
621,1.64e-01,0.00e+00,2.00e-01,
622,1.64e-01,2.00e+00,2.00e-01,
