NMRdata/cumulativemaybe/m_b/pm_1/pm_2_8.csv

X,CH1,CH3,CH4,Start,Increment,
Sequence,Volt,Volt,Volt,-4.060000e-03,1.000000e-05
0,1.40e-01,4.00e+00,0.00e+00,
1,1.40e-01,4.00e+00,0.00e+00,
2,1.36e-01,4.00e+00,0.00e+00,
3,1.36e-01,4.00e+00,0.00e+00,
4,1.36e-01,2.00e+00,0.00e+00,
5,1.36e-01,2.00e+00,0.00e+00,
6,1.36e-01,2.00e+00,0.00e+00,
7,1.36e-01,2.00e+00,0.00e+00,
8,1.40e-01,2.00e+00,0.00e+00,
9,1.40e-01,2.00e+00,0.00e+00,
10,1.36e-01,2.00e+00,0.00e+00,
11,1.36e-01,2.00e+00,0.00e+00,
12,1.40e-01,0.00e+00,0.00e+00,
13,1.40e-01,0.00e+00,0.00e+00,
14,1.40e-01,2.00e+00,0.00e+00,
15,1.40e-01,2.00e+00,0.00e+00,
16,1.40e-01,4.00e+00,2.00e-01,
17,1.40e-01,4.00e+00,2.00e-01,
18,1.40e-01,4.00e+00,0.00e+00,
19,1.40e-01,4.00e+00,0.00e+00,
20,1.40e-01,2.00e+00,-2.00e-01,
21,1.40e-01,2.00e+00,-2.00e-01,
22,1.36e-01,0.00e+00,2.00e-01,
23,1.36e-01,0.00e+00,2.00e-01,
24,1.40e-01,4.00e+00,0.00e+00,
25,1.40e-01,4.00e+00,0.00e+00,
26,1.36e-01,4.00e+00,2.00e-01,
27,1.36e-01,4.00e+00,2.00e-01,
28,1.40e-01,0.00e+00,0.00e+00,
29,1.40e-01,0.00e+00,0.00e+00,
30,1.36e-01,0.00e+00,0.00e+00,
31,1.36e-01,0.00e+00,0.00e+00,
32,1.44e-01,2.00e+00,0.00e+00,
33,1.44e-01,2.00e+00,0.00e+00,
34,1.36e-01,2.00e+00,-2.00e-01,
35,1.36e-01,2.00e+00,-2.00e-01,
36,1.40e-01,2.00e+00,0.00e+00,
37,1.40e-01,2.00e+00,0.00e+00,
38,1.44e-01,0.00e+00,0.00e+00,
39,1.44e-01,0.00e+00,0.00e+00,
40,1.40e-01,2.00e+00,0.00e+00,
41,1.40e-01,2.00e+00,0.00e+00,
42,1.40e-01,2.00e+00,0.00e+00,
43,1.40e-01,2.00e+00,0.00e+00,
44,1.36e-01,0.00e+00,0.00e+00,
45,1.36e-01,0.00e+00,0.00e+00,
46,1.40e-01,4.00e+00,0.00e+00,
47,1.40e-01,4.00e+00,0.00e+00,
48,1.40e-01,4.00e+00,0.00e+00,
49,1.40e-01,4.00e+00,0.00e+00,
50,1.36e-01,2.00e+00,-2.00e-01,
51,1.36e-01,2.00e+00,-2.00e-01,
52,1.40e-01,2.00e+00,0.00e+00,
53,1.40e-01,2.00e+00,0.00e+00,
54,1.40e-01,2.00e+00,-2.00e-01,
55,1.40e-01,2.00e+00,-2.00e-01,
56,1.36e-01,2.00e+00,0.00e+00,
57,1.36e-01,2.00e+00,0.00e+00,
58,1.40e-01,0.00e+00,2.00e-01,
59,1.40e-01,0.00e+00,2.00e-01,
60,1.32e-01,0.00e+00,-2.00e-01,
61,1.32e-01,0.00e+00,-2.00e-01,
62,1.40e-01,0.00e+00,0.00e+00,
63,1.40e-01,0.00e+00,0.00e+00,
64,1.40e-01,2.00e+00,2.00e-01,
65,1.40e-01,2.00e+00,2.00e-01,
66,1.36e-01,0.00e+00,0.00e+00,
67,1.36e-01,0.00e+00,0.00e+00,
68,1.36e-01,2.00e+00,-2.00e-01,
69,1.36e-01,2.00e+00,-2.00e-01,
70,1.36e-01,4.00e+00,0.00e+00,
71,1.36e-01,4.00e+00,0.00e+00,
72,1.36e-01,4.00e+00,0.00e+00,
73,1.36e-01,4.00e+00,0.00e+00,
74,1.40e-01,0.00e+00,0.00e+00,
75,1.40e-01,0.00e+00,0.00e+00,
76,1.36e-01,0.00e+00,0.00e+00,
77,1.36e-01,0.00e+00,0.00e+00,
78,1.40e-01,2.00e+00,0.00e+00,
79,1.40e-01,2.00e+00,0.00e+00,
80,1.40e-01,2.00e+00,-2.00e-01,
81,1.40e-01,2.00e+00,-2.00e-01,
82,1.36e-01,0.00e+00,2.00e-01,
83,1.36e-01,0.00e+00,2.00e-01,
84,1.40e-01,2.00e+00,0.00e+00,
85,1.40e-01,2.00e+00,0.00e+00,
86,1.36e-01,2.00e+00,0.00e+00,
87,1.36e-01,2.00e+00,0.00e+00,
88,1.36e-01,2.00e+00,0.00e+00,
89,1.36e-01,2.00e+00,0.00e+00,
90,1.40e-01,2.00e+00,0.00e+00,
91,1.40e-01,2.00e+00,0.00e+00,
92,1.40e-01,4.00e+00,-2.00e-01,
93,1.40e-01,4.00e+00,-2.00e-01,
94,1.40e-01,2.00e+00,-2.00e-01,
95,1.40e-01,2.00e+00,-2.00e-01,
96,1.44e-01,0.00e+00,0.00e+00,
97,1.44e-01,0.00e+00,0.00e+00,
98,1.44e-01,2.00e+00,0.00e+00,
99,1.44e-01,2.00e+00,0.00e+00,
100,1.36e-01,4.00e+00,-2.00e-01,
101,1.36e-01,4.00e+00,-2.00e-01,
102,1.44e-01,4.00e+00,0.00e+00,
103,1.44e-01,4.00e+00,0.00e+00,
104,1.40e-01,2.00e+00,0.00e+00,
105,1.40e-01,2.00e+00,0.00e+00,
106,1.44e-01,2.00e+00,0.00e+00,
107,1.44e-01,2.00e+00,0.00e+00,
108,1.36e-01,4.00e+00,-2.00e-01,
109,1.36e-01,4.00e+00,-2.00e-01,
110,1.36e-01,4.00e+00,0.00e+00,
111,1.36e-01,4.00e+00,0.00e+00,
112,1.36e-01,0.00e+00,-2.00e-01,
113,1.36e-01,0.00e+00,-2.00e-01,
114,1.44e-01,2.00e+00,-2.00e-01,
115,1.44e-01,2.00e+00,-2.00e-01,
116,1.40e-01,2.00e+00,0.00e+00,
117,1.40e-01,2.00e+00,0.00e+00,
118,1.40e-01,4.00e+00,2.00e-01,
119,1.40e-01,4.00e+00,2.00e-01,
120,1.36e-01,2.00e+00,0.00e+00,
121,1.36e-01,2.00e+00,0.00e+00,
122,1.48e-01,0.00e+00,0.00e+00,
123,1.48e-01,0.00e+00,0.00e+00,
124,1.44e-01,4.00e+00,0.00e+00,
125,1.44e-01,4.00e+00,0.00e+00,
126,1.40e-01,2.00e+00,-2.00e-01,
127,1.40e-01,2.00e+00,-2.00e-01,
128,1.40e-01,0.00e+00,0.00e+00,
129,1.40e-01,0.00e+00,0.00e+00,
130,1.40e-01,2.00e+00,-2.00e-01,
131,1.40e-01,2.00e+00,-2.00e-01,
132,1.36e-01,2.00e+00,2.00e-01,
133,1.36e-01,2.00e+00,2.00e-01,
134,1.40e-01,0.00e+00,0.00e+00,
135,1.40e-01,0.00e+00,0.00e+00,
136,1.36e-01,2.00e+00,-2.00e-01,
137,1.36e-01,2.00e+00,-2.00e-01,
138,1.40e-01,2.00e+00,2.00e-01,
139,1.40e-01,2.00e+00,2.00e-01,
140,1.36e-01,2.00e+00,-2.00e-01,
141,1.36e-01,2.00e+00,-2.00e-01,
142,1.44e-01,0.00e+00,0.00e+00,
143,1.44e-01,0.00e+00,0.00e+00,
144,1.36e-01,5.40e+01,0.00e+00,
145,1.36e-01,5.40e+01,0.00e+00,
146,1.40e-01,5.40e+01,0.00e+00,
147,1.40e-01,5.40e+01,0.00e+00,
148,1.36e-01,5.40e+01,0.00e+00,
149,1.36e-01,5.40e+01,0.00e+00,
150,1.44e-01,5.20e+01,-2.00e-01,
151,1.44e-01,5.20e+01,-2.00e-01,
152,1.44e-01,5.40e+01,0.00e+00,
153,1.44e-01,5.40e+01,0.00e+00,
154,1.44e-01,5.40e+01,-2.00e-01,
155,1.44e-01,5.40e+01,-2.00e-01,
156,1.44e-01,5.40e+01,6.40e+00,
157,1.44e-01,5.40e+01,6.40e+00,
158,-1.12e-01,5.20e+01,1.44e+01,
159,-1.12e-01,5.20e+01,1.44e+01,
160,-1.92e-01,5.40e+01,1.34e+01,
161,-1.92e-01,5.40e+01,1.34e+01,
162,-2.12e-01,5.20e+01,1.44e+01,
163,-2.12e-01,5.20e+01,1.44e+01,
164,-1.96e-01,5.00e+01,1.80e+00,
165,-1.96e-01,5.00e+01,1.80e+00,
166,-7.60e-02,5.20e+01,1.80e+00,
167,-7.60e-02,5.20e+01,1.80e+00,
168,-6.80e-02,5.00e+01,1.40e+00,
169,-6.80e-02,5.00e+01,1.40e+00,
170,-7.60e-02,5.20e+01,1.40e+00,
171,-7.60e-02,5.20e+01,1.40e+00,
172,-7.20e-02,5.00e+01,1.20e+00,
173,-7.20e-02,5.00e+01,1.20e+00,
174,-7.60e-02,5.40e+01,1.20e+00,
175,-7.60e-02,5.40e+01,1.20e+00,
176,-7.20e-02,5.20e+01,1.00e+00,
177,-7.20e-02,5.20e+01,1.00e+00,
178,-7.20e-02,5.20e+01,1.00e+00,
179,-7.20e-02,5.20e+01,1.00e+00,
180,3.24e-01,5.00e+01,8.00e-01,
181,3.24e-01,5.00e+01,8.00e-01,
182,4.72e-01,5.40e+01,1.00e+00,
183,4.72e-01,5.40e+01,1.00e+00,
184,1.60e-01,5.00e+01,1.00e+00,
185,1.60e-01,5.00e+01,1.00e+00,
186,-1.32e-01,5.00e+01,8.00e-01,
187,-1.32e-01,5.00e+01,8.00e-01,
188,-4.40e-02,5.00e+01,8.00e-01,
189,-4.40e-02,5.00e+01,8.00e-01,
190,2.52e-01,5.40e+01,1.00e+00,
191,2.52e-01,5.40e+01,1.00e+00,
192,3.44e-01,5.20e+01,8.00e-01,
193,3.44e-01,5.20e+01,8.00e-01,
194,1.56e-01,5.20e+01,1.00e+00,
195,1.56e-01,5.20e+01,1.00e+00,
196,-3.20e-02,5.00e+01,8.00e-01,
197,-3.20e-02,5.00e+01,8.00e-01,
198,2.40e-02,5.40e+01,8.00e-01,
199,2.40e-02,5.40e+01,8.00e-01,
200,2.20e-01,5.20e+01,8.00e-01,
201,2.20e-01,5.20e+01,8.00e-01,
202,2.80e-01,5.40e+01,8.00e-01,
203,2.80e-01,5.40e+01,8.00e-01,
204,1.44e-01,5.20e+01,8.00e-01,
205,1.44e-01,5.20e+01,8.00e-01,
206,1.20e-02,5.20e+01,6.00e-01,
207,1.20e-02,5.20e+01,6.00e-01,
208,6.00e-02,5.40e+01,4.00e-01,
209,6.00e-02,5.40e+01,4.00e-01,
210,1.88e-01,5.20e+01,6.00e-01,
211,1.88e-01,5.20e+01,6.00e-01,
212,2.48e-01,5.40e+01,4.00e-01,
213,2.48e-01,5.40e+01,4.00e-01,
214,1.52e-01,5.20e+01,6.00e-01,
215,1.52e-01,5.20e+01,6.00e-01,
216,5.20e-02,5.40e+01,6.00e-01,
217,5.20e-02,5.40e+01,6.00e-01,
218,7.20e-02,5.00e+01,6.00e-01,
219,7.20e-02,5.00e+01,6.00e-01,
220,1.60e-01,5.40e+01,4.00e-01,
221,1.60e-01,5.40e+01,4.00e-01,
222,2.08e-01,5.00e+01,4.00e-01,
223,2.08e-01,5.00e+01,4.00e-01,
224,1.52e-01,5.20e+01,4.00e-01,
225,1.52e-01,5.20e+01,4.00e-01,
226,8.80e-02,5.00e+01,4.00e-01,
227,8.80e-02,5.00e+01,4.00e-01,
228,9.60e-02,5.20e+01,6.00e-01,
229,9.60e-02,5.20e+01,6.00e-01,
230,1.52e-01,5.00e+01,6.00e-01,
231,1.52e-01,5.00e+01,6.00e-01,
232,1.84e-01,5.00e+01,6.00e-01,
233,1.84e-01,5.00e+01,6.00e-01,
234,1.48e-01,5.00e+01,6.00e-01,
235,1.48e-01,5.00e+01,6.00e-01,
236,1.04e-01,5.40e+01,6.00e-01,
237,1.04e-01,5.40e+01,6.00e-01,
238,1.04e-01,5.20e+01,6.00e-01,
239,1.04e-01,5.20e+01,6.00e-01,
240,1.40e-01,5.00e+01,4.00e-01,
241,1.40e-01,5.00e+01,4.00e-01,
242,1.68e-01,5.00e+01,6.00e-01,
243,1.68e-01,5.00e+01,6.00e-01,
244,1.44e-01,5.20e+01,6.00e-01,
245,1.44e-01,5.20e+01,6.00e-01,
246,1.20e-01,5.20e+01,6.00e-01,
247,1.20e-01,5.20e+01,6.00e-01,
248,1.20e-01,5.20e+01,4.00e-01,
249,1.20e-01,5.20e+01,4.00e-01,
250,1.40e-01,5.40e+01,4.00e-01,
251,1.40e-01,5.40e+01,4.00e-01,
252,1.56e-01,5.20e+01,4.00e-01,
253,1.56e-01,5.20e+01,4.00e-01,
254,1.44e-01,5.20e+01,6.00e-01,
255,1.44e-01,5.20e+01,6.00e-01,
256,1.28e-01,5.20e+01,4.00e-01,
257,1.28e-01,5.20e+01,4.00e-01,
258,1.28e-01,5.20e+01,6.00e-01,
259,1.28e-01,5.20e+01,6.00e-01,
260,1.32e-01,5.20e+01,6.00e-01,
261,1.32e-01,5.20e+01,6.00e-01,
262,1.44e-01,5.20e+01,6.00e-01,
263,1.44e-01,5.20e+01,6.00e-01,
264,1.44e-01,5.20e+01,4.00e-01,
265,1.44e-01,5.20e+01,4.00e-01,
266,1.36e-01,5.40e+01,2.00e-01,
267,1.36e-01,5.40e+01,2.00e-01,
268,1.36e-01,5.00e+01,6.00e-01,
269,1.36e-01,5.00e+01,6.00e-01,
270,1.36e-01,5.20e+01,6.00e-01,
271,1.36e-01,5.20e+01,6.00e-01,
272,1.36e-01,5.00e+01,4.00e-01,
273,1.36e-01,5.00e+01,4.00e-01,
274,1.36e-01,5.40e+01,6.00e-01,
275,1.36e-01,5.40e+01,6.00e-01,
276,1.36e-01,5.20e+01,4.00e-01,
277,1.36e-01,5.20e+01,4.00e-01,
278,1.32e-01,5.20e+01,4.00e-01,
279,1.32e-01,5.20e+01,4.00e-01,
280,1.40e-01,5.00e+01,2.00e-01,
281,1.40e-01,5.00e+01,2.00e-01,
282,1.40e-01,5.20e+01,4.00e-01,
283,1.40e-01,5.20e+01,4.00e-01,
284,1.36e-01,5.00e+01,2.00e-01,
285,1.36e-01,5.00e+01,2.00e-01,
286,1.36e-01,5.20e+01,4.00e-01,
287,1.36e-01,5.20e+01,4.00e-01,
288,1.40e-01,5.20e+01,6.00e-01,
289,1.40e-01,5.20e+01,6.00e-01,
290,1.40e-01,5.40e+01,4.00e-01,
291,1.40e-01,5.40e+01,4.00e-01,
292,1.36e-01,5.20e+01,4.00e-01,
293,1.36e-01,5.20e+01,4.00e-01,
294,1.40e-01,5.20e+01,4.00e-01,
295,1.40e-01,5.20e+01,4.00e-01,
296,1.40e-01,5.20e+01,4.00e-01,
297,1.40e-01,5.20e+01,4.00e-01,
298,1.44e-01,5.40e+01,4.00e-01,
299,1.44e-01,5.40e+01,4.00e-01,
300,1.40e-01,5.40e+01,4.00e-01,
301,1.40e-01,5.40e+01,4.00e-01,
302,1.32e-01,5.40e+01,4.00e-01,
303,1.32e-01,5.40e+01,4.00e-01,
304,1.36e-01,5.20e+01,2.00e-01,
305,1.36e-01,5.20e+01,2.00e-01,
306,1.40e-01,5.20e+01,2.00e-01,
307,1.40e-01,5.20e+01,2.00e-01,
308,1.40e-01,5.20e+01,2.00e-01,
309,1.40e-01,5.20e+01,2.00e-01,
310,1.36e-01,5.20e+01,2.00e-01,
311,1.36e-01,5.20e+01,2.00e-01,
312,1.36e-01,5.40e+01,2.00e-01,
313,1.36e-01,5.40e+01,2.00e-01,
314,1.32e-01,5.20e+01,2.00e-01,
315,1.32e-01,5.20e+01,2.00e-01,
316,1.40e-01,5.20e+01,2.00e-01,
317,1.40e-01,5.20e+01,2.00e-01,
318,1.36e-01,5.00e+01,2.00e-01,
319,1.36e-01,5.00e+01,2.00e-01,
320,1.40e-01,5.40e+01,4.00e-01,
321,1.40e-01,5.40e+01,4.00e-01,
322,1.36e-01,5.20e+01,4.00e-01,
323,1.36e-01,5.20e+01,4.00e-01,
324,1.40e-01,5.40e+01,2.00e-01,
325,1.40e-01,5.40e+01,2.00e-01,
326,1.44e-01,5.20e+01,4.00e-01,
327,1.44e-01,5.20e+01,4.00e-01,
328,1.44e-01,5.20e+01,2.00e-01,
329,1.44e-01,5.20e+01,2.00e-01,
330,1.36e-01,5.00e+01,4.00e-01,
331,1.36e-01,5.00e+01,4.00e-01,
332,1.40e-01,5.20e+01,4.00e-01,
333,1.40e-01,5.20e+01,4.00e-01,
334,1.36e-01,5.20e+01,4.00e-01,
335,1.36e-01,5.20e+01,4.00e-01,
336,1.40e-01,5.40e+01,2.00e-01,
337,1.40e-01,5.40e+01,2.00e-01,
338,1.36e-01,5.00e+01,2.00e-01,
339,1.36e-01,5.00e+01,2.00e-01,
340,1.32e-01,5.20e+01,4.00e-01,
341,1.32e-01,5.20e+01,4.00e-01,
342,1.36e-01,5.00e+01,2.00e-01,
343,1.36e-01,5.00e+01,2.00e-01,
344,1.36e-01,5.20e+01,4.00e-01,
345,1.36e-01,5.20e+01,4.00e-01,
346,1.40e-01,5.20e+01,4.00e-01,
347,1.40e-01,5.20e+01,4.00e-01,
348,1.40e-01,5.40e+01,2.00e-01,
349,1.40e-01,5.40e+01,2.00e-01,
350,1.36e-01,5.20e+01,2.00e-01,
351,1.36e-01,5.20e+01,2.00e-01,
352,1.40e-01,5.40e+01,2.00e-01,
353,1.40e-01,5.40e+01,2.00e-01,
354,1.36e-01,5.40e+01,2.00e-01,
355,1.36e-01,5.40e+01,2.00e-01,
356,1.44e-01,5.40e+01,2.00e-01,
357,1.44e-01,5.40e+01,2.00e-01,
358,1.40e-01,5.20e+01,2.00e-01,
359,1.40e-01,5.20e+01,2.00e-01,
360,1.44e-01,5.20e+01,2.00e-01,
361,1.44e-01,5.20e+01,2.00e-01,
362,1.40e-01,5.00e+01,7.00e+00,
363,1.40e-01,5.00e+01,7.00e+00,
364,-1.12e-01,5.40e+01,8.00e+00,
365,-1.12e-01,5.40e+01,8.00e+00,
366,-1.88e-01,5.20e+01,9.80e+00,
367,-1.88e-01,5.20e+01,9.80e+00,
368,-2.08e-01,5.40e+01,1.08e+01,
369,-2.08e-01,5.40e+01,1.08e+01,
370,-2.16e-01,5.20e+01,1.30e+01,
371,-2.16e-01,5.20e+01,1.30e+01,
372,-2.16e-01,5.20e+01,1.42e+01,
373,-2.16e-01,5.20e+01,1.42e+01,
374,-2.12e-01,5.20e+01,1.36e+01,
375,-2.12e-01,5.20e+01,1.36e+01,
376,-2.12e-01,5.40e+01,1.36e+01,
377,-2.12e-01,5.40e+01,1.36e+01,
378,-1.56e-01,5.40e+01,2.00e+00,
379,-1.56e-01,5.40e+01,2.00e+00,
380,-7.60e-02,5.20e+01,1.40e+00,
381,-7.60e-02,5.20e+01,1.40e+00,
382,-7.60e-02,5.40e+01,1.40e+00,
383,-7.60e-02,5.40e+01,1.40e+00,
384,-7.60e-02,5.00e+01,1.20e+00,
385,-7.60e-02,5.00e+01,1.20e+00,
386,-7.60e-02,5.20e+01,1.20e+00,
387,-7.60e-02,5.20e+01,1.20e+00,
388,-7.60e-02,5.00e+01,1.20e+00,
389,-7.60e-02,5.00e+01,1.20e+00,
390,-7.60e-02,5.40e+01,1.20e+00,
391,-7.60e-02,5.40e+01,1.20e+00,
392,-7.60e-02,5.00e+01,1.00e+00,
393,-7.60e-02,5.00e+01,1.00e+00,
394,-7.60e-02,5.20e+01,8.00e-01,
395,-7.60e-02,5.20e+01,8.00e-01,
396,-7.20e-02,5.00e+01,8.00e-01,
397,-7.20e-02,5.00e+01,8.00e-01,
398,-9.60e-02,5.40e+01,8.00e-01,
399,-9.60e-02,5.40e+01,8.00e-01,
400,6.40e-02,5.20e+01,8.00e-01,
401,6.40e-02,5.20e+01,8.00e-01,
402,3.52e-01,5.20e+01,8.00e-01,
403,3.52e-01,5.20e+01,8.00e-01,
404,3.36e-01,2.00e+00,8.00e-01,
405,3.36e-01,2.00e+00,8.00e-01,
406,8.80e-02,0.00e+00,8.00e-01,
407,8.80e-02,0.00e+00,8.00e-01,
408,-5.20e-02,4.00e+00,8.00e-01,
409,-5.20e-02,4.00e+00,8.00e-01,
410,8.00e-02,2.00e+00,1.00e+00,
411,8.00e-02,2.00e+00,1.00e+00,
412,2.64e-01,2.00e+00,8.00e-01,
413,2.64e-01,2.00e+00,8.00e-01,
414,2.52e-01,2.00e+00,1.00e+00,
415,2.52e-01,2.00e+00,1.00e+00,
416,9.60e-02,4.00e+00,8.00e-01,
417,9.60e-02,4.00e+00,8.00e-01,
418,2.00e-02,4.00e+00,8.00e-01,
419,2.00e-02,4.00e+00,8.00e-01,
420,1.12e-01,2.00e+00,6.00e-01,
421,1.12e-01,2.00e+00,6.00e-01,
422,2.20e-01,2.00e+00,6.00e-01,
423,2.20e-01,2.00e+00,6.00e-01,
424,2.12e-01,2.00e+00,6.00e-01,
425,2.12e-01,2.00e+00,6.00e-01,
426,1.08e-01,4.00e+00,6.00e-01,
427,1.08e-01,4.00e+00,6.00e-01,
428,6.00e-02,0.00e+00,6.00e-01,
429,6.00e-02,0.00e+00,6.00e-01,
430,1.16e-01,0.00e+00,6.00e-01,
431,1.16e-01,0.00e+00,6.00e-01,
432,1.92e-01,4.00e+00,6.00e-01,
433,1.92e-01,4.00e+00,6.00e-01,
434,1.92e-01,2.00e+00,4.00e-01,
435,1.92e-01,2.00e+00,4.00e-01,
436,1.32e-01,2.00e+00,6.00e-01,
437,1.32e-01,2.00e+00,6.00e-01,
438,9.20e-02,2.00e+00,6.00e-01,
439,9.20e-02,2.00e+00,6.00e-01,
440,1.16e-01,2.00e+00,6.00e-01,
441,1.16e-01,2.00e+00,6.00e-01,
442,1.68e-01,2.00e+00,6.00e-01,
443,1.68e-01,2.00e+00,6.00e-01,
444,1.72e-01,0.00e+00,6.00e-01,
445,1.72e-01,0.00e+00,6.00e-01,
446,1.36e-01,0.00e+00,4.00e-01,
447,1.36e-01,0.00e+00,4.00e-01,
448,1.08e-01,0.00e+00,4.00e-01,
449,1.08e-01,0.00e+00,4.00e-01,
450,1.24e-01,4.00e+00,4.00e-01,
451,1.24e-01,4.00e+00,4.00e-01,
452,1.52e-01,2.00e+00,4.00e-01,
453,1.52e-01,2.00e+00,4.00e-01,
454,1.64e-01,4.00e+00,6.00e-01,
455,1.64e-01,4.00e+00,6.00e-01,
456,1.40e-01,2.00e+00,6.00e-01,
457,1.40e-01,2.00e+00,6.00e-01,
458,1.20e-01,0.00e+00,4.00e-01,
459,1.20e-01,0.00e+00,4.00e-01,
460,1.24e-01,0.00e+00,6.00e-01,
461,1.24e-01,0.00e+00,6.00e-01,
462,1.48e-01,2.00e+00,6.00e-01,
463,1.48e-01,2.00e+00,6.00e-01,
464,1.56e-01,4.00e+00,6.00e-01,
465,1.56e-01,4.00e+00,6.00e-01,
466,1.44e-01,2.00e+00,4.00e-01,
467,1.44e-01,2.00e+00,4.00e-01,
468,1.28e-01,0.00e+00,4.00e-01,
469,1.28e-01,0.00e+00,4.00e-01,
470,1.32e-01,2.00e+00,4.00e-01,
471,1.32e-01,2.00e+00,4.00e-01,
472,1.48e-01,2.00e+00,4.00e-01,
473,1.48e-01,2.00e+00,4.00e-01,
474,1.48e-01,0.00e+00,4.00e-01,
475,1.48e-01,0.00e+00,4.00e-01,
476,1.44e-01,2.00e+00,6.00e-01,
477,1.44e-01,2.00e+00,6.00e-01,
478,1.32e-01,2.00e+00,6.00e-01,
479,1.32e-01,2.00e+00,6.00e-01,
480,1.36e-01,4.00e+00,4.00e-01,
481,1.36e-01,4.00e+00,4.00e-01,
482,1.44e-01,0.00e+00,6.00e-01,
483,1.44e-01,0.00e+00,6.00e-01,
484,1.40e-01,2.00e+00,4.00e-01,
485,1.40e-01,2.00e+00,4.00e-01,
486,1.36e-01,2.00e+00,4.00e-01,
487,1.36e-01,2.00e+00,4.00e-01,
488,1.32e-01,2.00e+00,4.00e-01,
489,1.32e-01,2.00e+00,4.00e-01,
490,1.36e-01,0.00e+00,6.00e-01,
491,1.36e-01,0.00e+00,6.00e-01,
492,1.44e-01,0.00e+00,2.00e-01,
493,1.44e-01,0.00e+00,2.00e-01,
494,1.40e-01,2.00e+00,6.00e-01,
495,1.40e-01,2.00e+00,6.00e-01,
496,1.32e-01,4.00e+00,6.00e-01,
497,1.32e-01,4.00e+00,6.00e-01,
498,1.40e-01,0.00e+00,6.00e-01,
499,1.40e-01,0.00e+00,6.00e-01,
500,1.44e-01,2.00e+00,4.00e-01,
501,1.44e-01,2.00e+00,4.00e-01,
502,1.40e-01,0.00e+00,6.00e-01,
503,1.40e-01,0.00e+00,6.00e-01,
504,1.44e-01,0.00e+00,6.00e-01,
505,1.44e-01,0.00e+00,6.00e-01,
506,1.36e-01,0.00e+00,6.00e-01,
507,1.36e-01,0.00e+00,6.00e-01,
508,1.40e-01,2.00e+00,4.00e-01,
509,1.40e-01,2.00e+00,4.00e-01,
510,1.40e-01,2.00e+00,4.00e-01,
511,1.40e-01,2.00e+00,4.00e-01,
512,1.36e-01,0.00e+00,2.00e-01,
513,1.36e-01,0.00e+00,2.00e-01,
514,1.36e-01,0.00e+00,2.00e-01,
515,1.36e-01,0.00e+00,2.00e-01,
516,1.32e-01,2.00e+00,2.00e-01,
517,1.32e-01,2.00e+00,2.00e-01,
518,1.40e-01,2.00e+00,2.00e-01,
519,1.40e-01,2.00e+00,2.00e-01,
520,1.48e-01,2.00e+00,2.00e-01,
521,1.48e-01,2.00e+00,2.00e-01,
522,1.36e-01,2.00e+00,4.00e-01,
523,1.36e-01,2.00e+00,4.00e-01,
524,1.40e-01,2.00e+00,4.00e-01,
525,1.40e-01,2.00e+00,4.00e-01,
526,1.36e-01,2.00e+00,2.00e-01,
527,1.36e-01,2.00e+00,2.00e-01,
528,1.44e-01,2.00e+00,2.00e-01,
529,1.44e-01,2.00e+00,2.00e-01,
530,1.44e-01,2.00e+00,2.00e-01,
531,1.44e-01,2.00e+00,2.00e-01,
532,1.36e-01,2.00e+00,2.00e-01,
533,1.36e-01,2.00e+00,2.00e-01,
534,1.36e-01,2.00e+00,4.00e-01,
535,1.36e-01,2.00e+00,4.00e-01,
536,1.36e-01,0.00e+00,4.00e-01,
537,1.36e-01,0.00e+00,4.00e-01,
538,1.36e-01,0.00e+00,2.00e-01,
539,1.36e-01,0.00e+00,2.00e-01,
540,1.40e-01,0.00e+00,4.00e-01,
541,1.40e-01,0.00e+00,4.00e-01,
542,1.36e-01,0.00e+00,6.00e-01,
543,1.36e-01,0.00e+00,6.00e-01,
544,1.36e-01,2.00e+00,4.00e-01,
545,1.36e-01,2.00e+00,4.00e-01,
546,1.44e-01,0.00e+00,4.00e-01,
547,1.44e-01,0.00e+00,4.00e-01,
548,1.40e-01,0.00e+00,4.00e-01,
549,1.40e-01,0.00e+00,4.00e-01,
550,1.40e-01,0.00e+00,4.00e-01,
551,1.40e-01,0.00e+00,4.00e-01,
552,1.40e-01,0.00e+00,4.00e-01,
553,1.40e-01,0.00e+00,4.00e-01,
554,1.36e-01,0.00e+00,2.00e-01,
555,1.36e-01,0.00e+00,2.00e-01,
556,1.40e-01,0.00e+00,2.00e-01,
557,1.40e-01,0.00e+00,2.00e-01,
558,1.44e-01,0.00e+00,2.00e-01,
559,1.44e-01,0.00e+00,2.00e-01,
560,1.40e-01,2.00e+00,2.00e-01,
561,1.40e-01,2.00e+00,2.00e-01,
562,1.40e-01,2.00e+00,2.00e-01,
563,1.40e-01,2.00e+00,2.00e-01,
564,1.36e-01,2.00e+00,2.00e-01,
565,1.36e-01,2.00e+00,2.00e-01,
566,1.36e-01,0.00e+00,2.00e-01,
567,1.36e-01,0.00e+00,2.00e-01,
568,1.40e-01,0.00e+00,2.00e-01,
569,1.40e-01,0.00e+00,2.00e-01,
570,1.40e-01,0.00e+00,2.00e-01,
571,1.40e-01,0.00e+00,2.00e-01,
572,1.40e-01,4.00e+00,2.00e-01,
573,1.40e-01,4.00e+00,2.00e-01,
574,1.40e-01,2.00e+00,2.00e-01,
575,1.40e-01,2.00e+00,2.00e-01,
576,1.40e-01,0.00e+00,2.00e-01,
577,1.40e-01,0.00e+00,2.00e-01,
578,1.44e-01,4.00e+00,2.00e-01,
579,1.44e-01,4.00e+00,2.00e-01,
580,1.44e-01,2.00e+00,2.00e-01,
581,1.44e-01,2.00e+00,2.00e-01,
582,1.40e-01,0.00e+00,2.00e-01,
583,1.40e-01,0.00e+00,2.00e-01,
584,1.40e-01,2.00e+00,4.00e-01,
585,1.40e-01,2.00e+00,4.00e-01,
586,1.40e-01,2.00e+00,4.00e-01,
587,1.40e-01,2.00e+00,4.00e-01,
588,1.40e-01,2.00e+00,2.00e-01,
589,1.40e-01,2.00e+00,2.00e-01,
590,1.40e-01,2.00e+00,4.00e-01,
591,1.40e-01,2.00e+00,4.00e-01,
592,1.40e-01,0.00e+00,4.00e-01,
593,1.40e-01,0.00e+00,4.00e-01,
594,1.44e-01,2.00e+00,2.00e-01,
595,1.44e-01,2.00e+00,2.00e-01,
596,1.40e-01,0.00e+00,2.00e-01,
597,1.40e-01,0.00e+00,2.00e-01,
598,1.40e-01,0.00e+00,2.00e-01,
599,1.40e-01,0.00e+00,2.00e-01,
600,1.40e-01,0.00e+00,2.00e-01,
601,1.40e-01,0.00e+00,2.00e-01,
602,1.40e-01,0.00e+00,2.00e-01,
603,1.40e-01,0.00e+00,2.00e-01,
604,1.44e-01,0.00e+00,2.00e-01,
605,1.44e-01,0.00e+00,2.00e-01,
606,1.40e-01,2.00e+00,2.00e-01,
607,1.40e-01,2.00e+00,2.00e-01,
608,1.40e-01,2.00e+00,2.00e-01,
609,1.40e-01,2.00e+00,2.00e-01,
610,1.44e-01,2.00e+00,2.00e-01,
611,1.44e-01,2.00e+00,2.00e-01,
612,1.40e-01,0.00e+00,2.00e-01,
613,1.40e-01,0.00e+00,2.00e-01,
614,1.36e-01,0.00e+00,2.00e-01,
615,1.36e-01,0.00e+00,2.00e-01,
616,1.40e-01,2.00e+00,2.00e-01,
617,1.40e-01,2.00e+00,2.00e-01,
618,1.36e-01,0.00e+00,2.00e-01,
619,1.36e-01,0.00e+00,2.00e-01,
620,1.40e-01,2.00e+00,2.00e-01,
621,1.40e-01,2.00e+00,2.00e-01,
